<?xml version="1.0" encoding="UTF-8" standalone="no"?>
<!-- Created with Inkscape (http://www.inkscape.org/) -->

<svg
   xmlns:dc="http://purl.org/dc/elements/1.1/"
   xmlns:cc="http://creativecommons.org/ns#"
   xmlns:rdf="http://www.w3.org/1999/02/22-rdf-syntax-ns#"
   xmlns:svg="http://www.w3.org/2000/svg"
   xmlns="http://www.w3.org/2000/svg"
   xmlns:sodipodi="http://sodipodi.sourceforge.net/DTD/sodipodi-0.dtd"
   xmlns:inkscape="http://www.inkscape.org/namespaces/inkscape"
   width="140.18648mm"
   height="81.445045mm"
   viewBox="0 0 140.18647 81.445045"
   version="1.1"
   id="svg8"
   inkscape:version="0.92.3 (2405546, 2018-03-11)"
   sodipodi:docname="bool12.svg">
  <defs
     id="defs2">
    <marker
       inkscape:stockid="Arrow1Mend"
       orient="auto"
       refY="0"
       refX="0"
       id="Arrow1Mend"
       style="overflow:visible"
       inkscape:isstock="true">
      <path
         id="path847"
         d="M 0,0 5,-5 -12.5,0 5,5 Z"
         style="fill:#000000;fill-opacity:1;fill-rule:evenodd;stroke:#000000;stroke-width:1.00000003pt;stroke-opacity:1"
         transform="matrix(-0.4,0,0,-0.4,-4,0)"
         inkscape:connector-curvature="0" />
    </marker>
    <marker
       inkscape:isstock="true"
       style="overflow:visible"
       id="marker2946"
       refX="0"
       refY="0"
       orient="auto"
       inkscape:stockid="DotM">
      <path
         transform="matrix(0.4,0,0,0.4,2.96,0.4)"
         style="fill:#000000;fill-opacity:1;fill-rule:evenodd;stroke:#000000;stroke-width:1.00000003pt;stroke-opacity:1"
         d="m -2.5,-1 c 0,2.76 -2.24,5 -5,5 -2.76,0 -5,-2.24 -5,-5 0,-2.76 2.24,-5 5,-5 2.76,0 5,2.24 5,5 z"
         id="path2944"
         inkscape:connector-curvature="0" />
    </marker>
    <marker
       inkscape:isstock="true"
       style="overflow:visible"
       id="marker2888"
       refX="0"
       refY="0"
       orient="auto"
       inkscape:stockid="DotM">
      <path
         transform="matrix(0.4,0,0,0.4,2.96,0.4)"
         style="fill:#000000;fill-opacity:1;fill-rule:evenodd;stroke:#000000;stroke-width:1.00000003pt;stroke-opacity:1"
         d="m -2.5,-1 c 0,2.76 -2.24,5 -5,5 -2.76,0 -5,-2.24 -5,-5 0,-2.76 2.24,-5 5,-5 2.76,0 5,2.24 5,5 z"
         id="path2886"
         inkscape:connector-curvature="0" />
    </marker>
    <marker
       inkscape:stockid="DotS"
       orient="auto"
       refY="0"
       refX="0"
       id="DotS"
       style="overflow:visible"
       inkscape:isstock="true">
      <path
         id="path905"
         d="m -2.5,-1 c 0,2.76 -2.24,5 -5,5 -2.76,0 -5,-2.24 -5,-5 0,-2.76 2.24,-5 5,-5 2.76,0 5,2.24 5,5 z"
         style="fill:#000000;fill-opacity:1;fill-rule:evenodd;stroke:#000000;stroke-width:1.00000003pt;stroke-opacity:1"
         transform="matrix(0.2,0,0,0.2,1.48,0.2)"
         inkscape:connector-curvature="0" />
    </marker>
    <marker
       inkscape:isstock="true"
       style="overflow:visible"
       id="marker1162-3"
       refX="0"
       refY="0"
       orient="auto"
       inkscape:stockid="DotM">
      <path
         inkscape:connector-curvature="0"
         transform="matrix(0.4,0,0,0.4,2.96,0.4)"
         style="fill:#000000;fill-opacity:1;fill-rule:evenodd;stroke:#000000;stroke-width:1.00000003pt;stroke-opacity:1"
         d="m -2.5,-1 c 0,2.76 -2.24,5 -5,5 -2.76,0 -5,-2.24 -5,-5 0,-2.76 2.24,-5 5,-5 2.76,0 5,2.24 5,5 z"
         id="path1160-6" />
    </marker>
    <marker
       inkscape:isstock="true"
       style="overflow:visible"
       id="marker1162-3-6"
       refX="0"
       refY="0"
       orient="auto"
       inkscape:stockid="DotM">
      <path
         inkscape:connector-curvature="0"
         transform="matrix(0.4,0,0,0.4,2.96,0.4)"
         style="fill:#000000;fill-opacity:1;fill-rule:evenodd;stroke:#000000;stroke-width:1.00000003pt;stroke-opacity:1"
         d="m -2.5,-1 c 0,2.76 -2.24,5 -5,5 -2.76,0 -5,-2.24 -5,-5 0,-2.76 2.24,-5 5,-5 2.76,0 5,2.24 5,5 z"
         id="path1160-6-2" />
    </marker>
    <marker
       inkscape:isstock="true"
       style="overflow:visible"
       id="marker1162-3-0"
       refX="0"
       refY="0"
       orient="auto"
       inkscape:stockid="DotM">
      <path
         inkscape:connector-curvature="0"
         transform="matrix(0.4,0,0,0.4,2.96,0.4)"
         style="fill:#000000;fill-opacity:1;fill-rule:evenodd;stroke:#000000;stroke-width:1.00000003pt;stroke-opacity:1"
         d="m -2.5,-1 c 0,2.76 -2.24,5 -5,5 -2.76,0 -5,-2.24 -5,-5 0,-2.76 2.24,-5 5,-5 2.76,0 5,2.24 5,5 z"
         id="path1160-6-9" />
    </marker>
    <marker
       inkscape:isstock="true"
       style="overflow:visible"
       id="marker1162-3-6-5"
       refX="0"
       refY="0"
       orient="auto"
       inkscape:stockid="DotM">
      <path
         inkscape:connector-curvature="0"
         transform="matrix(0.4,0,0,0.4,2.96,0.4)"
         style="fill:#000000;fill-opacity:1;fill-rule:evenodd;stroke:#000000;stroke-width:1.00000003pt;stroke-opacity:1"
         d="m -2.5,-1 c 0,2.76 -2.24,5 -5,5 -2.76,0 -5,-2.24 -5,-5 0,-2.76 2.24,-5 5,-5 2.76,0 5,2.24 5,5 z"
         id="path1160-6-2-9" />
    </marker>
    <marker
       inkscape:isstock="true"
       style="overflow:visible"
       id="marker2946-9"
       refX="0"
       refY="0"
       orient="auto"
       inkscape:stockid="DotM">
      <path
         transform="matrix(0.4,0,0,0.4,2.96,0.4)"
         style="fill:#000000;fill-opacity:1;fill-rule:evenodd;stroke:#000000;stroke-width:1.00000003pt;stroke-opacity:1"
         d="m -2.5,-1 c 0,2.76 -2.24,5 -5,5 -2.76,0 -5,-2.24 -5,-5 0,-2.76 2.24,-5 5,-5 2.76,0 5,2.24 5,5 z"
         id="path2944-7"
         inkscape:connector-curvature="0" />
    </marker>
    <marker
       inkscape:isstock="true"
       style="overflow:visible"
       id="marker2888-2"
       refX="0"
       refY="0"
       orient="auto"
       inkscape:stockid="DotM">
      <path
         transform="matrix(0.4,0,0,0.4,2.96,0.4)"
         style="fill:#000000;fill-opacity:1;fill-rule:evenodd;stroke:#000000;stroke-width:1.00000003pt;stroke-opacity:1"
         d="m -2.5,-1 c 0,2.76 -2.24,5 -5,5 -2.76,0 -5,-2.24 -5,-5 0,-2.76 2.24,-5 5,-5 2.76,0 5,2.24 5,5 z"
         id="path2886-9"
         inkscape:connector-curvature="0" />
    </marker>
    <marker
       inkscape:isstock="true"
       style="overflow:visible"
       id="marker2888-1"
       refX="0"
       refY="0"
       orient="auto"
       inkscape:stockid="DotM">
      <path
         transform="matrix(0.4,0,0,0.4,2.96,0.4)"
         style="fill:#000000;fill-opacity:1;fill-rule:evenodd;stroke:#000000;stroke-width:1.00000003pt;stroke-opacity:1"
         d="m -2.5,-1 c 0,2.76 -2.24,5 -5,5 -2.76,0 -5,-2.24 -5,-5 0,-2.76 2.24,-5 5,-5 2.76,0 5,2.24 5,5 z"
         id="path2886-94"
         inkscape:connector-curvature="0" />
    </marker>
    <marker
       inkscape:isstock="true"
       style="overflow:visible"
       id="marker2888-1-3"
       refX="0"
       refY="0"
       orient="auto"
       inkscape:stockid="DotM">
      <path
         transform="matrix(0.4,0,0,0.4,2.96,0.4)"
         style="fill:#000000;fill-opacity:1;fill-rule:evenodd;stroke:#000000;stroke-width:1.00000003pt;stroke-opacity:1"
         d="m -2.5,-1 c 0,2.76 -2.24,5 -5,5 -2.76,0 -5,-2.24 -5,-5 0,-2.76 2.24,-5 5,-5 2.76,0 5,2.24 5,5 z"
         id="path2886-94-6"
         inkscape:connector-curvature="0" />
    </marker>
    <marker
       inkscape:isstock="true"
       style="overflow:visible"
       id="marker1162-3-6-5-0"
       refX="0"
       refY="0"
       orient="auto"
       inkscape:stockid="DotM">
      <path
         inkscape:connector-curvature="0"
         transform="matrix(0.4,0,0,0.4,2.96,0.4)"
         style="fill:#000000;fill-opacity:1;fill-rule:evenodd;stroke:#000000;stroke-width:1.00000003pt;stroke-opacity:1"
         d="m -2.5,-1 c 0,2.76 -2.24,5 -5,5 -2.76,0 -5,-2.24 -5,-5 0,-2.76 2.24,-5 5,-5 2.76,0 5,2.24 5,5 z"
         id="path1160-6-2-9-6" />
    </marker>
  </defs>
  <sodipodi:namedview
     id="base"
     pagecolor="#ffffff"
     bordercolor="#666666"
     borderopacity="1.0"
     inkscape:pageopacity="0.0"
     inkscape:pageshadow="2"
     inkscape:zoom="1.7334547"
     inkscape:cx="220.69297"
     inkscape:cy="134.43412"
     inkscape:document-units="mm"
     inkscape:current-layer="layer1"
     showgrid="false"
     inkscape:window-width="1920"
     inkscape:window-height="1012"
     inkscape:window-x="0"
     inkscape:window-y="40"
     inkscape:window-maximized="1"
     fit-margin-top="0"
     fit-margin-left="0"
     fit-margin-right="0"
     fit-margin-bottom="0" />
  <metadata
     id="metadata5">
    <rdf:RDF>
      <cc:Work
         rdf:about="">
        <dc:format>image/svg+xml</dc:format>
        <dc:type
           rdf:resource="http://purl.org/dc/dcmitype/StillImage" />
        <dc:title></dc:title>
      </cc:Work>
    </rdf:RDF>
  </metadata>
  <g
     inkscape:label="Layer 1"
     inkscape:groupmode="layer"
     id="layer1"
     transform="translate(-58.77474,0.41170296)">
    <g
       id="g1338">
      <rect
         y="-0.13010392"
         x="59.056339"
         height="80.858345"
         width="139.56201"
         id="rect1040"
         style="opacity:1;fill:#ffffff;fill-opacity:1;stroke:#ffffff;stroke-width:0.56319809;stroke-linecap:round;stroke-linejoin:bevel;stroke-miterlimit:4;stroke-dasharray:none;stroke-dashoffset:0;stroke-opacity:1" />
      <text
         id="text3066-2-6"
         y="6.6741247"
         x="76.70726"
         style="font-style:normal;font-variant:normal;font-weight:normal;font-stretch:normal;font-size:7.05555534px;line-height:1.25;font-family:'Noto Serif CJK TC';-inkscape-font-specification:'Noto Serif CJK TC';text-align:center;letter-spacing:0px;word-spacing:0px;text-anchor:middle;fill:#000000;fill-opacity:1;stroke:none;stroke-width:0.26458332"
         xml:space="preserve"><tspan
           style="fill:#000000;fill-opacity:1;stroke-width:0.26458332"
           y="6.6741247"
           x="76.70726"
           id="tspan3064-8-1"
           sodipodi:role="line">y</tspan></text>
      <text
         id="text3066-2-5"
         y="6.631793"
         x="88.051704"
         style="font-style:normal;font-variant:normal;font-weight:normal;font-stretch:normal;font-size:7.05555534px;line-height:1.25;font-family:'Noto Serif CJK TC';-inkscape-font-specification:'Noto Serif CJK TC';text-align:center;letter-spacing:0px;word-spacing:0px;text-anchor:middle;fill:#000000;fill-opacity:1;stroke:none;stroke-width:0.26458332"
         xml:space="preserve"><tspan
           style="fill:#000000;fill-opacity:1;stroke-width:0.26458332"
           y="6.631793"
           x="88.051704"
           id="tspan3064-8-5"
           sodipodi:role="line">z</tspan></text>
      <path
         inkscape:connector-curvature="0"
         id="path21130"
         d="M 59.018745,9.062956 H 198.96122"
         style="fill:none;stroke:#000000;stroke-width:0.53500003;stroke-linecap:butt;stroke-linejoin:miter;stroke-miterlimit:4;stroke-dasharray:none;stroke-opacity:1" />
      <path
         inkscape:connector-curvature="0"
         id="path21130-0"
         d="M 97.144306,-0.10805802 V 80.688271"
         style="fill:none;stroke:#000000;stroke-width:0.53500003;stroke-linecap:butt;stroke-linejoin:miter;stroke-miterlimit:4;stroke-dasharray:1.60500003, 1.60500003;stroke-dashoffset:0;stroke-opacity:1" />
      <text
         id="text1319"
         y="6.328032"
         x="111.19432"
         style="font-style:normal;font-variant:normal;font-weight:normal;font-stretch:normal;font-size:6.3499999px;line-height:1.25;font-family:Caladea;-inkscape-font-specification:Caladea;text-align:center;letter-spacing:0px;word-spacing:0px;text-anchor:middle;fill:#000000;fill-opacity:1;stroke:none;stroke-width:0.26458332"
         xml:space="preserve"><tspan
           style="stroke-width:0.26458332"
           y="6.328032"
           x="111.19432"
           id="tspan1317"
           sodipodi:role="line">F<tspan
   id="tspan1179"
   style="font-size:64.99999762%;baseline-shift:sub">6</tspan></tspan></text>
      <text
         id="text3066-2-5-3"
         y="6.5424418"
         x="64.73349"
         style="font-style:normal;font-variant:normal;font-weight:normal;font-stretch:normal;font-size:7.05555534px;line-height:1.25;font-family:'Noto Serif CJK TC';-inkscape-font-specification:'Noto Serif CJK TC';text-align:center;letter-spacing:0px;word-spacing:0px;text-anchor:middle;fill:#000000;fill-opacity:1;stroke:none;stroke-width:0.26458332"
         xml:space="preserve"><tspan
           style="fill:#000000;fill-opacity:1;stroke-width:0.26458332"
           y="6.5424418"
           x="64.73349"
           id="tspan3064-8-5-6"
           sodipodi:role="line">x</tspan></text>
      <path
         inkscape:connector-curvature="0"
         id="path21130-2"
         d="M 59.018742,45.049213 H 198.96122"
         style="fill:none;stroke:#000000;stroke-width:0.53500003;stroke-linecap:butt;stroke-linejoin:miter;stroke-miterlimit:4;stroke-dasharray:none;stroke-opacity:1" />
      <text
         id="text21245"
         y="16.32531"
         x="76.382721"
         style="font-style:normal;font-variant:normal;font-weight:normal;font-stretch:normal;font-size:7.05555534px;line-height:1.25;font-family:'Noto Serif CJK TC';-inkscape-font-specification:'Noto Serif CJK TC';text-align:center;letter-spacing:0px;word-spacing:0px;text-anchor:middle;fill:#000000;fill-opacity:1;stroke:none;stroke-width:0.26458332"
         xml:space="preserve"><tspan
           style="stroke-width:0.26458332"
           y="16.32531"
           x="76.382721"
           id="tspan21243"
           sodipodi:role="line">0</tspan></text>
      <text
         id="text21249"
         y="16.32531"
         x="88.031685"
         style="font-style:normal;font-variant:normal;font-weight:normal;font-stretch:normal;font-size:7.05555534px;line-height:1.25;font-family:'Noto Serif CJK TC';-inkscape-font-specification:'Noto Serif CJK TC';text-align:center;letter-spacing:0px;word-spacing:0px;text-anchor:middle;fill:#000000;fill-opacity:1;stroke:none;stroke-width:0.26458332"
         xml:space="preserve"><tspan
           style="stroke-width:0.26458332"
           y="16.32531"
           x="88.031685"
           id="tspan21247"
           sodipodi:role="line">0</tspan></text>
      <path
         inkscape:connector-curvature="0"
         id="path21130-7"
         d="M 59.018742,18.059521 H 198.96122"
         style="fill:none;stroke:#000000;stroke-width:0.53500003;stroke-linecap:butt;stroke-linejoin:miter;stroke-miterlimit:4;stroke-dasharray:none;stroke-opacity:1" />
      <path
         inkscape:connector-curvature="0"
         id="path21130-4"
         d="M 59.018742,27.056085 H 198.96122"
         style="fill:none;stroke:#000000;stroke-width:0.53500003;stroke-linecap:butt;stroke-linejoin:miter;stroke-miterlimit:4;stroke-dasharray:none;stroke-opacity:1" />
      <path
         inkscape:connector-curvature="0"
         id="path21130-5"
         d="M 59.018742,36.052649 H 198.96122"
         style="fill:none;stroke:#000000;stroke-width:0.53500003;stroke-linecap:butt;stroke-linejoin:miter;stroke-miterlimit:4;stroke-dasharray:none;stroke-opacity:1" />
      <text
         id="text21245-4"
         y="25.279785"
         x="76.432106"
         style="font-style:normal;font-variant:normal;font-weight:normal;font-stretch:normal;font-size:7.05555534px;line-height:1.25;font-family:'Noto Serif CJK TC';-inkscape-font-specification:'Noto Serif CJK TC';text-align:center;letter-spacing:0px;word-spacing:0px;text-anchor:middle;fill:#000000;fill-opacity:1;stroke:none;stroke-width:0.26458332"
         xml:space="preserve"><tspan
           style="stroke-width:0.26458332"
           y="25.279785"
           x="76.432106"
           id="tspan21243-4"
           sodipodi:role="line">0</tspan></text>
      <text
         id="text21249-3"
         y="25.279785"
         x="88.081078"
         style="font-style:normal;font-variant:normal;font-weight:normal;font-stretch:normal;font-size:7.05555534px;line-height:1.25;font-family:'Noto Serif CJK TC';-inkscape-font-specification:'Noto Serif CJK TC';text-align:center;letter-spacing:0px;word-spacing:0px;text-anchor:middle;fill:#000000;fill-opacity:1;stroke:none;stroke-width:0.26458332"
         xml:space="preserve"><tspan
           style="stroke-width:0.26458332"
           y="25.279785"
           x="88.081078"
           id="tspan21247-0"
           sodipodi:role="line">1</tspan></text>
      <text
         id="text21245-7"
         y="34.571224"
         x="76.255722"
         style="font-style:normal;font-variant:normal;font-weight:normal;font-stretch:normal;font-size:7.05555534px;line-height:1.25;font-family:'Noto Serif CJK TC';-inkscape-font-specification:'Noto Serif CJK TC';text-align:center;letter-spacing:0px;word-spacing:0px;text-anchor:middle;fill:#000000;fill-opacity:1;stroke:none;stroke-width:0.26458332"
         xml:space="preserve"><tspan
           style="stroke-width:0.26458332"
           y="34.571224"
           x="76.255722"
           id="tspan21243-8"
           sodipodi:role="line">1</tspan></text>
      <text
         id="text21249-6"
         y="34.571224"
         x="87.904686"
         style="font-style:normal;font-variant:normal;font-weight:normal;font-stretch:normal;font-size:7.05555534px;line-height:1.25;font-family:'Noto Serif CJK TC';-inkscape-font-specification:'Noto Serif CJK TC';text-align:center;letter-spacing:0px;word-spacing:0px;text-anchor:middle;fill:#000000;fill-opacity:1;stroke:none;stroke-width:0.26458332"
         xml:space="preserve"><tspan
           style="stroke-width:0.26458332"
           y="34.571224"
           x="87.904686"
           id="tspan21247-8"
           sodipodi:role="line">0</tspan></text>
      <text
         id="text21245-8"
         y="43.307949"
         x="76.305107"
         style="font-style:normal;font-variant:normal;font-weight:normal;font-stretch:normal;font-size:7.05555534px;line-height:1.25;font-family:'Noto Serif CJK TC';-inkscape-font-specification:'Noto Serif CJK TC';text-align:center;letter-spacing:0px;word-spacing:0px;text-anchor:middle;fill:#000000;fill-opacity:1;stroke:none;stroke-width:0.26458332"
         xml:space="preserve"><tspan
           style="stroke-width:0.26458332"
           y="43.307949"
           x="76.305107"
           id="tspan21243-43"
           sodipodi:role="line">1</tspan></text>
      <text
         id="text21249-1"
         y="43.307949"
         x="87.954079"
         style="font-style:normal;font-variant:normal;font-weight:normal;font-stretch:normal;font-size:7.05555534px;line-height:1.25;font-family:'Noto Serif CJK TC';-inkscape-font-specification:'Noto Serif CJK TC';text-align:center;letter-spacing:0px;word-spacing:0px;text-anchor:middle;fill:#000000;fill-opacity:1;stroke:none;stroke-width:0.26458332"
         xml:space="preserve"><tspan
           style="stroke-width:0.26458332"
           y="43.307949"
           x="87.954079"
           id="tspan21247-4"
           sodipodi:role="line">1</tspan></text>
      <text
         id="text21249-7"
         y="16.23596"
         x="64.713463"
         style="font-style:normal;font-variant:normal;font-weight:normal;font-stretch:normal;font-size:7.05555534px;line-height:1.25;font-family:'Noto Serif CJK TC';-inkscape-font-specification:'Noto Serif CJK TC';text-align:center;letter-spacing:0px;word-spacing:0px;text-anchor:middle;fill:#000000;fill-opacity:1;stroke:none;stroke-width:0.26458332"
         xml:space="preserve"><tspan
           style="stroke-width:0.26458332"
           y="16.23596"
           x="64.713463"
           id="tspan21247-5"
           sodipodi:role="line">0</tspan></text>
      <text
         id="text21249-3-3"
         y="25.190434"
         x="64.762856"
         style="font-style:normal;font-variant:normal;font-weight:normal;font-stretch:normal;font-size:7.05555534px;line-height:1.25;font-family:'Noto Serif CJK TC';-inkscape-font-specification:'Noto Serif CJK TC';text-align:center;letter-spacing:0px;word-spacing:0px;text-anchor:middle;fill:#000000;fill-opacity:1;stroke:none;stroke-width:0.26458332"
         xml:space="preserve"><tspan
           style="stroke-width:0.26458332"
           y="25.190434"
           x="64.762856"
           id="tspan21247-0-5"
           sodipodi:role="line">0</tspan></text>
      <text
         id="text21249-6-6"
         y="34.481873"
         x="64.586464"
         style="font-style:normal;font-variant:normal;font-weight:normal;font-stretch:normal;font-size:7.05555534px;line-height:1.25;font-family:'Noto Serif CJK TC';-inkscape-font-specification:'Noto Serif CJK TC';text-align:center;letter-spacing:0px;word-spacing:0px;text-anchor:middle;fill:#000000;fill-opacity:1;stroke:none;stroke-width:0.26458332"
         xml:space="preserve"><tspan
           style="stroke-width:0.26458332"
           y="34.481873"
           x="64.586464"
           id="tspan21247-8-2"
           sodipodi:role="line">0</tspan></text>
      <text
         id="text21249-1-9"
         y="43.218597"
         x="64.635857"
         style="font-style:normal;font-variant:normal;font-weight:normal;font-stretch:normal;font-size:7.05555534px;line-height:1.25;font-family:'Noto Serif CJK TC';-inkscape-font-specification:'Noto Serif CJK TC';text-align:center;letter-spacing:0px;word-spacing:0px;text-anchor:middle;fill:#000000;fill-opacity:1;stroke:none;stroke-width:0.26458332"
         xml:space="preserve"><tspan
           style="stroke-width:0.26458332"
           y="43.218597"
           x="64.635857"
           id="tspan21247-4-1"
           sodipodi:role="line">0</tspan></text>
      <path
         inkscape:connector-curvature="0"
         id="path21130-2-7"
         d="M 59.018742,80.76584 H 198.96122"
         style="fill:none;stroke:#000000;stroke-width:0.53500003;stroke-linecap:butt;stroke-linejoin:miter;stroke-miterlimit:4;stroke-dasharray:none;stroke-opacity:1" />
      <text
         id="text21245-9"
         y="52.041935"
         x="76.382721"
         style="font-style:normal;font-variant:normal;font-weight:normal;font-stretch:normal;font-size:7.05555534px;line-height:1.25;font-family:'Noto Serif CJK TC';-inkscape-font-specification:'Noto Serif CJK TC';text-align:center;letter-spacing:0px;word-spacing:0px;text-anchor:middle;fill:#000000;fill-opacity:1;stroke:none;stroke-width:0.26458332"
         xml:space="preserve"><tspan
           style="stroke-width:0.26458332"
           y="52.041935"
           x="76.382721"
           id="tspan21243-3"
           sodipodi:role="line">0</tspan></text>
      <text
         id="text21249-60"
         y="52.041935"
         x="88.031685"
         style="font-style:normal;font-variant:normal;font-weight:normal;font-stretch:normal;font-size:7.05555534px;line-height:1.25;font-family:'Noto Serif CJK TC';-inkscape-font-specification:'Noto Serif CJK TC';text-align:center;letter-spacing:0px;word-spacing:0px;text-anchor:middle;fill:#000000;fill-opacity:1;stroke:none;stroke-width:0.26458332"
         xml:space="preserve"><tspan
           style="stroke-width:0.26458332"
           y="52.041935"
           x="88.031685"
           id="tspan21247-6"
           sodipodi:role="line">0</tspan></text>
      <path
         inkscape:connector-curvature="0"
         id="path21130-7-2"
         d="M 59.018742,53.776148 H 198.96122"
         style="fill:none;stroke:#000000;stroke-width:0.53500003;stroke-linecap:butt;stroke-linejoin:miter;stroke-miterlimit:4;stroke-dasharray:none;stroke-opacity:1" />
      <path
         inkscape:connector-curvature="0"
         id="path21130-4-6"
         d="M 59.018742,62.772712 H 198.96122"
         style="fill:none;stroke:#000000;stroke-width:0.53500003;stroke-linecap:butt;stroke-linejoin:miter;stroke-miterlimit:4;stroke-dasharray:none;stroke-opacity:1" />
      <path
         inkscape:connector-curvature="0"
         id="path21130-5-1"
         d="M 59.018742,71.769276 H 198.96122"
         style="fill:none;stroke:#000000;stroke-width:0.53500003;stroke-linecap:butt;stroke-linejoin:miter;stroke-miterlimit:4;stroke-dasharray:none;stroke-opacity:1" />
      <text
         id="text21245-4-8"
         y="60.99641"
         x="76.432106"
         style="font-style:normal;font-variant:normal;font-weight:normal;font-stretch:normal;font-size:7.05555534px;line-height:1.25;font-family:'Noto Serif CJK TC';-inkscape-font-specification:'Noto Serif CJK TC';text-align:center;letter-spacing:0px;word-spacing:0px;text-anchor:middle;fill:#000000;fill-opacity:1;stroke:none;stroke-width:0.26458332"
         xml:space="preserve"><tspan
           style="stroke-width:0.26458332"
           y="60.99641"
           x="76.432106"
           id="tspan21243-4-7"
           sodipodi:role="line">0</tspan></text>
      <text
         id="text21249-3-9"
         y="60.99641"
         x="88.081078"
         style="font-style:normal;font-variant:normal;font-weight:normal;font-stretch:normal;font-size:7.05555534px;line-height:1.25;font-family:'Noto Serif CJK TC';-inkscape-font-specification:'Noto Serif CJK TC';text-align:center;letter-spacing:0px;word-spacing:0px;text-anchor:middle;fill:#000000;fill-opacity:1;stroke:none;stroke-width:0.26458332"
         xml:space="preserve"><tspan
           style="stroke-width:0.26458332"
           y="60.99641"
           x="88.081078"
           id="tspan21247-0-2"
           sodipodi:role="line">1</tspan></text>
      <text
         id="text21245-7-0"
         y="70.287849"
         x="76.255722"
         style="font-style:normal;font-variant:normal;font-weight:normal;font-stretch:normal;font-size:7.05555534px;line-height:1.25;font-family:'Noto Serif CJK TC';-inkscape-font-specification:'Noto Serif CJK TC';text-align:center;letter-spacing:0px;word-spacing:0px;text-anchor:middle;fill:#000000;fill-opacity:1;stroke:none;stroke-width:0.26458332"
         xml:space="preserve"><tspan
           style="stroke-width:0.26458332"
           y="70.287849"
           x="76.255722"
           id="tspan21243-8-2"
           sodipodi:role="line">1</tspan></text>
      <text
         id="text21249-6-3"
         y="70.287849"
         x="87.904686"
         style="font-style:normal;font-variant:normal;font-weight:normal;font-stretch:normal;font-size:7.05555534px;line-height:1.25;font-family:'Noto Serif CJK TC';-inkscape-font-specification:'Noto Serif CJK TC';text-align:center;letter-spacing:0px;word-spacing:0px;text-anchor:middle;fill:#000000;fill-opacity:1;stroke:none;stroke-width:0.26458332"
         xml:space="preserve"><tspan
           style="stroke-width:0.26458332"
           y="70.287849"
           x="87.904686"
           id="tspan21247-8-7"
           sodipodi:role="line">0</tspan></text>
      <text
         id="text21245-8-5"
         y="79.024574"
         x="76.305107"
         style="font-style:normal;font-variant:normal;font-weight:normal;font-stretch:normal;font-size:7.05555534px;line-height:1.25;font-family:'Noto Serif CJK TC';-inkscape-font-specification:'Noto Serif CJK TC';text-align:center;letter-spacing:0px;word-spacing:0px;text-anchor:middle;fill:#000000;fill-opacity:1;stroke:none;stroke-width:0.26458332"
         xml:space="preserve"><tspan
           style="stroke-width:0.26458332"
           y="79.024574"
           x="76.305107"
           id="tspan21243-43-9"
           sodipodi:role="line">1</tspan></text>
      <text
         id="text21249-1-2"
         y="79.024574"
         x="87.954079"
         style="font-style:normal;font-variant:normal;font-weight:normal;font-stretch:normal;font-size:7.05555534px;line-height:1.25;font-family:'Noto Serif CJK TC';-inkscape-font-specification:'Noto Serif CJK TC';text-align:center;letter-spacing:0px;word-spacing:0px;text-anchor:middle;fill:#000000;fill-opacity:1;stroke:none;stroke-width:0.26458332"
         xml:space="preserve"><tspan
           style="stroke-width:0.26458332"
           y="79.024574"
           x="87.954079"
           id="tspan21247-4-2"
           sodipodi:role="line">1</tspan></text>
      <text
         id="text21245-7-8"
         y="43.307949"
         x="111.64754"
         style="font-style:normal;font-variant:normal;font-weight:normal;font-stretch:normal;font-size:7.05555534px;line-height:1.25;font-family:'Noto Serif CJK TC';-inkscape-font-specification:'Noto Serif CJK TC';text-align:center;letter-spacing:0px;word-spacing:0px;text-anchor:middle;fill:#000000;fill-opacity:1;stroke:none;stroke-width:0.26458332"
         xml:space="preserve"><tspan
           style="stroke-width:0.26458332"
           y="43.307949"
           x="111.64754"
           id="tspan21243-8-9"
           sodipodi:role="line">1</tspan></text>
      <text
         id="text21249-6-2"
         y="25.248035"
         x="111.72511"
         style="font-style:normal;font-variant:normal;font-weight:normal;font-stretch:normal;font-size:7.05555534px;line-height:1.25;font-family:'Noto Serif CJK TC';-inkscape-font-specification:'Noto Serif CJK TC';text-align:center;letter-spacing:0px;word-spacing:0px;text-anchor:middle;fill:#000000;fill-opacity:1;stroke:none;stroke-width:0.26458332"
         xml:space="preserve"><tspan
           style="stroke-width:0.26458332"
           y="25.248035"
           x="111.72511"
           id="tspan21247-8-6"
           sodipodi:role="line">0</tspan></text>
      <text
         id="text21245-4-6"
         y="16.32531"
         x="111.72511"
         style="font-style:normal;font-variant:normal;font-weight:normal;font-stretch:normal;font-size:7.05555534px;line-height:1.25;font-family:'Noto Serif CJK TC';-inkscape-font-specification:'Noto Serif CJK TC';text-align:center;letter-spacing:0px;word-spacing:0px;text-anchor:middle;fill:#000000;fill-opacity:1;stroke:none;stroke-width:0.26458332"
         xml:space="preserve"><tspan
           style="stroke-width:0.26458332"
           y="16.32531"
           x="111.72511"
           id="tspan21243-4-4"
           sodipodi:role="line">0</tspan></text>
      <text
         id="text21249-6-2-6"
         y="34.571224"
         x="111.72511"
         style="font-style:normal;font-variant:normal;font-weight:normal;font-stretch:normal;font-size:7.05555534px;line-height:1.25;font-family:'Noto Serif CJK TC';-inkscape-font-specification:'Noto Serif CJK TC';text-align:center;letter-spacing:0px;word-spacing:0px;text-anchor:middle;fill:#000000;fill-opacity:1;stroke:none;stroke-width:0.26458332"
         xml:space="preserve"><tspan
           style="stroke-width:0.26458332"
           y="34.571224"
           x="111.72511"
           id="tspan21247-8-6-2"
           sodipodi:role="line">0</tspan></text>
      <text
         id="text21245-7-8-8"
         y="79.024574"
         x="111.64754"
         style="font-style:normal;font-variant:normal;font-weight:normal;font-stretch:normal;font-size:7.05555534px;line-height:1.25;font-family:'Noto Serif CJK TC';-inkscape-font-specification:'Noto Serif CJK TC';text-align:center;letter-spacing:0px;word-spacing:0px;text-anchor:middle;fill:#000000;fill-opacity:1;stroke:none;stroke-width:0.26458332"
         xml:space="preserve"><tspan
           style="stroke-width:0.26458332"
           y="79.024574"
           x="111.64754"
           id="tspan21243-8-9-9"
           sodipodi:role="line">1</tspan></text>
      <text
         id="text21249-6-2-7"
         y="60.964661"
         x="111.72511"
         style="font-style:normal;font-variant:normal;font-weight:normal;font-stretch:normal;font-size:7.05555534px;line-height:1.25;font-family:'Noto Serif CJK TC';-inkscape-font-specification:'Noto Serif CJK TC';text-align:center;letter-spacing:0px;word-spacing:0px;text-anchor:middle;fill:#000000;fill-opacity:1;stroke:none;stroke-width:0.26458332"
         xml:space="preserve"><tspan
           style="stroke-width:0.26458332"
           y="60.964661"
           x="111.72511"
           id="tspan21247-8-6-3"
           sodipodi:role="line">1</tspan></text>
      <text
         id="text21245-4-6-6"
         y="52.041935"
         x="111.72511"
         style="font-style:normal;font-variant:normal;font-weight:normal;font-stretch:normal;font-size:7.05555534px;line-height:1.25;font-family:'Noto Serif CJK TC';-inkscape-font-specification:'Noto Serif CJK TC';text-align:center;letter-spacing:0px;word-spacing:0px;text-anchor:middle;fill:#000000;fill-opacity:1;stroke:none;stroke-width:0.26458332"
         xml:space="preserve"><tspan
           style="stroke-width:0.26458332"
           y="52.041935"
           x="111.72511"
           id="tspan21243-4-4-1"
           sodipodi:role="line">0</tspan></text>
      <text
         id="text21249-6-2-6-2"
         y="70.287849"
         x="111.72511"
         style="font-style:normal;font-variant:normal;font-weight:normal;font-stretch:normal;font-size:7.05555534px;line-height:1.25;font-family:'Noto Serif CJK TC';-inkscape-font-specification:'Noto Serif CJK TC';text-align:center;letter-spacing:0px;word-spacing:0px;text-anchor:middle;fill:#000000;fill-opacity:1;stroke:none;stroke-width:0.26458332"
         xml:space="preserve"><tspan
           style="stroke-width:0.26458332"
           y="70.287849"
           x="111.72511"
           id="tspan21247-8-6-2-9"
           sodipodi:role="line">1</tspan></text>
      <text
         id="text21249-7-3"
         y="51.952587"
         x="64.713463"
         style="font-style:normal;font-variant:normal;font-weight:normal;font-stretch:normal;font-size:7.05555534px;line-height:1.25;font-family:'Noto Serif CJK TC';-inkscape-font-specification:'Noto Serif CJK TC';text-align:center;letter-spacing:0px;word-spacing:0px;text-anchor:middle;fill:#000000;fill-opacity:1;stroke:none;stroke-width:0.26458332"
         xml:space="preserve"><tspan
           style="stroke-width:0.26458332"
           y="51.952587"
           x="64.713463"
           id="tspan21247-5-1"
           sodipodi:role="line">1</tspan></text>
      <text
         id="text21249-3-3-9"
         y="60.907059"
         x="64.762856"
         style="font-style:normal;font-variant:normal;font-weight:normal;font-stretch:normal;font-size:7.05555534px;line-height:1.25;font-family:'Noto Serif CJK TC';-inkscape-font-specification:'Noto Serif CJK TC';text-align:center;letter-spacing:0px;word-spacing:0px;text-anchor:middle;fill:#000000;fill-opacity:1;stroke:none;stroke-width:0.26458332"
         xml:space="preserve"><tspan
           style="stroke-width:0.26458332"
           y="60.907059"
           x="64.762856"
           id="tspan21247-0-5-4"
           sodipodi:role="line">1</tspan></text>
      <text
         id="text21249-6-6-7"
         y="70.198502"
         x="64.586464"
         style="font-style:normal;font-variant:normal;font-weight:normal;font-stretch:normal;font-size:7.05555534px;line-height:1.25;font-family:'Noto Serif CJK TC';-inkscape-font-specification:'Noto Serif CJK TC';text-align:center;letter-spacing:0px;word-spacing:0px;text-anchor:middle;fill:#000000;fill-opacity:1;stroke:none;stroke-width:0.26458332"
         xml:space="preserve"><tspan
           style="stroke-width:0.26458332"
           y="70.198502"
           x="64.586464"
           id="tspan21247-8-2-8"
           sodipodi:role="line">1</tspan></text>
      <text
         id="text21249-1-9-4"
         y="78.935226"
         x="64.635857"
         style="font-style:normal;font-variant:normal;font-weight:normal;font-stretch:normal;font-size:7.05555534px;line-height:1.25;font-family:'Noto Serif CJK TC';-inkscape-font-specification:'Noto Serif CJK TC';text-align:center;letter-spacing:0px;word-spacing:0px;text-anchor:middle;fill:#000000;fill-opacity:1;stroke:none;stroke-width:0.26458332"
         xml:space="preserve"><tspan
           style="stroke-width:0.26458332"
           y="78.935226"
           x="64.635857"
           id="tspan21247-4-1-5"
           sodipodi:role="line">1</tspan></text>
      <path
         inkscape:connector-curvature="0"
         id="path21130-0-3"
         d="M 125.90755,-0.10805951 V 80.688272"
         style="fill:none;stroke:#000000;stroke-width:0.53500003;stroke-linecap:butt;stroke-linejoin:miter;stroke-miterlimit:4;stroke-dasharray:1.60500003, 1.60500003;stroke-dashoffset:0;stroke-opacity:1" />
      <text
         id="text21245-7-8-7"
         y="42.249615"
         x="145.41309"
         style="font-style:normal;font-variant:normal;font-weight:normal;font-stretch:normal;font-size:7.05555534px;line-height:1.25;font-family:'Noto Serif CJK TC';-inkscape-font-specification:'Noto Serif CJK TC';text-align:center;letter-spacing:0px;word-spacing:0px;text-anchor:middle;fill:#000000;fill-opacity:1;stroke:none;stroke-width:0.26458332"
         xml:space="preserve"><tspan
           style="stroke-width:0.26458332"
           y="42.249615"
           x="145.41309"
           id="tspan21243-8-9-5"
           sodipodi:role="line">m<tspan
   id="tspan1318"
   style="font-size:64.99999762%;baseline-shift:sub">3</tspan></tspan></text>
      <text
         id="text21249-6-2-3"
         y="24.189701"
         x="145.49066"
         style="font-style:normal;font-variant:normal;font-weight:normal;font-stretch:normal;font-size:7.05555534px;line-height:1.25;font-family:'Noto Serif CJK TC';-inkscape-font-specification:'Noto Serif CJK TC';text-align:center;letter-spacing:0px;word-spacing:0px;text-anchor:middle;fill:#000000;fill-opacity:1;stroke:none;stroke-width:0.26458332"
         xml:space="preserve"><tspan
           style="stroke-width:0.26458332"
           y="24.189701"
           x="145.49066"
           id="tspan21247-8-6-5"
           sodipodi:role="line">m<tspan
   id="tspan1314"
   style="font-size:64.99999762%;baseline-shift:sub">1</tspan></tspan></text>
      <text
         id="text21245-4-6-62"
         y="15.266977"
         x="145.49066"
         style="font-style:normal;font-variant:normal;font-weight:normal;font-stretch:normal;font-size:7.05555534px;line-height:1.25;font-family:'Noto Serif CJK TC';-inkscape-font-specification:'Noto Serif CJK TC';text-align:center;letter-spacing:0px;word-spacing:0px;text-anchor:middle;fill:#000000;fill-opacity:1;stroke:none;stroke-width:0.26458332"
         xml:space="preserve"><tspan
           style="stroke-width:0.26458332"
           y="15.266977"
           x="145.49066"
           id="tspan21243-4-4-9"
           sodipodi:role="line">m<tspan
   id="tspan1312"
   style="font-size:64.99999762%;baseline-shift:sub">0</tspan></tspan></text>
      <text
         id="text21249-6-2-6-1"
         y="33.51289"
         x="145.49066"
         style="font-style:normal;font-variant:normal;font-weight:normal;font-stretch:normal;font-size:7.05555534px;line-height:1.25;font-family:'Noto Serif CJK TC';-inkscape-font-specification:'Noto Serif CJK TC';text-align:center;letter-spacing:0px;word-spacing:0px;text-anchor:middle;fill:#000000;fill-opacity:1;stroke:none;stroke-width:0.26458332"
         xml:space="preserve"><tspan
           style="stroke-width:0.26458332"
           y="33.51289"
           x="145.49066"
           id="tspan21247-8-6-2-2"
           sodipodi:role="line">m<tspan
   id="tspan1316"
   style="font-size:64.99999762%;baseline-shift:sub">2</tspan></tspan></text>
      <text
         id="text21245-7-8-8-7"
         y="77.96624"
         x="145.41309"
         style="font-style:normal;font-variant:normal;font-weight:normal;font-stretch:normal;font-size:7.05555534px;line-height:1.25;font-family:'Noto Serif CJK TC';-inkscape-font-specification:'Noto Serif CJK TC';text-align:center;letter-spacing:0px;word-spacing:0px;text-anchor:middle;fill:#000000;fill-opacity:1;stroke:none;stroke-width:0.26458332"
         xml:space="preserve"><tspan
           style="stroke-width:0.26458332"
           y="77.96624"
           x="145.41309"
           id="tspan21243-8-9-9-0"
           sodipodi:role="line">m<tspan
   id="tspan1326"
   style="font-size:64.99999762%;baseline-shift:sub">7</tspan></tspan></text>
      <text
         id="text21249-6-2-7-9"
         y="59.906326"
         x="145.49066"
         style="font-style:normal;font-variant:normal;font-weight:normal;font-stretch:normal;font-size:7.05555534px;line-height:1.25;font-family:'Noto Serif CJK TC';-inkscape-font-specification:'Noto Serif CJK TC';text-align:center;letter-spacing:0px;word-spacing:0px;text-anchor:middle;fill:#000000;fill-opacity:1;stroke:none;stroke-width:0.26458332"
         xml:space="preserve"><tspan
           style="stroke-width:0.26458332"
           y="59.906326"
           x="145.49066"
           id="tspan21247-8-6-3-3"
           sodipodi:role="line">m<tspan
   id="tspan1322"
   style="font-size:64.99999762%;baseline-shift:sub">5</tspan></tspan></text>
      <text
         id="text21245-4-6-6-6"
         y="50.983601"
         x="145.49066"
         style="font-style:normal;font-variant:normal;font-weight:normal;font-stretch:normal;font-size:7.05555534px;line-height:1.25;font-family:'Noto Serif CJK TC';-inkscape-font-specification:'Noto Serif CJK TC';text-align:center;letter-spacing:0px;word-spacing:0px;text-anchor:middle;fill:#000000;fill-opacity:1;stroke:none;stroke-width:0.26458332"
         xml:space="preserve"><tspan
           style="stroke-width:0.26458332"
           y="50.983601"
           x="145.49066"
           id="tspan21243-4-4-1-0"
           sodipodi:role="line">m<tspan
   id="tspan1320"
   style="font-size:64.99999762%;baseline-shift:sub">4</tspan></tspan></text>
      <text
         id="text21249-6-2-6-2-6"
         y="69.229515"
         x="145.49066"
         style="font-style:normal;font-variant:normal;font-weight:normal;font-stretch:normal;font-size:7.05555534px;line-height:1.25;font-family:'Noto Serif CJK TC';-inkscape-font-specification:'Noto Serif CJK TC';text-align:center;letter-spacing:0px;word-spacing:0px;text-anchor:middle;fill:#000000;fill-opacity:1;stroke:none;stroke-width:0.26458332"
         xml:space="preserve"><tspan
           style="stroke-width:0.26458332"
           y="69.229515"
           x="145.49066"
           id="tspan21247-8-6-2-9-2"
           sodipodi:role="line">m<tspan
   id="tspan1324"
   style="font-size:64.99999762%;baseline-shift:sub">6</tspan></tspan></text>
      <path
         inkscape:connector-curvature="0"
         id="path21130-0-3-6"
         d="M 163.43351,-0.10805951 V 80.688272"
         style="fill:none;stroke:#000000;stroke-width:0.53500003;stroke-linecap:butt;stroke-linejoin:miter;stroke-miterlimit:4;stroke-dasharray:1.60500003, 1.60500003;stroke-dashoffset:0;stroke-opacity:1" />
      <text
         id="text21245-7-8-7-7"
         y="42.249615"
         x="182.93906"
         style="font-style:normal;font-variant:normal;font-weight:normal;font-stretch:normal;font-size:7.05555534px;line-height:1.25;font-family:'Noto Serif CJK TC';-inkscape-font-specification:'Noto Serif CJK TC';text-align:center;letter-spacing:0px;word-spacing:0px;text-anchor:middle;fill:#000000;fill-opacity:1;stroke:none;stroke-width:0.26458332"
         xml:space="preserve"><tspan
           style="stroke-width:0.26458332"
           y="42.249615"
           x="182.93906"
           id="tspan21243-8-9-5-5"
           sodipodi:role="line">M<tspan
   id="tspan1318-3"
   style="font-size:64.99999762%;baseline-shift:sub">3</tspan></tspan></text>
      <text
         id="text21249-6-2-3-5"
         y="24.189701"
         x="183.01663"
         style="font-style:normal;font-variant:normal;font-weight:normal;font-stretch:normal;font-size:7.05555534px;line-height:1.25;font-family:'Noto Serif CJK TC';-inkscape-font-specification:'Noto Serif CJK TC';text-align:center;letter-spacing:0px;word-spacing:0px;text-anchor:middle;fill:#000000;fill-opacity:1;stroke:none;stroke-width:0.26458332"
         xml:space="preserve"><tspan
           style="stroke-width:0.26458332"
           y="24.189701"
           x="183.01663"
           id="tspan21247-8-6-5-6"
           sodipodi:role="line">M<tspan
   id="tspan1314-2"
   style="font-size:64.99999762%;baseline-shift:sub">1</tspan></tspan></text>
      <text
         id="text21245-4-6-62-9"
         y="15.266977"
         x="183.01663"
         style="font-style:normal;font-variant:normal;font-weight:normal;font-stretch:normal;font-size:7.05555534px;line-height:1.25;font-family:'Noto Serif CJK TC';-inkscape-font-specification:'Noto Serif CJK TC';text-align:center;letter-spacing:0px;word-spacing:0px;text-anchor:middle;fill:#000000;fill-opacity:1;stroke:none;stroke-width:0.26458332"
         xml:space="preserve"><tspan
           style="stroke-width:0.26458332"
           y="15.266977"
           x="183.01663"
           id="tspan21243-4-4-9-1"
           sodipodi:role="line">M<tspan
   id="tspan1312-2"
   style="font-size:64.99999762%;baseline-shift:sub">0</tspan></tspan></text>
      <text
         id="text21249-6-2-6-1-7"
         y="33.51289"
         x="183.01663"
         style="font-style:normal;font-variant:normal;font-weight:normal;font-stretch:normal;font-size:7.05555534px;line-height:1.25;font-family:'Noto Serif CJK TC';-inkscape-font-specification:'Noto Serif CJK TC';text-align:center;letter-spacing:0px;word-spacing:0px;text-anchor:middle;fill:#000000;fill-opacity:1;stroke:none;stroke-width:0.26458332"
         xml:space="preserve"><tspan
           style="stroke-width:0.26458332"
           y="33.51289"
           x="183.01663"
           id="tspan21247-8-6-2-2-0"
           sodipodi:role="line">M<tspan
   id="tspan1316-9"
   style="font-size:64.99999762%;baseline-shift:sub">2</tspan></tspan></text>
      <text
         id="text21245-7-8-8-7-3"
         y="77.96624"
         x="182.93906"
         style="font-style:normal;font-variant:normal;font-weight:normal;font-stretch:normal;font-size:7.05555534px;line-height:1.25;font-family:'Noto Serif CJK TC';-inkscape-font-specification:'Noto Serif CJK TC';text-align:center;letter-spacing:0px;word-spacing:0px;text-anchor:middle;fill:#000000;fill-opacity:1;stroke:none;stroke-width:0.26458332"
         xml:space="preserve"><tspan
           style="stroke-width:0.26458332"
           y="77.96624"
           x="182.93906"
           id="tspan21243-8-9-9-0-6"
           sodipodi:role="line">M<tspan
   id="tspan1326-0"
   style="font-size:64.99999762%;baseline-shift:sub">7</tspan></tspan></text>
      <text
         id="text21249-6-2-7-9-6"
         y="59.906326"
         x="183.01663"
         style="font-style:normal;font-variant:normal;font-weight:normal;font-stretch:normal;font-size:7.05555534px;line-height:1.25;font-family:'Noto Serif CJK TC';-inkscape-font-specification:'Noto Serif CJK TC';text-align:center;letter-spacing:0px;word-spacing:0px;text-anchor:middle;fill:#000000;fill-opacity:1;stroke:none;stroke-width:0.26458332"
         xml:space="preserve"><tspan
           style="stroke-width:0.26458332"
           y="59.906326"
           x="183.01663"
           id="tspan21247-8-6-3-3-2"
           sodipodi:role="line">M<tspan
   id="tspan1322-6"
   style="font-size:64.99999762%;baseline-shift:sub">5</tspan></tspan></text>
      <text
         id="text21245-4-6-6-6-1"
         y="50.983601"
         x="183.01663"
         style="font-style:normal;font-variant:normal;font-weight:normal;font-stretch:normal;font-size:7.05555534px;line-height:1.25;font-family:'Noto Serif CJK TC';-inkscape-font-specification:'Noto Serif CJK TC';text-align:center;letter-spacing:0px;word-spacing:0px;text-anchor:middle;fill:#000000;fill-opacity:1;stroke:none;stroke-width:0.26458332"
         xml:space="preserve"><tspan
           style="stroke-width:0.26458332"
           y="50.983601"
           x="183.01663"
           id="tspan21243-4-4-1-0-8"
           sodipodi:role="line">M<tspan
   id="tspan1320-7"
   style="font-size:64.99999762%;baseline-shift:sub">4</tspan></tspan></text>
      <text
         id="text21249-6-2-6-2-6-9"
         y="69.229515"
         x="183.01663"
         style="font-style:normal;font-variant:normal;font-weight:normal;font-stretch:normal;font-size:7.05555534px;line-height:1.25;font-family:'Noto Serif CJK TC';-inkscape-font-specification:'Noto Serif CJK TC';text-align:center;letter-spacing:0px;word-spacing:0px;text-anchor:middle;fill:#000000;fill-opacity:1;stroke:none;stroke-width:0.26458332"
         xml:space="preserve"><tspan
           style="stroke-width:0.26458332"
           y="69.229515"
           x="183.01663"
           id="tspan21247-8-6-2-9-2-2"
           sodipodi:role="line">M<tspan
   id="tspan1324-0"
   style="font-size:64.99999762%;baseline-shift:sub">6</tspan></tspan></text>
    </g>
  </g>
</svg>
