%!PS-Adobe-3.0 EPSF-3.0
%%Creator: cairo 1.12.2 (http://cairographics.org)
%%CreationDate: Fri Feb 14 23:33:43 2014
%%Pages: 1
%%DocumentData: Clean7Bit
%%LanguageLevel: 2
%%BoundingBox: 0 -1 487 292
%%EndComments
%%BeginProlog
save
50 dict begin
/q { gsave } bind def
/Q { grestore } bind def
/cm { 6 array astore concat } bind def
/w { setlinewidth } bind def
/J { setlinecap } bind def
/j { setlinejoin } bind def
/M { setmiterlimit } bind def
/d { setdash } bind def
/m { moveto } bind def
/l { lineto } bind def
/c { curveto } bind def
/h { closepath } bind def
/re { exch dup neg 3 1 roll 5 3 roll moveto 0 rlineto
      0 exch rlineto 0 rlineto closepath } bind def
/S { stroke } bind def
/f { fill } bind def
/f* { eofill } bind def
/n { newpath } bind def
/W { clip } bind def
/W* { eoclip } bind def
/BT { } bind def
/ET { } bind def
/pdfmark where { pop globaldict /?pdfmark /exec load put }
    { globaldict begin /?pdfmark /pop load def /pdfmark
    /cleartomark load def end } ifelse
/BDC { mark 3 1 roll /BDC pdfmark } bind def
/EMC { mark /EMC pdfmark } bind def
/cairo_store_point { /cairo_point_y exch def /cairo_point_x exch def } def
/Tj { show currentpoint cairo_store_point } bind def
/TJ {
  {
    dup
    type /stringtype eq
    { show } { -0.001 mul 0 cairo_font_matrix dtransform rmoveto } ifelse
  } forall
  currentpoint cairo_store_point
} bind def
/cairo_selectfont { cairo_font_matrix aload pop pop pop 0 0 6 array astore
    cairo_font exch selectfont cairo_point_x cairo_point_y moveto } bind def
/Tf { pop /cairo_font exch def /cairo_font_matrix where
      { pop cairo_selectfont } if } bind def
/Td { matrix translate cairo_font_matrix matrix concatmatrix dup
      /cairo_font_matrix exch def dup 4 get exch 5 get cairo_store_point
      /cairo_font where { pop cairo_selectfont } if } bind def
/Tm { 2 copy 8 2 roll 6 array astore /cairo_font_matrix exch def
      cairo_store_point /cairo_font where { pop cairo_selectfont } if } bind def
/g { setgray } bind def
/rg { setrgbcolor } bind def
/d1 { setcachedevice } bind def
%%EndProlog
%%Page: 1 1
%%BeginPageSetup
%%PageBoundingBox: 0 -1 487 292
%%EndPageSetup
q 0 -1 487 293 rectclip q
0 g
12.672 290.571 m 12.672 283.243 l 12.094 283.243 l 11.906 284.649 11.566
 285.77 11.078 286.602 c 10.598 287.434 9.91 288.099 9.016 288.587 c 8.121
 289.075 7.191 289.321 6.234 289.321 c 5.152 289.321 4.254 288.989 3.547
 288.321 c 2.84 287.665 2.484 286.915 2.484 286.071 c 2.484 285.427 2.707
 284.837 3.156 284.306 c 3.801 283.524 5.34 282.481 7.766 281.181 c 9.746
 280.118 11.094 279.302 11.812 278.727 c 12.543 278.165 13.098 277.497 13.484
 276.727 c 13.879 275.958 14.078 275.149 14.078 274.306 c 14.078 272.7 13.453
 271.317 12.203 270.149 c 10.965 268.993 9.363 268.415 7.406 268.415 c 6.793
 268.415 6.215 268.462 5.672 268.556 c 5.348 268.606 4.676 268.794 3.656
 269.118 c 2.645 269.45 2.004 269.618 1.734 269.618 c 1.473 269.618 1.266
 269.54 1.109 269.384 c 0.965 269.227 0.855 268.903 0.781 268.415 c 0.203
 268.415 l 0.203 275.681 l 0.781 275.681 l 1.051 274.161 1.418 273.02 1.875
 272.259 c 2.332 271.509 3.031 270.884 3.969 270.384 c 4.918 269.884 5.953
 269.634 7.078 269.634 c 8.379 269.634 9.406 269.977 10.156 270.665 c 10.918
 271.352 11.297 272.165 11.297 273.102 c 11.297 273.622 11.152 274.149 10.859
 274.681 c 10.578 275.212 10.137 275.708 9.531 276.165 c 9.125 276.477 8.016
 277.138 6.203 278.149 c 4.391 279.169 3.098 279.981 2.328 280.587 c 1.566
 281.192 0.988 281.856 0.594 282.587 c 0.199 283.317 0 284.118 0 284.993
 c 0 286.513 0.582 287.821 1.75 288.915 c 2.918 290.02 4.402 290.571 6.203
 290.571 c 7.328 290.571 8.52 290.294 9.781 289.743 c 10.363 289.481 10.777
 289.352 11.016 289.352 c 11.285 289.352 11.504 289.431 11.672 289.587 c
 11.848 289.755 11.988 290.083 12.094 290.571 c 12.672 290.571 l f
20.453 291.118 m 20.891 291.118 21.262 290.962 21.562 290.649 c 21.875 
290.349 22.031 289.977 22.031 289.54 c 22.031 289.102 21.875 288.727 21.562
 288.415 c 21.262 288.102 20.891 287.946 20.453 287.946 c 20.016 287.946
 19.641 288.102 19.328 288.415 c 19.016 288.727 18.859 289.102 18.859 289.54
 c 18.859 289.977 19.012 290.349 19.312 290.649 c 19.625 290.962 20.004 
291.118 20.453 291.118 c 21.75 283.634 m 21.75 272.134 l 21.75 271.239 21.812
 270.638 21.938 270.337 c 22.074 270.044 22.266 269.825 22.516 269.681 c
 22.777 269.536 23.246 269.462 23.922 269.462 c 23.922 268.899 l 16.969 
268.899 l 16.969 269.462 l 17.668 269.462 18.137 269.528 18.375 269.665 
c 18.613 269.802 18.801 270.024 18.938 270.337 c 19.082 270.649 19.156 271.247
 19.156 272.134 c 19.156 277.649 l 19.156 279.2 19.109 280.208 19.016 280.665
 c 18.941 280.997 18.828 281.227 18.672 281.352 c 18.516 281.489 18.301 
281.556 18.031 281.556 c 17.738 281.556 17.387 281.477 16.969 281.321 c 
16.75 281.884 l 21.062 283.634 l 21.75 283.634 l f
34.938 283.634 m 34.938 278.759 l 34.422 278.759 l 34.027 280.29 33.516
 281.333 32.891 281.884 c 32.277 282.434 31.488 282.712 30.531 282.712 c
 29.801 282.712 29.215 282.52 28.766 282.134 c 28.316 281.747 28.094 281.321
 28.094 280.852 c 28.094 280.27 28.262 279.77 28.594 279.352 c 28.918 278.927
 29.574 278.474 30.562 277.993 c 32.844 276.884 l 34.957 275.852 36.016 
274.493 36.016 272.806 c 36.016 271.505 35.52 270.45 34.531 269.649 c 33.551
 268.856 32.453 268.462 31.234 268.462 c 30.359 268.462 29.359 268.618 28.234
 268.931 c 27.891 269.036 27.609 269.087 27.391 269.087 c 27.152 269.087
 26.965 268.95 26.828 268.681 c 26.312 268.681 l 26.312 273.79 l 26.828 
273.79 l 27.121 272.333 27.676 271.231 28.5 270.493 c 29.324 269.755 30.246
 269.384 31.266 269.384 c 31.984 269.384 32.566 269.591 33.016 270.009 c
 33.473 270.434 33.703 270.946 33.703 271.54 c 33.703 272.259 33.449 272.864
 32.938 273.352 c 32.438 273.841 31.434 274.462 29.922 275.212 c 28.41 275.962
 27.422 276.638 26.953 277.243 c 26.484 277.837 26.25 278.587 26.25 279.493
 c 26.25 280.669 26.652 281.653 27.453 282.446 c 28.266 283.239 29.312 283.634
 30.594 283.634 c 31.156 283.634 31.84 283.513 32.641 283.274 c 33.172 283.118
 33.527 283.04 33.703 283.04 c 33.871 283.04 34 283.075 34.094 283.149 c
 34.188 283.224 34.297 283.384 34.422 283.634 c 34.938 283.634 l f
42.281 287.915 m 42.281 283.212 l 45.625 283.212 l 45.625 282.118 l 42.281
 282.118 l 42.281 272.837 l 42.281 271.911 42.41 271.286 42.672 270.962 
c 42.941 270.638 43.285 270.477 43.703 270.477 c 44.047 270.477 44.379 270.583
 44.703 270.79 c 45.027 271.009 45.277 271.325 45.453 271.743 c 46.062 271.743
 l 45.699 270.724 45.184 269.95 44.516 269.431 c 43.848 268.919 43.16 268.665
 42.453 268.665 c 41.973 268.665 41.504 268.794 41.047 269.056 c 40.59 269.325
 40.25 269.708 40.031 270.196 c 39.812 270.696 39.703 271.462 39.703 272.493
 c 39.703 282.118 l 37.438 282.118 l 37.438 282.634 l 38.012 282.864 38.594
 283.247 39.188 283.79 c 39.793 284.341 40.328 284.993 40.797 285.743 c 
41.035 286.138 41.371 286.864 41.797 287.915 c 42.281 287.915 l f
49.406 277.821 m 49.395 275.696 49.91 274.028 50.953 272.821 c 51.996 271.614
 53.219 271.009 54.625 271.009 c 55.562 271.009 56.375 271.263 57.062 271.774
 c 57.762 272.294 58.344 273.181 58.812 274.431 c 59.297 274.118 l 59.078
 272.692 58.441 271.388 57.391 270.212 c 56.34 269.044 55.02 268.462 53.438
 268.462 c 51.719 268.462 50.246 269.13 49.016 270.462 c 47.797 271.806 
47.188 273.606 47.188 275.868 c 47.188 278.317 47.812 280.224 49.062 281.587
 c 50.324 282.962 51.902 283.649 53.797 283.649 c 55.402 283.649 56.719 
283.118 57.75 282.056 c 58.781 281.005 59.297 279.591 59.297 277.821 c 49.406
 277.821 l 49.406 278.727 m 56.031 278.727 l 55.98 279.645 55.871 280.29
 55.703 280.665 c 55.441 281.247 55.051 281.708 54.531 282.04 c 54.02 282.372
 53.484 282.54 52.922 282.54 c 52.059 282.54 51.281 282.2 50.594 281.524
 c 49.918 280.856 49.52 279.927 49.406 278.727 c f
65.438 280.587 m 66.48 281.63 67.094 282.227 67.281 282.384 c 67.75 282.778
 68.254 283.087 68.797 283.306 c 69.34 283.524 69.875 283.634 70.406 283.634
 c 71.301 283.634 72.074 283.372 72.719 282.852 c 73.363 282.333 73.797 
281.575 74.016 280.587 c 75.09 281.837 75.996 282.653 76.734 283.04 c 77.473
 283.434 78.234 283.634 79.016 283.634 c 79.777 283.634 80.449 283.434 81.031
 283.04 c 81.625 282.653 82.094 282.02 82.438 281.134 c 82.668 280.528 82.781
 279.583 82.781 278.29 c 82.781 272.134 l 82.781 271.239 82.848 270.622 
82.984 270.29 c 83.09 270.059 83.281 269.864 83.562 269.696 c 83.844 269.54
 84.301 269.462 84.938 269.462 c 84.938 268.899 l 77.875 268.899 l 77.875
 269.462 l 78.172 269.462 l 78.785 269.462 79.266 269.583 79.609 269.821
 c 79.848 269.989 80.02 270.255 80.125 270.618 c 80.168 270.794 80.188 271.302
 80.188 272.134 c 80.188 278.29 l 80.188 279.458 80.047 280.278 79.766 280.759
 c 79.359 281.427 78.707 281.759 77.812 281.759 c 77.262 281.759 76.703 
281.618 76.141 281.337 c 75.59 281.067 74.918 280.556 74.125 279.806 c 74.094
 279.634 l 74.125 278.962 l 74.125 272.134 l 74.125 271.153 74.176 270.544
 74.281 270.306 c 74.395 270.067 74.605 269.864 74.906 269.696 c 75.207 
269.54 75.723 269.462 76.453 269.462 c 76.453 268.899 l 69.219 268.899 l
 69.219 269.462 l 70.012 269.462 70.551 269.556 70.844 269.743 c 71.145 
269.931 71.355 270.212 71.469 270.587 c 71.52 270.763 71.547 271.278 71.547
 272.134 c 71.547 278.29 l 71.547 279.458 71.375 280.294 71.031 280.806 
c 70.574 281.474 69.934 281.806 69.109 281.806 c 68.547 281.806 67.988 281.653
 67.438 281.352 c 66.574 280.895 65.906 280.38 65.438 279.806 c 65.438 272.134
 l 65.438 271.196 65.5 270.587 65.625 270.306 c 65.762 270.024 65.953 269.809
 66.203 269.665 c 66.465 269.528 66.984 269.462 67.766 269.462 c 67.766 
268.899 l 60.688 268.899 l 60.688 269.462 l 61.344 269.462 61.801 269.528
 62.062 269.665 c 62.324 269.809 62.52 270.036 62.656 270.337 c 62.793 270.649
 62.859 271.247 62.859 272.134 c 62.859 277.602 l 62.859 279.177 62.812 
280.192 62.719 280.649 c 62.645 280.993 62.531 281.227 62.375 281.352 c 
62.219 281.489 62.004 281.556 61.734 281.556 c 61.441 281.556 61.094 281.477
 60.688 281.321 c 60.453 281.884 l 64.766 283.634 l 65.438 283.634 l 65.438
 280.587 l f
94.172 270.962 m 92.703 269.825 91.781 269.169 91.406 268.993 c 90.844 
268.731 90.246 268.602 89.609 268.602 c 88.621 268.602 87.801 268.942 87.156
 269.618 c 86.52 270.294 86.203 271.184 86.203 272.29 c 86.203 272.989 86.359
 273.591 86.672 274.102 c 87.098 274.809 87.84 275.477 88.891 276.102 c 
89.953 276.727 91.715 277.489 94.172 278.384 c 94.172 278.946 l 94.172 280.372
 93.941 281.352 93.484 281.884 c 93.035 282.415 92.379 282.681 91.516 282.681
 c 90.859 282.681 90.34 282.505 89.953 282.149 c 89.559 281.794 89.359 281.388
 89.359 280.931 c 89.391 280.024 l 89.391 279.544 89.266 279.177 89.016 
278.915 c 88.777 278.653 88.457 278.524 88.062 278.524 c 87.676 278.524 
87.359 278.661 87.109 278.931 c 86.871 279.2 86.75 279.571 86.75 280.04 
c 86.75 280.934 87.207 281.759 88.125 282.509 c 89.043 283.259 90.328 283.634
 91.984 283.634 c 93.254 283.634 94.297 283.419 95.109 282.993 c 95.723 
282.669 96.176 282.165 96.469 281.477 c 96.656 281.028 96.75 280.114 96.75
 278.727 c 96.75 273.868 l 96.75 272.505 96.777 271.665 96.828 271.352 c
 96.879 271.052 96.965 270.849 97.078 270.743 c 97.203 270.638 97.344 270.587
 97.5 270.587 c 97.668 270.587 97.812 270.622 97.938 270.696 c 98.156 270.833
 98.578 271.212 99.203 271.837 c 99.203 270.962 l 98.035 269.399 96.922 
268.618 95.859 268.618 c 95.348 268.618 94.941 268.794 94.641 269.149 c 
94.34 269.505 94.184 270.106 94.172 270.962 c 94.172 271.977 m 94.172 277.431
 l 92.598 276.806 91.582 276.364 91.125 276.102 c 90.301 275.645 89.715 
275.165 89.359 274.665 c 89.004 274.165 88.828 273.618 88.828 273.024 c 
88.828 272.274 89.051 271.649 89.5 271.149 c 89.949 270.661 90.465 270.415
 91.047 270.415 c 91.84 270.415 92.879 270.934 94.172 271.977 c f
8.234 240.743 m 9.621 242.669 11.113 243.634 12.719 243.634 c 14.188 243.634
 15.469 243.005 16.562 241.743 c 17.656 240.493 18.203 238.778 18.203 236.602
 c 18.203 234.059 17.359 232.013 15.672 230.462 c 14.223 229.13 12.609 228.462
 10.828 228.462 c 9.996 228.462 9.145 228.614 8.281 228.915 c 7.426 229.216
 6.551 229.669 5.656 230.274 c 5.656 245.102 l 5.656 246.727 5.613 247.727
 5.531 248.102 c 5.457 248.477 5.34 248.731 5.172 248.868 c 5.004 249.005
 4.797 249.071 4.547 249.071 c 4.254 249.071 3.891 248.989 3.453 248.821
 c 3.234 249.368 l 7.531 251.118 l 8.234 251.118 l 8.234 240.743 l 8.234
 239.743 m 8.234 231.181 l 8.766 230.661 9.312 230.263 9.875 229.993 c 10.449
 229.731 11.031 229.602 11.625 229.602 c 12.574 229.602 13.453 230.122 14.266
 231.165 c 15.09 232.208 15.5 233.724 15.5 235.712 c 15.5 237.544 15.09 
238.95 14.266 239.931 c 13.453 240.919 12.527 241.415 11.484 241.415 c 10.934
 241.415 10.379 241.274 9.828 240.993 c 9.41 240.786 8.879 240.368 8.234
 239.743 c f
23.953 251.118 m 24.391 251.118 24.762 250.962 25.062 250.649 c 25.375 
250.349 25.531 249.977 25.531 249.54 c 25.531 249.102 25.375 248.727 25.062
 248.415 c 24.762 248.102 24.391 247.946 23.953 247.946 c 23.516 247.946
 23.141 248.102 22.828 248.415 c 22.516 248.727 22.359 249.102 22.359 249.54
 c 22.359 249.977 22.512 250.349 22.812 250.649 c 23.125 250.962 23.504 
251.118 23.953 251.118 c 25.25 243.634 m 25.25 232.134 l 25.25 231.239 25.312
 230.638 25.438 230.337 c 25.574 230.044 25.766 229.825 26.016 229.681 c
 26.277 229.536 26.746 229.462 27.422 229.462 c 27.422 228.899 l 20.469 
228.899 l 20.469 229.462 l 21.168 229.462 21.637 229.528 21.875 229.665 
c 22.113 229.802 22.301 230.024 22.438 230.337 c 22.582 230.649 22.656 231.247
 22.656 232.134 c 22.656 237.649 l 22.656 239.2 22.609 240.208 22.516 240.665
 c 22.441 240.997 22.328 241.227 22.172 241.352 c 22.016 241.489 21.801 
241.556 21.531 241.556 c 21.238 241.556 20.887 241.477 20.469 241.321 c 
20.25 241.884 l 24.562 243.634 l 25.25 243.634 l f
33.359 240.602 m 35.035 242.622 36.637 243.634 38.156 243.634 c 38.938 
243.634 39.609 243.434 40.172 243.04 c 40.734 242.653 41.184 242.013 41.516
 241.118 c 41.746 240.493 41.859 239.536 41.859 238.243 c 41.859 232.134
 l 41.859 231.227 41.934 230.614 42.078 230.29 c 42.191 230.028 42.375 229.825
 42.625 229.681 c 42.887 229.536 43.359 229.462 44.047 229.462 c 44.047 
228.899 l 36.969 228.899 l 36.969 229.462 l 37.266 229.462 l 37.934 229.462
 38.395 229.559 38.656 229.759 c 38.926 229.966 39.113 230.27 39.219 230.665
 c 39.262 230.821 39.281 231.309 39.281 232.134 c 39.281 237.993 l 39.281
 239.294 39.109 240.239 38.766 240.821 c 38.434 241.415 37.863 241.712 37.062
 241.712 c 35.824 241.712 34.59 241.036 33.359 239.681 c 33.359 232.134 
l 33.359 231.165 33.418 230.567 33.531 230.337 c 33.676 230.036 33.875 229.809
 34.125 229.665 c 34.387 229.528 34.906 229.462 35.688 229.462 c 35.688 
228.899 l 28.609 228.899 l 28.609 229.462 l 28.922 229.462 l 29.652 229.462
 30.141 229.645 30.391 230.009 c 30.652 230.384 30.781 231.091 30.781 232.134
 c 30.781 237.446 l 30.781 239.165 30.738 240.212 30.656 240.587 c 30.582
 240.962 30.465 241.216 30.297 241.352 c 30.141 241.489 29.926 241.556 29.656
 241.556 c 29.363 241.556 29.016 241.477 28.609 241.321 c 28.375 241.884
 l 32.688 243.634 l 33.359 243.634 l 33.359 240.602 l f
53.297 230.962 m 51.828 229.825 50.906 229.169 50.531 228.993 c 49.969 
228.731 49.371 228.602 48.734 228.602 c 47.746 228.602 46.926 228.942 46.281
 229.618 c 45.645 230.294 45.328 231.184 45.328 232.29 c 45.328 232.989 
45.484 233.591 45.797 234.102 c 46.223 234.809 46.965 235.477 48.016 236.102
 c 49.078 236.727 50.84 237.489 53.297 238.384 c 53.297 238.946 l 53.297
 240.372 53.066 241.352 52.609 241.884 c 52.16 242.415 51.504 242.681 50.641
 242.681 c 49.984 242.681 49.465 242.505 49.078 242.149 c 48.684 241.794
 48.484 241.388 48.484 240.931 c 48.516 240.024 l 48.516 239.544 48.391 
239.177 48.141 238.915 c 47.902 238.653 47.582 238.524 47.188 238.524 c 
46.801 238.524 46.484 238.661 46.234 238.931 c 45.996 239.2 45.875 239.571
 45.875 240.04 c 45.875 240.934 46.332 241.759 47.25 242.509 c 48.168 243.259
 49.453 243.634 51.109 243.634 c 52.379 243.634 53.422 243.419 54.234 242.993
 c 54.848 242.669 55.301 242.165 55.594 241.477 c 55.781 241.028 55.875 
240.114 55.875 238.727 c 55.875 233.868 l 55.875 232.505 55.902 231.665 
55.953 231.352 c 56.004 231.052 56.09 230.849 56.203 230.743 c 56.328 230.638
 56.469 230.587 56.625 230.587 c 56.793 230.587 56.938 230.622 57.062 230.696
 c 57.281 230.833 57.703 231.212 58.328 231.837 c 58.328 230.962 l 57.16
 229.399 56.047 228.618 54.984 228.618 c 54.473 228.618 54.066 228.794 53.766
 229.149 c 53.465 229.505 53.309 230.106 53.297 230.962 c 53.297 231.977
 m 53.297 237.431 l 51.723 236.806 50.707 236.364 50.25 236.102 c 49.426
 235.645 48.84 235.165 48.484 234.665 c 48.129 234.165 47.953 233.618 47.953
 233.024 c 47.953 232.274 48.176 231.649 48.625 231.149 c 49.074 230.661
 49.59 230.415 50.172 230.415 c 50.965 230.415 52.004 230.934 53.297 231.977
 c f
63.562 243.634 m 63.562 240.415 l 64.762 242.559 65.988 243.634 67.25 243.634
 c 67.824 243.634 68.297 243.458 68.672 243.102 c 69.047 242.759 69.234 
242.356 69.234 241.899 c 69.234 241.493 69.098 241.149 68.828 240.868 c 
68.559 240.587 68.234 240.446 67.859 240.446 c 67.496 240.446 67.082 240.622
 66.625 240.977 c 66.176 241.341 65.844 241.524 65.625 241.524 c 65.438 
241.524 65.234 241.419 65.016 241.212 c 64.547 240.786 64.062 240.083 63.562
 239.102 c 63.562 232.243 l 63.562 231.45 63.66 230.852 63.859 230.446 c
 63.996 230.165 64.234 229.931 64.578 229.743 c 64.922 229.556 65.418 229.462
 66.062 229.462 c 66.062 228.899 l 58.734 228.899 l 58.734 229.462 l 59.465
 229.462 60.004 229.575 60.359 229.806 c 60.621 229.974 60.801 230.239 60.906
 230.602 c 60.957 230.778 60.984 231.286 60.984 232.118 c 60.984 237.665
 l 60.984 239.333 60.949 240.321 60.875 240.634 c 60.812 240.958 60.688 
241.192 60.5 241.337 c 60.324 241.481 60.098 241.556 59.828 241.556 c 59.504
 241.556 59.141 241.477 58.734 241.321 c 58.578 241.884 l 62.906 243.634
 l 63.562 243.634 l f
73.703 251.118 m 74.141 251.118 74.512 250.962 74.812 250.649 c 75.125 
250.349 75.281 249.977 75.281 249.54 c 75.281 249.102 75.125 248.727 74.812
 248.415 c 74.512 248.102 74.141 247.946 73.703 247.946 c 73.266 247.946
 72.891 248.102 72.578 248.415 c 72.266 248.727 72.109 249.102 72.109 249.54
 c 72.109 249.977 72.262 250.349 72.562 250.649 c 72.875 250.962 73.254 
251.118 73.703 251.118 c 75 243.634 m 75 232.134 l 75 231.239 75.062 230.638
 75.188 230.337 c 75.324 230.044 75.516 229.825 75.766 229.681 c 76.027 
229.536 76.496 229.462 77.172 229.462 c 77.172 228.899 l 70.219 228.899 
l 70.219 229.462 l 70.918 229.462 71.387 229.528 71.625 229.665 c 71.863
 229.802 72.051 230.024 72.188 230.337 c 72.332 230.649 72.406 231.247 72.406
 232.134 c 72.406 237.649 l 72.406 239.2 72.359 240.208 72.266 240.665 c
 72.191 240.997 72.078 241.227 71.922 241.352 c 71.766 241.489 71.551 241.556
 71.281 241.556 c 70.988 241.556 70.637 241.477 70.219 241.321 c 70 241.884
 l 74.312 243.634 l 75 243.634 l f
85.938 243.634 m 88.105 243.634 89.844 242.809 91.156 241.165 c 92.27 239.759
 92.828 238.145 92.828 236.321 c 92.828 235.04 92.52 233.743 91.906 232.431
 c 91.293 231.118 90.441 230.13 89.359 229.462 c 88.285 228.794 87.09 228.462
 85.766 228.462 c 83.609 228.462 81.895 229.321 80.625 231.04 c 79.551 232.489
 79.016 234.114 79.016 235.915 c 79.016 237.227 79.34 238.528 79.984 239.821
 c 80.641 241.122 81.5 242.083 82.562 242.696 c 83.625 243.321 84.75 243.634
 85.938 243.634 c 85.453 242.618 m 84.902 242.618 84.344 242.45 83.781 242.118
 c 83.23 241.794 82.781 241.224 82.438 240.399 c 82.094 239.575 81.922 238.52
 81.922 237.227 c 81.922 235.145 82.332 233.349 83.156 231.837 c 83.988 
230.325 85.082 229.571 86.438 229.571 c 87.449 229.571 88.281 229.989 88.938
 230.821 c 89.594 231.653 89.922 233.087 89.922 235.118 c 89.922 237.661
 89.375 239.661 88.281 241.118 c 87.543 242.118 86.598 242.618 85.453 242.618
 c f
175.605 290.571 m 175.605 283.243 l 175.027 283.243 l 174.84 284.649 174.5
 285.77 174.012 286.602 c 173.531 287.434 172.844 288.099 171.949 288.587
 c 171.055 289.075 170.125 289.321 169.168 289.321 c 168.086 289.321 167.188
 288.989 166.48 288.321 c 165.773 287.665 165.418 286.915 165.418 286.071
 c 165.418 285.427 165.641 284.837 166.09 284.306 c 166.734 283.524 168.273
 282.481 170.699 281.181 c 172.68 280.118 174.027 279.302 174.746 278.727
 c 175.477 278.165 176.031 277.497 176.418 276.727 c 176.812 275.958 177.012
 275.149 177.012 274.306 c 177.012 272.7 176.387 271.317 175.137 270.149
 c 173.898 268.993 172.297 268.415 170.34 268.415 c 169.727 268.415 169.148
 268.462 168.605 268.556 c 168.281 268.606 167.609 268.794 166.59 269.118
 c 165.578 269.45 164.938 269.618 164.668 269.618 c 164.406 269.618 164.199
 269.54 164.043 269.384 c 163.898 269.227 163.789 268.903 163.715 268.415
 c 163.137 268.415 l 163.137 275.681 l 163.715 275.681 l 163.984 274.161
 164.352 273.02 164.809 272.259 c 165.266 271.509 165.965 270.884 166.902
 270.384 c 167.852 269.884 168.887 269.634 170.012 269.634 c 171.312 269.634
 172.34 269.977 173.09 270.665 c 173.852 271.352 174.23 272.165 174.23 273.102
 c 174.23 273.622 174.086 274.149 173.793 274.681 c 173.512 275.212 173.07
 275.708 172.465 276.165 c 172.059 276.477 170.949 277.138 169.137 278.149
 c 167.324 279.169 166.031 279.981 165.262 280.587 c 164.5 281.192 163.922
 281.856 163.527 282.587 c 163.133 283.317 162.934 284.118 162.934 284.993
 c 162.934 286.513 163.516 287.821 164.684 288.915 c 165.852 290.02 167.336
 290.571 169.137 290.571 c 170.262 290.571 171.453 290.294 172.715 289.743
 c 173.297 289.481 173.711 289.352 173.949 289.352 c 174.219 289.352 174.438
 289.431 174.605 289.587 c 174.781 289.755 174.922 290.083 175.027 290.571
 c 175.605 290.571 l f
183.387 291.118 m 183.824 291.118 184.195 290.962 184.496 290.649 c 184.809
 290.349 184.965 289.977 184.965 289.54 c 184.965 289.102 184.809 288.727
 184.496 288.415 c 184.195 288.102 183.824 287.946 183.387 287.946 c 182.949
 287.946 182.574 288.102 182.262 288.415 c 181.949 288.727 181.793 289.102
 181.793 289.54 c 181.793 289.977 181.945 290.349 182.246 290.649 c 182.559
 290.962 182.938 291.118 183.387 291.118 c 184.684 283.634 m 184.684 272.134
 l 184.684 271.239 184.746 270.638 184.871 270.337 c 185.008 270.044 185.199
 269.825 185.449 269.681 c 185.711 269.536 186.18 269.462 186.855 269.462
 c 186.855 268.899 l 179.902 268.899 l 179.902 269.462 l 180.602 269.462
 181.07 269.528 181.309 269.665 c 181.547 269.802 181.734 270.024 181.871
 270.337 c 182.016 270.649 182.09 271.247 182.09 272.134 c 182.09 277.649
 l 182.09 279.2 182.043 280.208 181.949 280.665 c 181.875 280.997 181.762
 281.227 181.605 281.352 c 181.449 281.489 181.234 281.556 180.965 281.556
 c 180.672 281.556 180.32 281.477 179.902 281.321 c 179.684 281.884 l 183.996
 283.634 l 184.684 283.634 l f
197.871 283.634 m 197.871 278.759 l 197.355 278.759 l 196.961 280.29 196.449
 281.333 195.824 281.884 c 195.211 282.434 194.422 282.712 193.465 282.712
 c 192.734 282.712 192.148 282.52 191.699 282.134 c 191.25 281.747 191.027
 281.321 191.027 280.852 c 191.027 280.27 191.195 279.77 191.527 279.352
 c 191.852 278.927 192.508 278.474 193.496 277.993 c 195.777 276.884 l 197.891
 275.852 198.949 274.493 198.949 272.806 c 198.949 271.505 198.453 270.45
 197.465 269.649 c 196.484 268.856 195.387 268.462 194.168 268.462 c 193.293
 268.462 192.293 268.618 191.168 268.931 c 190.824 269.036 190.543 269.087
 190.324 269.087 c 190.086 269.087 189.898 268.95 189.762 268.681 c 189.246
 268.681 l 189.246 273.79 l 189.762 273.79 l 190.055 272.333 190.609 271.231
 191.434 270.493 c 192.258 269.755 193.18 269.384 194.199 269.384 c 194.918
 269.384 195.5 269.591 195.949 270.009 c 196.406 270.434 196.637 270.946
 196.637 271.54 c 196.637 272.259 196.383 272.864 195.871 273.352 c 195.371
 273.841 194.367 274.462 192.855 275.212 c 191.344 275.962 190.355 276.638
 189.887 277.243 c 189.418 277.837 189.184 278.587 189.184 279.493 c 189.184
 280.669 189.586 281.653 190.387 282.446 c 191.199 283.239 192.246 283.634
 193.527 283.634 c 194.09 283.634 194.773 283.513 195.574 283.274 c 196.105
 283.118 196.461 283.04 196.637 283.04 c 196.805 283.04 196.934 283.075 
197.027 283.149 c 197.121 283.224 197.23 283.384 197.355 283.634 c 197.871
 283.634 l f
205.215 287.915 m 205.215 283.212 l 208.559 283.212 l 208.559 282.118 l
 205.215 282.118 l 205.215 272.837 l 205.215 271.911 205.344 271.286 205.605
 270.962 c 205.875 270.638 206.219 270.477 206.637 270.477 c 206.98 270.477
 207.312 270.583 207.637 270.79 c 207.961 271.009 208.211 271.325 208.387
 271.743 c 208.996 271.743 l 208.633 270.724 208.117 269.95 207.449 269.431
 c 206.781 268.919 206.094 268.665 205.387 268.665 c 204.906 268.665 204.438
 268.794 203.98 269.056 c 203.523 269.325 203.184 269.708 202.965 270.196
 c 202.746 270.696 202.637 271.462 202.637 272.493 c 202.637 282.118 l 200.371
 282.118 l 200.371 282.634 l 200.945 282.864 201.527 283.247 202.121 283.79
 c 202.727 284.341 203.262 284.993 203.73 285.743 c 203.969 286.138 204.305
 286.864 204.73 287.915 c 205.215 287.915 l f
212.34 277.821 m 212.328 275.696 212.844 274.028 213.887 272.821 c 214.93
 271.614 216.152 271.009 217.559 271.009 c 218.496 271.009 219.309 271.263
 219.996 271.774 c 220.695 272.294 221.277 273.181 221.746 274.431 c 222.23
 274.118 l 222.012 272.692 221.375 271.388 220.324 270.212 c 219.273 269.044
 217.953 268.462 216.371 268.462 c 214.652 268.462 213.18 269.13 211.949
 270.462 c 210.73 271.806 210.121 273.606 210.121 275.868 c 210.121 278.317
 210.746 280.224 211.996 281.587 c 213.258 282.962 214.836 283.649 216.73
 283.649 c 218.336 283.649 219.652 283.118 220.684 282.056 c 221.715 281.005
 222.23 279.591 222.23 277.821 c 212.34 277.821 l 212.34 278.727 m 218.965
 278.727 l 218.914 279.645 218.805 280.29 218.637 280.665 c 218.375 281.247
 217.984 281.708 217.465 282.04 c 216.953 282.372 216.418 282.54 215.855
 282.54 c 214.992 282.54 214.215 282.2 213.527 281.524 c 212.852 280.856
 212.453 279.927 212.34 278.727 c f
228.371 280.587 m 229.414 281.63 230.027 282.227 230.215 282.384 c 230.684
 282.778 231.188 283.087 231.73 283.306 c 232.273 283.524 232.809 283.634
 233.34 283.634 c 234.234 283.634 235.008 283.372 235.652 282.852 c 236.297
 282.333 236.73 281.575 236.949 280.587 c 238.023 281.837 238.93 282.653
 239.668 283.04 c 240.406 283.434 241.168 283.634 241.949 283.634 c 242.711
 283.634 243.383 283.434 243.965 283.04 c 244.559 282.653 245.027 282.02
 245.371 281.134 c 245.602 280.528 245.715 279.583 245.715 278.29 c 245.715
 272.134 l 245.715 271.239 245.781 270.622 245.918 270.29 c 246.023 270.059
 246.215 269.864 246.496 269.696 c 246.777 269.54 247.234 269.462 247.871
 269.462 c 247.871 268.899 l 240.809 268.899 l 240.809 269.462 l 241.105
 269.462 l 241.719 269.462 242.199 269.583 242.543 269.821 c 242.781 269.989
 242.953 270.255 243.059 270.618 c 243.102 270.794 243.121 271.302 243.121
 272.134 c 243.121 278.29 l 243.121 279.458 242.98 280.278 242.699 280.759
 c 242.293 281.427 241.641 281.759 240.746 281.759 c 240.195 281.759 239.637
 281.618 239.074 281.337 c 238.523 281.067 237.852 280.556 237.059 279.806
 c 237.027 279.634 l 237.059 278.962 l 237.059 272.134 l 237.059 271.153
 237.109 270.544 237.215 270.306 c 237.328 270.067 237.539 269.864 237.84
 269.696 c 238.141 269.54 238.656 269.462 239.387 269.462 c 239.387 268.899
 l 232.152 268.899 l 232.152 269.462 l 232.945 269.462 233.484 269.556 233.777
 269.743 c 234.078 269.931 234.289 270.212 234.402 270.587 c 234.453 270.763
 234.48 271.278 234.48 272.134 c 234.48 278.29 l 234.48 279.458 234.309 
280.294 233.965 280.806 c 233.508 281.474 232.867 281.806 232.043 281.806
 c 231.48 281.806 230.922 281.653 230.371 281.352 c 229.508 280.895 228.84
 280.38 228.371 279.806 c 228.371 272.134 l 228.371 271.196 228.434 270.587
 228.559 270.306 c 228.695 270.024 228.887 269.809 229.137 269.665 c 229.398
 269.528 229.918 269.462 230.699 269.462 c 230.699 268.899 l 223.621 268.899
 l 223.621 269.462 l 224.277 269.462 224.734 269.528 224.996 269.665 c 225.258
 269.809 225.453 270.036 225.59 270.337 c 225.727 270.649 225.793 271.247
 225.793 272.134 c 225.793 277.602 l 225.793 279.177 225.746 280.192 225.652
 280.649 c 225.578 280.993 225.465 281.227 225.309 281.352 c 225.152 281.489
 224.938 281.556 224.668 281.556 c 224.375 281.556 224.027 281.477 223.621
 281.321 c 223.387 281.884 l 227.699 283.634 l 228.371 283.634 l 228.371
 280.587 l f
257.105 270.962 m 255.637 269.825 254.715 269.169 254.34 268.993 c 253.777
 268.731 253.18 268.602 252.543 268.602 c 251.555 268.602 250.734 268.942
 250.09 269.618 c 249.453 270.294 249.137 271.184 249.137 272.29 c 249.137
 272.989 249.293 273.591 249.605 274.102 c 250.031 274.809 250.773 275.477
 251.824 276.102 c 252.887 276.727 254.648 277.489 257.105 278.384 c 257.105
 278.946 l 257.105 280.372 256.875 281.352 256.418 281.884 c 255.969 282.415
 255.312 282.681 254.449 282.681 c 253.793 282.681 253.273 282.505 252.887
 282.149 c 252.492 281.794 252.293 281.388 252.293 280.931 c 252.324 280.024
 l 252.324 279.544 252.199 279.177 251.949 278.915 c 251.711 278.653 251.391
 278.524 250.996 278.524 c 250.609 278.524 250.293 278.661 250.043 278.931
 c 249.805 279.2 249.684 279.571 249.684 280.04 c 249.684 280.934 250.141
 281.759 251.059 282.509 c 251.977 283.259 253.262 283.634 254.918 283.634
 c 256.188 283.634 257.23 283.419 258.043 282.993 c 258.656 282.669 259.109
 282.165 259.402 281.477 c 259.59 281.028 259.684 280.114 259.684 278.727
 c 259.684 273.868 l 259.684 272.505 259.711 271.665 259.762 271.352 c 259.812
 271.052 259.898 270.849 260.012 270.743 c 260.137 270.638 260.277 270.587
 260.434 270.587 c 260.602 270.587 260.746 270.622 260.871 270.696 c 261.09
 270.833 261.512 271.212 262.137 271.837 c 262.137 270.962 l 260.969 269.399
 259.855 268.618 258.793 268.618 c 258.281 268.618 257.875 268.794 257.574
 269.149 c 257.273 269.505 257.117 270.106 257.105 270.962 c 257.105 271.977
 m 257.105 277.431 l 255.531 276.806 254.516 276.364 254.059 276.102 c 253.234
 275.645 252.648 275.165 252.293 274.665 c 251.938 274.165 251.762 273.618
 251.762 273.024 c 251.762 272.274 251.984 271.649 252.434 271.149 c 252.883
 270.661 253.398 270.415 253.98 270.415 c 254.773 270.415 255.812 270.934
 257.105 271.977 c f
188.496 243.634 m 190.664 243.634 192.402 242.809 193.715 241.165 c 194.828
 239.759 195.387 238.145 195.387 236.321 c 195.387 235.04 195.078 233.743
 194.465 232.431 c 193.852 231.118 193 230.13 191.918 229.462 c 190.844 
228.794 189.648 228.462 188.324 228.462 c 186.168 228.462 184.453 229.321
 183.184 231.04 c 182.109 232.489 181.574 234.114 181.574 235.915 c 181.574
 237.227 181.898 238.528 182.543 239.821 c 183.199 241.122 184.059 242.083
 185.121 242.696 c 186.184 243.321 187.309 243.634 188.496 243.634 c 188.012
 242.618 m 187.461 242.618 186.902 242.45 186.34 242.118 c 185.789 241.794
 185.34 241.224 184.996 240.399 c 184.652 239.575 184.48 238.52 184.48 237.227
 c 184.48 235.145 184.891 233.349 185.715 231.837 c 186.547 230.325 187.641
 229.571 188.996 229.571 c 190.008 229.571 190.84 229.989 191.496 230.821
 c 192.152 231.653 192.48 233.087 192.48 235.118 c 192.48 237.661 191.934
 239.661 190.84 241.118 c 190.102 242.118 189.156 242.618 188.012 242.618
 c f
209.652 234.337 m 209.266 232.45 208.512 230.997 207.387 229.977 c 206.262
 228.966 205.016 228.462 203.652 228.462 c 202.027 228.462 200.609 229.145
 199.402 230.509 c 198.195 231.872 197.59 233.716 197.59 236.04 c 197.59
 238.29 198.258 240.118 199.59 241.524 c 200.934 242.931 202.543 243.634
 204.418 243.634 c 205.824 243.634 206.98 243.259 207.887 242.509 c 208.793
 241.77 209.246 240.997 209.246 240.196 c 209.246 239.802 209.117 239.477
 208.855 239.227 c 208.605 238.989 208.25 238.868 207.793 238.868 c 207.18
 238.868 206.715 239.067 206.402 239.462 c 206.227 239.681 206.105 240.099
 206.043 240.712 c 205.992 241.325 205.781 241.794 205.418 242.118 c 205.055
 242.431 204.547 242.587 203.902 242.587 c 202.859 242.587 202.023 242.2
 201.387 241.431 c 200.543 240.411 200.121 239.059 200.121 237.384 c 200.121
 235.677 200.539 234.165 201.371 232.852 c 202.215 231.552 203.352 230.899
 204.777 230.899 c 205.797 230.899 206.715 231.247 207.527 231.946 c 208.102
 232.427 208.656 233.294 209.199 234.556 c 209.652 234.337 l f
215.84 247.915 m 215.84 243.212 l 219.184 243.212 l 219.184 242.118 l 215.84
 242.118 l 215.84 232.837 l 215.84 231.911 215.969 231.286 216.23 230.962
 c 216.5 230.638 216.844 230.477 217.262 230.477 c 217.605 230.477 217.938
 230.583 218.262 230.79 c 218.586 231.009 218.836 231.325 219.012 231.743
 c 219.621 231.743 l 219.258 230.724 218.742 229.95 218.074 229.431 c 217.406
 228.919 216.719 228.665 216.012 228.665 c 215.531 228.665 215.062 228.794
 214.605 229.056 c 214.148 229.325 213.809 229.708 213.59 230.196 c 213.371
 230.696 213.262 231.462 213.262 232.493 c 213.262 242.118 l 210.996 242.118
 l 210.996 242.634 l 211.57 242.864 212.152 243.247 212.746 243.79 c 213.352
 244.341 213.887 244.993 214.355 245.743 c 214.594 246.138 214.93 246.864
 215.355 247.915 c 215.84 247.915 l f
228.668 230.962 m 227.199 229.825 226.277 229.169 225.902 228.993 c 225.34
 228.731 224.742 228.602 224.105 228.602 c 223.117 228.602 222.297 228.942
 221.652 229.618 c 221.016 230.294 220.699 231.184 220.699 232.29 c 220.699
 232.989 220.855 233.591 221.168 234.102 c 221.594 234.809 222.336 235.477
 223.387 236.102 c 224.449 236.727 226.211 237.489 228.668 238.384 c 228.668
 238.946 l 228.668 240.372 228.438 241.352 227.98 241.884 c 227.531 242.415
 226.875 242.681 226.012 242.681 c 225.355 242.681 224.836 242.505 224.449
 242.149 c 224.055 241.794 223.855 241.388 223.855 240.931 c 223.887 240.024
 l 223.887 239.544 223.762 239.177 223.512 238.915 c 223.273 238.653 222.953
 238.524 222.559 238.524 c 222.172 238.524 221.855 238.661 221.605 238.931
 c 221.367 239.2 221.246 239.571 221.246 240.04 c 221.246 240.934 221.703
 241.759 222.621 242.509 c 223.539 243.259 224.824 243.634 226.48 243.634
 c 227.75 243.634 228.793 243.419 229.605 242.993 c 230.219 242.669 230.672
 242.165 230.965 241.477 c 231.152 241.028 231.246 240.114 231.246 238.727
 c 231.246 233.868 l 231.246 232.505 231.273 231.665 231.324 231.352 c 231.375
 231.052 231.461 230.849 231.574 230.743 c 231.699 230.638 231.84 230.587
 231.996 230.587 c 232.164 230.587 232.309 230.622 232.434 230.696 c 232.652
 230.833 233.074 231.212 233.699 231.837 c 233.699 230.962 l 232.531 229.399
 231.418 228.618 230.355 228.618 c 229.844 228.618 229.438 228.794 229.137
 229.149 c 228.836 229.505 228.68 230.106 228.668 230.962 c 228.668 231.977
 m 228.668 237.431 l 227.094 236.806 226.078 236.364 225.621 236.102 c 224.797
 235.645 224.211 235.165 223.855 234.665 c 223.5 234.165 223.324 233.618
 223.324 233.024 c 223.324 232.274 223.547 231.649 223.996 231.149 c 224.445
 230.661 224.961 230.415 225.543 230.415 c 226.336 230.415 227.375 230.934
 228.668 231.977 c f
239.668 251.118 m 239.668 232.134 l 239.668 231.239 239.73 230.645 239.855
 230.352 c 239.992 230.059 240.195 229.837 240.465 229.681 c 240.734 229.536
 241.242 229.462 241.98 229.462 c 241.98 228.899 l 234.965 228.899 l 234.965
 229.462 l 235.621 229.462 236.07 229.528 236.309 229.665 c 236.547 229.802
 236.734 230.024 236.871 230.337 c 237.008 230.649 237.074 231.247 237.074
 232.134 c 237.074 245.134 l 237.074 246.747 237.039 247.739 236.965 248.102
 c 236.891 248.477 236.773 248.731 236.605 248.868 c 236.449 249.005 236.246
 249.071 235.996 249.071 c 235.727 249.071 235.383 248.989 234.965 248.821
 c 234.699 249.368 l 238.965 251.118 l 239.668 251.118 l f
370.492 290.571 m 370.492 283.243 l 369.914 283.243 l 369.727 284.649 369.387
 285.77 368.898 286.602 c 368.418 287.434 367.73 288.099 366.836 288.587
 c 365.941 289.075 365.012 289.321 364.055 289.321 c 362.973 289.321 362.074
 288.989 361.367 288.321 c 360.66 287.665 360.305 286.915 360.305 286.071
 c 360.305 285.427 360.527 284.837 360.977 284.306 c 361.621 283.524 363.16
 282.481 365.586 281.181 c 367.566 280.118 368.914 279.302 369.633 278.727
 c 370.363 278.165 370.918 277.497 371.305 276.727 c 371.699 275.958 371.898
 275.149 371.898 274.306 c 371.898 272.7 371.273 271.317 370.023 270.149
 c 368.785 268.993 367.184 268.415 365.227 268.415 c 364.613 268.415 364.035
 268.462 363.492 268.556 c 363.168 268.606 362.496 268.794 361.477 269.118
 c 360.465 269.45 359.824 269.618 359.555 269.618 c 359.293 269.618 359.086
 269.54 358.93 269.384 c 358.785 269.227 358.676 268.903 358.602 268.415
 c 358.023 268.415 l 358.023 275.681 l 358.602 275.681 l 358.871 274.161
 359.238 273.02 359.695 272.259 c 360.152 271.509 360.852 270.884 361.789
 270.384 c 362.738 269.884 363.773 269.634 364.898 269.634 c 366.199 269.634
 367.227 269.977 367.977 270.665 c 368.738 271.352 369.117 272.165 369.117
 273.102 c 369.117 273.622 368.973 274.149 368.68 274.681 c 368.398 275.212
 367.957 275.708 367.352 276.165 c 366.945 276.477 365.836 277.138 364.023
 278.149 c 362.211 279.169 360.918 279.981 360.148 280.587 c 359.387 281.192
 358.809 281.856 358.414 282.587 c 358.02 283.317 357.82 284.118 357.82 
284.993 c 357.82 286.513 358.402 287.821 359.57 288.915 c 360.738 290.02
 362.223 290.571 364.023 290.571 c 365.148 290.571 366.34 290.294 367.602
 289.743 c 368.184 289.481 368.598 289.352 368.836 289.352 c 369.105 289.352
 369.324 289.431 369.492 289.587 c 369.668 289.755 369.809 290.083 369.914
 290.571 c 370.492 290.571 l f
378.273 291.118 m 378.711 291.118 379.082 290.962 379.383 290.649 c 379.695
 290.349 379.852 289.977 379.852 289.54 c 379.852 289.102 379.695 288.727
 379.383 288.415 c 379.082 288.102 378.711 287.946 378.273 287.946 c 377.836
 287.946 377.461 288.102 377.148 288.415 c 376.836 288.727 376.68 289.102
 376.68 289.54 c 376.68 289.977 376.832 290.349 377.133 290.649 c 377.445
 290.962 377.824 291.118 378.273 291.118 c 379.57 283.634 m 379.57 272.134
 l 379.57 271.239 379.633 270.638 379.758 270.337 c 379.895 270.044 380.086
 269.825 380.336 269.681 c 380.598 269.536 381.066 269.462 381.742 269.462
 c 381.742 268.899 l 374.789 268.899 l 374.789 269.462 l 375.488 269.462
 375.957 269.528 376.195 269.665 c 376.434 269.802 376.621 270.024 376.758
 270.337 c 376.902 270.649 376.977 271.247 376.977 272.134 c 376.977 277.649
 l 376.977 279.2 376.93 280.208 376.836 280.665 c 376.762 280.997 376.648
 281.227 376.492 281.352 c 376.336 281.489 376.121 281.556 375.852 281.556
 c 375.559 281.556 375.207 281.477 374.789 281.321 c 374.57 281.884 l 378.883
 283.634 l 379.57 283.634 l f
392.758 283.634 m 392.758 278.759 l 392.242 278.759 l 391.848 280.29 391.336
 281.333 390.711 281.884 c 390.098 282.434 389.309 282.712 388.352 282.712
 c 387.621 282.712 387.035 282.52 386.586 282.134 c 386.137 281.747 385.914
 281.321 385.914 280.852 c 385.914 280.27 386.082 279.77 386.414 279.352
 c 386.738 278.927 387.395 278.474 388.383 277.993 c 390.664 276.884 l 392.777
 275.852 393.836 274.493 393.836 272.806 c 393.836 271.505 393.34 270.45
 392.352 269.649 c 391.371 268.856 390.273 268.462 389.055 268.462 c 388.18
 268.462 387.18 268.618 386.055 268.931 c 385.711 269.036 385.43 269.087
 385.211 269.087 c 384.973 269.087 384.785 268.95 384.648 268.681 c 384.133
 268.681 l 384.133 273.79 l 384.648 273.79 l 384.941 272.333 385.496 271.231
 386.32 270.493 c 387.145 269.755 388.066 269.384 389.086 269.384 c 389.805
 269.384 390.387 269.591 390.836 270.009 c 391.293 270.434 391.523 270.946
 391.523 271.54 c 391.523 272.259 391.27 272.864 390.758 273.352 c 390.258
 273.841 389.254 274.462 387.742 275.212 c 386.23 275.962 385.242 276.638
 384.773 277.243 c 384.305 277.837 384.07 278.587 384.07 279.493 c 384.07
 280.669 384.473 281.653 385.273 282.446 c 386.086 283.239 387.133 283.634
 388.414 283.634 c 388.977 283.634 389.66 283.513 390.461 283.274 c 390.992
 283.118 391.348 283.04 391.523 283.04 c 391.691 283.04 391.82 283.075 391.914
 283.149 c 392.008 283.224 392.117 283.384 392.242 283.634 c 392.758 283.634
 l f
400.102 287.915 m 400.102 283.212 l 403.445 283.212 l 403.445 282.118 l
 400.102 282.118 l 400.102 272.837 l 400.102 271.911 400.23 271.286 400.492
 270.962 c 400.762 270.638 401.105 270.477 401.523 270.477 c 401.867 270.477
 402.199 270.583 402.523 270.79 c 402.848 271.009 403.098 271.325 403.273
 271.743 c 403.883 271.743 l 403.52 270.724 403.004 269.95 402.336 269.431
 c 401.668 268.919 400.98 268.665 400.273 268.665 c 399.793 268.665 399.324
 268.794 398.867 269.056 c 398.41 269.325 398.07 269.708 397.852 270.196
 c 397.633 270.696 397.523 271.462 397.523 272.493 c 397.523 282.118 l 395.258
 282.118 l 395.258 282.634 l 395.832 282.864 396.414 283.247 397.008 283.79
 c 397.613 284.341 398.148 284.993 398.617 285.743 c 398.855 286.138 399.191
 286.864 399.617 287.915 c 400.102 287.915 l f
407.227 277.821 m 407.215 275.696 407.73 274.028 408.773 272.821 c 409.816
 271.614 411.039 271.009 412.445 271.009 c 413.383 271.009 414.195 271.263
 414.883 271.774 c 415.582 272.294 416.164 273.181 416.633 274.431 c 417.117
 274.118 l 416.898 272.692 416.262 271.388 415.211 270.212 c 414.16 269.044
 412.84 268.462 411.258 268.462 c 409.539 268.462 408.066 269.13 406.836
 270.462 c 405.617 271.806 405.008 273.606 405.008 275.868 c 405.008 278.317
 405.633 280.224 406.883 281.587 c 408.145 282.962 409.723 283.649 411.617
 283.649 c 413.223 283.649 414.539 283.118 415.57 282.056 c 416.602 281.005
 417.117 279.591 417.117 277.821 c 407.227 277.821 l 407.227 278.727 m 413.852
 278.727 l 413.801 279.645 413.691 280.29 413.523 280.665 c 413.262 281.247
 412.871 281.708 412.352 282.04 c 411.84 282.372 411.305 282.54 410.742 
282.54 c 409.879 282.54 409.102 282.2 408.414 281.524 c 407.738 280.856 
407.34 279.927 407.227 278.727 c f
423.258 280.587 m 424.301 281.63 424.914 282.227 425.102 282.384 c 425.57
 282.778 426.074 283.087 426.617 283.306 c 427.16 283.524 427.695 283.634
 428.227 283.634 c 429.121 283.634 429.895 283.372 430.539 282.852 c 431.184
 282.333 431.617 281.575 431.836 280.587 c 432.91 281.837 433.816 282.653
 434.555 283.04 c 435.293 283.434 436.055 283.634 436.836 283.634 c 437.598
 283.634 438.27 283.434 438.852 283.04 c 439.445 282.653 439.914 282.02 
440.258 281.134 c 440.488 280.528 440.602 279.583 440.602 278.29 c 440.602
 272.134 l 440.602 271.239 440.668 270.622 440.805 270.29 c 440.91 270.059
 441.102 269.864 441.383 269.696 c 441.664 269.54 442.121 269.462 442.758
 269.462 c 442.758 268.899 l 435.695 268.899 l 435.695 269.462 l 435.992
 269.462 l 436.605 269.462 437.086 269.583 437.43 269.821 c 437.668 269.989
 437.84 270.255 437.945 270.618 c 437.988 270.794 438.008 271.302 438.008
 272.134 c 438.008 278.29 l 438.008 279.458 437.867 280.278 437.586 280.759
 c 437.18 281.427 436.527 281.759 435.633 281.759 c 435.082 281.759 434.523
 281.618 433.961 281.337 c 433.41 281.067 432.738 280.556 431.945 279.806
 c 431.914 279.634 l 431.945 278.962 l 431.945 272.134 l 431.945 271.153
 431.996 270.544 432.102 270.306 c 432.215 270.067 432.426 269.864 432.727
 269.696 c 433.027 269.54 433.543 269.462 434.273 269.462 c 434.273 268.899
 l 427.039 268.899 l 427.039 269.462 l 427.832 269.462 428.371 269.556 428.664
 269.743 c 428.965 269.931 429.176 270.212 429.289 270.587 c 429.34 270.763
 429.367 271.278 429.367 272.134 c 429.367 278.29 l 429.367 279.458 429.195
 280.294 428.852 280.806 c 428.395 281.474 427.754 281.806 426.93 281.806
 c 426.367 281.806 425.809 281.653 425.258 281.352 c 424.395 280.895 423.727
 280.38 423.258 279.806 c 423.258 272.134 l 423.258 271.196 423.32 270.587
 423.445 270.306 c 423.582 270.024 423.773 269.809 424.023 269.665 c 424.285
 269.528 424.805 269.462 425.586 269.462 c 425.586 268.899 l 418.508 268.899
 l 418.508 269.462 l 419.164 269.462 419.621 269.528 419.883 269.665 c 420.145
 269.809 420.34 270.036 420.477 270.337 c 420.613 270.649 420.68 271.247
 420.68 272.134 c 420.68 277.602 l 420.68 279.177 420.633 280.192 420.539
 280.649 c 420.465 280.993 420.352 281.227 420.195 281.352 c 420.039 281.489
 419.824 281.556 419.555 281.556 c 419.262 281.556 418.914 281.477 418.508
 281.321 c 418.273 281.884 l 422.586 283.634 l 423.258 283.634 l 423.258
 280.587 l f
451.992 270.962 m 450.523 269.825 449.602 269.169 449.227 268.993 c 448.664
 268.731 448.066 268.602 447.43 268.602 c 446.441 268.602 445.621 268.942
 444.977 269.618 c 444.34 270.294 444.023 271.184 444.023 272.29 c 444.023
 272.989 444.18 273.591 444.492 274.102 c 444.918 274.809 445.66 275.477
 446.711 276.102 c 447.773 276.727 449.535 277.489 451.992 278.384 c 451.992
 278.946 l 451.992 280.372 451.762 281.352 451.305 281.884 c 450.855 282.415
 450.199 282.681 449.336 282.681 c 448.68 282.681 448.16 282.505 447.773
 282.149 c 447.379 281.794 447.18 281.388 447.18 280.931 c 447.211 280.024
 l 447.211 279.544 447.086 279.177 446.836 278.915 c 446.598 278.653 446.277
 278.524 445.883 278.524 c 445.496 278.524 445.18 278.661 444.93 278.931
 c 444.691 279.2 444.57 279.571 444.57 280.04 c 444.57 280.934 445.027 281.759
 445.945 282.509 c 446.863 283.259 448.148 283.634 449.805 283.634 c 451.074
 283.634 452.117 283.419 452.93 282.993 c 453.543 282.669 453.996 282.165
 454.289 281.477 c 454.477 281.028 454.57 280.114 454.57 278.727 c 454.57
 273.868 l 454.57 272.505 454.598 271.665 454.648 271.352 c 454.699 271.052
 454.785 270.849 454.898 270.743 c 455.023 270.638 455.164 270.587 455.32
 270.587 c 455.488 270.587 455.633 270.622 455.758 270.696 c 455.977 270.833
 456.398 271.212 457.023 271.837 c 457.023 270.962 l 455.855 269.399 454.742
 268.618 453.68 268.618 c 453.168 268.618 452.762 268.794 452.461 269.149
 c 452.16 269.505 452.004 270.106 451.992 270.962 c 451.992 271.977 m 451.992
 277.431 l 450.418 276.806 449.402 276.364 448.945 276.102 c 448.121 275.645
 447.535 275.165 447.18 274.665 c 446.824 274.165 446.648 273.618 446.648
 273.024 c 446.648 272.274 446.871 271.649 447.32 271.149 c 447.77 270.661
 448.285 270.415 448.867 270.415 c 449.66 270.415 450.699 270.934 451.992
 271.977 c f
330.867 251.118 m 330.867 240.649 l 332.023 241.919 332.941 242.731 333.617
 243.087 c 334.293 243.45 334.973 243.634 335.648 243.634 c 336.461 243.634
 337.16 243.411 337.742 242.962 c 338.324 242.513 338.758 241.809 339.039
 240.852 c 339.238 240.184 339.336 238.966 339.336 237.196 c 339.336 232.134
 l 339.336 231.227 339.41 230.606 339.555 230.274 c 339.66 230.024 339.836
 229.825 340.086 229.681 c 340.336 229.536 340.793 229.462 341.461 229.462
 c 341.461 228.899 l 334.43 228.899 l 334.43 229.462 l 334.758 229.462 l
 335.426 229.462 335.887 229.559 336.148 229.759 c 336.41 229.966 336.59
 230.27 336.695 230.665 c 336.727 230.833 336.742 231.321 336.742 232.134
 c 336.742 237.196 l 336.742 238.759 336.66 239.786 336.492 240.274 c 336.336
 240.763 336.082 241.13 335.727 241.368 c 335.371 241.618 334.945 241.743
 334.445 241.743 c 333.934 241.743 333.402 241.606 332.852 241.337 c 332.301
 241.067 331.637 240.52 330.867 239.696 c 330.867 232.134 l 330.867 231.153
 330.918 230.544 331.023 230.306 c 331.137 230.067 331.34 229.864 331.633
 229.696 c 331.934 229.54 332.449 229.462 333.18 229.462 c 333.18 228.899
 l 326.086 228.899 l 326.086 229.462 l 326.723 229.462 327.223 229.559 327.586
 229.759 c 327.793 229.864 327.961 230.059 328.086 230.352 c 328.211 230.645
 328.273 231.239 328.273 232.134 c 328.273 245.087 l 328.273 246.724 328.23
 247.727 328.148 248.102 c 328.074 248.477 327.957 248.731 327.789 248.868
 c 327.633 249.005 327.418 249.071 327.148 249.071 c 326.93 249.071 326.574
 248.989 326.086 248.821 c 325.867 249.368 l 330.148 251.118 l 330.867 251.118
 l f
345.07 237.821 m 345.059 235.696 345.574 234.028 346.617 232.821 c 347.66
 231.614 348.883 231.009 350.289 231.009 c 351.227 231.009 352.039 231.263
 352.727 231.774 c 353.426 232.294 354.008 233.181 354.477 234.431 c 354.961
 234.118 l 354.742 232.692 354.105 231.388 353.055 230.212 c 352.004 229.044
 350.684 228.462 349.102 228.462 c 347.383 228.462 345.91 229.13 344.68 
230.462 c 343.461 231.806 342.852 233.606 342.852 235.868 c 342.852 238.317
 343.477 240.224 344.727 241.587 c 345.988 242.962 347.566 243.649 349.461
 243.649 c 351.066 243.649 352.383 243.118 353.414 242.056 c 354.445 241.005
 354.961 239.591 354.961 237.821 c 345.07 237.821 l 345.07 238.727 m 351.695
 238.727 l 351.645 239.645 351.535 240.29 351.367 240.665 c 351.105 241.247
 350.715 241.708 350.195 242.04 c 349.684 242.372 349.148 242.54 348.586
 242.54 c 347.723 242.54 346.945 242.2 346.258 241.524 c 345.582 240.856
 345.184 239.927 345.07 238.727 c f
356.273 243.212 m 363.008 243.212 l 363.008 242.634 l 362.582 242.634 362.277
 242.559 362.102 242.415 c 361.934 242.27 361.852 242.075 361.852 241.837
 c 361.852 241.587 362.035 241.2 362.398 240.681 c 362.512 240.513 362.684
 240.255 362.914 239.899 c 363.93 238.274 l 365.102 239.899 l 365.852 240.931
 366.227 241.583 366.227 241.852 c 366.227 242.071 366.137 242.255 365.961
 242.399 c 365.785 242.556 365.496 242.634 365.102 242.634 c 365.102 243.212
 l 369.945 243.212 l 369.945 242.634 l 369.434 242.602 368.992 242.462 368.617
 242.212 c 368.105 241.856 367.41 241.087 366.523 239.899 c 364.57 237.29
 l 368.133 232.165 l 369.008 230.903 369.633 230.145 370.008 229.884 c 370.383
 229.634 370.867 229.493 371.461 229.462 c 371.461 228.899 l 364.711 228.899
 l 364.711 229.462 l 365.18 229.462 365.543 229.567 365.805 229.774 c 366.004
 229.919 366.102 230.114 366.102 230.352 c 366.102 230.591 365.77 231.196
 365.102 232.165 c 363.008 235.227 l 360.711 232.165 l 360.004 231.216 359.648
 230.653 359.648 230.477 c 359.648 230.227 359.762 229.997 359.992 229.79
 c 360.23 229.591 360.586 229.481 361.055 229.462 c 361.055 228.899 l 356.383
 228.899 l 356.383 229.462 l 356.758 229.513 357.086 229.645 357.367 229.852
 c 357.762 230.153 358.43 230.927 359.367 232.165 c 362.367 236.149 l 359.648
 240.087 l 358.879 241.212 358.277 241.915 357.852 242.196 c 357.434 242.489
 356.91 242.634 356.273 242.634 c 356.273 243.212 l f
380.961 230.962 m 379.492 229.825 378.57 229.169 378.195 228.993 c 377.633
 228.731 377.035 228.602 376.398 228.602 c 375.41 228.602 374.59 228.942
 373.945 229.618 c 373.309 230.294 372.992 231.184 372.992 232.29 c 372.992
 232.989 373.148 233.591 373.461 234.102 c 373.887 234.809 374.629 235.477
 375.68 236.102 c 376.742 236.727 378.504 237.489 380.961 238.384 c 380.961
 238.946 l 380.961 240.372 380.73 241.352 380.273 241.884 c 379.824 242.415
 379.168 242.681 378.305 242.681 c 377.648 242.681 377.129 242.505 376.742
 242.149 c 376.348 241.794 376.148 241.388 376.148 240.931 c 376.18 240.024
 l 376.18 239.544 376.055 239.177 375.805 238.915 c 375.566 238.653 375.246
 238.524 374.852 238.524 c 374.465 238.524 374.148 238.661 373.898 238.931
 c 373.66 239.2 373.539 239.571 373.539 240.04 c 373.539 240.934 373.996
 241.759 374.914 242.509 c 375.832 243.259 377.117 243.634 378.773 243.634
 c 380.043 243.634 381.086 243.419 381.898 242.993 c 382.512 242.669 382.965
 242.165 383.258 241.477 c 383.445 241.028 383.539 240.114 383.539 238.727
 c 383.539 233.868 l 383.539 232.505 383.566 231.665 383.617 231.352 c 383.668
 231.052 383.754 230.849 383.867 230.743 c 383.992 230.638 384.133 230.587
 384.289 230.587 c 384.457 230.587 384.602 230.622 384.727 230.696 c 384.945
 230.833 385.367 231.212 385.992 231.837 c 385.992 230.962 l 384.824 229.399
 383.711 228.618 382.648 228.618 c 382.137 228.618 381.73 228.794 381.43
 229.149 c 381.129 229.505 380.973 230.106 380.961 230.962 c 380.961 231.977
 m 380.961 237.431 l 379.387 236.806 378.371 236.364 377.914 236.102 c 377.09
 235.645 376.504 235.165 376.148 234.665 c 375.793 234.165 375.617 233.618
 375.617 233.024 c 375.617 232.274 375.84 231.649 376.289 231.149 c 376.738
 230.661 377.254 230.415 377.836 230.415 c 378.629 230.415 379.668 230.934
 380.961 231.977 c f
397.148 230.509 m 396.449 229.778 395.77 229.255 395.102 228.931 c 394.434
 228.618 393.715 228.462 392.945 228.462 c 391.383 228.462 390.02 229.114
 388.852 230.415 c 387.684 231.727 387.102 233.411 387.102 235.462 c 387.102
 237.513 387.746 239.388 389.039 241.087 c 390.332 242.794 391.992 243.649
 394.023 243.649 c 395.285 243.649 396.324 243.247 397.148 242.446 c 397.148
 245.087 l 397.148 246.724 397.105 247.727 397.023 248.102 c 396.949 248.477
 396.832 248.731 396.664 248.868 c 396.496 249.005 396.289 249.071 396.039
 249.071 c 395.77 249.071 395.41 248.989 394.961 248.821 c 394.758 249.368
 l 399.023 251.118 l 399.727 251.118 l 399.727 234.571 l 399.727 232.895
 399.762 231.868 399.836 231.493 c 399.918 231.13 400.043 230.872 400.211
 230.727 c 400.387 230.583 400.59 230.509 400.82 230.509 c 401.102 230.509
 401.477 230.599 401.945 230.774 c 402.117 230.227 l 397.867 228.462 l 397.148
 228.462 l 397.148 230.509 l 397.148 231.602 m 397.148 238.977 l 397.086
 239.684 396.898 240.333 396.586 240.915 c 396.273 241.497 395.855 241.934
 395.336 242.227 c 394.824 242.528 394.324 242.681 393.836 242.681 c 392.918
 242.681 392.102 242.27 391.383 241.446 c 390.434 240.364 389.961 238.778
 389.961 236.696 c 389.961 234.591 390.418 232.977 391.336 231.852 c 392.254
 230.739 393.273 230.181 394.398 230.181 c 395.348 230.181 396.262 230.653
 397.148 231.602 c f
405.445 237.821 m 405.434 235.696 405.949 234.028 406.992 232.821 c 408.035
 231.614 409.258 231.009 410.664 231.009 c 411.602 231.009 412.414 231.263
 413.102 231.774 c 413.801 232.294 414.383 233.181 414.852 234.431 c 415.336
 234.118 l 415.117 232.692 414.48 231.388 413.43 230.212 c 412.379 229.044
 411.059 228.462 409.477 228.462 c 407.758 228.462 406.285 229.13 405.055
 230.462 c 403.836 231.806 403.227 233.606 403.227 235.868 c 403.227 238.317
 403.852 240.224 405.102 241.587 c 406.363 242.962 407.941 243.649 409.836
 243.649 c 411.441 243.649 412.758 243.118 413.789 242.056 c 414.82 241.005
 415.336 239.591 415.336 237.821 c 405.445 237.821 l 405.445 238.727 m 412.07
 238.727 l 412.02 239.645 411.91 240.29 411.742 240.665 c 411.48 241.247
 411.09 241.708 410.57 242.04 c 410.059 242.372 409.523 242.54 408.961 242.54
 c 408.098 242.54 407.32 242.2 406.633 241.524 c 405.957 240.856 405.559
 239.927 405.445 238.727 c f
429.383 234.337 m 428.996 232.45 428.242 230.997 427.117 229.977 c 425.992
 228.966 424.746 228.462 423.383 228.462 c 421.758 228.462 420.34 229.145
 419.133 230.509 c 417.926 231.872 417.32 233.716 417.32 236.04 c 417.32
 238.29 417.988 240.118 419.32 241.524 c 420.664 242.931 422.273 243.634
 424.148 243.634 c 425.555 243.634 426.711 243.259 427.617 242.509 c 428.523
 241.77 428.977 240.997 428.977 240.196 c 428.977 239.802 428.848 239.477
 428.586 239.227 c 428.336 238.989 427.98 238.868 427.523 238.868 c 426.91
 238.868 426.445 239.067 426.133 239.462 c 425.957 239.681 425.836 240.099
 425.773 240.712 c 425.723 241.325 425.512 241.794 425.148 242.118 c 424.785
 242.431 424.277 242.587 423.633 242.587 c 422.59 242.587 421.754 242.2 
421.117 241.431 c 420.273 240.411 419.852 239.059 419.852 237.384 c 419.852
 235.677 420.27 234.165 421.102 232.852 c 421.945 231.552 423.082 230.899
 424.508 230.899 c 425.527 230.899 426.445 231.247 427.258 231.946 c 427.832
 232.427 428.387 233.294 428.93 234.556 c 429.383 234.337 l f
435.055 251.118 m 435.492 251.118 435.863 250.962 436.164 250.649 c 436.477
 250.349 436.633 249.977 436.633 249.54 c 436.633 249.102 436.477 248.727
 436.164 248.415 c 435.863 248.102 435.492 247.946 435.055 247.946 c 434.617
 247.946 434.242 248.102 433.93 248.415 c 433.617 248.727 433.461 249.102
 433.461 249.54 c 433.461 249.977 433.613 250.349 433.914 250.649 c 434.227
 250.962 434.605 251.118 435.055 251.118 c 436.352 243.634 m 436.352 232.134
 l 436.352 231.239 436.414 230.638 436.539 230.337 c 436.676 230.044 436.867
 229.825 437.117 229.681 c 437.379 229.536 437.848 229.462 438.523 229.462
 c 438.523 228.899 l 431.57 228.899 l 431.57 229.462 l 432.27 229.462 432.738
 229.528 432.977 229.665 c 433.215 229.802 433.402 230.024 433.539 230.337
 c 433.684 230.649 433.758 231.247 433.758 232.134 c 433.758 237.649 l 433.758
 239.2 433.711 240.208 433.617 240.665 c 433.543 240.997 433.43 241.227 
433.273 241.352 c 433.117 241.489 432.902 241.556 432.633 241.556 c 432.34
 241.556 431.988 241.477 431.57 241.321 c 431.352 241.884 l 435.664 243.634
 l 436.352 243.634 l f
444.539 240.587 m 445.582 241.63 446.195 242.227 446.383 242.384 c 446.852
 242.778 447.355 243.087 447.898 243.306 c 448.441 243.524 448.977 243.634
 449.508 243.634 c 450.402 243.634 451.176 243.372 451.82 242.852 c 452.465
 242.333 452.898 241.575 453.117 240.587 c 454.191 241.837 455.098 242.653
 455.836 243.04 c 456.574 243.434 457.336 243.634 458.117 243.634 c 458.879
 243.634 459.551 243.434 460.133 243.04 c 460.727 242.653 461.195 242.02
 461.539 241.134 c 461.77 240.528 461.883 239.583 461.883 238.29 c 461.883
 232.134 l 461.883 231.239 461.949 230.622 462.086 230.29 c 462.191 230.059
 462.383 229.864 462.664 229.696 c 462.945 229.54 463.402 229.462 464.039
 229.462 c 464.039 228.899 l 456.977 228.899 l 456.977 229.462 l 457.273
 229.462 l 457.887 229.462 458.367 229.583 458.711 229.821 c 458.949 229.989
 459.121 230.255 459.227 230.618 c 459.27 230.794 459.289 231.302 459.289
 232.134 c 459.289 238.29 l 459.289 239.458 459.148 240.278 458.867 240.759
 c 458.461 241.427 457.809 241.759 456.914 241.759 c 456.363 241.759 455.805
 241.618 455.242 241.337 c 454.691 241.067 454.02 240.556 453.227 239.806
 c 453.195 239.634 l 453.227 238.962 l 453.227 232.134 l 453.227 231.153
 453.277 230.544 453.383 230.306 c 453.496 230.067 453.707 229.864 454.008
 229.696 c 454.309 229.54 454.824 229.462 455.555 229.462 c 455.555 228.899
 l 448.32 228.899 l 448.32 229.462 l 449.113 229.462 449.652 229.556 449.945
 229.743 c 450.246 229.931 450.457 230.212 450.57 230.587 c 450.621 230.763
 450.648 231.278 450.648 232.134 c 450.648 238.29 l 450.648 239.458 450.477
 240.294 450.133 240.806 c 449.676 241.474 449.035 241.806 448.211 241.806
 c 447.648 241.806 447.09 241.653 446.539 241.352 c 445.676 240.895 445.008
 240.38 444.539 239.806 c 444.539 232.134 l 444.539 231.196 444.602 230.587
 444.727 230.306 c 444.863 230.024 445.055 229.809 445.305 229.665 c 445.566
 229.528 446.086 229.462 446.867 229.462 c 446.867 228.899 l 439.789 228.899
 l 439.789 229.462 l 440.445 229.462 440.902 229.528 441.164 229.665 c 441.426
 229.809 441.621 230.036 441.758 230.337 c 441.895 230.649 441.961 231.247
 441.961 232.134 c 441.961 237.602 l 441.961 239.177 441.914 240.192 441.82
 240.649 c 441.746 240.993 441.633 241.227 441.477 241.352 c 441.32 241.489
 441.105 241.556 440.836 241.556 c 440.543 241.556 440.195 241.477 439.789
 241.321 c 439.555 241.884 l 443.867 243.634 l 444.539 243.634 l 444.539
 240.587 l f
473.273 230.962 m 471.805 229.825 470.883 229.169 470.508 228.993 c 469.945
 228.731 469.348 228.602 468.711 228.602 c 467.723 228.602 466.902 228.942
 466.258 229.618 c 465.621 230.294 465.305 231.184 465.305 232.29 c 465.305
 232.989 465.461 233.591 465.773 234.102 c 466.199 234.809 466.941 235.477
 467.992 236.102 c 469.055 236.727 470.816 237.489 473.273 238.384 c 473.273
 238.946 l 473.273 240.372 473.043 241.352 472.586 241.884 c 472.137 242.415
 471.48 242.681 470.617 242.681 c 469.961 242.681 469.441 242.505 469.055
 242.149 c 468.66 241.794 468.461 241.388 468.461 240.931 c 468.492 240.024
 l 468.492 239.544 468.367 239.177 468.117 238.915 c 467.879 238.653 467.559
 238.524 467.164 238.524 c 466.777 238.524 466.461 238.661 466.211 238.931
 c 465.973 239.2 465.852 239.571 465.852 240.04 c 465.852 240.934 466.309
 241.759 467.227 242.509 c 468.145 243.259 469.43 243.634 471.086 243.634
 c 472.355 243.634 473.398 243.419 474.211 242.993 c 474.824 242.669 475.277
 242.165 475.57 241.477 c 475.758 241.028 475.852 240.114 475.852 238.727
 c 475.852 233.868 l 475.852 232.505 475.879 231.665 475.93 231.352 c 475.98
 231.052 476.066 230.849 476.18 230.743 c 476.305 230.638 476.445 230.587
 476.602 230.587 c 476.77 230.587 476.914 230.622 477.039 230.696 c 477.258
 230.833 477.68 231.212 478.305 231.837 c 478.305 230.962 l 477.137 229.399
 476.023 228.618 474.961 228.618 c 474.449 228.618 474.043 228.794 473.742
 229.149 c 473.441 229.505 473.285 230.106 473.273 230.962 c 473.273 231.977
 m 473.273 237.431 l 471.699 236.806 470.684 236.364 470.227 236.102 c 469.402
 235.645 468.816 235.165 468.461 234.665 c 468.105 234.165 467.93 233.618
 467.93 233.024 c 467.93 232.274 468.152 231.649 468.602 231.149 c 469.051
 230.661 469.566 230.415 470.148 230.415 c 470.941 230.415 471.98 230.934
 473.273 231.977 c f
484.273 251.118 m 484.273 232.134 l 484.273 231.239 484.336 230.645 484.461
 230.352 c 484.598 230.059 484.801 229.837 485.07 229.681 c 485.34 229.536
 485.848 229.462 486.586 229.462 c 486.586 228.899 l 479.57 228.899 l 479.57
 229.462 l 480.227 229.462 480.676 229.528 480.914 229.665 c 481.152 229.802
 481.34 230.024 481.477 230.337 c 481.613 230.649 481.68 231.247 481.68 
232.134 c 481.68 245.134 l 481.68 246.747 481.645 247.739 481.57 248.102
 c 481.496 248.477 481.379 248.731 481.211 248.868 c 481.055 249.005 480.852
 249.071 480.602 249.071 c 480.332 249.071 479.988 248.989 479.57 248.821
 c 479.305 249.368 l 483.57 251.118 l 484.273 251.118 l f
52.957 5.708 m 50.879 0.001 l 33.379 0.001 l 33.379 0.809 l 38.527 5.505
 42.152 9.341 44.254 12.317 c 46.352 15.29 47.402 18.009 47.402 20.474 c
 47.402 22.356 46.824 23.903 45.672 25.114 c 44.523 26.321 43.145 26.927
 41.539 26.927 c 40.082 26.927 38.77 26.497 37.602 25.638 c 36.449 24.79
 35.598 23.544 35.043 21.895 c 34.234 21.895 l 34.598 24.595 35.531 26.665
 37.035 28.11 c 38.551 29.552 40.438 30.274 42.699 30.274 c 45.105 30.274
 47.109 29.501 48.715 27.958 c 50.332 26.411 51.141 24.587 51.145 22.489
 c 51.141 20.985 50.793 19.485 50.094 17.981 c 49.012 15.618 47.262 13.118
 44.844 10.477 c 41.211 6.513 38.945 4.118 38.039 3.302 c 45.785 3.302 l
 47.359 3.302 48.461 3.36 49.086 3.477 c 49.727 3.595 50.305 3.829 50.812
 4.177 c 51.324 4.544 51.77 5.052 52.148 5.708 c 52.957 5.708 l f
58.23 35.309 m 62.922 37.599 l 63.391 37.599 l 63.391 21.317 l 63.391 20.239
 63.434 19.563 63.52 19.298 c 63.613 19.032 63.805 18.829 64.09 18.688 c
 64.371 18.544 64.949 18.466 65.824 18.446 c 65.824 17.919 l 58.57 17.919
 l 58.57 18.446 l 59.48 18.466 60.07 18.54 60.336 18.673 c 60.602 18.817
 60.785 19.001 60.891 19.227 c 60.992 19.466 61.047 20.161 61.047 21.317
 c 61.047 31.727 l 61.047 33.13 61 34.028 60.902 34.427 c 60.836 34.731 
60.715 34.954 60.535 35.095 c 60.363 35.239 60.156 35.309 59.906 35.309 
c 59.559 35.309 59.07 35.161 58.445 34.868 c 58.23 35.309 l f
215.324 5.708 m 213.246 0.001 l 195.746 0.001 l 195.746 0.809 l 200.895
 5.505 204.516 9.341 206.617 12.317 c 208.719 15.29 209.766 18.009 209.766
 20.474 c 209.766 22.356 209.191 23.903 208.039 25.114 c 206.887 26.321 
205.508 26.927 203.906 26.927 c 202.445 26.927 201.133 26.497 199.969 25.638
 c 198.816 24.79 197.961 23.544 197.406 21.895 c 196.598 21.895 l 196.961
 24.595 197.895 26.665 199.398 28.11 c 200.914 29.552 202.805 30.274 205.062
 30.274 c 207.469 30.274 209.477 29.501 211.078 27.958 c 212.699 26.411 
213.508 24.587 213.508 22.489 c 213.508 20.985 213.156 19.485 212.457 17.981
 c 211.379 15.618 209.629 13.118 207.207 10.477 c 203.578 6.513 201.309 
4.118 200.406 3.302 c 208.148 3.302 l 209.723 3.302 210.824 3.36 211.453
 3.477 c 212.094 3.595 212.668 3.829 213.18 4.177 c 213.691 4.544 214.133
 5.052 214.516 5.708 c 215.324 5.708 l f
218.66 33.532 m 219.211 34.833 219.902 35.833 220.738 36.532 c 221.582 
37.243 222.629 37.599 223.879 37.599 c 225.426 37.599 226.609 37.099 227.434
 36.091 c 228.059 35.345 228.371 34.544 228.371 33.688 c 228.371 32.286 
227.492 30.837 225.727 29.337 c 226.914 28.872 227.809 28.208 228.414 27.349
 c 229.023 26.485 229.324 25.47 229.324 24.306 c 229.324 22.638 228.793 
21.192 227.734 19.966 c 226.348 18.376 224.344 17.579 221.719 17.579 c 220.418
 17.579 219.535 17.739 219.059 18.063 c 218.594 18.384 218.363 18.731 218.363
 19.099 c 218.363 19.376 218.473 19.618 218.691 19.825 c 218.918 20.032 
219.188 20.138 219.5 20.138 c 219.738 20.138 219.98 20.099 220.227 20.024
 c 220.387 19.977 220.75 19.802 221.32 19.497 c 221.891 19.204 222.281 19.028
 222.5 18.974 c 222.852 18.868 223.227 18.817 223.625 18.817 c 224.59 18.817
 225.43 19.188 226.141 19.938 c 226.859 20.688 227.223 21.575 227.223 22.599
 c 227.223 23.349 227.055 24.075 226.723 24.786 c 226.477 25.317 226.207
 25.72 225.914 25.997 c 225.504 26.376 224.945 26.716 224.234 27.02 c 223.523
 27.333 222.801 27.489 222.059 27.489 c 221.605 27.489 l 221.605 27.915 
l 222.352 28.013 223.102 28.282 223.852 28.727 c 224.609 29.173 225.16 29.708
 225.5 30.333 c 225.844 30.958 226.012 31.645 226.012 32.395 c 226.012 33.372
 225.703 34.157 225.09 34.755 c 224.48 35.36 223.723 35.665 222.812 35.665
 c 221.344 35.665 220.117 34.88 219.129 33.306 c 218.66 33.532 l f
408.312 5.708 m 406.234 0.001 l 388.734 0.001 l 388.734 0.809 l 393.879
 5.505 397.504 9.341 399.605 12.317 c 401.703 15.29 402.754 18.009 402.754
 20.474 c 402.754 22.356 402.18 23.903 401.027 25.114 c 399.875 26.321 398.496
 26.927 396.891 26.927 c 395.434 26.927 394.121 26.497 392.953 25.638 c 
391.801 24.79 390.949 23.544 390.395 21.895 c 389.586 21.895 l 389.949 24.595
 390.883 26.665 392.387 28.11 c 393.902 29.552 395.793 30.274 398.051 30.274
 c 400.457 30.274 402.465 29.501 404.066 27.958 c 405.688 26.411 406.496
 24.587 406.496 22.489 c 406.496 20.985 406.145 19.485 405.445 17.981 c 
404.367 15.618 402.617 13.118 400.195 10.477 c 396.562 6.513 394.297 4.118
 393.391 3.302 c 401.137 3.302 l 402.711 3.302 403.812 3.36 404.438 3.477
 c 405.082 3.595 405.656 3.829 406.168 4.177 c 406.676 4.544 407.121 5.052
 407.5 5.708 c 408.312 5.708 l f
423.723 25.028 m 423.723 23.009 l 421.133 23.009 l 421.133 17.919 l 418.785
 17.919 l 418.785 23.009 l 410.625 23.009 l 410.625 24.829 l 419.57 37.599
 l 421.133 37.599 l 421.133 25.028 l 423.723 25.028 l 418.785 25.028 m 418.785
 34.599 l 412.02 25.028 l 418.785 25.028 l f
2.834646 w
0 J
0 j
[] 0.0 d
4 M q 1 0 0 -1 0 291.118073 cm
49.602 71.094 m 49.602 130.945 l S Q
49.602 171.513 m 43.934 177.181 l 49.602 157.337 l 55.27 177.181 l h
f*
1.417323 w
q -0.000000000000000061 1 1 0.000000000000000061 0 291.118073 cm
-119.605 49.602 m -113.938 43.934 l -133.781 49.602 l -113.938 55.27 l 
h
S Q
2.834646 w
q 1 0 0 -1 0 291.118073 cm
212.535 71.094 m 212.535 130.945 l S Q
212.535 171.513 m 206.867 177.181 l 212.535 157.337 l 218.203 177.181 l
 h
f*
1.417323 w
q -0.000000000000000061 1 1 0.000000000000000061 0 291.118073 cm
-119.605 212.535 m -113.938 206.867 l -133.781 212.535 l -113.938 218.203
 l h
S Q
2.834646 w
q 1 0 0 -1 0 291.118073 cm
406.227 71.094 m 406.227 130.945 l S Q
406.227 171.513 m 400.559 177.181 l 406.227 157.337 l 411.895 177.181 l
 h
f*
1.417323 w
q -0.000000000000000061 1 1 0.000000000000000061 0 291.118073 cm
-119.605 406.227 m -113.938 400.559 l -133.781 406.227 l -113.938 411.895
 l h
S Q
21.688 132.575 m 23.156 132.263 24.254 131.763 24.984 131.075 c 25.996 
130.114 26.5 128.942 26.5 127.559 c 26.5 126.505 26.168 125.497 25.5 124.528
 c 24.832 123.567 23.918 122.864 22.75 122.419 c 21.594 121.981 19.824 121.763
 17.438 121.763 c 7.438 121.763 l 7.438 122.341 l 8.234 122.341 l 9.121 
122.341 9.754 122.622 10.141 123.184 c 10.379 123.548 10.5 124.325 10.5 
125.513 c 10.5 139.2 l 10.5 140.513 10.348 141.341 10.047 141.684 c 9.641
 142.142 9.035 142.372 8.234 142.372 c 7.438 142.372 l 7.438 142.95 l 16.594
 142.95 l 18.301 142.95 19.672 142.825 20.703 142.575 c 22.266 142.2 23.457
 141.532 24.281 140.575 c 25.105 139.626 25.516 138.532 25.516 137.294 c
 25.516 136.231 25.191 135.278 24.547 134.434 c 23.902 133.599 22.949 132.981
 21.688 132.575 c 13.5 133.419 m 13.887 133.345 14.324 133.286 14.812 133.247
 c 15.312 133.216 15.859 133.2 16.453 133.2 c 17.973 133.2 19.113 133.36
 19.875 133.684 c 20.645 134.017 21.234 134.52 21.641 135.2 c 22.047 135.876
 22.25 136.614 22.25 137.419 c 22.25 138.657 21.746 139.716 20.734 140.591
 c 19.723 141.466 18.25 141.903 16.312 141.903 c 15.27 141.903 14.332 141.786
 13.5 141.559 c 13.5 133.419 l 13.5 123.294 m 14.707 123.013 15.902 122.872
 17.078 122.872 c 18.965 122.872 20.402 123.294 21.391 124.138 c 22.379 
124.989 22.875 126.044 22.875 127.294 c 22.875 128.114 22.652 128.907 22.203
 129.669 c 21.754 130.427 21.027 131.028 20.016 131.466 c 19.004 131.903
 17.754 132.122 16.266 132.122 c 15.621 132.122 15.066 132.11 14.609 132.091
 c 14.152 132.067 13.781 132.032 13.5 131.981 c 13.5 123.294 l f
37.391 123.825 m 35.922 122.688 35 122.032 34.625 121.856 c 34.062 121.595
 33.465 121.466 32.828 121.466 c 31.84 121.466 31.02 121.802 30.375 122.481
 c 29.738 123.157 29.422 124.048 29.422 125.153 c 29.422 125.849 29.578 
126.454 29.891 126.966 c 30.316 127.673 31.059 128.341 32.109 128.966 c 
33.172 129.591 34.934 130.349 37.391 131.247 c 37.391 131.809 l 37.391 133.235
 37.16 134.216 36.703 134.747 c 36.254 135.278 35.598 135.544 34.734 135.544
 c 34.078 135.544 33.559 135.364 33.172 135.013 c 32.777 134.657 32.578 
134.251 32.578 133.794 c 32.609 132.888 l 32.609 132.407 32.484 132.036 
32.234 131.778 c 31.996 131.517 31.676 131.388 31.281 131.388 c 30.895 131.388
 30.578 131.52 30.328 131.794 c 30.09 132.063 29.969 132.434 29.969 132.903
 c 29.969 133.798 30.426 134.622 31.344 135.372 c 32.262 136.122 33.547 
136.497 35.203 136.497 c 36.473 136.497 37.516 136.282 38.328 135.856 c 
38.941 135.532 39.395 135.028 39.688 134.341 c 39.875 133.892 39.969 132.974
 39.969 131.591 c 39.969 126.731 l 39.969 125.364 39.996 124.528 40.047 
124.216 c 40.098 123.911 40.184 123.708 40.297 123.606 c 40.422 123.501 
40.562 123.45 40.719 123.45 c 40.887 123.45 41.031 123.485 41.156 123.559
 c 41.375 123.692 41.797 124.075 42.422 124.7 c 42.422 123.825 l 41.254 
122.263 40.141 121.481 39.078 121.481 c 38.566 121.481 38.16 121.657 37.859
 122.013 c 37.559 122.364 37.402 122.97 37.391 123.825 c 37.391 124.841 
m 37.391 130.294 l 35.816 129.669 34.801 129.224 34.344 128.966 c 33.52 
128.505 32.934 128.028 32.578 127.528 c 32.223 127.028 32.047 126.481 32.047
 125.888 c 32.047 125.138 32.27 124.513 32.719 124.013 c 33.168 123.52 33.684
 123.278 34.266 123.278 c 35.059 123.278 36.098 123.798 37.391 124.841 c
 f
52.719 136.497 m 52.719 131.622 l 52.203 131.622 l 51.809 133.153 51.297
 134.192 50.672 134.747 c 50.059 135.298 49.27 135.575 48.312 135.575 c 
47.582 135.575 46.996 135.38 46.547 134.997 c 46.098 134.61 45.875 134.184
 45.875 133.716 c 45.875 133.13 46.043 132.63 46.375 132.216 c 46.699 131.786
 47.355 131.333 48.344 130.856 c 50.625 129.747 l 52.738 128.716 53.797 
127.356 53.797 125.669 c 53.797 124.364 53.301 123.313 52.312 122.513 c 
51.332 121.72 50.234 121.325 49.016 121.325 c 48.141 121.325 47.141 121.481
 46.016 121.794 c 45.672 121.895 45.391 121.95 45.172 121.95 c 44.934 121.95
 44.746 121.813 44.609 121.544 c 44.094 121.544 l 44.094 126.653 l 44.609
 126.653 l 44.902 125.192 45.457 124.095 46.281 123.356 c 47.105 122.614
 48.027 122.247 49.047 122.247 c 49.766 122.247 50.348 122.454 50.797 122.872
 c 51.254 123.298 51.484 123.809 51.484 124.403 c 51.484 125.122 51.23 125.724
 50.719 126.216 c 50.219 126.704 49.215 127.325 47.703 128.075 c 46.191 
128.825 45.203 129.501 44.734 130.106 c 44.266 130.7 44.031 131.45 44.031
 132.356 c 44.031 133.532 44.434 134.517 45.234 135.309 c 46.047 136.099
 47.094 136.497 48.375 136.497 c 48.938 136.497 49.621 136.376 50.422 136.138
 c 50.953 135.981 51.309 135.903 51.484 135.903 c 51.652 135.903 51.781 
135.938 51.875 136.013 c 51.969 136.083 52.078 136.247 52.203 136.497 c 
52.719 136.497 l f
58.312 130.684 m 58.301 128.559 58.816 126.892 59.859 125.684 c 60.902 
124.474 62.125 123.872 63.531 123.872 c 64.469 123.872 65.281 124.126 65.969
 124.638 c 66.668 125.157 67.25 126.044 67.719 127.294 c 68.203 126.981 
l 67.984 125.552 67.348 124.251 66.297 123.075 c 65.246 121.907 63.926 121.325
 62.344 121.325 c 60.625 121.325 59.152 121.989 57.922 123.325 c 56.703 
124.669 56.094 126.47 56.094 128.731 c 56.094 131.177 56.719 133.083 57.969
 134.45 c 59.23 135.825 60.809 136.513 62.703 136.513 c 64.309 136.513 65.625
 135.981 66.656 134.919 c 67.688 133.864 68.203 132.454 68.203 130.684 c
 58.312 130.684 l 58.312 131.591 m 64.938 131.591 l 64.887 132.505 64.777
 133.153 64.609 133.528 c 64.348 134.11 63.957 134.567 63.438 134.903 c 
62.926 135.235 62.391 135.403 61.828 135.403 c 60.965 135.403 60.188 135.063
 59.5 134.388 c 58.824 133.72 58.426 132.786 58.312 131.591 c f
91.766 125.841 m 90.281 121.763 l 77.781 121.763 l 77.781 122.341 l 81.457
 125.692 84.047 128.434 85.547 130.559 c 87.047 132.684 87.797 134.626 87.797
 136.388 c 87.797 137.731 87.387 138.833 86.562 139.7 c 85.738 140.563 84.754
 140.997 83.609 140.997 c 82.566 140.997 81.629 140.688 80.797 140.075 c
 79.973 139.47 79.363 138.579 78.969 137.403 c 78.391 137.403 l 78.652 139.329
 79.316 140.809 80.391 141.841 c 81.473 142.872 82.824 143.388 84.438 143.388
 c 86.156 143.388 87.59 142.833 88.734 141.731 c 89.891 140.626 90.469 139.325
 90.469 137.825 c 90.469 136.751 90.219 135.677 89.719 134.606 c 88.949 
132.919 87.699 131.13 85.969 129.247 c 83.375 126.411 81.754 124.704 81.109
 124.122 c 86.641 124.122 l 87.766 124.122 88.551 124.161 89 124.247 c 89.457
 124.329 89.871 124.497 90.234 124.747 c 90.598 125.005 90.918 125.372 91.188
 125.841 c 91.766 125.841 l f
184.879 132.575 m 186.348 132.263 187.445 131.763 188.176 131.075 c 189.188
 130.114 189.691 128.942 189.691 127.559 c 189.691 126.505 189.359 125.497
 188.691 124.528 c 188.023 123.567 187.109 122.864 185.941 122.419 c 184.785
 121.981 183.016 121.763 180.629 121.763 c 170.629 121.763 l 170.629 122.341
 l 171.426 122.341 l 172.312 122.341 172.945 122.622 173.332 123.184 c 173.57
 123.548 173.691 124.325 173.691 125.513 c 173.691 139.2 l 173.691 140.513
 173.539 141.341 173.238 141.684 c 172.832 142.142 172.227 142.372 171.426
 142.372 c 170.629 142.372 l 170.629 142.95 l 179.785 142.95 l 181.492 142.95
 182.863 142.825 183.895 142.575 c 185.457 142.2 186.648 141.532 187.473
 140.575 c 188.297 139.626 188.707 138.532 188.707 137.294 c 188.707 136.231
 188.383 135.278 187.738 134.434 c 187.094 133.599 186.141 132.981 184.879
 132.575 c 176.691 133.419 m 177.078 133.345 177.516 133.286 178.004 133.247
 c 178.504 133.216 179.051 133.2 179.645 133.2 c 181.164 133.2 182.305 133.36
 183.066 133.684 c 183.836 134.017 184.426 134.52 184.832 135.2 c 185.238
 135.876 185.441 136.614 185.441 137.419 c 185.441 138.657 184.938 139.716
 183.926 140.591 c 182.914 141.466 181.441 141.903 179.504 141.903 c 178.461
 141.903 177.523 141.786 176.691 141.559 c 176.691 133.419 l 176.691 123.294
 m 177.898 123.013 179.094 122.872 180.27 122.872 c 182.156 122.872 183.594
 123.294 184.582 124.138 c 185.57 124.989 186.066 126.044 186.066 127.294
 c 186.066 128.114 185.844 128.907 185.395 129.669 c 184.945 130.427 184.219
 131.028 183.207 131.466 c 182.195 131.903 180.945 132.122 179.457 132.122
 c 178.812 132.122 178.258 132.11 177.801 132.091 c 177.344 132.067 176.973
 132.032 176.691 131.981 c 176.691 123.294 l f
200.582 123.825 m 199.113 122.688 198.191 122.032 197.816 121.856 c 197.254
 121.595 196.656 121.466 196.02 121.466 c 195.031 121.466 194.211 121.802
 193.566 122.481 c 192.93 123.157 192.613 124.048 192.613 125.153 c 192.613
 125.849 192.77 126.454 193.082 126.966 c 193.508 127.673 194.25 128.341
 195.301 128.966 c 196.363 129.591 198.125 130.349 200.582 131.247 c 200.582
 131.809 l 200.582 133.235 200.352 134.216 199.895 134.747 c 199.445 135.278
 198.789 135.544 197.926 135.544 c 197.27 135.544 196.75 135.364 196.363
 135.013 c 195.969 134.657 195.77 134.251 195.77 133.794 c 195.801 132.888
 l 195.801 132.407 195.676 132.036 195.426 131.778 c 195.188 131.517 194.867
 131.388 194.473 131.388 c 194.086 131.388 193.77 131.52 193.52 131.794 
c 193.281 132.063 193.16 132.434 193.16 132.903 c 193.16 133.798 193.617
 134.622 194.535 135.372 c 195.453 136.122 196.738 136.497 198.395 136.497
 c 199.664 136.497 200.707 136.282 201.52 135.856 c 202.133 135.532 202.586
 135.028 202.879 134.341 c 203.066 133.892 203.16 132.974 203.16 131.591
 c 203.16 126.731 l 203.16 125.364 203.188 124.528 203.238 124.216 c 203.289
 123.911 203.375 123.708 203.488 123.606 c 203.613 123.501 203.754 123.45
 203.91 123.45 c 204.078 123.45 204.223 123.485 204.348 123.559 c 204.566
 123.692 204.988 124.075 205.613 124.7 c 205.613 123.825 l 204.445 122.263
 203.332 121.481 202.27 121.481 c 201.758 121.481 201.352 121.657 201.051
 122.013 c 200.75 122.364 200.594 122.97 200.582 123.825 c 200.582 124.841
 m 200.582 130.294 l 199.008 129.669 197.992 129.224 197.535 128.966 c 196.711
 128.505 196.125 128.028 195.77 127.528 c 195.414 127.028 195.238 126.481
 195.238 125.888 c 195.238 125.138 195.461 124.513 195.91 124.013 c 196.359
 123.52 196.875 123.278 197.457 123.278 c 198.25 123.278 199.289 123.798
 200.582 124.841 c f
215.91 136.497 m 215.91 131.622 l 215.395 131.622 l 215 133.153 214.488
 134.192 213.863 134.747 c 213.25 135.298 212.461 135.575 211.504 135.575
 c 210.773 135.575 210.188 135.38 209.738 134.997 c 209.289 134.61 209.066
 134.184 209.066 133.716 c 209.066 133.13 209.234 132.63 209.566 132.216
 c 209.891 131.786 210.547 131.333 211.535 130.856 c 213.816 129.747 l 215.93
 128.716 216.988 127.356 216.988 125.669 c 216.988 124.364 216.492 123.313
 215.504 122.513 c 214.523 121.72 213.426 121.325 212.207 121.325 c 211.332
 121.325 210.332 121.481 209.207 121.794 c 208.863 121.895 208.582 121.95
 208.363 121.95 c 208.125 121.95 207.938 121.813 207.801 121.544 c 207.285
 121.544 l 207.285 126.653 l 207.801 126.653 l 208.094 125.192 208.648 124.095
 209.473 123.356 c 210.297 122.614 211.219 122.247 212.238 122.247 c 212.957
 122.247 213.539 122.454 213.988 122.872 c 214.445 123.298 214.676 123.809
 214.676 124.403 c 214.676 125.122 214.422 125.724 213.91 126.216 c 213.41
 126.704 212.406 127.325 210.895 128.075 c 209.383 128.825 208.395 129.501
 207.926 130.106 c 207.457 130.7 207.223 131.45 207.223 132.356 c 207.223
 133.532 207.625 134.517 208.426 135.309 c 209.238 136.099 210.285 136.497
 211.566 136.497 c 212.129 136.497 212.812 136.376 213.613 136.138 c 214.145
 135.981 214.5 135.903 214.676 135.903 c 214.844 135.903 214.973 135.938
 215.066 136.013 c 215.16 136.083 215.27 136.247 215.395 136.497 c 215.91
 136.497 l f
221.504 130.684 m 221.492 128.559 222.008 126.892 223.051 125.684 c 224.094
 124.474 225.316 123.872 226.723 123.872 c 227.66 123.872 228.473 124.126
 229.16 124.638 c 229.859 125.157 230.441 126.044 230.91 127.294 c 231.395
 126.981 l 231.176 125.552 230.539 124.251 229.488 123.075 c 228.438 121.907
 227.117 121.325 225.535 121.325 c 223.816 121.325 222.344 121.989 221.113
 123.325 c 219.895 124.669 219.285 126.47 219.285 128.731 c 219.285 131.177
 219.91 133.083 221.16 134.45 c 222.422 135.825 224 136.513 225.895 136.513
 c 227.5 136.513 228.816 135.981 229.848 134.919 c 230.879 133.864 231.395
 132.454 231.395 130.684 c 221.504 130.684 l 221.504 131.591 m 228.129 131.591
 l 228.078 132.505 227.969 133.153 227.801 133.528 c 227.539 134.11 227.148
 134.567 226.629 134.903 c 226.117 135.235 225.582 135.403 225.02 135.403
 c 224.156 135.403 223.379 135.063 222.691 134.388 c 222.016 133.72 221.617
 132.786 221.504 131.591 c f
246.426 132.434 m 244.75 133.809 243.664 134.911 243.176 135.747 c 242.695
 136.579 242.457 137.442 242.457 138.341 c 242.457 139.716 242.988 140.895
 244.051 141.888 c 245.113 142.888 246.523 143.388 248.285 143.388 c 249.992
 143.388 251.367 142.923 252.41 141.997 c 253.453 141.067 253.973 140.013
 253.973 138.825 c 253.973 138.032 253.691 137.224 253.129 136.403 c 252.566
 135.579 251.395 134.61 249.613 133.497 c 251.445 132.079 252.66 130.966
 253.254 130.153 c 254.047 129.091 254.441 127.97 254.441 126.794 c 254.441
 125.302 253.875 124.028 252.738 122.966 c 251.602 121.911 250.113 121.388
 248.27 121.388 c 246.258 121.388 244.691 122.017 243.566 123.278 c 242.672
 124.286 242.223 125.392 242.223 126.591 c 242.223 127.528 242.535 128.454
 243.16 129.372 c 243.797 130.298 244.883 131.317 246.426 132.434 c 248.879
 134.106 m 250.129 135.231 250.922 136.114 251.254 136.763 c 251.586 137.419
 251.754 138.157 251.754 138.981 c 251.754 140.075 251.445 140.927 250.832
 141.544 c 250.219 142.169 249.379 142.481 248.316 142.481 c 247.254 142.481
 246.391 142.173 245.723 141.559 c 245.055 140.942 244.723 140.224 244.723
 139.403 c 244.723 138.86 244.859 138.317 245.129 137.778 c 245.41 137.235
 245.805 136.72 246.316 136.231 c 248.879 134.106 l 247.16 131.841 m 246.297
 131.11 245.656 130.313 245.238 129.45 c 244.82 128.595 244.613 127.669 
244.613 126.669 c 244.613 125.325 244.977 124.247 245.707 123.434 c 246.445
 122.63 247.383 122.231 248.52 122.231 c 249.645 122.231 250.547 122.548
 251.223 123.184 c 251.898 123.817 252.238 124.591 252.238 125.497 c 252.238
 126.247 252.039 126.919 251.645 127.513 c 250.906 128.614 249.41 130.059
 247.16 131.841 c f
370.266 132.575 m 371.734 132.263 372.832 131.763 373.562 131.075 c 374.574
 130.114 375.078 128.942 375.078 127.559 c 375.078 126.505 374.746 125.497
 374.078 124.528 c 373.41 123.567 372.496 122.864 371.328 122.419 c 370.172
 121.981 368.402 121.763 366.016 121.763 c 356.016 121.763 l 356.016 122.341
 l 356.812 122.341 l 357.699 122.341 358.332 122.622 358.719 123.184 c 358.957
 123.548 359.078 124.325 359.078 125.513 c 359.078 139.2 l 359.078 140.513
 358.926 141.341 358.625 141.684 c 358.219 142.142 357.613 142.372 356.812
 142.372 c 356.016 142.372 l 356.016 142.95 l 365.172 142.95 l 366.879 142.95
 368.25 142.825 369.281 142.575 c 370.844 142.2 372.035 141.532 372.859 
140.575 c 373.684 139.626 374.094 138.532 374.094 137.294 c 374.094 136.231
 373.77 135.278 373.125 134.434 c 372.48 133.599 371.527 132.981 370.266
 132.575 c 362.078 133.419 m 362.465 133.345 362.902 133.286 363.391 133.247
 c 363.891 133.216 364.438 133.2 365.031 133.2 c 366.551 133.2 367.691 133.36
 368.453 133.684 c 369.223 134.017 369.812 134.52 370.219 135.2 c 370.625
 135.876 370.828 136.614 370.828 137.419 c 370.828 138.657 370.324 139.716
 369.312 140.591 c 368.301 141.466 366.828 141.903 364.891 141.903 c 363.848
 141.903 362.91 141.786 362.078 141.559 c 362.078 133.419 l 362.078 123.294
 m 363.285 123.013 364.48 122.872 365.656 122.872 c 367.543 122.872 368.98
 123.294 369.969 124.138 c 370.957 124.989 371.453 126.044 371.453 127.294
 c 371.453 128.114 371.23 128.907 370.781 129.669 c 370.332 130.427 369.605
 131.028 368.594 131.466 c 367.582 131.903 366.332 132.122 364.844 132.122
 c 364.199 132.122 363.645 132.11 363.188 132.091 c 362.73 132.067 362.359
 132.032 362.078 131.981 c 362.078 123.294 l f
385.969 123.825 m 384.5 122.688 383.578 122.032 383.203 121.856 c 382.641
 121.595 382.043 121.466 381.406 121.466 c 380.418 121.466 379.598 121.802
 378.953 122.481 c 378.316 123.157 378 124.048 378 125.153 c 378 125.849
 378.156 126.454 378.469 126.966 c 378.895 127.673 379.637 128.341 380.688
 128.966 c 381.75 129.591 383.512 130.349 385.969 131.247 c 385.969 131.809
 l 385.969 133.235 385.738 134.216 385.281 134.747 c 384.832 135.278 384.176
 135.544 383.312 135.544 c 382.656 135.544 382.137 135.364 381.75 135.013
 c 381.355 134.657 381.156 134.251 381.156 133.794 c 381.188 132.888 l 381.188
 132.407 381.062 132.036 380.812 131.778 c 380.574 131.517 380.254 131.388
 379.859 131.388 c 379.473 131.388 379.156 131.52 378.906 131.794 c 378.668
 132.063 378.547 132.434 378.547 132.903 c 378.547 133.798 379.004 134.622
 379.922 135.372 c 380.84 136.122 382.125 136.497 383.781 136.497 c 385.051
 136.497 386.094 136.282 386.906 135.856 c 387.52 135.532 387.973 135.028
 388.266 134.341 c 388.453 133.892 388.547 132.974 388.547 131.591 c 388.547
 126.731 l 388.547 125.364 388.574 124.528 388.625 124.216 c 388.676 123.911
 388.762 123.708 388.875 123.606 c 389 123.501 389.141 123.45 389.297 123.45
 c 389.465 123.45 389.609 123.485 389.734 123.559 c 389.953 123.692 390.375
 124.075 391 124.7 c 391 123.825 l 389.832 122.263 388.719 121.481 387.656
 121.481 c 387.145 121.481 386.738 121.657 386.438 122.013 c 386.137 122.364
 385.98 122.97 385.969 123.825 c 385.969 124.841 m 385.969 130.294 l 384.395
 129.669 383.379 129.224 382.922 128.966 c 382.098 128.505 381.512 128.028
 381.156 127.528 c 380.801 127.028 380.625 126.481 380.625 125.888 c 380.625
 125.138 380.848 124.513 381.297 124.013 c 381.746 123.52 382.262 123.278
 382.844 123.278 c 383.637 123.278 384.676 123.798 385.969 124.841 c f
401.297 136.497 m 401.297 131.622 l 400.781 131.622 l 400.387 133.153 399.875
 134.192 399.25 134.747 c 398.637 135.298 397.848 135.575 396.891 135.575
 c 396.16 135.575 395.574 135.38 395.125 134.997 c 394.676 134.61 394.453
 134.184 394.453 133.716 c 394.453 133.13 394.621 132.63 394.953 132.216
 c 395.277 131.786 395.934 131.333 396.922 130.856 c 399.203 129.747 l 401.316
 128.716 402.375 127.356 402.375 125.669 c 402.375 124.364 401.879 123.313
 400.891 122.513 c 399.91 121.72 398.812 121.325 397.594 121.325 c 396.719
 121.325 395.719 121.481 394.594 121.794 c 394.25 121.895 393.969 121.95
 393.75 121.95 c 393.512 121.95 393.324 121.813 393.188 121.544 c 392.672
 121.544 l 392.672 126.653 l 393.188 126.653 l 393.48 125.192 394.035 124.095
 394.859 123.356 c 395.684 122.614 396.605 122.247 397.625 122.247 c 398.344
 122.247 398.926 122.454 399.375 122.872 c 399.832 123.298 400.062 123.809
 400.062 124.403 c 400.062 125.122 399.809 125.724 399.297 126.216 c 398.797
 126.704 397.793 127.325 396.281 128.075 c 394.77 128.825 393.781 129.501
 393.312 130.106 c 392.844 130.7 392.609 131.45 392.609 132.356 c 392.609
 133.532 393.012 134.517 393.812 135.309 c 394.625 136.099 395.672 136.497
 396.953 136.497 c 397.516 136.497 398.199 136.376 399 136.138 c 399.531
 135.981 399.887 135.903 400.062 135.903 c 400.23 135.903 400.359 135.938
 400.453 136.013 c 400.547 136.083 400.656 136.247 400.781 136.497 c 401.297
 136.497 l f
406.891 130.684 m 406.879 128.559 407.395 126.892 408.438 125.684 c 409.48
 124.474 410.703 123.872 412.109 123.872 c 413.047 123.872 413.859 124.126
 414.547 124.638 c 415.246 125.157 415.828 126.044 416.297 127.294 c 416.781
 126.981 l 416.562 125.552 415.926 124.251 414.875 123.075 c 413.824 121.907
 412.504 121.325 410.922 121.325 c 409.203 121.325 407.73 121.989 406.5 
123.325 c 405.281 124.669 404.672 126.47 404.672 128.731 c 404.672 131.177
 405.297 133.083 406.547 134.45 c 407.809 135.825 409.387 136.513 411.281
 136.513 c 412.887 136.513 414.203 135.981 415.234 134.919 c 416.266 133.864
 416.781 132.454 416.781 130.684 c 406.891 130.684 l 406.891 131.591 m 413.516
 131.591 l 413.465 132.505 413.355 133.153 413.188 133.528 c 412.926 134.11
 412.535 134.567 412.016 134.903 c 411.504 135.235 410.969 135.403 410.406
 135.403 c 409.543 135.403 408.766 135.063 408.078 134.388 c 407.402 133.72
 407.004 132.786 406.891 131.591 c f
429.422 140.872 m 434.578 143.388 l 435.094 143.388 l 435.094 125.497 l
 435.094 124.309 435.141 123.567 435.234 123.278 c 435.34 122.985 435.547
 122.763 435.859 122.606 c 436.172 122.45 436.809 122.36 437.766 122.341
 c 437.766 121.763 l 429.797 121.763 l 429.797 122.341 l 430.797 122.36 
431.441 122.442 431.734 122.591 c 432.027 122.747 432.23 122.95 432.344 
123.2 c 432.457 123.458 432.516 124.224 432.516 125.497 c 432.516 136.934
 l 432.516 138.474 432.465 139.466 432.359 139.903 c 432.285 140.235 432.152
 140.481 431.953 140.638 c 431.766 140.794 431.535 140.872 431.266 140.872
 c 430.879 140.872 430.344 140.708 429.656 140.388 c 429.422 140.872 l f
456.016 143.388 m 456.016 142.809 l 454.641 142.673 453.516 142.395 452.641
 141.981 c 451.777 141.575 450.918 140.95 450.062 140.106 c 449.219 139.263
 448.516 138.317 447.953 137.278 c 447.402 136.247 446.938 135.017 446.562
 133.591 c 448.062 134.622 449.566 135.138 451.078 135.138 c 452.527 135.138
 453.781 134.552 454.844 133.388 c 455.906 132.22 456.438 130.72 456.438
 128.888 c 456.438 127.114 455.902 125.501 454.828 124.044 c 453.535 122.27
 451.828 121.388 449.703 121.388 c 448.254 121.388 447.027 121.864 446.016
 122.825 c 444.035 124.688 443.047 127.106 443.047 130.075 c 443.047 131.97
 443.426 133.77 444.188 135.481 c 444.949 137.188 446.031 138.704 447.438
 140.028 c 448.855 141.349 450.207 142.239 451.5 142.7 c 452.793 143.157
 453.996 143.388 455.109 143.388 c 456.016 143.388 l 446.297 132.45 m 446.109
 131.044 446.016 129.907 446.016 129.044 c 446.016 128.044 446.199 126.954
 446.562 125.778 c 446.938 124.61 447.488 123.684 448.219 122.997 c 448.75
 122.505 449.395 122.263 450.156 122.263 c 451.062 122.263 451.871 122.688
 452.578 123.544 c 453.297 124.395 453.656 125.614 453.656 127.2 c 453.656
 128.981 453.301 130.52 452.594 131.825 c 451.887 133.126 450.879 133.778
 449.578 133.778 c 449.184 133.778 448.754 133.692 448.297 133.528 c 447.848
 133.36 447.184 133.001 446.297 132.45 c f
2.834646 w
q 1 0 0 -1 0 291.118073 cm
49.602 181.586 m 49.602 241.438 l S Q
49.602 61.017 m 43.934 66.688 l 49.602 46.845 l 55.27 66.688 l h
f*
1.417323 w
q -0.000000000000000061 1 1 0.000000000000000061 0 291.118073 cm
-230.102 49.602 m -224.43 43.934 l -244.273 49.602 l -224.43 55.27 l h
S Q
2.834646 w
q 1 0 0 -1 0 291.118073 cm
212.535 181.586 m 212.535 241.438 l S Q
212.535 61.017 m 206.867 66.688 l 212.535 46.845 l 218.203 66.688 l h
f*
1.417323 w
q -0.000000000000000061 1 1 0.000000000000000061 0 291.118073 cm
-230.102 212.535 m -224.43 206.867 l -244.273 212.535 l -224.43 218.203
 l h
S Q
2.834646 w
q 1 0 0 -1 0 291.118073 cm
406.227 181.586 m 406.227 241.438 l S Q
406.227 61.017 m 400.559 66.688 l 406.227 46.845 l 411.895 66.688 l h
f*
1.417323 w
q -0.000000000000000061 1 1 0.000000000000000061 0 291.118073 cm
-230.102 406.227 m -224.43 400.559 l -244.273 406.227 l -224.43 411.895
 l h
S Q
Q Q
showpage
%%Trailer
end restore
%%EOF
