%!PS-Adobe-3.0 EPSF-3.0
%%Creator: cairo 1.12.2 (http://cairographics.org)
%%CreationDate: Fri Feb 14 21:33:00 2014
%%Pages: 1
%%DocumentData: Clean7Bit
%%LanguageLevel: 2
%%BoundingBox: 0 -1 718 403
%%EndComments
%%BeginProlog
save
50 dict begin
/q { gsave } bind def
/Q { grestore } bind def
/cm { 6 array astore concat } bind def
/w { setlinewidth } bind def
/J { setlinecap } bind def
/j { setlinejoin } bind def
/M { setmiterlimit } bind def
/d { setdash } bind def
/m { moveto } bind def
/l { lineto } bind def
/c { curveto } bind def
/h { closepath } bind def
/re { exch dup neg 3 1 roll 5 3 roll moveto 0 rlineto
      0 exch rlineto 0 rlineto closepath } bind def
/S { stroke } bind def
/f { fill } bind def
/f* { eofill } bind def
/n { newpath } bind def
/W { clip } bind def
/W* { eoclip } bind def
/BT { } bind def
/ET { } bind def
/pdfmark where { pop globaldict /?pdfmark /exec load put }
    { globaldict begin /?pdfmark /pop load def /pdfmark
    /cleartomark load def end } ifelse
/BDC { mark 3 1 roll /BDC pdfmark } bind def
/EMC { mark /EMC pdfmark } bind def
/cairo_store_point { /cairo_point_y exch def /cairo_point_x exch def } def
/Tj { show currentpoint cairo_store_point } bind def
/TJ {
  {
    dup
    type /stringtype eq
    { show } { -0.001 mul 0 cairo_font_matrix dtransform rmoveto } ifelse
  } forall
  currentpoint cairo_store_point
} bind def
/cairo_selectfont { cairo_font_matrix aload pop pop pop 0 0 6 array astore
    cairo_font exch selectfont cairo_point_x cairo_point_y moveto } bind def
/Tf { pop /cairo_font exch def /cairo_font_matrix where
      { pop cairo_selectfont } if } bind def
/Td { matrix translate cairo_font_matrix matrix concatmatrix dup
      /cairo_font_matrix exch def dup 4 get exch 5 get cairo_store_point
      /cairo_font where { pop cairo_selectfont } if } bind def
/Tm { 2 copy 8 2 roll 6 array astore /cairo_font_matrix exch def
      cairo_store_point /cairo_font where { pop cairo_selectfont } if } bind def
/g { setgray } bind def
/rg { setrgbcolor } bind def
/d1 { setcachedevice } bind def
%%EndProlog
%%Page: 1 1
%%BeginPageSetup
%%PageBoundingBox: 0 -1 718 403
%%EndPageSetup
q 0 -1 718 404 rectclip q
0 g
18.109 401.624 m 18.594 394.421 l 18.109 394.421 l 17.465 396.577 16.543
 398.128 15.344 399.077 c 14.145 400.026 12.707 400.499 11.031 400.499 c
 9.625 400.499 8.355 400.14 7.219 399.421 c 6.082 398.714 5.188 397.577 
4.531 396.015 c 3.887 394.452 3.562 392.511 3.562 390.187 c 3.562 388.269
 3.871 386.608 4.484 385.202 c 5.098 383.796 6.02 382.718 7.25 381.968 c
 8.488 381.218 9.902 380.843 11.484 380.843 c 12.859 380.843 14.074 381.136
 15.125 381.718 c 16.176 382.312 17.332 383.483 18.594 385.233 c 19.078 
384.921 l 18.016 383.034 16.777 381.655 15.359 380.78 c 13.941 379.905 12.262
 379.468 10.312 379.468 c 6.801 379.468 4.082 380.769 2.156 383.374 c 0.719
 385.312 0 387.593 0 390.218 c 0 392.331 0.473 394.276 1.422 396.046 c 2.371
 397.815 3.672 399.187 5.328 400.155 c 6.996 401.136 8.812 401.624 10.781
 401.624 c 12.312 401.624 13.824 401.249 15.312 400.499 c 15.75 400.269 
16.062 400.155 16.25 400.155 c 16.531 400.155 16.777 400.253 16.984 400.452
 c 17.254 400.733 17.449 401.124 17.562 401.624 c 18.109 401.624 l f
28.219 394.687 m 30.387 394.687 32.125 393.862 33.438 392.218 c 34.551 
390.812 35.109 389.198 35.109 387.374 c 35.109 386.093 34.801 384.796 34.188
 383.483 c 33.574 382.171 32.723 381.183 31.641 380.515 c 30.566 379.847
 29.371 379.515 28.047 379.515 c 25.891 379.515 24.176 380.374 22.906 382.093
 c 21.832 383.542 21.297 385.167 21.297 386.968 c 21.297 388.28 21.621 389.581
 22.266 390.874 c 22.922 392.175 23.781 393.136 24.844 393.749 c 25.906 
394.374 27.031 394.687 28.219 394.687 c 27.734 393.671 m 27.184 393.671 
26.625 393.503 26.062 393.171 c 25.512 392.847 25.062 392.276 24.719 391.452
 c 24.375 390.628 24.203 389.573 24.203 388.28 c 24.203 386.198 24.613 384.401
 25.438 382.89 c 26.27 381.378 27.363 380.624 28.719 380.624 c 29.73 380.624
 30.562 381.042 31.219 381.874 c 31.875 382.706 32.203 384.14 32.203 386.171
 c 32.203 388.714 31.656 390.714 30.562 392.171 c 29.824 393.171 28.879 
393.671 27.734 393.671 c f
41.391 391.655 m 43.066 393.675 44.668 394.687 46.188 394.687 c 46.969 
394.687 47.641 394.487 48.203 394.093 c 48.766 393.706 49.215 393.065 49.547
 392.171 c 49.777 391.546 49.891 390.589 49.891 389.296 c 49.891 383.187
 l 49.891 382.28 49.965 381.667 50.109 381.343 c 50.223 381.081 50.406 380.878
 50.656 380.733 c 50.918 380.589 51.391 380.515 52.078 380.515 c 52.078 
379.952 l 45 379.952 l 45 380.515 l 45.297 380.515 l 45.965 380.515 46.426
 380.612 46.688 380.812 c 46.957 381.019 47.145 381.323 47.25 381.718 c 
47.293 381.874 47.312 382.362 47.312 383.187 c 47.312 389.046 l 47.312 390.347
 47.141 391.292 46.797 391.874 c 46.465 392.468 45.895 392.765 45.094 392.765
 c 43.855 392.765 42.621 392.089 41.391 390.733 c 41.391 383.187 l 41.391
 382.218 41.449 381.62 41.562 381.39 c 41.707 381.089 41.906 380.862 42.156
 380.718 c 42.418 380.581 42.938 380.515 43.719 380.515 c 43.719 379.952
 l 36.641 379.952 l 36.641 380.515 l 36.953 380.515 l 37.684 380.515 38.172
 380.698 38.422 381.062 c 38.684 381.437 38.812 382.144 38.812 383.187 c
 38.812 388.499 l 38.812 390.218 38.77 391.265 38.688 391.64 c 38.613 392.015
 38.496 392.269 38.328 392.405 c 38.172 392.542 37.957 392.608 37.688 392.608
 c 37.395 392.608 37.047 392.53 36.641 392.374 c 36.406 392.937 l 40.719
 394.687 l 41.391 394.687 l 41.391 391.655 l f
56.844 402.187 m 57.293 402.187 57.672 402.03 57.984 401.718 c 58.297 401.405
 58.453 401.026 58.453 400.577 c 58.453 400.14 58.297 399.765 57.984 399.452
 c 57.672 399.14 57.293 398.983 56.844 398.983 c 56.406 398.983 56.031 399.14
 55.719 399.452 c 55.406 399.765 55.25 400.14 55.25 400.577 c 55.25 401.026
 55.406 401.405 55.719 401.718 c 56.031 402.03 56.406 402.187 56.844 402.187
 c 58.188 394.687 m 58.188 380.28 l 58.188 377.831 57.668 376.015 56.625
 374.827 c 55.582 373.64 54.23 373.046 52.562 373.046 c 51.613 373.046 50.91
 373.218 50.453 373.562 c 49.996 373.905 49.766 374.261 49.766 374.624 c
 49.766 374.987 49.895 375.3 50.156 375.562 c 50.406 375.823 50.703 375.952
 51.047 375.952 c 51.316 375.952 51.594 375.886 51.875 375.749 c 52.051 
375.675 52.391 375.417 52.891 374.968 c 53.402 374.511 53.828 374.28 54.172
 374.28 c 54.422 374.28 54.668 374.378 54.906 374.577 c 55.145 374.765 55.324
 375.089 55.438 375.546 c 55.551 375.995 55.609 376.972 55.609 378.483 c
 55.609 388.671 l 55.609 390.245 55.562 391.253 55.469 391.702 c 55.395 
392.046 55.281 392.28 55.125 392.405 c 54.969 392.542 54.754 392.608 54.484
 392.608 c 54.191 392.608 53.84 392.53 53.422 392.374 c 53.203 392.937 l
 57.516 394.687 l 58.188 394.687 l f
74.641 394.265 m 74.641 385.593 l 74.641 383.937 74.676 382.921 74.75 382.546
 c 74.832 382.183 74.957 381.925 75.125 381.78 c 75.301 381.636 75.504 381.562
 75.734 381.562 c 76.059 381.562 76.422 381.651 76.828 381.827 c 77.047 
381.28 l 72.766 379.515 l 72.062 379.515 l 72.062 382.546 l 70.832 381.214
 69.895 380.374 69.25 380.03 c 68.605 379.687 67.922 379.515 67.203 379.515
 c 66.402 379.515 65.703 379.745 65.109 380.202 c 64.527 380.671 64.121 
381.269 63.891 381.999 c 63.66 382.73 63.547 383.761 63.547 385.093 c 63.547
 391.483 l 63.547 392.159 63.473 392.628 63.328 392.89 c 63.184 393.151 
62.965 393.347 62.672 393.483 c 62.391 393.628 61.875 393.698 61.125 393.687
 c 61.125 394.265 l 66.141 394.265 l 66.141 384.687 l 66.141 383.355 66.371
 382.48 66.828 382.062 c 67.297 381.644 67.859 381.437 68.516 381.437 c 
68.965 381.437 69.469 381.577 70.031 381.858 c 70.605 382.14 71.281 382.675
 72.062 383.468 c 72.062 391.577 l 72.062 392.39 71.91 392.937 71.609 393.218
 c 71.316 393.511 70.703 393.667 69.766 393.687 c 69.766 394.265 l 74.641
 394.265 l f
82.266 391.655 m 83.941 393.675 85.543 394.687 87.062 394.687 c 87.844 
394.687 88.516 394.487 89.078 394.093 c 89.641 393.706 90.09 393.065 90.422
 392.171 c 90.652 391.546 90.766 390.589 90.766 389.296 c 90.766 383.187
 l 90.766 382.28 90.84 381.667 90.984 381.343 c 91.098 381.081 91.281 380.878
 91.531 380.733 c 91.793 380.589 92.266 380.515 92.953 380.515 c 92.953 
379.952 l 85.875 379.952 l 85.875 380.515 l 86.172 380.515 l 86.84 380.515
 87.301 380.612 87.562 380.812 c 87.832 381.019 88.02 381.323 88.125 381.718
 c 88.168 381.874 88.188 382.362 88.188 383.187 c 88.188 389.046 l 88.188
 390.347 88.016 391.292 87.672 391.874 c 87.34 392.468 86.77 392.765 85.969
 392.765 c 84.73 392.765 83.496 392.089 82.266 390.733 c 82.266 383.187 
l 82.266 382.218 82.324 381.62 82.438 381.39 c 82.582 381.089 82.781 380.862
 83.031 380.718 c 83.293 380.581 83.812 380.515 84.594 380.515 c 84.594 
379.952 l 77.516 379.952 l 77.516 380.515 l 77.828 380.515 l 78.559 380.515
 79.047 380.698 79.297 381.062 c 79.559 381.437 79.688 382.144 79.688 383.187
 c 79.688 388.499 l 79.688 390.218 79.645 391.265 79.562 391.64 c 79.488
 392.015 79.371 392.269 79.203 392.405 c 79.047 392.542 78.832 392.608 78.562
 392.608 c 78.27 392.608 77.922 392.53 77.516 392.374 c 77.281 392.937 l
 81.594 394.687 l 82.266 394.687 l 82.266 391.655 l f
98.25 398.968 m 98.25 394.265 l 101.594 394.265 l 101.594 393.171 l 98.25
 393.171 l 98.25 383.89 l 98.25 382.964 98.379 382.339 98.641 382.015 c 
98.91 381.69 99.254 381.53 99.672 381.53 c 100.016 381.53 100.348 381.636
 100.672 381.843 c 100.996 382.062 101.246 382.378 101.422 382.796 c 102.031
 382.796 l 101.668 381.776 101.152 381.003 100.484 380.483 c 99.816 379.972
 99.129 379.718 98.422 379.718 c 97.941 379.718 97.473 379.847 97.016 380.108
 c 96.559 380.378 96.219 380.761 96 381.249 c 95.781 381.749 95.672 382.515
 95.672 383.546 c 95.672 393.171 l 93.406 393.171 l 93.406 393.687 l 93.98
 393.917 94.562 394.3 95.156 394.843 c 95.762 395.394 96.297 396.046 96.766
 396.796 c 97.004 397.19 97.34 397.917 97.766 398.968 c 98.25 398.968 l f
109.969 394.687 m 112.137 394.687 113.875 393.862 115.188 392.218 c 116.301
 390.812 116.859 389.198 116.859 387.374 c 116.859 386.093 116.551 384.796
 115.938 383.483 c 115.324 382.171 114.473 381.183 113.391 380.515 c 112.316
 379.847 111.121 379.515 109.797 379.515 c 107.641 379.515 105.926 380.374
 104.656 382.093 c 103.582 383.542 103.047 385.167 103.047 386.968 c 103.047
 388.28 103.371 389.581 104.016 390.874 c 104.672 392.175 105.531 393.136
 106.594 393.749 c 107.656 394.374 108.781 394.687 109.969 394.687 c 109.484
 393.671 m 108.934 393.671 108.375 393.503 107.812 393.171 c 107.262 392.847
 106.812 392.276 106.469 391.452 c 106.125 390.628 105.953 389.573 105.953
 388.28 c 105.953 386.198 106.363 384.401 107.188 382.89 c 108.02 381.378
 109.113 380.624 110.469 380.624 c 111.48 380.624 112.312 381.042 112.969
 381.874 c 113.625 382.706 113.953 384.14 113.953 386.171 c 113.953 388.714
 113.406 390.714 112.312 392.171 c 111.574 393.171 110.629 393.671 109.484
 393.671 c f
137.078 381.562 m 136.379 380.831 135.699 380.308 135.031 379.983 c 134.363
 379.671 133.645 379.515 132.875 379.515 c 131.312 379.515 129.949 380.167
 128.781 381.468 c 127.613 382.78 127.031 384.464 127.031 386.515 c 127.031
 388.565 127.676 390.44 128.969 392.14 c 130.262 393.847 131.922 394.702
 133.953 394.702 c 135.215 394.702 136.254 394.3 137.078 393.499 c 137.078
 396.14 l 137.078 397.776 137.035 398.78 136.953 399.155 c 136.879 399.53
 136.762 399.784 136.594 399.921 c 136.426 400.058 136.219 400.124 135.969
 400.124 c 135.699 400.124 135.34 400.042 134.891 399.874 c 134.688 400.421
 l 138.953 402.171 l 139.656 402.171 l 139.656 385.624 l 139.656 383.948
 139.691 382.921 139.766 382.546 c 139.848 382.183 139.973 381.925 140.141
 381.78 c 140.316 381.636 140.52 381.562 140.75 381.562 c 141.031 381.562
 141.406 381.651 141.875 381.827 c 142.047 381.28 l 137.797 379.515 l 137.078
 379.515 l 137.078 381.562 l 137.078 382.655 m 137.078 390.03 l 137.016 
390.737 136.828 391.386 136.516 391.968 c 136.203 392.55 135.785 392.987
 135.266 393.28 c 134.754 393.581 134.254 393.733 133.766 393.733 c 132.848
 393.733 132.031 393.323 131.312 392.499 c 130.363 391.417 129.891 389.831
 129.891 387.749 c 129.891 385.644 130.348 384.03 131.266 382.905 c 132.184
 381.792 133.203 381.233 134.328 381.233 c 135.277 381.233 136.191 381.706
 137.078 382.655 c f
145.375 388.874 m 145.363 386.749 145.879 385.081 146.922 383.874 c 147.965
 382.667 149.188 382.062 150.594 382.062 c 151.531 382.062 152.344 382.315
 153.031 382.827 c 153.73 383.347 154.312 384.233 154.781 385.483 c 155.266
 385.171 l 155.047 383.745 154.41 382.44 153.359 381.265 c 152.309 380.097
 150.988 379.515 149.406 379.515 c 147.688 379.515 146.215 380.183 144.984
 381.515 c 143.766 382.858 143.156 384.659 143.156 386.921 c 143.156 389.37
 143.781 391.276 145.031 392.64 c 146.293 394.015 147.871 394.702 149.766
 394.702 c 151.371 394.702 152.688 394.171 153.719 393.108 c 154.75 392.058
 155.266 390.644 155.266 388.874 c 145.375 388.874 l 145.375 389.78 m 152
 389.78 l 151.949 390.698 151.84 391.343 151.672 391.718 c 151.41 392.3 
151.02 392.761 150.5 393.093 c 149.988 393.425 149.453 393.593 148.891 393.593
 c 148.027 393.593 147.25 393.253 146.562 392.577 c 145.887 391.909 145.488
 390.98 145.375 389.78 c f
174.406 394.687 m 174.406 389.812 l 173.891 389.812 l 173.496 391.343 172.984
 392.386 172.359 392.937 c 171.746 393.487 170.957 393.765 170 393.765 c
 169.27 393.765 168.684 393.573 168.234 393.187 c 167.785 392.8 167.562 
392.374 167.562 391.905 c 167.562 391.323 167.73 390.823 168.062 390.405
 c 168.387 389.98 169.043 389.526 170.031 389.046 c 172.312 387.937 l 174.426
 386.905 175.484 385.546 175.484 383.858 c 175.484 382.558 174.988 381.503
 174 380.702 c 173.02 379.909 171.922 379.515 170.703 379.515 c 169.828 
379.515 168.828 379.671 167.703 379.983 c 167.359 380.089 167.078 380.14
 166.859 380.14 c 166.621 380.14 166.434 380.003 166.297 379.733 c 165.781
 379.733 l 165.781 384.843 l 166.297 384.843 l 166.59 383.386 167.145 382.284
 167.969 381.546 c 168.793 380.808 169.715 380.437 170.734 380.437 c 171.453
 380.437 172.035 380.644 172.484 381.062 c 172.941 381.487 173.172 381.999
 173.172 382.593 c 173.172 383.312 172.918 383.917 172.406 384.405 c 171.906
 384.894 170.902 385.515 169.391 386.265 c 167.879 387.015 166.891 387.69
 166.422 388.296 c 165.953 388.89 165.719 389.64 165.719 390.546 c 165.719
 391.722 166.121 392.706 166.922 393.499 c 167.734 394.292 168.781 394.687
 170.062 394.687 c 170.625 394.687 171.309 394.565 172.109 394.327 c 172.641
 394.171 172.996 394.093 173.172 394.093 c 173.34 394.093 173.469 394.128
 173.562 394.202 c 173.656 394.276 173.766 394.437 173.891 394.687 c 174.406
 394.687 l f
182.516 394.687 m 182.516 383.187 l 182.516 382.292 182.582 381.69 182.719
 381.39 c 182.855 381.097 183.047 380.878 183.297 380.733 c 183.559 380.589
 184.027 380.515 184.703 380.515 c 184.703 379.952 l 177.75 379.952 l 177.75
 380.515 l 178.449 380.515 178.918 380.581 179.156 380.718 c 179.395 380.855
 179.582 381.077 179.719 381.39 c 179.863 381.702 179.938 382.3 179.938 
383.187 c 179.938 388.702 l 179.938 390.253 179.891 391.261 179.797 391.718
 c 179.723 392.05 179.609 392.28 179.453 392.405 c 179.297 392.542 179.082
 392.608 178.812 392.608 c 178.52 392.608 178.168 392.53 177.75 392.374 
c 177.531 392.937 l 181.844 394.687 l 182.516 394.687 l 184.375 401.671 
m 179.766 396.28 l 179.234 396.28 l 180.875 401.671 l 184.375 401.671 l f
190.719 391.64 m 191.762 392.683 192.375 393.28 192.562 393.437 c 193.031
 393.831 193.535 394.14 194.078 394.358 c 194.621 394.577 195.156 394.687
 195.688 394.687 c 196.582 394.687 197.355 394.425 198 393.905 c 198.645
 393.386 199.078 392.628 199.297 391.64 c 200.371 392.89 201.277 393.706
 202.016 394.093 c 202.754 394.487 203.516 394.687 204.297 394.687 c 205.059
 394.687 205.73 394.487 206.312 394.093 c 206.906 393.706 207.375 393.073
 207.719 392.187 c 207.949 391.581 208.062 390.636 208.062 389.343 c 208.062
 383.187 l 208.062 382.292 208.129 381.675 208.266 381.343 c 208.371 381.112
 208.562 380.917 208.844 380.749 c 209.125 380.593 209.582 380.515 210.219
 380.515 c 210.219 379.952 l 203.156 379.952 l 203.156 380.515 l 203.453
 380.515 l 204.066 380.515 204.547 380.636 204.891 380.874 c 205.129 381.042
 205.301 381.308 205.406 381.671 c 205.449 381.847 205.469 382.355 205.469
 383.187 c 205.469 389.343 l 205.469 390.511 205.328 391.331 205.047 391.812
 c 204.641 392.48 203.988 392.812 203.094 392.812 c 202.543 392.812 201.984
 392.671 201.422 392.39 c 200.871 392.12 200.199 391.608 199.406 390.858
 c 199.375 390.687 l 199.406 390.015 l 199.406 383.187 l 199.406 382.206
 199.457 381.597 199.562 381.358 c 199.676 381.12 199.887 380.917 200.188
 380.749 c 200.488 380.593 201.004 380.515 201.734 380.515 c 201.734 379.952
 l 194.5 379.952 l 194.5 380.515 l 195.293 380.515 195.832 380.608 196.125
 380.796 c 196.426 380.983 196.637 381.265 196.75 381.64 c 196.801 381.815
 196.828 382.331 196.828 383.187 c 196.828 389.343 l 196.828 390.511 196.656
 391.347 196.312 391.858 c 195.855 392.526 195.215 392.858 194.391 392.858
 c 193.828 392.858 193.27 392.706 192.719 392.405 c 191.855 391.948 191.188
 391.433 190.719 390.858 c 190.719 383.187 l 190.719 382.249 190.781 381.64
 190.906 381.358 c 191.043 381.077 191.234 380.862 191.484 380.718 c 191.746
 380.581 192.266 380.515 193.047 380.515 c 193.047 379.952 l 185.969 379.952
 l 185.969 380.515 l 186.625 380.515 187.082 380.581 187.344 380.718 c 187.605
 380.862 187.801 381.089 187.938 381.39 c 188.074 381.702 188.141 382.3 
188.141 383.187 c 188.141 388.655 l 188.141 390.23 188.094 391.245 188 391.702
 c 187.926 392.046 187.812 392.28 187.656 392.405 c 187.5 392.542 187.285
 392.608 187.016 392.608 c 186.723 392.608 186.375 392.53 185.969 392.374
 c 185.734 392.937 l 190.047 394.687 l 190.719 394.687 l 190.719 391.64 
l f
215.266 391.796 m 216.652 393.722 218.145 394.687 219.75 394.687 c 221.219
 394.687 222.5 394.058 223.594 392.796 c 224.688 391.546 225.234 389.831
 225.234 387.655 c 225.234 385.112 224.391 383.065 222.703 381.515 c 221.254
 380.183 219.641 379.515 217.859 379.515 c 217.027 379.515 216.176 379.667
 215.312 379.968 c 214.457 380.269 213.582 380.722 212.688 381.327 c 212.688
 396.155 l 212.688 397.78 212.645 398.78 212.562 399.155 c 212.488 399.53
 212.371 399.784 212.203 399.921 c 212.035 400.058 211.828 400.124 211.578
 400.124 c 211.285 400.124 210.922 400.042 210.484 399.874 c 210.266 400.421
 l 214.562 402.171 l 215.266 402.171 l 215.266 391.796 l 215.266 390.796
 m 215.266 382.233 l 215.797 381.714 216.344 381.315 216.906 381.046 c 217.48
 380.784 218.062 380.655 218.656 380.655 c 219.605 380.655 220.484 381.175
 221.297 382.218 c 222.121 383.261 222.531 384.776 222.531 386.765 c 222.531
 388.597 222.121 390.003 221.297 390.983 c 220.484 391.972 219.559 392.468
 218.516 392.468 c 217.965 392.468 217.41 392.327 216.859 392.046 c 216.441
 391.839 215.91 391.421 215.266 390.796 c f
234.344 394.687 m 236.512 394.687 238.25 393.862 239.562 392.218 c 240.676
 390.812 241.234 389.198 241.234 387.374 c 241.234 386.093 240.926 384.796
 240.312 383.483 c 239.699 382.171 238.848 381.183 237.766 380.515 c 236.691
 379.847 235.496 379.515 234.172 379.515 c 232.016 379.515 230.301 380.374
 229.031 382.093 c 227.957 383.542 227.422 385.167 227.422 386.968 c 227.422
 388.28 227.746 389.581 228.391 390.874 c 229.047 392.175 229.906 393.136
 230.969 393.749 c 232.031 394.374 233.156 394.687 234.344 394.687 c 233.859
 393.671 m 233.309 393.671 232.75 393.503 232.188 393.171 c 231.637 392.847
 231.188 392.276 230.844 391.452 c 230.5 390.628 230.328 389.573 230.328
 388.28 c 230.328 386.198 230.738 384.401 231.562 382.89 c 232.395 381.378
 233.488 380.624 234.844 380.624 c 235.855 380.624 236.688 381.042 237.344
 381.874 c 238 382.706 238.328 384.14 238.328 386.171 c 238.328 388.714 
237.781 390.714 236.688 392.171 c 235.949 393.171 235.004 393.671 233.859
 393.671 c f
248.266 402.171 m 248.266 383.187 l 248.266 382.292 248.328 381.698 248.453
 381.405 c 248.59 381.112 248.793 380.89 249.062 380.733 c 249.332 380.589
 249.84 380.515 250.578 380.515 c 250.578 379.952 l 243.562 379.952 l 243.562
 380.515 l 244.219 380.515 244.668 380.581 244.906 380.718 c 245.145 380.855
 245.332 381.077 245.469 381.39 c 245.605 381.702 245.672 382.3 245.672 
383.187 c 245.672 396.187 l 245.672 397.8 245.637 398.792 245.562 399.155
 c 245.488 399.53 245.371 399.784 245.203 399.921 c 245.047 400.058 244.844
 400.124 244.594 400.124 c 244.324 400.124 243.98 400.042 243.562 399.874
 c 243.297 400.421 l 247.562 402.171 l 248.266 402.171 l f
259.219 394.687 m 261.387 394.687 263.125 393.862 264.438 392.218 c 265.551
 390.812 266.109 389.198 266.109 387.374 c 266.109 386.093 265.801 384.796
 265.188 383.483 c 264.574 382.171 263.723 381.183 262.641 380.515 c 261.566
 379.847 260.371 379.515 259.047 379.515 c 256.891 379.515 255.176 380.374
 253.906 382.093 c 252.832 383.542 252.297 385.167 252.297 386.968 c 252.297
 388.28 252.621 389.581 253.266 390.874 c 253.922 392.175 254.781 393.136
 255.844 393.749 c 256.906 394.374 258.031 394.687 259.219 394.687 c 258.734
 393.671 m 258.184 393.671 257.625 393.503 257.062 393.171 c 256.512 392.847
 256.062 392.276 255.719 391.452 c 255.375 390.628 255.203 389.573 255.203
 388.28 c 255.203 386.198 255.613 384.401 256.438 382.89 c 257.27 381.378
 258.363 380.624 259.719 380.624 c 260.73 380.624 261.562 381.042 262.219
 381.874 c 262.875 382.706 263.203 384.14 263.203 386.171 c 263.203 388.714
 262.656 390.714 261.562 392.171 c 260.824 393.171 259.879 393.671 258.734
 393.671 c f
277.469 394.687 m 277.469 389.812 l 276.953 389.812 l 276.559 391.343 276.047
 392.386 275.422 392.937 c 274.809 393.487 274.02 393.765 273.062 393.765
 c 272.332 393.765 271.746 393.573 271.297 393.187 c 270.848 392.8 270.625
 392.374 270.625 391.905 c 270.625 391.323 270.793 390.823 271.125 390.405
 c 271.449 389.98 272.105 389.526 273.094 389.046 c 275.375 387.937 l 277.488
 386.905 278.547 385.546 278.547 383.858 c 278.547 382.558 278.051 381.503
 277.062 380.702 c 276.082 379.909 274.984 379.515 273.766 379.515 c 272.891
 379.515 271.891 379.671 270.766 379.983 c 270.422 380.089 270.141 380.14
 269.922 380.14 c 269.684 380.14 269.496 380.003 269.359 379.733 c 268.844
 379.733 l 268.844 384.843 l 269.359 384.843 l 269.652 383.386 270.207 382.284
 271.031 381.546 c 271.855 380.808 272.777 380.437 273.797 380.437 c 274.516
 380.437 275.098 380.644 275.547 381.062 c 276.004 381.487 276.234 381.999
 276.234 382.593 c 276.234 383.312 275.98 383.917 275.469 384.405 c 274.969
 384.894 273.965 385.515 272.453 386.265 c 270.941 387.015 269.953 387.69
 269.484 388.296 c 269.016 388.89 268.781 389.64 268.781 390.546 c 268.781
 391.722 269.184 392.706 269.984 393.499 c 270.797 394.292 271.844 394.687
 273.125 394.687 c 273.688 394.687 274.371 394.565 275.172 394.327 c 275.703
 394.171 276.059 394.093 276.234 394.093 c 276.402 394.093 276.531 394.128
 276.625 394.202 c 276.719 394.276 276.828 394.437 276.953 394.687 c 277.469
 394.687 l f
20.809 327.831 m 16.188 327.831 l 18.211 332.585 24.199 336.46 34.148 339.448
 c 44.008 342.409 54.973 343.89 67.031 343.89 c 73.371 343.89 80.723 343.562
 89.09 342.905 c 97.539 342.253 104.102 341.925 108.766 341.925 c 115.105
 341.925 121.004 342.792 126.465 344.53 c 132.008 346.237 135.398 348.616
 136.633 351.663 c 142.047 351.663 l 143.281 348.616 146.625 346.237 152.082
 344.53 c 157.543 342.792 163.484 341.925 169.914 341.925 c 174.578 341.925
 181.094 342.253 189.457 342.905 c 197.824 343.562 205.219 343.89 211.645
 343.89 c 223.621 343.89 234.582 342.409 244.531 339.448 c 254.48 336.46
 260.422 332.585 262.359 327.831 c 257.738 327.831 l 255.273 331.163 251.223
 333.612 245.586 335.179 c 240.039 336.714 233.922 337.483 227.23 337.483
 c 222.035 337.483 215.168 337.171 206.629 336.542 c 198.176 335.89 190.957
 335.562 184.969 335.562 c 176.074 335.562 167.449 336.616 159.082 338.722
 c 150.719 340.827 144.246 343.976 139.668 348.159 c 135.004 344.062 128.398
 340.94 119.859 338.808 c 111.32 336.644 102.602 335.562 93.711 335.562 
c 87.723 335.562 80.504 335.89 72.051 336.542 c 63.512 337.171 56.645 337.483
 51.449 337.483 c 44.758 337.483 38.641 336.714 33.094 335.179 c 27.457 
333.612 23.363 331.163 20.809 327.831 c f
354.477 77.062 m 347.531 77.062 l 350.574 72.507 359.57 68.8 374.516 65.94
 c 389.328 63.105 405.793 61.687 423.914 61.687 c 433.438 61.687 444.48 
61.999 457.047 62.628 c 469.742 63.253 479.598 63.569 486.605 63.569 c 496.129
 63.569 504.992 62.737 513.191 61.073 c 521.523 59.437 526.617 57.163 528.469
 54.245 c 536.602 54.245 l 538.453 57.163 543.48 59.437 551.68 61.073 c 
559.879 62.737 568.809 63.569 578.465 63.569 c 585.473 63.569 595.262 63.253
 607.824 62.628 c 620.391 61.999 631.5 61.687 641.156 61.687 c 659.145 61.687
 675.609 63.105 690.555 65.94 c 705.5 68.8 714.43 72.507 717.34 77.062 c
 710.395 77.062 l 706.691 73.87 700.609 71.526 692.145 70.026 c 683.809 
68.554 674.617 67.819 664.566 67.819 c 656.762 67.819 646.445 68.12 633.617
 68.718 c 620.918 69.347 610.074 69.659 601.082 69.659 c 587.723 69.659 
574.762 68.651 562.195 66.636 c 549.629 64.616 539.91 61.605 533.031 57.597
 c 526.02 61.522 516.102 64.507 503.273 66.554 c 490.441 68.624 477.348 
69.659 463.988 69.659 c 454.996 69.659 444.152 69.347 431.453 68.718 c 418.625
 68.12 408.309 67.819 400.504 67.819 c 390.453 67.819 381.258 68.554 372.926
 70.026 c 364.461 71.526 358.312 73.87 354.477 77.062 c f
454.742 22.155 m 455.227 14.952 l 454.742 14.952 l 454.094 17.108 453.172
 18.663 451.977 19.608 c 450.777 20.558 449.34 21.03 447.664 21.03 c 446.258
 21.03 444.984 20.671 443.852 19.952 c 442.715 19.245 441.82 18.108 441.164
 16.546 c 440.516 14.983 440.195 13.042 440.195 10.718 c 440.195 8.804 440.5
 7.14 441.117 5.733 c 441.73 4.327 442.652 3.249 443.883 2.499 c 445.121
 1.749 446.531 1.374 448.117 1.374 c 449.492 1.374 450.703 1.667 451.758
 2.249 c 452.809 2.843 453.965 4.015 455.227 5.765 c 455.711 5.452 l 454.648
 3.569 453.406 2.187 451.992 1.312 c 450.574 0.437 448.891 -0.001 446.945
 -0.001 c 443.434 -0.001 440.715 1.304 438.789 3.905 c 437.352 5.843 436.633
 8.124 436.633 10.749 c 436.633 12.866 437.105 14.808 438.055 16.577 c 439
 18.351 440.305 19.718 441.961 20.687 c 443.625 21.667 445.445 22.155 447.414
 22.155 c 448.945 22.155 450.453 21.78 451.945 21.03 c 452.383 20.804 452.695
 20.687 452.883 20.687 c 453.164 20.687 453.406 20.788 453.617 20.983 c 
453.887 21.265 454.078 21.655 454.195 22.155 c 454.742 22.155 l f
461.492 22.702 m 461.93 22.702 462.297 22.546 462.602 22.233 c 462.914 
21.933 463.07 21.562 463.07 21.124 c 463.07 20.687 462.914 20.312 462.602
 19.999 c 462.297 19.687 461.93 19.53 461.492 19.53 c 461.055 19.53 460.68
 19.687 460.367 19.999 c 460.055 20.312 459.898 20.687 459.898 21.124 c 
459.898 21.562 460.047 21.933 460.352 22.233 c 460.664 22.546 461.043 22.702
 461.492 22.702 c 462.789 15.218 m 462.789 3.718 l 462.789 2.823 462.852
 2.226 462.977 1.921 c 463.109 1.632 463.305 1.413 463.555 1.265 c 463.812
 1.12 464.281 1.046 464.961 1.046 c 464.961 0.483 l 458.008 0.483 l 458.008
 1.046 l 458.703 1.046 459.172 1.116 459.414 1.249 c 459.652 1.386 459.84
 1.608 459.977 1.921 c 460.121 2.233 460.195 2.835 460.195 3.718 c 460.195
 9.233 l 460.195 10.788 460.148 11.792 460.055 12.249 c 459.98 12.585 459.867
 12.812 459.711 12.937 c 459.555 13.073 459.34 13.14 459.07 13.14 c 458.777
 13.14 458.422 13.062 458.008 12.905 c 457.789 13.468 l 462.102 15.218 l
 462.789 15.218 l f
472.32 13.671 m 472.32 4.265 l 472.32 2.933 472.465 2.089 472.758 1.733
 c 473.141 1.276 473.656 1.046 474.305 1.046 c 475.602 1.046 l 475.602 0.483
 l 467.055 0.483 l 467.055 1.046 l 467.695 1.046 l 468.109 1.046 468.492
 1.151 468.836 1.358 c 469.18 1.569 469.414 1.851 469.539 2.202 c 469.672
 2.558 469.742 3.245 469.742 4.265 c 469.742 13.671 l 466.961 13.671 l 466.961
 14.796 l 469.742 14.796 l 469.742 15.733 l 469.742 17.163 469.969 18.37
 470.43 19.358 c 470.887 20.351 471.586 21.147 472.523 21.749 c 473.469 
22.366 474.531 22.671 475.711 22.671 c 476.805 22.671 477.809 22.319 478.727
 21.608 c 479.328 21.14 479.633 20.616 479.633 20.03 c 479.633 19.718 479.496
 19.421 479.227 19.14 c 478.953 18.87 478.664 18.733 478.352 18.733 c 478.109
 18.733 477.855 18.819 477.586 18.983 c 477.324 19.163 477 19.53 476.617
 20.093 c 476.23 20.667 475.875 21.054 475.555 21.249 c 475.23 21.448 474.871
 21.546 474.477 21.546 c 473.996 21.546 473.59 21.417 473.258 21.155 c 472.922
 20.905 472.684 20.511 472.539 19.968 c 472.391 19.437 472.32 18.058 472.32
 15.827 c 472.32 14.796 l 476.008 14.796 l 476.008 13.671 l 472.32 13.671
 l f
481.602 15.218 m 481.602 11.999 l 482.797 14.147 484.027 15.218 485.289
 15.218 c 485.859 15.218 486.336 15.042 486.711 14.687 c 487.086 14.343 
487.273 13.944 487.273 13.483 c 487.273 13.077 487.137 12.733 486.867 12.452
 c 486.594 12.171 486.273 12.03 485.898 12.03 c 485.531 12.03 485.121 12.21
 484.664 12.562 c 484.215 12.929 483.883 13.108 483.664 13.108 c 483.477
 13.108 483.273 13.007 483.055 12.796 c 482.586 12.37 482.102 11.667 481.602
 10.687 c 481.602 3.827 l 481.602 3.038 481.699 2.437 481.898 2.03 c 482.031
 1.749 482.273 1.515 482.617 1.327 c 482.961 1.14 483.453 1.046 484.102 
1.046 c 484.102 0.483 l 476.773 0.483 l 476.773 1.046 l 477.5 1.046 478.043
 1.163 478.398 1.39 c 478.656 1.558 478.84 1.823 478.945 2.187 c 478.996
 2.366 479.023 2.87 479.023 3.702 c 479.023 9.249 l 479.023 10.917 478.984
 11.905 478.914 12.218 c 478.852 12.542 478.727 12.776 478.539 12.921 c 
478.359 13.069 478.137 13.14 477.867 13.14 c 477.543 13.14 477.18 13.062
 476.773 12.905 c 476.617 13.468 l 480.945 15.218 l 481.602 15.218 l f
496.211 2.546 m 494.742 1.413 493.82 0.757 493.445 0.577 c 492.883 0.319
 492.281 0.187 491.648 0.187 c 490.656 0.187 489.84 0.526 489.195 1.202 
c 488.559 1.882 488.242 2.772 488.242 3.874 c 488.242 4.573 488.398 5.179
 488.711 5.687 c 489.137 6.397 489.875 7.062 490.93 7.687 c 491.992 8.312
 493.75 9.073 496.211 9.968 c 496.211 10.53 l 496.211 11.96 495.98 12.937
 495.523 13.468 c 495.074 13.999 494.418 14.265 493.555 14.265 c 492.898
 14.265 492.375 14.089 491.992 13.733 c 491.594 13.382 491.398 12.976 491.398
 12.515 c 491.43 11.608 l 491.43 11.132 491.305 10.761 491.055 10.499 c 
490.812 10.241 490.496 10.108 490.102 10.108 c 489.715 10.108 489.398 10.245
 489.148 10.515 c 488.906 10.788 488.789 11.155 488.789 11.624 c 488.789
 12.522 489.246 13.343 490.164 14.093 c 491.078 14.843 492.367 15.218 494.023
 15.218 c 495.293 15.218 496.336 15.007 497.148 14.577 c 497.762 14.257 
498.215 13.749 498.508 13.062 c 498.695 12.616 498.789 11.698 498.789 10.312
 c 498.789 5.452 l 498.789 4.089 498.812 3.249 498.867 2.937 c 498.918 2.636
 499 2.433 499.117 2.327 c 499.242 2.226 499.383 2.171 499.539 2.171 c 499.703
 2.171 499.852 2.21 499.977 2.28 c 500.195 2.417 500.617 2.796 501.242 3.421
 c 501.242 2.546 l 500.074 0.983 498.961 0.202 497.898 0.202 c 497.387 0.202
 496.98 0.382 496.68 0.733 c 496.375 1.089 496.219 1.694 496.211 2.546 c
 496.211 3.562 m 496.211 9.015 l 494.637 8.39 493.621 7.948 493.164 7.687
 c 492.34 7.23 491.75 6.749 491.398 6.249 c 491.043 5.749 490.867 5.202 
490.867 4.608 c 490.867 3.858 491.09 3.233 491.539 2.733 c 491.984 2.245
 492.5 1.999 493.086 1.999 c 493.875 1.999 494.918 2.522 496.211 3.562 c
 f
514.461 12.187 m 516.137 14.21 517.734 15.218 519.258 15.218 c 520.039 
15.218 520.711 15.022 521.273 14.624 c 521.836 14.241 522.281 13.601 522.617
 12.702 c 522.844 12.077 522.961 11.12 522.961 9.827 c 522.961 3.718 l 522.961
 2.812 523.031 2.198 523.18 1.874 c 523.293 1.616 523.477 1.413 523.727 
1.265 c 523.984 1.12 524.461 1.046 525.148 1.046 c 525.148 0.483 l 518.07
 0.483 l 518.07 1.046 l 518.367 1.046 l 519.031 1.046 519.496 1.147 519.758
 1.343 c 520.027 1.554 520.215 1.855 520.32 2.249 c 520.359 2.405 520.383
 2.897 520.383 3.718 c 520.383 9.577 l 520.383 10.882 520.211 11.823 519.867
 12.405 c 519.531 12.999 518.965 13.296 518.164 13.296 c 516.922 13.296 
515.688 12.62 514.461 11.265 c 514.461 3.718 l 514.461 2.749 514.516 2.151
 514.633 1.921 c 514.777 1.62 514.977 1.397 515.227 1.249 c 515.484 1.116
 516.008 1.046 516.789 1.046 c 516.789 0.483 l 509.711 0.483 l 509.711 1.046
 l 510.023 1.046 l 510.75 1.046 511.242 1.23 511.492 1.593 c 511.75 1.968
 511.883 2.679 511.883 3.718 c 511.883 9.03 l 511.883 10.749 511.84 11.796
 511.758 12.171 c 511.684 12.546 511.562 12.804 511.398 12.937 c 511.242
 13.073 511.027 13.14 510.758 13.14 c 510.465 13.14 510.117 13.062 509.711
 12.905 c 509.477 13.468 l 513.789 15.218 l 514.461 15.218 l 514.461 12.187
 l f
538.836 14.796 m 538.836 6.124 l 538.836 4.468 538.871 3.452 538.945 3.077
 c 539.027 2.714 539.152 2.46 539.32 2.312 c 539.496 2.167 539.699 2.093
 539.93 2.093 c 540.25 2.093 540.617 2.183 541.023 2.358 c 541.242 1.812
 l 536.961 0.046 l 536.258 0.046 l 536.258 3.077 l 535.027 1.745 534.09 
0.905 533.445 0.562 c 532.797 0.218 532.117 0.046 531.398 0.046 c 530.594
 0.046 529.898 0.276 529.305 0.733 c 528.719 1.202 528.312 1.804 528.086
 2.53 c 527.855 3.261 527.742 4.292 527.742 5.624 c 527.742 12.015 l 527.742
 12.694 527.668 13.163 527.523 13.421 c 527.375 13.683 527.156 13.882 526.867
 14.015 c 526.586 14.163 526.07 14.23 525.32 14.218 c 525.32 14.796 l 530.336
 14.796 l 530.336 5.218 l 530.336 3.886 530.562 3.011 531.023 2.593 c 531.492
 2.179 532.055 1.968 532.711 1.968 c 533.156 1.968 533.664 2.108 534.227
 2.39 c 534.797 2.671 535.477 3.21 536.258 3.999 c 536.258 12.108 l 536.258
 12.921 536.105 13.468 535.805 13.749 c 535.512 14.042 534.898 14.198 533.961
 14.218 c 533.961 14.796 l 538.836 14.796 l f
546.539 12.171 m 547.578 13.214 548.195 13.812 548.383 13.968 c 548.852
 14.366 549.355 14.671 549.898 14.89 c 550.438 15.108 550.977 15.218 551.508
 15.218 c 552.402 15.218 553.172 14.96 553.82 14.437 c 554.465 13.917 554.898
 13.163 555.117 12.171 c 556.188 13.421 557.094 14.241 557.836 14.624 c 
558.574 15.022 559.336 15.218 560.117 15.218 c 560.875 15.218 561.547 15.022
 562.133 14.624 c 562.727 14.241 563.195 13.605 563.539 12.718 c 563.766
 12.116 563.883 11.167 563.883 9.874 c 563.883 3.718 l 563.883 2.823 563.949
 2.21 564.086 1.874 c 564.188 1.647 564.383 1.448 564.664 1.28 c 564.945
 1.124 565.402 1.046 566.039 1.046 c 566.039 0.483 l 558.977 0.483 l 558.977
 1.046 l 559.273 1.046 l 559.887 1.046 560.367 1.167 560.711 1.405 c 560.949
 1.573 561.121 1.839 561.227 2.202 c 561.266 2.382 561.289 2.886 561.289
 3.718 c 561.289 9.874 l 561.289 11.042 561.148 11.866 560.867 12.343 c 
560.461 13.011 559.809 13.343 558.914 13.343 c 558.359 13.343 557.805 13.202
 557.242 12.921 c 556.688 12.651 556.016 12.14 555.227 11.39 c 555.195 11.218
 l 555.227 10.546 l 555.227 3.718 l 555.227 2.741 555.277 2.132 555.383 
1.89 c 555.496 1.651 555.703 1.448 556.008 1.28 c 556.309 1.124 556.824 
1.046 557.555 1.046 c 557.555 0.483 l 550.32 0.483 l 550.32 1.046 l 551.109
 1.046 551.652 1.14 551.945 1.327 c 552.246 1.515 552.453 1.796 552.57 2.171
 c 552.621 2.351 552.648 2.866 552.648 3.718 c 552.648 9.874 l 552.648 11.042
 552.477 11.882 552.133 12.39 c 551.672 13.058 551.031 13.39 550.211 13.39
 c 549.648 13.39 549.09 13.241 548.539 12.937 c 547.672 12.48 547.008 11.964
 546.539 11.39 c 546.539 3.718 l 546.539 2.78 546.602 2.171 546.727 1.89
 c 546.859 1.608 547.055 1.397 547.305 1.249 c 547.562 1.116 548.086 1.046
 548.867 1.046 c 548.867 0.483 l 541.789 0.483 l 541.789 1.046 l 542.445
 1.046 542.902 1.116 543.164 1.249 c 543.422 1.397 543.621 1.62 543.758 
1.921 c 543.891 2.233 543.961 2.835 543.961 3.718 c 543.961 9.187 l 543.961
 10.761 543.914 11.776 543.82 12.233 c 543.746 12.577 543.633 12.812 543.477
 12.937 c 543.32 13.073 543.105 13.14 542.836 13.14 c 542.543 13.14 542.195
 13.062 541.789 12.905 c 541.555 13.468 l 545.867 15.218 l 546.539 15.218
 l 546.539 12.171 l f
569.57 9.405 m 569.559 7.28 570.074 5.616 571.117 4.405 c 572.156 3.198
 573.383 2.593 574.789 2.593 c 575.727 2.593 576.539 2.851 577.227 3.358
 c 577.922 3.882 578.508 4.765 578.977 6.015 c 579.461 5.702 l 579.242 4.276
 578.605 2.976 577.555 1.796 c 576.5 0.632 575.184 0.046 573.602 0.046 c
 571.883 0.046 570.406 0.714 569.18 2.046 c 567.961 3.39 567.352 5.194 567.352
 7.452 c 567.352 9.901 567.977 11.808 569.227 13.171 c 570.484 14.546 572.062
 15.233 573.961 15.233 c 575.562 15.233 576.883 14.702 577.914 13.64 c 578.945
 12.589 579.461 11.179 579.461 9.405 c 569.57 9.405 l 569.57 10.312 m 576.195
 10.312 l 576.141 11.23 576.031 11.874 575.867 12.249 c 575.605 12.835 575.215
 13.292 574.695 13.624 c 574.184 13.96 573.648 14.124 573.086 14.124 c 572.219
 14.124 571.445 13.788 570.758 13.108 c 570.078 12.444 569.684 11.511 569.57
 10.312 c 577.023 22.202 m 572.414 16.812 l 571.883 16.812 l 573.523 22.202
 l 577.023 22.202 l f
585.539 15.218 m 585.539 11.999 l 586.734 14.147 587.965 15.218 589.227
 15.218 c 589.797 15.218 590.273 15.042 590.648 14.687 c 591.023 14.343 
591.211 13.944 591.211 13.483 c 591.211 13.077 591.074 12.733 590.805 12.452
 c 590.531 12.171 590.211 12.03 589.836 12.03 c 589.469 12.03 589.059 12.21
 588.602 12.562 c 588.152 12.929 587.82 13.108 587.602 13.108 c 587.414 
13.108 587.211 13.007 586.992 12.796 c 586.523 12.37 586.039 11.667 585.539
 10.687 c 585.539 3.827 l 585.539 3.038 585.637 2.437 585.836 2.03 c 585.969
 1.749 586.211 1.515 586.555 1.327 c 586.898 1.14 587.391 1.046 588.039 
1.046 c 588.039 0.483 l 580.711 0.483 l 580.711 1.046 l 581.438 1.046 581.98
 1.163 582.336 1.39 c 582.594 1.558 582.777 1.823 582.883 2.187 c 582.934
 2.366 582.961 2.87 582.961 3.702 c 582.961 9.249 l 582.961 10.917 582.922
 11.905 582.852 12.218 c 582.789 12.542 582.664 12.776 582.477 12.921 c 
582.297 13.069 582.074 13.14 581.805 13.14 c 581.48 13.14 581.117 13.062
 580.711 12.905 c 580.555 13.468 l 584.883 15.218 l 585.539 15.218 l f
595.68 22.702 m 596.117 22.702 596.484 22.546 596.789 22.233 c 597.102 
21.933 597.258 21.562 597.258 21.124 c 597.258 20.687 597.102 20.312 596.789
 19.999 c 596.484 19.687 596.117 19.53 595.68 19.53 c 595.242 19.53 594.867
 19.687 594.555 19.999 c 594.242 20.312 594.086 20.687 594.086 21.124 c 
594.086 21.562 594.234 21.933 594.539 22.233 c 594.852 22.546 595.23 22.702
 595.68 22.702 c 596.977 15.218 m 596.977 3.718 l 596.977 2.823 597.039 
2.226 597.164 1.921 c 597.297 1.632 597.492 1.413 597.742 1.265 c 598 1.12
 598.469 1.046 599.148 1.046 c 599.148 0.483 l 592.195 0.483 l 592.195 1.046
 l 592.891 1.046 593.359 1.116 593.602 1.249 c 593.84 1.386 594.027 1.608
 594.164 1.921 c 594.309 2.233 594.383 2.835 594.383 3.718 c 594.383 9.233
 l 594.383 10.788 594.336 11.792 594.242 12.249 c 594.168 12.585 594.055
 12.812 593.898 12.937 c 593.742 13.073 593.527 13.14 593.258 13.14 c 592.965
 13.14 592.609 13.062 592.195 12.905 c 591.977 13.468 l 596.289 15.218 l
 596.977 15.218 l f
613.07 5.921 m 612.684 4.038 611.93 2.585 610.805 1.562 c 609.68 0.554 
608.434 0.046 607.07 0.046 c 605.445 0.046 604.027 0.73 602.82 2.093 c 601.609
 3.46 601.008 5.304 601.008 7.624 c 601.008 9.874 601.672 11.702 603.008
 13.108 c 604.352 14.515 605.961 15.218 607.836 15.218 c 609.242 15.218 
610.398 14.843 611.305 14.093 c 612.211 13.355 612.664 12.585 612.664 11.78
 c 612.664 11.386 612.531 11.062 612.273 10.812 c 612.023 10.573 611.668
 10.452 611.211 10.452 c 610.594 10.452 610.133 10.651 609.82 11.046 c 609.641
 11.265 609.523 11.683 609.461 12.296 c 609.406 12.913 609.199 13.382 608.836
 13.702 c 608.469 14.015 607.965 14.171 607.32 14.171 c 606.277 14.171 605.438
 13.788 604.805 13.015 c 603.961 11.995 603.539 10.647 603.539 8.968 c 603.539
 7.261 603.953 5.749 604.789 4.437 c 605.633 3.136 606.766 2.483 608.195
 2.483 c 609.215 2.483 610.133 2.835 610.945 3.53 c 611.516 4.011 612.074
 4.882 612.617 6.14 c 613.07 5.921 l f
623.211 2.546 m 621.742 1.413 620.82 0.757 620.445 0.577 c 619.883 0.319
 619.281 0.187 618.648 0.187 c 617.656 0.187 616.84 0.526 616.195 1.202 
c 615.559 1.882 615.242 2.772 615.242 3.874 c 615.242 4.573 615.398 5.179
 615.711 5.687 c 616.137 6.397 616.875 7.062 617.93 7.687 c 618.992 8.312
 620.75 9.073 623.211 9.968 c 623.211 10.53 l 623.211 11.96 622.98 12.937
 622.523 13.468 c 622.074 13.999 621.418 14.265 620.555 14.265 c 619.898
 14.265 619.375 14.089 618.992 13.733 c 618.594 13.382 618.398 12.976 618.398
 12.515 c 618.43 11.608 l 618.43 11.132 618.305 10.761 618.055 10.499 c 
617.812 10.241 617.496 10.108 617.102 10.108 c 616.715 10.108 616.398 10.245
 616.148 10.515 c 615.906 10.788 615.789 11.155 615.789 11.624 c 615.789
 12.522 616.246 13.343 617.164 14.093 c 618.078 14.843 619.367 15.218 621.023
 15.218 c 622.293 15.218 623.336 15.007 624.148 14.577 c 624.762 14.257 
625.215 13.749 625.508 13.062 c 625.695 12.616 625.789 11.698 625.789 10.312
 c 625.789 5.452 l 625.789 4.089 625.812 3.249 625.867 2.937 c 625.918 2.636
 626 2.433 626.117 2.327 c 626.242 2.226 626.383 2.171 626.539 2.171 c 626.703
 2.171 626.852 2.21 626.977 2.28 c 627.195 2.417 627.617 2.796 628.242 3.421
 c 628.242 2.546 l 627.074 0.983 625.961 0.202 624.898 0.202 c 624.387 0.202
 623.98 0.382 623.68 0.733 c 623.375 1.089 623.219 1.694 623.211 2.546 c
 623.211 3.562 m 623.211 9.015 l 621.637 8.39 620.621 7.948 620.164 7.687
 c 619.34 7.23 618.75 6.749 618.398 6.249 c 618.043 5.749 617.867 5.202 
617.867 4.608 c 617.867 3.858 618.09 3.233 618.539 2.733 c 618.984 2.245
 619.5 1.999 620.086 1.999 c 620.875 1.999 621.918 2.522 623.211 3.562 c
 f
583.871 234.858 m 590.043 234.858 l 591.379 234.858 592.207 235.007 592.527
 235.296 c 592.988 235.694 593.215 236.292 593.215 237.093 c 593.215 237.905
 l 593.793 237.905 l 593.793 228.827 l 593.215 228.827 l 593.215 229.624
 l 593.215 230.522 592.926 231.163 592.34 231.546 c 592.02 231.757 591.254
 231.858 590.043 231.858 c 576.355 231.858 l 575.023 231.858 574.195 231.718
 573.871 231.437 c 573.414 231.03 573.184 230.429 573.184 229.624 c 573.184
 228.827 l 572.605 228.827 l 572.605 236.593 l 572.605 238.491 572.805 239.983
 573.199 241.077 c 573.586 242.171 574.242 243.093 575.168 243.843 c 576.098
 244.593 577.195 244.968 578.465 244.968 c 580.195 244.968 581.602 244.397
 582.684 243.249 c 583.77 242.116 584.309 240.507 584.309 238.421 c 584.309
 237.913 584.273 237.358 584.199 236.765 c 584.129 236.171 584.02 235.538
 583.871 234.858 c 582.98 234.858 m 583.086 235.413 583.164 235.901 583.215
 236.327 c 583.27 236.757 583.293 237.12 583.293 237.421 c 583.293 238.507
 582.879 239.437 582.043 240.218 c 581.199 241.011 580.113 241.405 578.777
 241.405 c 577.863 241.405 577.012 241.218 576.23 240.843 c 575.441 240.468
 574.852 239.937 574.465 239.249 c 574.07 238.562 573.871 237.78 573.871
 236.905 c 573.871 236.374 573.973 235.694 574.168 234.858 c 582.98 234.858
 l f
579.059 254.108 m 579.059 256.276 579.883 258.015 581.527 259.327 c 582.934
 260.444 584.551 260.999 586.371 260.999 c 587.652 260.999 588.949 260.694
 590.262 260.077 c 591.574 259.464 592.566 258.616 593.23 257.53 c 593.898
 256.46 594.23 255.261 594.23 253.937 c 594.23 251.78 593.371 250.069 591.652
 248.796 c 590.207 247.726 588.582 247.187 586.777 247.187 c 585.465 247.187
 584.164 247.511 582.871 248.155 c 581.57 248.812 580.613 249.671 579.996
 250.733 c 579.371 251.796 579.059 252.921 579.059 254.108 c 580.074 253.624
 m 580.074 253.073 580.242 252.515 580.574 251.952 c 580.898 251.401 581.473
 250.952 582.293 250.608 c 583.117 250.265 584.176 250.093 585.465 250.093
 c 587.551 250.093 589.348 250.507 590.855 251.327 c 592.367 252.163 593.121
 253.257 593.121 254.608 c 593.121 255.62 592.707 256.452 591.871 257.108
 c 591.039 257.765 589.605 258.093 587.574 258.093 c 585.035 258.093 583.035
 257.546 581.574 256.452 c 580.574 255.714 580.074 254.772 580.074 253.624
 c f
579.059 272.358 m 583.934 272.358 l 583.934 271.843 l 582.402 271.448 581.363
 270.937 580.809 270.312 c 580.258 269.698 579.98 268.913 579.98 267.952
 c 579.98 267.226 580.176 266.636 580.559 266.187 c 580.945 265.741 581.371
 265.515 581.84 265.515 c 582.426 265.515 582.926 265.683 583.34 266.015
 c 583.77 266.339 584.223 266.995 584.699 267.983 c 585.809 270.265 l 586.84
 272.382 588.199 273.437 589.887 273.437 c 591.191 273.437 592.242 272.944
 593.043 271.952 c 593.836 270.976 594.23 269.874 594.23 268.655 c 594.23
 267.78 594.074 266.78 593.762 265.655 c 593.66 265.312 593.605 265.03 593.605
 264.812 c 593.605 264.573 593.742 264.386 594.012 264.249 c 594.012 263.733
 l 588.902 263.733 l 588.902 264.249 l 590.363 264.542 591.461 265.101 592.199
 265.921 c 592.941 266.745 593.309 267.667 593.309 268.687 c 593.309 269.405
 593.102 269.991 592.684 270.437 c 592.258 270.897 591.746 271.124 591.152
 271.124 c 590.434 271.124 589.832 270.87 589.34 270.358 c 588.852 269.858
 588.23 268.855 587.48 267.343 c 586.73 265.835 586.055 264.843 585.449 
264.374 c 584.855 263.905 584.105 263.671 583.199 263.671 c 582.023 263.671
 581.039 264.073 580.246 264.874 c 579.457 265.687 579.059 266.733 579.059
 268.015 c 579.059 268.577 579.18 269.261 579.418 270.062 c 579.574 270.593
 579.652 270.948 579.652 271.124 c 579.652 271.292 579.617 271.421 579.543
 271.515 c 579.473 271.608 579.309 271.718 579.059 271.843 c 579.059 272.358
 l f
571.574 279.187 m 571.574 279.624 571.73 279.995 572.043 280.296 c 572.348
 280.608 572.715 280.765 573.152 280.765 c 573.59 280.765 573.965 280.608
 574.277 280.296 c 574.59 279.995 574.746 279.624 574.746 279.187 c 574.746
 278.749 574.59 278.374 574.277 278.062 c 573.965 277.749 573.59 277.593
 573.152 277.593 c 572.715 277.593 572.348 277.745 572.043 278.046 c 571.73
 278.358 571.574 278.741 571.574 279.187 c 579.059 280.483 m 590.559 280.483
 l 591.457 280.483 592.055 280.546 592.355 280.671 c 592.648 280.808 592.867
 280.999 593.012 281.249 c 593.16 281.511 593.23 281.98 593.23 282.655 c
 593.793 282.655 l 593.793 275.702 l 593.23 275.702 l 593.23 276.401 593.164
 276.87 593.027 277.108 c 592.895 277.351 592.668 277.538 592.355 277.671
 c 592.043 277.819 591.445 277.89 590.559 277.89 c 585.043 277.89 l 583.492
 277.89 582.488 277.843 582.027 277.749 c 581.695 277.679 581.465 277.562
 581.34 277.405 c 581.207 277.249 581.137 277.038 581.137 276.765 c 581.137
 276.476 581.215 276.12 581.371 275.702 c 580.809 275.483 l 579.059 279.796
 l 579.059 280.483 l f
588.355 296.577 m 590.242 296.194 591.695 295.437 592.715 294.312 c 593.727
 293.187 594.23 291.944 594.23 290.577 c 594.23 288.952 593.551 287.538 
592.184 286.327 c 590.82 285.12 588.977 284.515 586.652 284.515 c 584.402
 284.515 582.574 285.183 581.168 286.515 c 579.762 287.858 579.059 289.468
 579.059 291.343 c 579.059 292.749 579.434 293.905 580.184 294.812 c 580.926
 295.718 581.695 296.171 582.496 296.171 c 582.895 296.171 583.215 296.042
 583.465 295.78 c 583.707 295.53 583.824 295.179 583.824 294.718 c 583.824
 294.105 583.629 293.64 583.23 293.327 c 583.012 293.151 582.598 293.03 
581.98 292.968 c 581.367 292.917 580.898 292.71 580.574 292.343 c 580.262
 291.98 580.105 291.476 580.105 290.827 c 580.105 289.788 580.492 288.948
 581.262 288.312 c 582.285 287.468 583.633 287.046 585.309 287.046 c 587.02
 287.046 588.527 287.464 589.84 288.296 c 591.145 289.14 591.793 290.276
 591.793 291.702 c 591.793 292.726 591.445 293.64 590.746 294.452 c 590.27
 295.026 589.398 295.585 588.137 296.124 c 588.355 296.577 l f
571.574 302.249 m 571.574 302.687 571.73 303.058 572.043 303.358 c 572.348
 303.671 572.715 303.827 573.152 303.827 c 573.59 303.827 573.965 303.671
 574.277 303.358 c 574.59 303.058 574.746 302.687 574.746 302.249 c 574.746
 301.812 574.59 301.437 574.277 301.124 c 573.965 300.812 573.59 300.655
 573.152 300.655 c 572.715 300.655 572.348 300.808 572.043 301.108 c 571.73
 301.421 571.574 301.804 571.574 302.249 c 579.059 303.546 m 590.559 303.546
 l 591.457 303.546 592.055 303.608 592.355 303.733 c 592.648 303.87 592.867
 304.062 593.012 304.312 c 593.16 304.573 593.23 305.042 593.23 305.718 
c 593.793 305.718 l 593.793 298.765 l 593.23 298.765 l 593.23 299.464 593.164
 299.933 593.027 300.171 c 592.895 300.413 592.668 300.601 592.355 300.733
 c 592.043 300.882 591.445 300.952 590.559 300.952 c 585.043 300.952 l 583.492
 300.952 582.488 300.905 582.027 300.812 c 581.695 300.741 581.465 300.624
 581.34 300.468 c 581.207 300.312 581.137 300.101 581.137 299.827 c 581.137
 299.538 581.215 299.183 581.371 298.765 c 580.809 298.546 l 579.059 302.858
 l 579.059 303.546 l f
579.059 314.483 m 579.059 316.651 579.883 318.39 581.527 319.702 c 582.934
 320.819 584.551 321.374 586.371 321.374 c 587.652 321.374 588.949 321.069
 590.262 320.452 c 591.574 319.839 592.566 318.991 593.23 317.905 c 593.898
 316.835 594.23 315.636 594.23 314.312 c 594.23 312.155 593.371 310.444 
591.652 309.171 c 590.207 308.101 588.582 307.562 586.777 307.562 c 585.465
 307.562 584.164 307.886 582.871 308.53 c 581.57 309.187 580.613 310.046
 579.996 311.108 c 579.371 312.171 579.059 313.296 579.059 314.483 c 580.074
 313.999 m 580.074 313.448 580.242 312.89 580.574 312.327 c 580.898 311.776
 581.473 311.327 582.293 310.983 c 583.117 310.64 584.176 310.468 585.465
 310.468 c 587.551 310.468 589.348 310.882 590.855 311.702 c 592.367 312.538
 593.121 313.632 593.121 314.983 c 593.121 315.995 592.707 316.827 591.871
 317.483 c 591.039 318.14 589.605 318.468 587.574 318.468 c 585.035 318.468
 583.035 317.921 581.574 316.827 c 580.574 316.089 580.074 315.147 580.074
 313.999 c 572.074 317.78 m 577.465 313.171 l 577.465 312.64 l 572.074 314.28
 l 572.074 317.78 l f
582.09 327.655 m 580.07 329.335 579.059 330.933 579.059 332.452 c 579.059
 333.233 579.258 333.905 579.652 334.468 c 580.039 335.03 580.68 335.48 
581.574 335.812 c 582.199 336.042 583.16 336.155 584.449 336.155 c 590.559
 336.155 l 591.465 336.155 592.082 336.23 592.402 336.374 c 592.664 336.491
 592.867 336.671 593.012 336.921 c 593.16 337.183 593.23 337.655 593.23 
338.343 c 593.793 338.343 l 593.793 331.265 l 593.23 331.265 l 593.23 331.562
 l 593.23 332.23 593.133 332.694 592.934 332.952 c 592.727 333.226 592.426
 333.413 592.027 333.515 c 591.871 333.558 591.383 333.577 590.559 333.577
 c 584.699 333.577 l 583.398 333.577 582.457 333.405 581.871 333.062 c 581.277
 332.73 580.98 332.163 580.98 331.358 c 580.98 330.12 581.66 328.886 583.012
 327.655 c 590.559 327.655 l 591.527 327.655 592.129 327.714 592.355 327.827
 c 592.66 327.976 592.883 328.171 593.027 328.421 c 593.164 328.683 593.23
 329.202 593.23 329.983 c 593.793 329.983 l 593.793 322.905 l 593.23 322.905
 l 593.23 323.218 l 593.23 323.948 593.051 324.437 592.684 324.687 c 592.309
 324.948 591.602 325.077 590.559 325.077 c 585.246 325.077 l 583.527 325.077
 582.48 325.038 582.105 324.952 c 581.73 324.882 581.477 324.761 581.34 
324.593 c 581.207 324.437 581.137 324.226 581.137 323.952 c 581.137 323.663
 581.215 323.312 581.371 322.905 c 580.809 322.671 l 579.059 326.983 l 579.059
 327.655 l 582.09 327.655 l f
583.324 347.64 m 580.91 347.64 578.832 348.007 577.09 348.733 c 575.34 
349.464 574.039 350.433 573.184 351.64 c 572.508 352.577 572.168 353.546
 572.168 354.546 c 572.168 356.171 572.996 357.632 574.652 358.921 c 576.707
 360.538 579.488 361.343 582.996 361.343 c 585.457 361.343 587.543 360.991
 589.262 360.28 c 590.98 359.573 592.23 358.667 593.012 357.562 c 593.785
 356.468 594.168 355.413 594.168 354.39 c 594.168 352.37 592.977 350.687
 590.59 349.343 c 588.582 348.21 586.16 347.64 583.324 347.64 c 583.715 
350.702 m 586.633 350.702 589.012 351.062 590.855 351.78 c 592.41 352.374
 593.184 353.261 593.184 354.437 c 593.184 354.999 592.934 355.585 592.434
 356.187 c 591.926 356.792 591.074 357.249 589.887 357.562 c 588.098 358.042
 585.57 358.28 582.309 358.28 c 579.895 358.28 577.879 358.03 576.262 357.53
 c 575.066 357.155 574.215 356.671 573.715 356.077 c 573.371 355.651 573.199
 355.136 573.199 354.53 c 573.199 353.823 573.52 353.194 574.152 352.64 
c 575.02 351.89 576.379 351.382 578.23 351.108 c 580.086 350.839 581.914
 350.702 583.715 350.702 c f
476.461 234.858 m 482.633 234.858 l 483.965 234.858 484.793 235.007 485.117
 235.296 c 485.574 235.694 485.805 236.292 485.805 237.093 c 485.805 237.905
 l 486.383 237.905 l 486.383 228.827 l 485.805 228.827 l 485.805 229.624
 l 485.805 230.522 485.512 231.163 484.93 231.546 c 484.605 231.757 483.84
 231.858 482.633 231.858 c 468.945 231.858 l 467.609 231.858 466.781 231.718
 466.461 231.437 c 466 231.03 465.773 230.429 465.773 229.624 c 465.773 
228.827 l 465.195 228.827 l 465.195 236.593 l 465.195 238.491 465.391 239.983
 465.789 241.077 c 466.172 242.171 466.828 243.093 467.758 243.843 c 468.684
 244.593 469.781 244.968 471.055 244.968 c 472.781 244.968 474.188 244.397
 475.273 243.249 c 476.355 242.116 476.898 240.507 476.898 238.421 c 476.898
 237.913 476.859 237.358 476.789 236.765 c 476.715 236.171 476.605 235.538
 476.461 234.858 c 475.57 234.858 m 475.672 235.413 475.75 235.901 475.805
 236.327 c 475.855 236.757 475.883 237.12 475.883 237.421 c 475.883 238.507
 475.465 239.437 474.633 240.218 c 473.789 241.011 472.699 241.405 471.367
 241.405 c 470.449 241.405 469.602 241.218 468.82 240.843 c 468.027 240.468
 467.438 239.937 467.055 239.249 c 466.656 238.562 466.461 237.78 466.461
 236.905 c 466.461 236.374 466.559 235.694 466.758 234.858 c 475.57 234.858
 l f
471.648 254.108 m 471.648 256.276 472.469 258.015 474.117 259.327 c 475.523
 260.444 477.137 260.999 478.961 260.999 c 480.242 260.999 481.539 260.694
 482.852 260.077 c 484.164 259.464 485.152 258.616 485.82 257.53 c 486.484
 256.46 486.82 255.261 486.82 253.937 c 486.82 251.78 485.961 250.069 484.242
 248.796 c 482.793 247.726 481.168 247.187 479.367 247.187 c 478.055 247.187
 476.75 247.511 475.461 248.155 c 474.156 248.812 473.199 249.671 472.586
 250.733 c 471.961 251.796 471.648 252.921 471.648 254.108 c 472.664 253.624
 m 472.664 253.073 472.828 252.515 473.164 251.952 c 473.484 251.401 474.059
 250.952 474.883 250.608 c 475.703 250.265 476.762 250.093 478.055 250.093
 c 480.137 250.093 481.934 250.507 483.445 251.327 c 484.953 252.163 485.711
 253.257 485.711 254.608 c 485.711 255.62 485.293 256.452 484.461 257.108
 c 483.625 257.765 482.195 258.093 480.164 258.093 c 477.621 258.093 475.621
 257.546 474.164 256.452 c 473.164 255.714 472.664 254.772 472.664 253.624
 c f
471.648 272.358 m 476.523 272.358 l 476.523 271.843 l 474.992 271.448 473.949
 270.937 473.398 270.312 c 472.844 269.698 472.57 268.913 472.57 267.952
 c 472.57 267.226 472.762 266.636 473.148 266.187 c 473.531 265.741 473.961
 265.515 474.43 265.515 c 475.012 265.515 475.512 265.683 475.93 266.015
 c 476.355 266.339 476.809 266.995 477.289 267.983 c 478.398 270.265 l 479.43
 272.382 480.789 273.437 482.477 273.437 c 483.777 273.437 484.828 272.944
 485.633 271.952 c 486.422 270.976 486.82 269.874 486.82 268.655 c 486.82
 267.78 486.664 266.78 486.352 265.655 c 486.246 265.312 486.195 265.03 
486.195 264.812 c 486.195 264.573 486.328 264.386 486.602 264.249 c 486.602
 263.733 l 481.492 263.733 l 481.492 264.249 l 482.949 264.542 484.047 265.101
 484.789 265.921 c 485.527 266.745 485.898 267.667 485.898 268.687 c 485.898
 269.405 485.688 269.991 485.273 270.437 c 484.844 270.897 484.336 271.124
 483.742 271.124 c 483.023 271.124 482.418 270.87 481.93 270.358 c 481.438
 269.858 480.82 268.855 480.07 267.343 c 479.32 265.835 478.641 264.843 
478.039 264.374 c 477.445 263.905 476.695 263.671 475.789 263.671 c 474.609
 263.671 473.625 264.073 472.836 264.874 c 472.043 265.687 471.648 266.733
 471.648 268.015 c 471.648 268.577 471.766 269.261 472.008 270.062 c 472.164
 270.593 472.242 270.948 472.242 271.124 c 472.242 271.292 472.203 271.421
 472.133 271.515 c 472.059 271.608 471.898 271.718 471.648 271.843 c 471.648
 272.358 l f
464.164 279.187 m 464.164 279.624 464.32 279.995 464.633 280.296 c 464.934
 280.608 465.305 280.765 465.742 280.765 c 466.18 280.765 466.555 280.608
 466.867 280.296 c 467.18 279.995 467.336 279.624 467.336 279.187 c 467.336
 278.749 467.18 278.374 466.867 278.062 c 466.555 277.749 466.18 277.593
 465.742 277.593 c 465.305 277.593 464.934 277.745 464.633 278.046 c 464.32
 278.358 464.164 278.741 464.164 279.187 c 471.648 280.483 m 483.148 280.483
 l 484.043 280.483 484.641 280.546 484.945 280.671 c 485.234 280.808 485.453
 280.999 485.602 281.249 c 485.746 281.511 485.82 281.98 485.82 282.655 
c 486.383 282.655 l 486.383 275.702 l 485.82 275.702 l 485.82 276.401 485.75
 276.87 485.617 277.108 c 485.48 277.351 485.258 277.538 484.945 277.671
 c 484.633 277.819 484.031 277.89 483.148 277.89 c 477.633 277.89 l 476.078
 277.89 475.074 277.843 474.617 277.749 c 474.281 277.679 474.055 277.562
 473.93 277.405 c 473.793 277.249 473.727 277.038 473.727 276.765 c 473.727
 276.476 473.805 276.12 473.961 275.702 c 473.398 275.483 l 471.648 279.796
 l 471.648 280.483 l f
480.945 296.577 m 482.828 296.194 484.281 295.437 485.305 294.312 c 486.312
 293.187 486.82 291.944 486.82 290.577 c 486.82 288.952 486.137 287.538 
484.773 286.327 c 483.406 285.12 481.562 284.515 479.242 284.515 c 476.992
 284.515 475.164 285.183 473.758 286.515 c 472.352 287.858 471.648 289.468
 471.648 291.343 c 471.648 292.749 472.023 293.905 472.773 294.812 c 473.512
 295.718 474.281 296.171 475.086 296.171 c 475.48 296.171 475.805 296.042
 476.055 295.78 c 476.293 295.53 476.414 295.179 476.414 294.718 c 476.414
 294.105 476.215 293.64 475.82 293.327 c 475.602 293.151 475.184 293.03 
474.57 292.968 c 473.953 292.917 473.484 292.71 473.164 292.343 c 472.852
 291.98 472.695 291.476 472.695 290.827 c 472.695 289.788 473.078 288.948
 473.852 288.312 c 474.871 287.468 476.219 287.046 477.898 287.046 c 479.605
 287.046 481.117 287.464 482.43 288.296 c 483.73 289.14 484.383 290.276 
484.383 291.702 c 484.383 292.726 484.031 293.64 483.336 294.452 c 482.855
 295.026 481.984 295.585 480.727 296.124 c 480.945 296.577 l f
464.164 302.249 m 464.164 302.687 464.32 303.058 464.633 303.358 c 464.934
 303.671 465.305 303.827 465.742 303.827 c 466.18 303.827 466.555 303.671
 466.867 303.358 c 467.18 303.058 467.336 302.687 467.336 302.249 c 467.336
 301.812 467.18 301.437 466.867 301.124 c 466.555 300.812 466.18 300.655
 465.742 300.655 c 465.305 300.655 464.934 300.808 464.633 301.108 c 464.32
 301.421 464.164 301.804 464.164 302.249 c 471.648 303.546 m 483.148 303.546
 l 484.043 303.546 484.641 303.608 484.945 303.733 c 485.234 303.87 485.453
 304.062 485.602 304.312 c 485.746 304.573 485.82 305.042 485.82 305.718
 c 486.383 305.718 l 486.383 298.765 l 485.82 298.765 l 485.82 299.464 485.75
 299.933 485.617 300.171 c 485.48 300.413 485.258 300.601 484.945 300.733
 c 484.633 300.882 484.031 300.952 483.148 300.952 c 477.633 300.952 l 476.078
 300.952 475.074 300.905 474.617 300.812 c 474.281 300.741 474.055 300.624
 473.93 300.468 c 473.793 300.312 473.727 300.101 473.727 299.827 c 473.727
 299.538 473.805 299.183 473.961 298.765 c 473.398 298.546 l 471.648 302.858
 l 471.648 303.546 l f
471.648 314.483 m 471.648 316.651 472.469 318.39 474.117 319.702 c 475.523
 320.819 477.137 321.374 478.961 321.374 c 480.242 321.374 481.539 321.069
 482.852 320.452 c 484.164 319.839 485.152 318.991 485.82 317.905 c 486.484
 316.835 486.82 315.636 486.82 314.312 c 486.82 312.155 485.961 310.444 
484.242 309.171 c 482.793 308.101 481.168 307.562 479.367 307.562 c 478.055
 307.562 476.75 307.886 475.461 308.53 c 474.156 309.187 473.199 310.046
 472.586 311.108 c 471.961 312.171 471.648 313.296 471.648 314.483 c 472.664
 313.999 m 472.664 313.448 472.828 312.89 473.164 312.327 c 473.484 311.776
 474.059 311.327 474.883 310.983 c 475.703 310.64 476.762 310.468 478.055
 310.468 c 480.137 310.468 481.934 310.882 483.445 311.702 c 484.953 312.538
 485.711 313.632 485.711 314.983 c 485.711 315.995 485.293 316.827 484.461
 317.483 c 483.625 318.14 482.195 318.468 480.164 318.468 c 477.621 318.468
 475.621 317.921 474.164 316.827 c 473.164 316.089 472.664 315.147 472.664
 313.999 c 464.664 317.78 m 470.055 313.171 l 470.055 312.64 l 464.664 314.28
 l 464.664 317.78 l f
474.68 327.655 m 472.656 329.335 471.648 330.933 471.648 332.452 c 471.648
 333.233 471.844 333.905 472.242 334.468 c 472.625 335.03 473.266 335.48
 474.164 335.812 c 474.789 336.042 475.746 336.155 477.039 336.155 c 483.148
 336.155 l 484.055 336.155 484.668 336.23 484.992 336.374 c 485.25 336.491
 485.453 336.671 485.602 336.921 c 485.746 337.183 485.82 337.655 485.82
 338.343 c 486.383 338.343 l 486.383 331.265 l 485.82 331.265 l 485.82 331.562
 l 485.82 332.23 485.719 332.694 485.523 332.952 c 485.312 333.226 485.012
 333.413 484.617 333.515 c 484.461 333.558 483.969 333.577 483.148 333.577
 c 477.289 333.577 l 475.984 333.577 475.043 333.405 474.461 333.062 c 473.867
 332.73 473.57 332.163 473.57 331.358 c 473.57 330.12 474.246 328.886 475.602
 327.655 c 483.148 327.655 l 484.117 327.655 484.715 327.714 484.945 327.827
 c 485.246 327.976 485.469 328.171 485.617 328.421 c 485.75 328.683 485.82
 329.202 485.82 329.983 c 486.383 329.983 l 486.383 322.905 l 485.82 322.905
 l 485.82 323.218 l 485.82 323.948 485.637 324.437 485.273 324.687 c 484.898
 324.948 484.188 325.077 483.148 325.077 c 477.836 325.077 l 476.117 325.077
 475.07 325.038 474.695 324.952 c 474.32 324.882 474.062 324.761 473.93 
324.593 c 473.793 324.437 473.727 324.226 473.727 323.952 c 473.727 323.663
 473.805 323.312 473.961 322.905 c 473.398 322.671 l 471.648 326.983 l 471.648
 327.655 l 474.68 327.655 l f
467.273 350.233 m 464.758 355.39 l 464.758 355.905 l 482.648 355.905 l 
483.836 355.905 484.574 355.952 484.867 356.046 c 485.156 356.151 485.383
 356.358 485.539 356.671 c 485.695 356.983 485.781 357.62 485.805 358.577
 c 486.383 358.577 l 486.383 350.608 l 485.805 350.608 l 485.781 351.608
 485.699 352.257 485.555 352.546 c 485.398 352.839 485.195 353.042 484.945
 353.155 c 484.684 353.272 483.918 353.327 482.648 353.327 c 471.211 353.327
 l 469.668 353.327 468.68 353.276 468.242 353.171 c 467.906 353.101 467.664
 352.964 467.508 352.765 c 467.352 352.577 467.273 352.351 467.273 352.077
 c 467.273 351.694 467.434 351.155 467.758 350.468 c 467.273 350.233 l f
9.031 301.698 m 9.031 304.112 9.215 306.19 9.59 307.933 c 9.961 309.683
 10.457 310.983 11.078 311.839 c 11.559 312.515 12.051 312.855 12.562 312.855
 c 13.395 312.855 14.145 312.026 14.805 310.37 c 15.629 308.315 16.043 305.534
 16.043 302.026 c 16.043 299.565 15.863 297.48 15.5 295.761 c 15.137 294.042
 14.672 292.792 14.109 292.011 c 13.547 291.237 13.008 290.855 12.484 290.855
 c 11.449 290.855 10.59 292.046 9.902 294.433 c 9.32 296.44 9.031 298.862
 9.031 301.698 c 10.598 301.308 m 10.598 298.39 10.781 296.011 11.148 294.167
 c 11.453 292.612 11.906 291.839 12.508 291.839 c 12.797 291.839 13.094 
292.089 13.402 292.589 c 13.715 293.097 13.949 293.948 14.109 295.136 c 
14.352 296.925 14.477 299.452 14.477 302.714 c 14.477 305.128 14.348 307.144
 14.094 308.761 c 13.898 309.956 13.652 310.808 13.348 311.308 c 13.129 
311.651 12.867 311.823 12.555 311.823 c 12.195 311.823 11.871 311.503 11.59
 310.87 c 11.203 310.003 10.945 308.644 10.805 306.792 c 10.668 304.937 
10.598 303.108 10.598 301.308 c f
17.508 285.901 m 17.508 286.589 l 18.055 286.94 18.48 287.495 18.777 288.245
 c 19.082 288.983 19.234 289.769 19.234 290.605 c 19.234 290.8 19.211 290.968
 19.164 291.105 c 19.125 291.198 19.086 291.245 19.051 291.245 c 18.992 
291.245 18.863 291.14 18.668 290.933 c 18.57 290.839 18.469 290.792 18.363
 290.792 c 18.102 290.792 17.895 290.94 17.738 291.245 c 17.586 291.546 
17.508 291.964 17.508 292.495 c 17.508 293.003 17.605 293.44 17.805 293.808
 c 18.004 294.171 18.25 294.355 18.539 294.355 c 18.891 294.355 19.203 294.05
 19.473 293.448 c 19.75 292.855 19.891 292.062 19.891 291.073 c 19.891 289.999
 19.699 289.003 19.312 288.089 c 18.938 287.159 18.332 286.433 17.508 285.901
 c f
26.734 310.339 m 29.375 312.855 l 29.641 312.855 l 29.641 294.964 l 29.641
 293.776 29.664 293.034 29.711 292.745 c 29.766 292.452 29.871 292.23 30.031
 292.073 c 30.191 291.917 30.516 291.827 31.008 291.808 c 31.008 291.23 
l 26.93 291.23 l 26.93 291.808 l 27.441 291.827 27.77 291.909 27.918 292.058
 c 28.07 292.214 28.172 292.417 28.23 292.667 c 28.289 292.925 28.32 293.69
 28.32 294.964 c 28.32 306.401 l 28.32 307.94 28.293 308.933 28.238 309.37
 c 28.203 309.702 28.133 309.948 28.031 310.105 c 27.938 310.261 27.82 310.339
 27.68 310.339 c 27.484 310.339 27.207 310.175 26.855 309.855 c 26.734 310.339
 l f
33.887 285.901 m 33.887 286.589 l 34.434 286.94 34.859 287.495 35.156 288.245
 c 35.461 288.983 35.613 289.769 35.613 290.605 c 35.613 290.8 35.59 290.968
 35.543 291.105 c 35.504 291.198 35.465 291.245 35.43 291.245 c 35.371 291.245
 35.242 291.14 35.047 290.933 c 34.949 290.839 34.848 290.792 34.742 290.792
 c 34.48 290.792 34.273 290.94 34.117 291.245 c 33.965 291.546 33.887 291.964
 33.887 292.495 c 33.887 293.003 33.984 293.44 34.184 293.808 c 34.383 294.171
 34.629 294.355 34.918 294.355 c 35.27 294.355 35.582 294.05 35.852 293.448
 c 36.129 292.855 36.27 292.062 36.27 291.073 c 36.27 289.999 36.078 289.003
 35.695 288.089 c 35.316 287.159 34.711 286.433 33.887 285.901 c f
48.707 295.308 m 47.945 291.23 l 41.547 291.23 l 41.547 291.808 l 43.43
 295.159 44.754 297.901 45.523 300.026 c 46.289 302.151 46.676 304.093 46.676
 305.855 c 46.676 307.198 46.465 308.3 46.043 309.167 c 45.621 310.03 45.117
 310.464 44.531 310.464 c 43.996 310.464 43.52 310.155 43.09 309.542 c 42.672
 308.937 42.359 308.046 42.156 306.87 c 41.859 306.87 l 41.992 308.796 42.336
 310.276 42.883 311.308 c 43.438 312.339 44.129 312.855 44.953 312.855 c
 45.836 312.855 46.566 312.3 47.152 311.198 c 47.746 310.093 48.043 308.792
 48.043 307.292 c 48.043 306.218 47.914 305.144 47.656 304.073 c 47.262 
302.386 46.625 300.597 45.738 298.714 c 44.41 295.878 43.582 294.171 43.25
 293.589 c 46.082 293.589 l 46.656 293.589 47.062 293.628 47.289 293.714
 c 47.523 293.796 47.734 293.964 47.922 294.214 c 48.109 294.472 48.27 294.839
 48.41 295.308 c 48.707 295.308 l f
50.266 285.901 m 50.266 286.589 l 50.812 286.94 51.238 287.495 51.535 288.245
 c 51.84 288.983 51.992 289.769 51.992 290.605 c 51.992 290.8 51.969 290.968
 51.922 291.105 c 51.883 291.198 51.848 291.245 51.809 291.245 c 51.75 291.245
 51.621 291.14 51.426 290.933 c 51.328 290.839 51.227 290.792 51.121 290.792
 c 50.859 290.792 50.652 290.94 50.496 291.245 c 50.344 291.546 50.266 291.964
 50.266 292.495 c 50.266 293.003 50.363 293.44 50.562 293.808 c 50.762 294.171
 51.008 294.355 51.297 294.355 c 51.648 294.355 51.961 294.05 52.23 293.448
 c 52.508 292.855 52.648 292.062 52.648 291.073 c 52.648 289.999 52.457 
289.003 52.074 288.089 c 51.695 287.159 51.09 286.433 50.266 285.901 c f
58.406 308.386 m 58.715 309.812 59.105 310.909 59.574 311.683 c 60.047 
312.464 60.637 312.855 61.34 312.855 c 62.211 312.855 62.879 312.3 63.34
 311.198 c 63.691 310.374 63.867 309.495 63.867 308.558 c 63.867 307.015
 63.371 305.421 62.383 303.776 c 63.047 303.265 63.551 302.534 63.895 301.589
 c 64.234 300.64 64.406 299.526 64.406 298.245 c 64.406 296.409 64.105 294.823
 63.508 293.48 c 62.73 291.73 61.602 290.855 60.125 290.855 c 59.395 290.855
 58.898 291.03 58.629 291.386 c 58.371 291.737 58.238 292.12 58.238 292.526
 c 58.238 292.827 58.301 293.093 58.422 293.323 c 58.551 293.55 58.703 293.667
 58.879 293.667 c 59.012 293.667 59.148 293.624 59.285 293.542 c 59.375 
293.487 59.582 293.296 59.902 292.964 c 60.223 292.64 60.441 292.448 60.566
 292.386 c 60.762 292.269 60.973 292.214 61.199 292.214 c 61.742 292.214
 62.215 292.624 62.613 293.448 c 63.02 294.269 63.223 295.245 63.223 296.37
 c 63.223 297.19 63.129 297.995 62.941 298.776 c 62.801 299.358 62.652 299.8
 62.484 300.105 c 62.258 300.519 61.941 300.894 61.543 301.23 c 61.141 301.573
 60.734 301.745 60.316 301.745 c 60.062 301.745 l 60.062 302.214 l 60.484
 302.315 60.906 302.612 61.324 303.105 c 61.754 303.593 62.062 304.183 62.254
 304.87 c 62.445 305.558 62.543 306.312 62.543 307.136 c 62.543 308.206 
62.367 309.073 62.02 309.73 c 61.68 310.394 61.254 310.73 60.742 310.73 
c 59.914 310.73 59.227 309.862 58.672 308.136 c 58.406 308.386 l f
66.645 285.901 m 66.645 286.589 l 67.191 286.94 67.617 287.495 67.914 288.245
 c 68.219 288.983 68.371 289.769 68.371 290.605 c 68.371 290.8 68.348 290.968
 68.301 291.105 c 68.262 291.198 68.227 291.245 68.188 291.245 c 68.129 
291.245 68 291.14 67.805 290.933 c 67.707 290.839 67.605 290.792 67.5 290.792
 c 67.238 290.792 67.031 290.94 66.875 291.245 c 66.723 291.546 66.645 291.964
 66.645 292.495 c 66.645 293.003 66.742 293.44 66.941 293.808 c 67.141 294.171
 67.387 294.355 67.676 294.355 c 68.027 294.355 68.34 294.05 68.613 293.448
 c 68.887 292.855 69.027 292.062 69.027 291.073 c 69.027 289.999 68.836 
289.003 68.453 288.089 c 68.074 287.159 67.469 286.433 66.645 285.901 c f
81.574 299.042 m 81.574 296.823 l 80.121 296.823 l 80.121 291.23 l 78.801
 291.23 l 78.801 296.823 l 74.211 296.823 l 74.211 298.823 l 79.238 312.855
 l 80.121 312.855 l 80.121 299.042 l 81.574 299.042 l 78.801 299.042 m 78.801
 309.558 l 74.992 299.042 l 78.801 299.042 l f
83.023 285.901 m 83.023 286.589 l 83.57 286.94 83.996 287.495 84.293 288.245
 c 84.598 288.983 84.75 289.769 84.75 290.605 c 84.75 290.8 84.727 290.968
 84.68 291.105 c 84.641 291.198 84.605 291.245 84.566 291.245 c 84.508 291.245
 84.379 291.14 84.184 290.933 c 84.086 290.839 83.984 290.792 83.879 290.792
 c 83.617 290.792 83.41 290.94 83.254 291.245 c 83.102 291.546 83.023 291.964
 83.023 292.495 c 83.023 293.003 83.121 293.44 83.32 293.808 c 83.523 294.171
 83.766 294.355 84.055 294.355 c 84.406 294.355 84.719 294.05 84.992 293.448
 c 85.27 292.855 85.406 292.062 85.406 291.073 c 85.406 289.999 85.215 289.003
 84.832 288.089 c 84.453 287.159 83.848 286.433 83.023 285.901 c f
97.441 312.417 m 96.82 309.761 l 93.555 309.761 l 92.844 306.917 l 94.258
 306.511 95.375 305.483 96.203 303.839 c 96.914 302.421 97.266 300.753 97.266
 298.839 c 97.266 297.722 97.148 296.69 96.914 295.745 c 96.688 294.796 
96.395 293.987 96.043 293.323 c 95.691 292.655 95.301 292.12 94.867 291.714
 c 94.254 291.14 93.625 290.855 92.98 290.855 c 92.328 290.855 91.855 291.065
 91.555 291.495 c 91.262 291.933 91.117 292.409 91.117 292.933 c 91.117 
293.222 91.18 293.48 91.301 293.698 c 91.422 293.925 91.578 294.042 91.766
 294.042 c 91.902 294.042 92.023 293.999 92.125 293.917 c 92.23 293.831 
92.41 293.62 92.66 293.276 c 93.059 292.733 93.465 292.464 93.875 292.464
 c 94.5 292.464 95.047 292.921 95.516 293.839 c 95.988 294.765 96.227 295.89
 96.227 297.214 c 96.227 298.495 96.016 299.687 95.594 300.792 c 95.176 
301.905 94.594 302.765 93.852 303.37 c 93.27 303.839 92.48 304.108 91.477
 304.183 c 93.555 312.417 l 97.441 312.417 l f
99.402 285.901 m 99.402 286.589 l 99.953 286.94 100.375 287.495 100.672
 288.245 c 100.977 288.983 101.129 289.769 101.129 290.605 c 101.129 290.8
 101.105 290.968 101.059 291.105 c 101.02 291.198 100.984 291.245 100.945
 291.245 c 100.887 291.245 100.758 291.14 100.562 290.933 c 100.465 290.839
 100.363 290.792 100.258 290.792 c 99.996 290.792 99.789 290.94 99.633 291.245
 c 99.48 291.546 99.402 291.964 99.402 292.495 c 99.402 293.003 99.5 293.44
 99.699 293.808 c 99.902 294.171 100.145 294.355 100.434 294.355 c 100.785
 294.355 101.098 294.05 101.371 293.448 c 101.648 292.855 101.785 292.062
 101.785 291.073 c 101.785 289.999 101.594 289.003 101.211 288.089 c 100.832
 287.159 100.227 286.433 99.402 285.901 c f
114.055 312.855 m 114.055 312.276 l 113.352 312.14 112.773 311.862 112.324
 311.448 c 111.883 311.042 111.445 310.417 111.008 309.573 c 110.574 308.73
 110.215 307.784 109.926 306.745 c 109.645 305.714 109.406 304.483 109.215
 303.058 c 109.984 304.089 110.754 304.605 111.527 304.605 c 112.266 304.605
 112.91 304.019 113.453 302.855 c 113.996 301.687 114.27 300.187 114.27 
298.355 c 114.27 296.581 113.996 294.968 113.445 293.511 c 112.785 291.737
 111.91 290.855 110.824 290.855 c 110.082 290.855 109.453 291.331 108.934
 292.292 c 107.922 294.155 107.414 296.573 107.414 299.542 c 107.414 301.437
 107.609 303.237 108 304.948 c 108.391 306.655 108.941 308.171 109.664 309.495
 c 110.387 310.815 111.082 311.706 111.742 312.167 c 112.402 312.624 113.02
 312.855 113.59 312.855 c 114.055 312.855 l 109.078 301.917 m 108.984 300.511
 108.934 299.374 108.934 298.511 c 108.934 297.511 109.027 296.421 109.215
 295.245 c 109.406 294.077 109.691 293.151 110.062 292.464 c 110.336 291.972
 110.664 291.73 111.055 291.73 c 111.52 291.73 111.93 292.155 112.293 293.011
 c 112.66 293.862 112.848 295.081 112.848 296.667 c 112.848 298.448 112.664
 299.987 112.301 301.292 c 111.941 302.593 111.426 303.245 110.758 303.245
 c 110.555 303.245 110.336 303.159 110.102 302.995 c 109.875 302.827 109.531
 302.468 109.078 301.917 c f
115.781 285.901 m 115.781 286.589 l 116.332 286.94 116.754 287.495 117.051
 288.245 c 117.355 288.983 117.508 289.769 117.508 290.605 c 117.508 290.8
 117.484 290.968 117.438 291.105 c 117.398 291.198 117.363 291.245 117.324
 291.245 c 117.266 291.245 117.137 291.14 116.941 290.933 c 116.844 290.839
 116.742 290.792 116.637 290.792 c 116.375 290.792 116.168 290.94 116.012
 291.245 c 115.859 291.546 115.781 291.964 115.781 292.495 c 115.781 293.003
 115.879 293.44 116.078 293.808 c 116.281 294.171 116.523 294.355 116.812
 294.355 c 117.164 294.355 117.477 294.05 117.75 293.448 c 118.027 292.855
 118.164 292.062 118.164 291.073 c 118.164 289.999 117.973 289.003 117.59
 288.089 c 117.211 287.159 116.609 286.433 115.781 285.901 c f
124.738 312.417 m 130.551 312.417 l 130.551 311.823 l 126.938 290.792 l
 126.043 290.792 l 129.281 309.87 l 126.297 309.87 l 125.695 309.87 125.266
 309.73 125.012 309.448 c 124.562 308.968 124.203 308.23 123.93 307.23 c
 123.699 307.401 l 124.738 312.417 l f
132.16 285.901 m 132.16 286.589 l 132.711 286.94 133.133 287.495 133.434
 288.245 c 133.734 288.983 133.887 289.769 133.887 290.605 c 133.887 290.8
 133.863 290.968 133.816 291.105 c 133.777 291.198 133.742 291.245 133.703
 291.245 c 133.645 291.245 133.516 291.14 133.32 290.933 c 133.223 290.839
 133.121 290.792 133.016 290.792 c 132.754 290.792 132.547 290.94 132.391
 291.245 c 132.238 291.546 132.16 291.964 132.16 292.495 c 132.16 293.003
 132.258 293.44 132.457 293.808 c 132.66 294.171 132.902 294.355 133.191
 294.355 c 133.543 294.355 133.855 294.05 134.129 293.448 c 134.406 292.855
 134.543 292.062 134.543 291.073 c 134.543 289.999 134.352 289.003 133.969
 288.089 c 133.59 287.159 132.988 286.433 132.16 285.901 c f
142.613 301.901 m 141.754 303.276 141.199 304.378 140.949 305.214 c 140.703
 306.046 140.582 306.909 140.582 307.808 c 140.582 309.183 140.855 310.362
 141.398 311.355 c 141.941 312.355 142.664 312.855 143.566 312.855 c 144.438
 312.855 145.145 312.39 145.676 311.464 c 146.211 310.534 146.477 309.48
 146.477 308.292 c 146.477 307.499 146.332 306.69 146.043 305.87 c 145.758
 305.046 145.156 304.077 144.246 302.964 c 145.184 301.546 145.805 300.433
 146.109 299.62 c 146.512 298.558 146.715 297.437 146.715 296.261 c 146.715
 294.769 146.426 293.495 145.844 292.433 c 145.262 291.378 144.5 290.855
 143.559 290.855 c 142.527 290.855 141.727 291.483 141.148 292.745 c 140.691
 293.753 140.461 294.858 140.461 296.058 c 140.461 296.995 140.621 297.921
 140.941 298.839 c 141.266 299.765 141.824 300.784 142.613 301.901 c 143.867
 303.573 m 144.508 304.698 144.914 305.581 145.086 306.23 c 145.254 306.886
 145.34 307.624 145.34 308.448 c 145.34 309.542 145.184 310.394 144.867 
311.011 c 144.555 311.636 144.125 311.948 143.582 311.948 c 143.035 311.948
 142.594 311.64 142.254 311.026 c 141.91 310.409 141.742 309.69 141.742 
308.87 c 141.742 308.327 141.812 307.784 141.949 307.245 c 142.094 306.702
 142.297 306.187 142.559 305.698 c 143.867 303.573 l 142.988 301.308 m 142.547
 300.577 142.219 299.78 142.004 298.917 c 141.793 298.062 141.684 297.136
 141.684 296.136 c 141.684 294.792 141.871 293.714 142.246 292.901 c 142.625
 292.097 143.102 291.698 143.684 291.698 c 144.262 291.698 144.723 292.015
 145.066 292.651 c 145.414 293.284 145.59 294.058 145.59 294.964 c 145.59
 295.714 145.488 296.386 145.285 296.98 c 144.906 298.081 144.141 299.526
 142.988 301.308 c f
148.539 285.901 m 148.539 286.589 l 149.09 286.94 149.512 287.495 149.812
 288.245 c 150.113 288.983 150.266 289.769 150.266 290.605 c 150.266 290.8
 150.242 290.968 150.195 291.105 c 150.156 291.198 150.121 291.245 150.082
 291.245 c 150.023 291.245 149.895 291.14 149.699 290.933 c 149.602 290.839
 149.5 290.792 149.395 290.792 c 149.133 290.792 148.926 290.94 148.77 291.245
 c 148.617 291.546 148.539 291.964 148.539 292.495 c 148.539 293.003 148.637
 293.44 148.836 293.808 c 149.039 294.171 149.281 294.355 149.57 294.355
 c 149.922 294.355 150.234 294.05 150.508 293.448 c 150.785 292.855 150.922
 292.062 150.922 291.073 c 150.922 289.999 150.73 289.003 150.348 288.089
 c 149.969 287.159 149.367 286.433 148.539 285.901 c f
156.711 290.792 m 156.711 291.37 l 157.406 291.39 158.051 291.702 158.648
 292.308 c 159.246 292.921 159.82 293.987 160.375 295.511 c 160.934 297.03
 161.324 298.702 161.543 300.526 c 160.707 299.472 159.949 298.948 159.273
 298.948 c 158.508 298.948 157.855 299.519 157.312 300.667 c 156.77 301.823
 156.496 303.355 156.496 305.261 c 156.496 307.112 156.77 308.765 157.312
 310.214 c 157.969 311.972 158.824 312.855 159.879 312.855 c 160.77 312.855
 161.531 312.136 162.168 310.698 c 162.945 308.917 163.336 306.718 163.336
 304.105 c 163.336 301.749 163.039 299.55 162.445 297.511 c 161.855 295.48
 161.031 293.792 159.977 292.448 c 159.117 291.343 158.18 290.792 157.168
 290.792 c 156.711 290.792 l 161.672 301.683 m 161.766 303.034 161.816 304.12
 161.816 304.933 c 161.816 305.94 161.727 307.03 161.551 308.198 c 161.375
 309.374 161.125 310.276 160.801 310.901 c 160.48 311.526 160.113 311.839
 159.703 311.839 c 159.23 311.839 158.812 311.421 158.457 310.589 c 158.098
 309.753 157.922 308.515 157.922 306.87 c 157.922 304.671 158.156 302.952
 158.633 301.714 c 158.98 300.815 159.406 300.37 159.91 300.37 c 160.156
 300.37 160.449 300.483 160.785 300.714 c 161.121 300.94 161.414 301.265
 161.672 301.683 c f
164.918 285.901 m 164.918 286.589 l 165.469 286.94 165.891 287.495 166.191
 288.245 c 166.492 288.983 166.645 289.769 166.645 290.605 c 166.645 290.8
 166.621 290.968 166.574 291.105 c 166.535 291.198 166.5 291.245 166.461
 291.245 c 166.402 291.245 166.273 291.14 166.078 290.933 c 165.98 290.839
 165.879 290.792 165.773 290.792 c 165.512 290.792 165.305 290.94 165.148
 291.245 c 164.996 291.546 164.918 291.964 164.918 292.495 c 164.918 293.003
 165.016 293.44 165.215 293.808 c 165.418 294.171 165.66 294.355 165.949
 294.355 c 166.301 294.355 166.613 294.05 166.887 293.448 c 167.164 292.855
 167.301 292.062 167.301 291.073 c 167.301 289.999 167.109 289.003 166.727
 288.089 c 166.348 287.159 165.746 286.433 164.918 285.901 c f
180.664 312.901 m 179.84 295.276 l 179.801 294.452 179.777 293.909 179.777
 293.651 c 179.777 293.233 179.816 292.917 179.898 292.698 c 180 292.394
 180.137 292.171 180.305 292.026 c 180.48 291.878 180.773 291.808 181.184
 291.808 c 181.098 291.23 l 176.828 291.23 l 176.914 291.808 l 177.098 291.808
 l 177.445 291.808 177.727 291.952 177.945 292.245 c 178.102 292.44 178.223
 292.769 178.305 293.23 c 178.363 293.55 178.422 294.312 178.473 295.511
 c 178.602 298.198 l 175.5 298.198 l 174.395 295.276 l 174.145 294.62 173.988
 294.144 173.922 293.855 c 173.859 293.573 173.828 293.308 173.828 293.058
 c 173.828 292.722 173.898 292.437 174.035 292.198 c 174.176 291.956 174.402
 291.827 174.723 291.808 c 174.637 291.23 l 171.43 291.23 l 171.516 291.808
 l 171.91 291.839 172.258 292.093 172.555 292.573 c 172.859 293.062 173.309
 294.097 173.906 295.683 c 180.387 312.901 l 180.664 312.901 l 179.082 307.698
 m 175.938 299.339 l 178.668 299.339 l 179.082 307.698 l f
183.121 285.901 m 183.121 286.589 l 183.668 286.94 184.094 287.495 184.391
 288.245 c 184.695 288.983 184.848 289.769 184.848 290.605 c 184.848 290.8
 184.824 290.968 184.777 291.105 c 184.738 291.198 184.703 291.245 184.664
 291.245 c 184.605 291.245 184.477 291.14 184.281 290.933 c 184.184 290.839
 184.082 290.792 183.977 290.792 c 183.715 290.792 183.508 290.94 183.352
 291.245 c 183.199 291.546 183.121 291.964 183.121 292.495 c 183.121 293.003
 183.219 293.44 183.418 293.808 c 183.621 294.171 183.863 294.355 184.152
 294.355 c 184.504 294.355 184.816 294.05 185.09 293.448 c 185.367 292.855
 185.504 292.062 185.504 291.073 c 185.504 289.999 185.312 289.003 184.93
 288.089 c 184.551 287.159 183.945 286.433 183.121 285.901 c f
192.855 311.839 m 192.965 312.417 l 196.836 312.417 l 197.488 312.417 198.066
 312.218 198.57 311.823 c 199.082 311.425 199.465 310.874 199.715 310.167
 c 199.973 309.456 200.098 308.706 200.098 307.917 c 200.098 306.698 199.871
 305.593 199.418 304.605 c 198.973 303.624 198.238 302.901 197.219 302.433
 c 197.875 301.952 198.359 301.315 198.668 300.526 c 198.977 299.733 199.133
 298.862 199.133 297.917 c 199.133 296.862 198.992 295.858 198.715 294.901
 c 198.438 293.94 198.082 293.198 197.645 292.667 c 197.211 292.136 196.691
 291.745 196.078 291.495 c 195.641 291.315 194.957 291.23 194.031 291.23
 c 190.055 291.23 l 190.16 291.808 l 190.574 291.827 190.855 291.905 191.008
 292.042 c 191.219 292.218 191.371 292.452 191.461 292.745 c 191.59 293.14
 191.762 294.046 191.973 295.464 c 193.918 308.292 l 194.082 309.374 194.164
 310.136 194.164 310.573 c 194.164 310.956 194.09 311.261 193.941 311.48
 c 193.797 311.706 193.52 311.823 193.109 311.823 c 193.02 311.823 192.934
 311.827 192.855 311.839 c 194.477 303.042 m 194.824 303.019 195.074 303.011
 195.23 303.011 c 196.34 303.011 197.16 303.48 197.699 304.417 c 198.242
 305.362 198.516 306.546 198.516 307.964 c 198.516 309.034 198.352 309.87
 198.02 310.464 c 197.691 311.065 197.16 311.37 196.438 311.37 c 196.246
 311.37 196 311.308 195.699 311.183 c 194.477 303.042 l 192.902 292.605 
m 193.477 292.456 193.93 292.386 194.254 292.386 c 195.086 292.386 195.82
 292.874 196.461 293.855 c 197.105 294.831 197.43 296.159 197.43 297.839
 c 197.43 299.12 197.227 300.12 196.828 300.839 c 196.434 301.558 195.793
 301.917 194.91 301.917 c 194.738 301.917 194.531 301.901 194.285 301.87
 c 192.902 292.605 l f
201.324 285.901 m 201.324 286.589 l 201.871 286.94 202.297 287.495 202.594
 288.245 c 202.898 288.983 203.051 289.769 203.051 290.605 c 203.051 290.8
 203.027 290.968 202.98 291.105 c 202.941 291.198 202.902 291.245 202.867
 291.245 c 202.809 291.245 202.68 291.14 202.484 290.933 c 202.387 290.839
 202.285 290.792 202.18 290.792 c 201.918 290.792 201.711 290.94 201.555
 291.245 c 201.402 291.546 201.324 291.964 201.324 292.495 c 201.324 293.003
 201.422 293.44 201.617 293.808 c 201.82 294.171 202.066 294.355 202.355
 294.355 c 202.707 294.355 203.02 294.05 203.289 293.448 c 203.566 292.855
 203.707 292.062 203.707 291.073 c 203.707 289.999 203.516 289.003 203.129
 288.089 c 202.754 287.159 202.148 286.433 201.324 285.901 c f
220.156 312.901 m 219.352 306.042 l 219.062 306.042 l 219.031 307.761 l
 219.004 308.386 218.941 308.94 218.848 309.433 c 218.75 309.921 218.605
 310.343 218.414 310.698 c 218.223 311.062 217.98 311.343 217.688 311.542
 c 217.395 311.749 217.066 311.855 216.711 311.855 c 215.758 311.855 214.922
 311.343 214.207 310.323 c 213.297 309.019 212.582 307.183 212.062 304.808
 c 211.637 302.847 211.426 300.862 211.426 298.855 c 211.426 296.8 211.73
 295.159 212.344 293.933 c 212.957 292.714 213.754 292.105 214.734 292.105
 c 215.477 292.105 216.133 292.425 216.711 293.073 c 217.293 293.718 217.832
 294.714 218.324 296.058 c 218.703 296.058 l 218.117 294.233 217.465 292.89
 216.75 292.026 c 216.035 291.171 215.18 290.745 214.184 290.745 c 213.297
 290.745 212.516 291.105 211.832 291.823 c 211.148 292.55 210.629 293.573
 210.273 294.886 c 209.914 296.198 209.738 297.608 209.738 299.12 c 209.738
 301.433 210.055 303.683 210.688 305.87 c 211.324 308.058 212.191 309.776
 213.297 311.026 c 214.406 312.276 215.523 312.901 216.648 312.901 c 217.176
 312.901 217.766 312.655 218.422 312.167 c 218.711 311.956 218.918 311.855
 219.047 311.855 c 219.172 311.855 219.285 311.905 219.383 312.011 c 219.477
 312.112 219.637 312.409 219.863 312.901 c 220.156 312.901 l f
220.453 285.901 m 220.453 286.589 l 221.004 286.94 221.426 287.495 221.727
 288.245 c 222.027 288.983 222.18 289.769 222.18 290.605 c 222.18 290.8 
222.156 290.968 222.109 291.105 c 222.07 291.198 222.035 291.245 221.996
 291.245 c 221.938 291.245 221.809 291.14 221.613 290.933 c 221.516 290.839
 221.414 290.792 221.309 290.792 c 221.047 290.792 220.84 290.94 220.684
 291.245 c 220.531 291.546 220.453 291.964 220.453 292.495 c 220.453 293.003
 220.551 293.44 220.75 293.808 c 220.953 294.171 221.195 294.355 221.484
 294.355 c 221.836 294.355 222.148 294.05 222.422 293.448 c 222.699 292.855
 222.836 292.062 222.836 291.073 c 222.836 289.999 222.645 289.003 222.262
 288.089 c 221.883 287.159 221.281 286.433 220.453 285.901 c f
230.164 311.839 m 230.258 312.417 l 233.723 312.417 l 235.188 312.417 236.273
 312.089 236.977 311.433 c 237.684 310.776 238.25 309.737 238.672 308.323
 c 239.094 306.917 239.305 305.405 239.305 303.792 c 239.305 302.405 239.18
 301.058 238.938 299.745 c 238.695 298.44 238.422 297.394 238.113 296.605
 c 237.809 295.823 237.34 294.956 236.703 294.011 c 236.07 293.062 235.383
 292.358 234.641 291.901 c 233.898 291.452 232.977 291.23 231.867 291.23
 c 227.273 291.23 l 227.379 291.808 l 227.801 291.827 228.082 291.901 228.227
 292.026 c 228.441 292.202 228.598 292.44 228.699 292.745 c 228.852 293.183
 229.027 294.062 229.219 295.386 c 231.137 308.198 l 231.289 309.206 231.363
 309.999 231.363 310.573 c 231.363 310.98 231.293 311.292 231.152 311.511
 c 231.016 311.73 230.742 311.839 230.34 311.839 c 230.164 311.839 l 233
 311.245 m 230.648 295.386 l 230.473 294.198 230.387 293.464 230.387 293.183
 c 230.387 293.015 230.414 292.855 230.465 292.698 c 230.523 292.542 230.602
 292.437 230.699 292.386 c 230.836 292.292 231.062 292.245 231.371 292.245
 c 232.207 292.245 232.984 292.409 233.699 292.745 c 234.418 293.089 235.008
 293.593 235.465 294.261 c 236.117 295.23 236.637 296.562 237.023 298.261
 c 237.414 299.956 237.609 301.89 237.609 304.058 c 237.609 306.503 237.309
 308.323 236.711 309.511 c 236.117 310.706 235.242 311.308 234.098 311.308
 c 233.816 311.308 233.449 311.284 233 311.245 c f
240.48 285.901 m 240.48 286.589 l 241.027 286.94 241.453 287.495 241.75
 288.245 c 242.055 288.983 242.207 289.769 242.207 290.605 c 242.207 290.8
 242.184 290.968 242.137 291.105 c 242.098 291.198 242.059 291.245 242.023
 291.245 c 241.965 291.245 241.836 291.14 241.641 290.933 c 241.543 290.839
 241.441 290.792 241.336 290.792 c 241.074 290.792 240.867 290.94 240.711
 291.245 c 240.555 291.546 240.48 291.964 240.48 292.495 c 240.48 293.003
 240.578 293.44 240.773 293.808 c 240.977 294.171 241.223 294.355 241.512
 294.355 c 241.863 294.355 242.176 294.05 242.445 293.448 c 242.723 292.855
 242.863 292.062 242.863 291.073 c 242.863 289.999 242.672 289.003 242.285
 288.089 c 241.91 287.159 241.305 286.433 240.48 285.901 c f
253.09 311.276 m 251.852 302.901 l 252.867 302.901 l 253.594 302.901 254.117
 303.112 254.441 303.542 c 254.77 303.98 255.047 304.78 255.281 305.948 
c 255.578 305.948 l 254.469 298.261 l 254.148 298.261 l 254.242 298.905 
254.293 299.456 254.293 299.917 c 254.293 300.362 254.242 300.722 254.148
 300.995 c 254.055 301.265 253.93 301.464 253.762 301.589 c 253.602 301.722
 253.262 301.792 252.738 301.792 c 251.707 301.792 l 250.66 294.776 l 250.559
 294.097 250.508 293.581 250.508 293.23 c 250.508 292.956 250.574 292.718
 250.707 292.511 c 250.801 292.362 251.027 292.292 251.387 292.292 c 252.348
 292.292 l 253.387 292.292 254.219 292.651 254.844 293.37 c 255.473 294.089
 256.035 295.339 256.531 297.12 c 256.828 297.12 l 255.801 291.23 l 247.422
 291.23 l 247.523 291.808 l 247.941 291.827 248.223 291.901 248.363 292.026
 c 248.578 292.214 248.734 292.452 248.828 292.745 c 248.973 293.171 249.145
 294.065 249.34 295.433 c 251.242 308.214 l 251.395 309.245 251.469 310.03
 251.469 310.573 c 251.469 310.968 251.395 311.276 251.254 311.495 c 251.113
 311.722 250.84 311.839 250.43 311.839 c 250.262 311.839 l 250.355 312.417
 l 258.145 312.417 l 257.473 307.308 l 257.18 307.308 l 257.215 307.784 
257.234 308.187 257.234 308.511 c 257.234 309.062 257.164 309.526 257.027
 309.901 c 256.844 310.378 256.582 310.745 256.234 310.995 c 255.98 311.183
 255.391 311.276 254.469 311.276 c 253.09 311.276 l f
258.684 285.901 m 258.684 286.589 l 259.23 286.94 259.656 287.495 259.953
 288.245 c 260.258 288.983 260.41 289.769 260.41 290.605 c 260.41 290.8 
260.387 290.968 260.336 291.105 c 260.301 291.198 260.262 291.245 260.227
 291.245 c 260.168 291.245 260.039 291.14 259.84 290.933 c 259.746 290.839
 259.645 290.792 259.539 290.792 c 259.277 290.792 259.066 290.94 258.914
 291.245 c 258.758 291.546 258.684 291.964 258.684 292.495 c 258.684 293.003
 258.781 293.44 258.977 293.808 c 259.18 294.171 259.426 294.355 259.715
 294.355 c 260.066 294.355 260.379 294.05 260.648 293.448 c 260.926 292.855
 261.066 292.062 261.066 291.073 c 261.066 289.999 260.875 289.003 260.488
 288.089 c 260.109 287.159 259.508 286.433 258.684 285.901 c f
271.316 311.292 m 270.039 302.901 l 271.461 302.901 l 272.102 302.901 272.578
 303.093 272.895 303.48 c 273.215 303.862 273.543 304.687 273.879 305.948
 c 274.18 305.948 l 273.055 298.23 l 272.734 298.23 l 272.812 298.855 272.852
 299.37 272.852 299.776 c 272.852 300.409 272.746 300.901 272.527 301.245
 c 272.312 301.597 271.91 301.776 271.316 301.776 c 269.879 301.776 l 268.934
 295.386 l 268.766 294.249 268.68 293.495 268.68 293.12 c 268.68 292.733
 268.75 292.437 268.895 292.23 c 269.043 292.019 269.402 291.878 269.973
 291.808 c 269.879 291.23 l 265.59 291.23 l 265.695 291.808 l 266.113 291.827
 266.391 291.901 266.527 292.026 c 266.742 292.202 266.898 292.44 267 292.745
 c 267.145 293.171 267.312 294.05 267.512 295.386 c 269.422 308.151 l 269.578
 309.183 269.656 309.987 269.656 310.573 c 269.656 310.843 269.621 311.073
 269.551 311.261 c 269.48 311.456 269.379 311.605 269.238 311.698 c 269.105
 311.792 268.836 311.839 268.43 311.839 c 268.527 312.417 l 276.941 312.417
 l 276.141 307.058 l 275.836 307.058 l 275.895 307.702 275.926 308.233 275.926
 308.651 c 275.926 309.339 275.824 309.878 275.629 310.276 c 275.438 310.683
 275.188 310.968 274.887 311.136 c 274.672 311.237 274.195 311.292 273.453
 311.292 c 271.316 311.292 l f
459.094 190.847 m 446.176 156.507 l 456.762 156.507 l 464.316 156.507 469.789
 157.382 473.176 159.132 c 476.566 160.929 479.48 164.214 481.926 168.999
 c 485.012 168.999 l 473.426 137.48 l 470.094 137.48 l 471.094 140.128 471.594
 142.39 471.594 144.272 c 471.594 146.108 471.094 147.581 470.094 148.69
 c 469.148 149.8 467.816 150.612 466.094 151.124 c 464.426 151.679 460.871
 151.96 455.426 151.96 c 444.676 151.96 l 433.762 123.194 l 432.703 120.417
 432.176 118.304 432.176 116.851 c 432.176 115.741 432.871 114.757 434.262
 113.905 c 435.203 113.308 437.566 113.007 441.344 113.007 c 451.344 113.007
 l 462.176 113.007 470.844 114.48 477.344 117.429 c 483.898 120.374 489.758
 125.499 494.926 132.804 c 498.012 132.804 l 487.344 108.651 l 400.012 108.651
 l 401.094 111.022 l 405.426 111.108 408.344 111.405 409.844 111.917 c 412.066
 112.687 413.676 113.671 414.676 114.866 c 416.176 116.616 417.953 120.288
 420.012 125.886 c 439.844 178.288 l 441.398 182.515 442.176 185.741 442.176
 187.964 c 442.176 189.585 441.426 190.847 439.926 191.741 c 438.48 192.683
 435.621 193.151 431.344 193.151 c 429.594 193.151 l 430.594 195.522 l 511.758
 195.522 l 504.758 174.573 l 501.676 174.573 l 502.066 176.538 502.258 178.183
 502.262 179.507 c 502.258 181.769 501.539 183.671 500.094 185.206 c 498.203
 187.171 495.453 188.667 491.844 189.69 c 489.176 190.46 483.039 190.847
 473.426 190.847 c 459.094 190.847 l f
628.258 197.507 m 619.844 169.382 l 616.844 169.382 l 616.508 176.429 l
 616.23 178.991 615.594 181.276 614.594 183.284 c 613.594 185.292 612.094
 187.022 610.094 188.476 c 608.094 189.968 605.566 191.124 602.508 191.933
 c 599.453 192.788 596.066 193.214 592.344 193.214 c 582.398 193.214 573.703
 191.124 566.258 186.937 c 556.758 181.597 549.316 174.062 543.926 164.323
 c 539.48 156.292 537.258 148.155 537.258 139.913 c 537.258 131.499 540.453
 124.772 546.844 119.733 c 553.23 114.737 561.539 112.237 571.758 112.237
 c 579.48 112.237 586.344 113.562 592.344 116.21 c 598.398 118.858 604.008
 122.937 609.176 128.448 c 613.094 128.448 l 606.98 120.972 600.203 115.464
 592.758 111.917 c 585.316 108.417 576.398 106.667 566.008 106.667 c 556.789
 106.667 548.621 108.14 541.508 111.085 c 534.398 114.077 528.98 118.261
 525.258 123.644 c 521.539 129.022 519.676 134.812 519.676 141.003 c 519.676
 150.483 522.98 159.71 529.594 168.679 c 536.203 177.647 545.258 184.694
 556.758 189.819 c 568.316 194.944 579.953 197.507 591.676 197.507 c 597.176
 197.507 603.344 196.503 610.176 194.495 c 613.176 193.644 615.344 193.214
 616.676 193.214 c 618.008 193.214 619.176 193.429 620.176 193.855 c 621.176
 194.284 622.844 195.499 625.176 197.507 c 628.258 197.507 l f
638.027 112.194 m 654.828 112.194 l 657.488 121.187 l 657.988 122.94 658.238
 124.3 658.238 125.265 c 658.238 125.73 658.121 126.124 657.891 126.448 
c 657.676 126.788 657.336 127.038 656.867 127.198 c 656.402 127.358 655.492
 127.44 654.133 127.44 c 654.398 128.433 l 669.055 128.433 l 668.73 127.44
 l 667.496 127.456 666.574 127.331 665.969 127.065 c 665.109 126.687 664.473
 126.206 664.062 125.616 c 663.473 124.772 662.871 123.296 662.266 121.187
 c 655.848 99.206 l 655.312 97.378 655.043 96.073 655.043 95.288 c 655.043
 94.608 655.277 94.089 655.742 93.73 c 656.227 93.39 657.359 93.155 659.152
 93.03 c 658.855 92.038 l 644.684 92.038 l 645.059 93.03 l 646.457 93.069
 647.387 93.194 647.852 93.409 c 648.566 93.73 649.086 94.14 649.406 94.644
 c 649.875 95.339 650.445 96.862 651.125 99.206 c 654.398 110.343 l 637.52
 110.343 l 634.219 99.206 l 633.699 97.417 633.438 96.108 633.438 95.288
 c 633.438 94.608 633.672 94.089 634.137 93.73 c 634.602 93.39 635.73 93.155
 637.52 93.03 c 637.305 92.038 l 623.023 92.038 l 623.375 93.03 l 624.789
 93.069 625.727 93.194 626.191 93.409 c 626.906 93.73 627.438 94.14 627.777
 94.644 c 628.242 95.374 628.812 96.897 629.492 99.206 c 635.934 121.187
 l 636.453 122.976 636.715 124.335 636.715 125.265 c 636.715 125.73 636.598
 126.124 636.363 126.448 c 636.148 126.788 635.801 127.038 635.316 127.198
 c 634.852 127.358 633.93 127.44 632.555 127.44 c 632.875 128.433 l 647.234
 128.433 l 646.938 127.44 l 645.738 127.456 644.855 127.331 644.281 127.065
 c 643.441 126.706 642.824 126.233 642.43 125.64 c 641.895 124.855 641.301
 123.37 640.66 121.187 c 638.027 112.194 l f
Q Q
showpage
%%Trailer
end restore
%%EOF
