%!PS-Adobe-3.0 EPSF-3.0
%%Creator: cairo 1.12.2 (http://cairographics.org)
%%CreationDate: Fri Feb 14 22:37:55 2014
%%Pages: 1
%%DocumentData: Clean7Bit
%%LanguageLevel: 2
%%BoundingBox: 0 -1 646 400
%%EndComments
%%BeginProlog
save
50 dict begin
/q { gsave } bind def
/Q { grestore } bind def
/cm { 6 array astore concat } bind def
/w { setlinewidth } bind def
/J { setlinecap } bind def
/j { setlinejoin } bind def
/M { setmiterlimit } bind def
/d { setdash } bind def
/m { moveto } bind def
/l { lineto } bind def
/c { curveto } bind def
/h { closepath } bind def
/re { exch dup neg 3 1 roll 5 3 roll moveto 0 rlineto
      0 exch rlineto 0 rlineto closepath } bind def
/S { stroke } bind def
/f { fill } bind def
/f* { eofill } bind def
/n { newpath } bind def
/W { clip } bind def
/W* { eoclip } bind def
/BT { } bind def
/ET { } bind def
/pdfmark where { pop globaldict /?pdfmark /exec load put }
    { globaldict begin /?pdfmark /pop load def /pdfmark
    /cleartomark load def end } ifelse
/BDC { mark 3 1 roll /BDC pdfmark } bind def
/EMC { mark /EMC pdfmark } bind def
/cairo_store_point { /cairo_point_y exch def /cairo_point_x exch def } def
/Tj { show currentpoint cairo_store_point } bind def
/TJ {
  {
    dup
    type /stringtype eq
    { show } { -0.001 mul 0 cairo_font_matrix dtransform rmoveto } ifelse
  } forall
  currentpoint cairo_store_point
} bind def
/cairo_selectfont { cairo_font_matrix aload pop pop pop 0 0 6 array astore
    cairo_font exch selectfont cairo_point_x cairo_point_y moveto } bind def
/Tf { pop /cairo_font exch def /cairo_font_matrix where
      { pop cairo_selectfont } if } bind def
/Td { matrix translate cairo_font_matrix matrix concatmatrix dup
      /cairo_font_matrix exch def dup 4 get exch 5 get cairo_store_point
      /cairo_font where { pop cairo_selectfont } if } bind def
/Tm { 2 copy 8 2 roll 6 array astore /cairo_font_matrix exch def
      cairo_store_point /cairo_font where { pop cairo_selectfont } if } bind def
/g { setgray } bind def
/rg { setrgbcolor } bind def
/d1 { setcachedevice } bind def
%%EndProlog
%%Page: 1 1
%%BeginPageSetup
%%PageBoundingBox: 0 -1 646 400
%%EndPageSetup
q 0 -1 646 401 rectclip q
0 g
209.77 376.042 m 208.285 371.964 l 195.785 371.964 l 195.785 372.542 l 
199.461 375.894 202.051 378.636 203.551 380.761 c 205.051 382.886 205.801
 384.827 205.801 386.589 c 205.801 387.933 205.387 389.034 204.566 389.902
 c 203.742 390.765 202.758 391.198 201.613 391.198 c 200.57 391.198 199.633
 390.89 198.801 390.277 c 197.977 389.671 197.367 388.78 196.973 387.605
 c 196.395 387.605 l 196.652 389.53 197.32 391.011 198.395 392.042 c 199.477
 393.073 200.824 393.589 202.441 393.589 c 204.16 393.589 205.59 393.034
 206.738 391.933 c 207.895 390.827 208.473 389.527 208.473 388.027 c 208.473
 386.952 208.223 385.878 207.723 384.808 c 206.949 383.12 205.699 381.331
 203.973 379.448 c 201.379 376.613 199.758 374.905 199.113 374.323 c 204.645
 374.323 l 205.77 374.323 206.555 374.363 207.004 374.448 c 207.461 374.53
 207.871 374.698 208.238 374.948 c 208.602 375.206 208.918 375.573 209.191
 376.042 c 209.77 376.042 l f
212.723 389.12 m 213.324 390.546 214.086 391.644 215.004 392.417 c 215.93
 393.198 217.082 393.589 218.457 393.589 c 220.152 393.589 221.457 393.034
 222.363 391.933 c 223.051 391.109 223.395 390.23 223.395 389.292 c 223.395
 387.749 222.426 386.155 220.488 384.511 c 221.789 383.999 222.773 383.269
 223.441 382.323 c 224.105 381.374 224.441 380.261 224.441 378.98 c 224.441
 377.144 223.855 375.558 222.691 374.214 c 221.168 372.464 218.965 371.589
 216.082 371.589 c 214.652 371.589 213.68 371.765 213.16 372.12 c 212.648
 372.472 212.395 372.855 212.395 373.261 c 212.395 373.562 212.512 373.827
 212.754 374.058 c 213.004 374.284 213.301 374.402 213.645 374.402 c 213.902
 374.402 214.168 374.359 214.441 374.277 c 214.617 374.222 215.02 374.03
 215.645 373.698 c 216.27 373.374 216.699 373.183 216.941 373.12 c 217.324
 373.003 217.738 372.948 218.176 372.948 c 219.238 372.948 220.16 373.359
 220.941 374.183 c 221.73 375.003 222.129 375.98 222.129 377.105 c 222.129
 377.925 221.945 378.73 221.582 379.511 c 221.309 380.093 221.012 380.534
 220.691 380.839 c 220.242 381.253 219.629 381.628 218.848 381.964 c 218.066
 382.308 217.27 382.48 216.457 382.48 c 215.957 382.48 l 215.957 382.948
 l 216.777 383.05 217.602 383.347 218.426 383.839 c 219.258 384.327 219.863
 384.917 220.238 385.605 c 220.613 386.292 220.801 387.046 220.801 387.87
 c 220.801 388.941 220.461 389.808 219.785 390.464 c 219.117 391.128 218.285
 391.464 217.285 391.464 c 215.668 391.464 214.32 390.597 213.238 388.87
 c 212.723 389.12 l f
241.441 393.589 m 241.441 393.011 l 240.066 392.874 238.941 392.597 238.066
 392.183 c 237.199 391.777 236.34 391.152 235.488 390.308 c 234.645 389.464
 233.941 388.519 233.379 387.48 c 232.824 386.448 232.363 385.218 231.988
 383.792 c 233.488 384.823 234.992 385.339 236.504 385.339 c 237.949 385.339
 239.207 384.753 240.27 383.589 c 241.332 382.421 241.863 380.921 241.863
 379.089 c 241.863 377.316 241.324 375.702 240.254 374.245 c 238.961 372.472
 237.254 371.589 235.129 371.589 c 233.68 371.589 232.449 372.066 231.441
 373.027 c 229.461 374.89 228.473 377.308 228.473 380.277 c 228.473 382.171
 228.852 383.972 229.613 385.683 c 230.371 387.39 231.457 388.905 232.863
 390.23 c 234.277 391.55 235.633 392.441 236.926 392.902 c 238.215 393.359
 239.418 393.589 240.535 393.589 c 241.441 393.589 l 231.723 382.652 m 231.535
 381.245 231.441 380.109 231.441 379.245 c 231.441 378.245 231.621 377.155
 231.988 375.98 c 232.363 374.812 232.914 373.886 233.645 373.198 c 234.176
 372.706 234.82 372.464 235.582 372.464 c 236.488 372.464 237.293 372.89
 238.004 373.745 c 238.723 374.597 239.082 375.816 239.082 377.402 c 239.082
 379.183 238.727 380.722 238.02 382.027 c 237.309 383.327 236.305 383.98
 235.004 383.98 c 234.605 383.98 234.18 383.894 233.723 383.73 c 233.273
 383.562 232.605 383.202 231.723 382.652 c f
2.267717 w
0 J
0 j
[] 0.0 d
4 M q 1 0 0 -1 0 399.284393 cm
250.812 0.008 m 250.812 33.383 l 317.562 33.383 l S Q
274.914 375.855 m 273.43 371.777 l 260.93 371.777 l 260.93 372.355 l 264.609
 375.706 267.195 378.448 268.695 380.573 c 270.195 382.698 270.945 384.64
 270.945 386.402 c 270.945 387.745 270.535 388.847 269.711 389.714 c 268.891
 390.577 267.906 391.011 266.758 391.011 c 265.719 391.011 264.781 390.702
 263.945 390.089 c 263.125 389.484 262.516 388.593 262.117 387.417 c 261.539
 387.417 l 261.801 389.343 262.469 390.823 263.539 391.855 c 264.625 392.886
 265.973 393.402 267.586 393.402 c 269.305 393.402 270.738 392.847 271.883
 391.745 c 273.039 390.64 273.617 389.339 273.617 387.839 c 273.617 386.765
 273.367 385.691 272.867 384.62 c 272.098 382.933 270.848 381.144 269.117
 379.261 c 266.523 376.425 264.906 374.718 264.258 374.136 c 269.789 374.136
 l 270.914 374.136 271.703 374.175 272.148 374.261 c 272.609 374.343 273.02
 374.511 273.383 374.761 c 273.75 375.019 274.066 375.386 274.336 375.855
 c 274.914 375.855 l f
261.75 356.628 m 266.906 359.144 l 267.422 359.144 l 267.422 341.253 l 
267.422 340.066 267.469 339.327 267.562 339.034 c 267.668 338.745 267.875
 338.519 268.188 338.363 c 268.5 338.206 269.137 338.12 270.094 338.097 
c 270.094 337.519 l 262.125 337.519 l 262.125 338.097 l 263.125 338.12 263.77
 338.202 264.062 338.347 c 264.355 338.503 264.559 338.706 264.672 338.956
 c 264.785 339.218 264.844 339.984 264.844 341.253 c 264.844 352.691 l 264.844
 354.234 264.793 355.222 264.688 355.659 c 264.613 355.995 264.48 356.238
 264.281 356.394 c 264.094 356.55 263.863 356.628 263.594 356.628 c 263.207
 356.628 262.672 356.468 261.984 356.144 c 261.75 356.628 l f
276.562 356.628 m 281.719 359.144 l 282.234 359.144 l 282.234 341.253 l
 282.234 340.066 282.281 339.327 282.375 339.034 c 282.48 338.745 282.688
 338.519 283 338.363 c 283.312 338.206 283.949 338.12 284.906 338.097 c 
284.906 337.519 l 276.938 337.519 l 276.938 338.097 l 277.938 338.12 278.582
 338.202 278.875 338.347 c 279.168 338.503 279.371 338.706 279.484 338.956
 c 279.598 339.218 279.656 339.984 279.656 341.253 c 279.656 352.691 l 279.656
 354.234 279.605 355.222 279.5 355.659 c 279.43 355.995 279.293 356.238 
279.094 356.394 c 278.906 356.55 278.676 356.628 278.406 356.628 c 278.02
 356.628 277.484 356.468 276.797 356.144 c 276.562 356.628 l f
294.953 348.191 m 293.277 349.566 292.191 350.671 291.703 351.503 c 291.223
 352.339 290.984 353.202 290.984 354.097 c 290.984 355.472 291.516 356.655
 292.578 357.644 c 293.641 358.644 295.051 359.144 296.812 359.144 c 298.52
 359.144 299.895 358.683 300.938 357.753 c 301.98 356.827 302.5 355.769 
302.5 354.581 c 302.5 353.792 302.219 352.984 301.656 352.159 c 301.094 
351.339 299.922 350.37 298.141 349.253 c 299.973 347.839 301.188 346.722
 301.781 345.909 c 302.574 344.847 302.969 343.73 302.969 342.55 c 302.969
 341.062 302.402 339.784 301.266 338.722 c 300.129 337.671 298.641 337.144
 296.797 337.144 c 294.785 337.144 293.219 337.777 292.094 339.034 c 291.199
 340.046 290.75 341.152 290.75 342.347 c 290.75 343.284 291.062 344.214 
291.688 345.128 c 292.324 346.058 293.41 347.077 294.953 348.191 c 297.406
 349.863 m 298.656 350.988 299.449 351.874 299.781 352.519 c 300.113 353.175
 300.281 353.917 300.281 354.738 c 300.281 355.831 299.973 356.687 299.359
 357.3 c 298.746 357.925 297.906 358.238 296.844 358.238 c 295.781 358.238
 294.918 357.933 294.25 357.316 c 293.582 356.702 293.25 355.984 293.25 
355.159 c 293.25 354.62 293.387 354.077 293.656 353.534 c 293.938 352.995
 294.332 352.48 294.844 351.988 c 297.406 349.863 l 295.688 347.597 m 294.824
 346.87 294.184 346.073 293.766 345.206 c 293.348 344.355 293.141 343.425
 293.141 342.425 c 293.141 341.081 293.504 340.003 294.234 339.191 c 294.973
 338.39 295.91 337.988 297.047 337.988 c 298.172 337.988 299.074 338.308
 299.75 338.941 c 300.426 339.577 300.766 340.347 300.766 341.253 c 300.766
 342.003 300.566 342.675 300.172 343.269 c 299.434 344.374 297.938 345.816
 295.688 347.597 c f
195.828 353.527 m 195.828 355.941 196.195 358.019 196.922 359.761 c 197.652
 361.511 198.621 362.812 199.828 363.667 c 200.766 364.343 201.734 364.683
 202.734 364.683 c 204.359 364.683 205.82 363.855 207.109 362.198 c 208.727
 360.144 209.531 357.363 209.531 353.855 c 209.531 351.394 209.18 349.308
 208.469 347.589 c 207.762 345.87 206.855 344.62 205.75 343.839 c 204.656
 343.066 203.602 342.683 202.578 342.683 c 200.559 342.683 198.875 343.874
 197.531 346.261 c 196.398 348.269 195.828 350.691 195.828 353.527 c 198.891
 353.136 m 198.891 350.218 199.25 347.839 199.969 345.995 c 200.562 344.441
 201.449 343.667 202.625 343.667 c 203.188 343.667 203.773 343.917 204.375
 344.417 c 204.98 344.925 205.438 345.777 205.75 346.964 c 206.23 348.753
 206.469 351.28 206.469 354.542 c 206.469 356.956 206.219 358.972 205.719
 360.589 c 205.344 361.784 204.859 362.636 204.266 363.136 c 203.84 363.48
 203.324 363.652 202.719 363.652 c 202.012 363.652 201.383 363.331 200.828
 362.698 c 200.078 361.831 199.57 360.472 199.297 358.62 c 199.027 356.765
 198.891 354.937 198.891 353.136 c f
212.297 360.214 m 212.902 361.64 213.664 362.738 214.578 363.511 c 215.508
 364.292 216.656 364.683 218.031 364.683 c 219.73 364.683 221.031 364.128
 221.938 363.027 c 222.625 362.202 222.969 361.323 222.969 360.386 c 222.969
 358.843 222 357.249 220.062 355.605 c 221.367 355.093 222.352 354.363 223.016
 353.417 c 223.684 352.468 224.016 351.355 224.016 350.073 c 224.016 348.238
 223.434 346.652 222.266 345.308 c 220.746 343.558 218.543 342.683 215.656
 342.683 c 214.23 342.683 213.258 342.859 212.734 343.214 c 212.227 343.566
 211.969 343.948 211.969 344.355 c 211.969 344.655 212.09 344.921 212.328
 345.152 c 212.578 345.378 212.875 345.495 213.219 345.495 c 213.48 345.495
 213.746 345.452 214.016 345.37 c 214.195 345.316 214.594 345.124 215.219
 344.792 c 215.844 344.468 216.277 344.277 216.516 344.214 c 216.902 344.097
 217.312 344.042 217.75 344.042 c 218.812 344.042 219.734 344.452 220.516
 345.277 c 221.309 346.097 221.703 347.073 221.703 348.198 c 221.703 349.019
 221.523 349.823 221.156 350.605 c 220.887 351.187 220.59 351.628 220.266
 351.933 c 219.82 352.347 219.203 352.722 218.422 353.058 c 217.641 353.402
 216.844 353.573 216.031 353.573 c 215.531 353.573 l 215.531 354.042 l 216.355
 354.144 217.18 354.441 218 354.933 c 218.836 355.421 219.438 356.011 219.812
 356.698 c 220.188 357.386 220.375 358.14 220.375 358.964 c 220.375 360.034
 220.039 360.902 219.359 361.558 c 218.695 362.222 217.859 362.558 216.859
 362.558 c 215.246 362.558 213.898 361.691 212.812 359.964 c 212.297 360.214
 l f
215.031 334.488 m 220.188 337.003 l 220.703 337.003 l 220.703 319.113 l
 220.703 317.925 220.75 317.187 220.844 316.894 c 220.945 316.601 221.156
 316.378 221.469 316.222 c 221.781 316.066 222.414 315.976 223.375 315.956
 c 223.375 315.378 l 215.406 315.378 l 215.406 315.956 l 216.406 315.976
 217.051 316.062 217.344 316.206 c 217.633 316.363 217.836 316.566 217.953
 316.816 c 218.066 317.077 218.125 317.843 218.125 319.113 c 218.125 330.55
 l 218.125 332.093 218.07 333.081 217.969 333.519 c 217.895 333.851 217.758
 334.097 217.562 334.253 c 217.375 334.409 217.145 334.488 216.875 334.488
 c 216.488 334.488 215.953 334.327 215.266 334.003 c 215.031 334.488 l f
241.625 337.003 m 241.625 336.425 l 240.25 336.288 239.125 336.015 238.25
 335.597 c 237.383 335.191 236.523 334.566 235.672 333.722 c 234.828 332.878
 234.125 331.937 233.562 330.894 c 233.008 329.863 232.547 328.632 232.172
 327.206 c 233.672 328.238 235.176 328.753 236.688 328.753 c 238.133 328.753
 239.391 328.171 240.453 327.003 c 241.516 325.835 242.047 324.335 242.047
 322.503 c 242.047 320.734 241.508 319.116 240.438 317.659 c 239.145 315.89
 237.438 315.003 235.312 315.003 c 233.863 315.003 232.633 315.484 231.625
 316.441 c 229.645 318.304 228.656 320.722 228.656 323.691 c 228.656 325.585
 229.035 327.39 229.797 329.097 c 230.555 330.804 231.641 332.32 233.047
 333.644 c 234.461 334.968 235.816 335.859 237.109 336.316 c 238.398 336.773
 239.602 337.003 240.719 337.003 c 241.625 337.003 l 231.906 326.066 m 231.719
 324.659 231.625 323.523 231.625 322.659 c 231.625 321.659 231.805 320.57
 232.172 319.394 c 232.547 318.226 233.098 317.3 233.828 316.613 c 234.359
 316.124 235.004 315.878 235.766 315.878 c 236.672 315.878 237.477 316.304
 238.188 317.159 c 238.906 318.015 239.266 319.234 239.266 320.816 c 239.266
 322.597 238.91 324.14 238.203 325.441 c 237.492 326.741 236.488 327.394
 235.188 327.394 c 234.789 327.394 234.363 327.312 233.906 327.144 c 233.457
 326.976 232.789 326.616 231.906 326.066 c f
229.293 298.109 m 229.293 300.527 229.656 302.605 230.387 304.343 c 231.117
 306.093 232.086 307.394 233.293 308.249 c 234.23 308.925 235.199 309.265
 236.199 309.265 c 237.824 309.265 239.281 308.437 240.574 306.78 c 242.188
 304.73 242.996 301.948 242.996 298.437 c 242.996 295.98 242.641 293.89 
241.934 292.171 c 241.227 290.452 240.32 289.202 239.215 288.421 c 238.121
 287.652 237.062 287.265 236.043 287.265 c 234.023 287.265 232.34 288.456
 230.996 290.843 c 229.859 292.855 229.293 295.277 229.293 298.109 c 232.355
 297.718 m 232.355 294.8 232.715 292.421 233.434 290.577 c 234.027 289.027
 234.914 288.249 236.09 288.249 c 236.652 288.249 237.234 288.499 237.84
 288.999 c 238.445 289.511 238.902 290.359 239.215 291.546 c 239.695 293.339
 239.934 295.863 239.934 299.124 c 239.934 301.542 239.684 303.558 239.184
 305.171 c 238.809 306.37 238.324 307.218 237.73 307.718 c 237.305 308.062
 236.789 308.234 236.184 308.234 c 235.477 308.234 234.844 307.917 234.293
 307.28 c 233.543 306.417 233.031 305.058 232.762 303.202 c 232.492 301.347
 232.355 299.519 232.355 297.718 c f
q 1 0 0 -1 0 399.284393 cm
311.812 34.004 m 311.812 67.379 l 378.562 67.379 l S Q
335.914 341.859 m 334.43 337.78 l 321.93 337.78 l 321.93 338.359 l 325.609
 341.71 328.195 344.452 329.695 346.577 c 331.195 348.702 331.945 350.644
 331.945 352.405 c 331.945 353.749 331.535 354.851 330.711 355.718 c 329.891
 356.581 328.906 357.015 327.758 357.015 c 326.719 357.015 325.781 356.706
 324.945 356.093 c 324.125 355.488 323.516 354.597 323.117 353.421 c 322.539
 353.421 l 322.801 355.347 323.469 356.827 324.539 357.859 c 325.625 358.89
 326.973 359.405 328.586 359.405 c 330.305 359.405 331.738 358.851 332.883
 357.749 c 334.039 356.644 334.617 355.343 334.617 353.843 c 334.617 352.769
 334.367 351.695 333.867 350.624 c 333.098 348.937 331.848 347.148 330.117
 345.265 c 327.523 342.429 325.906 340.722 325.258 340.14 c 330.789 340.14
 l 331.914 340.14 332.703 340.179 333.148 340.265 c 333.609 340.347 334.02
 340.515 334.383 340.765 c 334.75 341.023 335.066 341.39 335.336 341.859
 c 335.914 341.859 l f
226.875 389.37 m 226.031 393.995 l 225.789 395.277 225.672 396.14 225.672
 396.589 c 225.672 397.253 225.805 397.738 226.078 398.042 c 226.348 398.343
 226.719 398.495 227.188 398.495 c 227.656 398.495 228.039 398.339 228.344
 398.027 c 228.656 397.722 228.812 397.323 228.812 396.823 c 228.812 396.437
 228.676 395.488 228.406 393.98 c 227.562 389.37 l 226.875 389.37 l f
209.715 389.37 m 208.871 393.995 l 208.629 395.277 208.512 396.14 208.512
 396.589 c 208.512 397.253 208.645 397.738 208.918 398.042 c 209.188 398.343
 209.559 398.495 210.027 398.495 c 210.496 398.495 210.879 398.339 211.184
 398.027 c 211.496 397.722 211.652 397.323 211.652 396.823 c 211.652 396.437
 211.516 395.488 211.246 393.98 c 210.402 389.37 l 209.715 389.37 l f
245.141 389.37 m 244.297 393.995 l 244.059 395.277 243.938 396.14 243.938
 396.589 c 243.938 397.253 244.074 397.738 244.344 398.042 c 244.613 398.343
 244.984 398.495 245.453 398.495 c 245.922 398.495 246.309 398.339 246.609
 398.027 c 246.922 397.722 247.078 397.323 247.078 396.823 c 247.078 396.437
 246.941 395.488 246.672 393.98 c 245.828 389.37 l 245.141 389.37 l f
305.477 354.495 m 304.633 359.12 l 304.395 360.402 304.273 361.265 304.273
 361.714 c 304.273 362.382 304.41 362.866 304.68 363.167 c 304.953 363.468
 305.32 363.62 305.789 363.62 c 306.258 363.62 306.645 363.464 306.945 363.152
 c 307.258 362.851 307.414 362.448 307.414 361.948 c 307.414 361.562 307.281
 360.616 307.008 359.105 c 306.164 354.495 l 305.477 354.495 l f
286.656 354.495 m 285.812 359.12 l 285.574 360.402 285.453 361.265 285.453
 361.714 c 285.453 362.382 285.59 362.866 285.859 363.167 c 286.133 363.468
 286.5 363.62 286.969 363.62 c 287.438 363.62 287.824 363.464 288.125 363.152
 c 288.438 362.851 288.594 362.448 288.594 361.948 c 288.594 361.562 288.461
 360.616 288.188 359.105 c 287.344 354.495 l 286.656 354.495 l f
333.668 324.386 m 332.449 321.73 l 326.074 321.73 l 324.684 318.886 l 327.441
 318.48 329.629 317.456 331.246 315.808 c 332.629 314.394 333.324 312.726
 333.324 310.808 c 333.324 309.695 333.094 308.663 332.637 307.714 c 332.188
 306.769 331.621 305.96 330.934 305.292 c 330.246 304.628 329.48 304.089
 328.637 303.683 c 327.438 303.113 326.207 302.823 324.949 302.823 c 323.676
 302.823 322.75 303.038 322.168 303.464 c 321.594 303.902 321.309 304.382
 321.309 304.902 c 321.309 305.195 321.426 305.448 321.668 305.667 c 321.906
 305.898 322.207 306.011 322.574 306.011 c 322.844 306.011 323.078 305.972
 323.277 305.886 c 323.484 305.804 323.832 305.589 324.324 305.245 c 325.105
 304.706 325.895 304.433 326.699 304.433 c 327.918 304.433 328.984 304.894
 329.902 305.808 c 330.828 306.738 331.293 307.863 331.293 309.183 c 331.293
 310.464 330.879 311.659 330.059 312.761 c 329.234 313.878 328.098 314.738
 326.652 315.339 c 325.516 315.808 323.969 316.081 322.012 316.152 c 326.074
 324.386 l 333.668 324.386 l f
337.465 302.761 m 337.465 303.339 l 338.816 303.363 340.078 303.675 341.246
 304.277 c 342.41 304.894 343.535 305.96 344.621 307.48 c 345.715 309.003
 346.473 310.675 346.902 312.495 c 345.266 311.445 343.785 310.917 342.465
 310.917 c 340.973 310.917 339.699 311.491 338.637 312.636 c 337.574 313.792
 337.043 315.323 337.043 317.23 c 337.043 319.085 337.574 320.738 338.637
 322.183 c 339.918 323.945 341.59 324.823 343.652 324.823 c 345.391 324.823
 346.879 324.105 348.121 322.667 c 349.641 320.886 350.402 318.691 350.402
 316.073 c 350.402 313.722 349.824 311.523 348.668 309.48 c 347.512 307.448
 345.902 305.761 343.84 304.417 c 342.16 303.316 340.332 302.761 338.355
 302.761 c 337.465 302.761 l 347.152 313.652 m 347.34 315.007 347.434 316.089
 347.434 316.902 c 347.434 317.913 347.262 319.003 346.918 320.167 c 346.574
 321.347 346.082 322.245 345.449 322.87 c 344.824 323.495 344.109 323.808
 343.309 323.808 c 342.379 323.808 341.566 323.394 340.871 322.558 c 340.172
 321.726 339.824 320.488 339.824 318.839 c 339.824 316.644 340.285 314.925
 341.215 313.683 c 341.891 312.788 342.723 312.339 343.715 312.339 c 344.191
 312.339 344.762 312.456 345.418 312.683 c 346.074 312.913 346.652 313.238
 347.152 313.652 c f
277.582 329.386 m 282.738 331.902 l 283.254 331.902 l 283.254 314.011 l
 283.254 312.823 283.301 312.081 283.395 311.792 c 283.5 311.499 283.707
 311.277 284.02 311.12 c 284.332 310.964 284.969 310.874 285.926 310.855
 c 285.926 310.277 l 277.957 310.277 l 277.957 310.855 l 278.957 310.874
 279.602 310.956 279.895 311.105 c 280.188 311.261 280.391 311.464 280.504
 311.714 c 280.617 311.972 280.676 312.738 280.676 314.011 c 280.676 325.448
 l 280.676 326.988 280.625 327.98 280.52 328.417 c 280.445 328.749 280.312
 328.995 280.113 329.152 c 279.926 329.308 279.695 329.386 279.426 329.386
 c 279.039 329.386 278.504 329.222 277.816 328.902 c 277.582 329.386 l f
295.973 320.948 m 294.297 322.323 293.211 323.425 292.723 324.261 c 292.242
 325.093 292.004 325.956 292.004 326.855 c 292.004 328.23 292.535 329.409
 293.598 330.402 c 294.66 331.402 296.07 331.902 297.832 331.902 c 299.539
 331.902 300.914 331.437 301.957 330.511 c 303 329.581 303.52 328.527 303.52
 327.339 c 303.52 326.546 303.238 325.738 302.676 324.917 c 302.113 324.093
 300.941 323.124 299.16 322.011 c 300.992 320.593 302.207 319.48 302.801
 318.667 c 303.594 317.605 303.988 316.484 303.988 315.308 c 303.988 313.816
 303.422 312.542 302.285 311.48 c 301.148 310.425 299.66 309.902 297.816
 309.902 c 295.805 309.902 294.238 310.53 293.113 311.792 c 292.219 312.8
 291.77 313.905 291.77 315.105 c 291.77 316.042 292.082 316.968 292.707 
317.886 c 293.344 318.812 294.43 319.831 295.973 320.948 c 298.426 322.62
 m 299.676 323.745 300.469 324.628 300.801 325.277 c 301.133 325.933 301.301
 326.671 301.301 327.495 c 301.301 328.589 300.992 329.441 300.379 330.058
 c 299.766 330.683 298.926 330.995 297.863 330.995 c 296.801 330.995 295.938
 330.687 295.27 330.073 c 294.602 329.456 294.27 328.738 294.27 327.917 
c 294.27 327.374 294.406 326.831 294.676 326.292 c 294.957 325.749 295.352
 325.234 295.863 324.745 c 298.426 322.62 l 296.707 320.355 m 295.844 319.624
 295.203 318.827 294.785 317.964 c 294.367 317.109 294.16 316.183 294.16
 315.183 c 294.16 313.839 294.523 312.761 295.254 311.948 c 295.992 311.144
 296.93 310.745 298.066 310.745 c 299.191 310.745 300.094 311.062 300.77
 311.698 c 301.445 312.331 301.785 313.105 301.785 314.011 c 301.785 314.761
 301.586 315.433 301.191 316.027 c 300.453 317.128 298.957 318.573 296.707
 320.355 c f
291.289 293.741 m 291.289 296.159 291.656 298.238 292.383 299.976 c 293.113
 301.726 294.082 303.027 295.289 303.882 c 296.227 304.558 297.195 304.898
 298.195 304.898 c 299.82 304.898 301.281 304.07 302.57 302.413 c 304.188
 300.363 304.992 297.581 304.992 294.07 c 304.992 291.613 304.641 289.523
 303.93 287.804 c 303.223 286.085 302.316 284.835 301.211 284.054 c 300.117
 283.284 299.062 282.898 298.039 282.898 c 296.02 282.898 294.336 284.089
 292.992 286.476 c 291.859 288.488 291.289 290.909 291.289 293.741 c 294.352
 293.351 m 294.352 290.433 294.711 288.054 295.43 286.21 c 296.023 284.659
 296.91 283.882 298.086 283.882 c 298.648 283.882 299.234 284.132 299.836
 284.632 c 300.441 285.144 300.898 285.991 301.211 287.179 c 301.691 288.972
 301.93 291.495 301.93 294.757 c 301.93 297.175 301.68 299.191 301.18 300.804
 c 300.805 302.003 300.32 302.851 299.727 303.351 c 299.301 303.695 298.785
 303.866 298.18 303.866 c 297.473 303.866 296.844 303.55 296.289 302.913
 c 295.539 302.05 295.031 300.691 294.758 298.835 c 294.488 296.98 294.352
 295.152 294.352 293.351 c f
q 1 0 0 -1 0 399.284393 cm
361.633 68.324 m 361.633 101.699 l 428.383 101.699 l S Q
385.734 307.538 m 384.25 303.46 l 371.75 303.46 l 371.75 304.038 l 375.43
 307.39 378.016 310.132 379.516 312.257 c 381.016 314.382 381.766 316.323
 381.766 318.085 c 381.766 319.429 381.355 320.53 380.531 321.398 c 379.711
 322.261 378.727 322.695 377.578 322.695 c 376.539 322.695 375.602 322.386
 374.766 321.773 c 373.945 321.167 373.336 320.277 372.938 319.101 c 372.359
 319.101 l 372.621 321.027 373.289 322.507 374.359 323.538 c 375.445 324.57
 376.793 325.085 378.406 325.085 c 380.125 325.085 381.559 324.53 382.703
 323.429 c 383.859 322.323 384.438 321.023 384.438 319.523 c 384.438 318.448
 384.188 317.374 383.688 316.304 c 382.918 314.616 381.668 312.827 379.938
 310.945 c 377.344 308.109 375.727 306.402 375.078 305.82 c 380.609 305.82
 l 381.734 305.82 382.523 305.859 382.969 305.945 c 383.43 306.027 383.84
 306.195 384.203 306.445 c 384.57 306.702 384.887 307.07 385.156 307.538
 c 385.734 307.538 l f
351.977 320.175 m 351.133 324.8 l 350.895 326.081 350.773 326.945 350.773
 327.394 c 350.773 328.062 350.91 328.546 351.18 328.847 c 351.449 329.148
 351.82 329.3 352.289 329.3 c 352.758 329.3 353.145 329.144 353.445 328.831
 c 353.758 328.53 353.914 328.128 353.914 327.628 c 353.914 327.241 353.777
 326.296 353.508 324.784 c 352.664 320.175 l 351.977 320.175 l f
335.922 320.175 m 335.078 324.8 l 334.84 326.081 334.719 326.945 334.719
 327.394 c 334.719 328.062 334.855 328.546 335.125 328.847 c 335.398 329.148
 335.766 329.3 336.234 329.3 c 336.703 329.3 337.09 329.144 337.391 328.831
 c 337.703 328.53 337.859 328.128 337.859 327.628 c 337.859 327.241 337.727
 326.296 337.453 324.784 c 336.609 320.175 l 335.922 320.175 l f
322.973 294.077 m 328.129 296.593 l 328.645 296.593 l 328.645 278.702 l
 328.645 277.515 328.691 276.777 328.785 276.484 c 328.891 276.195 329.098
 275.968 329.41 275.812 c 329.723 275.655 330.359 275.57 331.316 275.546
 c 331.316 274.968 l 323.348 274.968 l 323.348 275.546 l 324.348 275.57 
324.992 275.652 325.285 275.796 c 325.578 275.952 325.781 276.155 325.895
 276.405 c 326.008 276.667 326.066 277.433 326.066 278.702 c 326.066 290.14
 l 326.066 291.683 326.016 292.671 325.91 293.109 c 325.836 293.445 325.703
 293.687 325.504 293.843 c 325.316 293.999 325.086 294.077 324.816 294.077
 c 324.43 294.077 323.895 293.917 323.207 293.593 c 322.973 294.077 l f
336.91 274.53 m 336.91 275.109 l 338.266 275.132 339.523 275.445 340.691
 276.046 c 341.859 276.663 342.984 277.73 344.066 279.249 c 345.16 280.773
 345.922 282.445 346.348 284.265 c 344.711 283.214 343.234 282.687 341.91
 282.687 c 340.422 282.687 339.145 283.261 338.082 284.405 c 337.02 285.562
 336.488 287.093 336.488 288.999 c 336.488 290.855 337.02 292.507 338.082
 293.952 c 339.363 295.714 341.035 296.593 343.098 296.593 c 344.836 296.593
 346.328 295.874 347.566 294.437 c 349.086 292.655 349.848 290.46 349.848
 287.843 c 349.848 285.491 349.27 283.292 348.113 281.249 c 346.957 279.218
 345.348 277.53 343.285 276.187 c 341.609 275.085 339.781 274.53 337.801
 274.53 c 336.91 274.53 l 346.598 285.421 m 346.785 286.777 346.879 287.859
 346.879 288.671 c 346.879 289.683 346.707 290.773 346.363 291.937 c 346.02
 293.116 345.531 294.015 344.895 294.64 c 344.27 295.265 343.555 295.577
 342.754 295.577 c 341.828 295.577 341.016 295.163 340.316 294.327 c 339.617
 293.495 339.27 292.257 339.27 290.609 c 339.27 288.413 339.734 286.695 
340.66 285.452 c 341.336 284.558 342.172 284.109 343.16 284.109 c 343.641
 284.109 344.207 284.226 344.863 284.452 c 345.52 284.683 346.098 285.007
 346.598 285.421 c f
385.93 271.913 m 384.445 267.835 l 371.945 267.835 l 371.945 268.413 l 
375.621 271.765 378.211 274.507 379.711 276.632 c 381.211 278.757 381.961
 280.698 381.961 282.46 c 381.961 283.804 381.547 284.905 380.727 285.773
 c 379.902 286.636 378.918 287.07 377.773 287.07 c 376.73 287.07 375.793
 286.761 374.961 286.148 c 374.137 285.542 373.527 284.652 373.133 283.476
 c 372.555 283.476 l 372.812 285.402 373.48 286.882 374.555 287.913 c 375.637
 288.945 376.984 289.46 378.602 289.46 c 380.32 289.46 381.75 288.905 382.898
 287.804 c 384.055 286.698 384.633 285.398 384.633 283.898 c 384.633 282.823
 384.383 281.749 383.883 280.679 c 383.109 278.991 381.859 277.202 380.133
 275.32 c 377.539 272.484 375.918 270.777 375.273 270.195 c 380.805 270.195
 l 381.93 270.195 382.715 270.234 383.164 270.32 c 383.621 270.402 384.031
 270.57 384.398 270.82 c 384.762 271.077 385.078 271.445 385.352 271.913
 c 385.93 271.913 l f
388.945 267.398 m 388.945 267.976 l 390.297 267.995 391.559 268.308 392.727
 268.913 c 393.891 269.527 395.016 270.593 396.102 272.116 c 397.195 273.636
 397.953 275.308 398.383 277.132 c 396.746 276.077 395.266 275.554 393.945
 275.554 c 392.453 275.554 391.18 276.124 390.117 277.273 c 389.055 278.429
 388.523 279.96 388.523 281.866 c 388.523 283.718 389.055 285.37 390.117
 286.82 c 391.398 288.577 393.07 289.46 395.133 289.46 c 396.871 289.46 
398.359 288.741 399.602 287.304 c 401.121 285.523 401.883 283.323 401.883
 280.71 c 401.883 278.355 401.305 276.155 400.148 274.116 c 398.992 272.085
 397.383 270.398 395.32 269.054 c 393.641 267.948 391.812 267.398 389.836
 267.398 c 388.945 267.398 l 398.633 278.288 m 398.82 279.64 398.914 280.726
 398.914 281.538 c 398.914 282.546 398.742 283.636 398.398 284.804 c 398.055
 285.98 397.562 286.882 396.93 287.507 c 396.305 288.132 395.59 288.445 
394.789 288.445 c 393.859 288.445 393.047 288.027 392.352 287.195 c 391.652
 286.359 391.305 285.12 391.305 283.476 c 391.305 281.277 391.766 279.558
 392.695 278.32 c 393.371 277.421 394.203 276.976 395.195 276.976 c 395.672
 276.976 396.242 277.089 396.898 277.32 c 397.555 277.546 398.133 277.87
 398.633 278.288 c f
339.277 264.187 m 344.434 266.702 l 344.949 266.702 l 344.949 248.812 l
 344.949 247.624 344.996 246.886 345.09 246.593 c 345.191 246.3 345.402 
246.077 345.715 245.921 c 346.027 245.765 346.66 245.675 347.621 245.655
 c 347.621 245.077 l 339.652 245.077 l 339.652 245.655 l 340.652 245.675
 341.297 245.761 341.59 245.905 c 341.879 246.062 342.082 246.265 342.199
 246.515 c 342.312 246.777 342.371 247.542 342.371 248.812 c 342.371 260.249
 l 342.371 261.792 342.316 262.78 342.215 263.218 c 342.141 263.55 342.004
 263.796 341.809 263.952 c 341.621 264.109 341.391 264.187 341.121 264.187
 c 340.734 264.187 340.199 264.027 339.512 263.702 c 339.277 264.187 l f
q 1 0 0 -1 0 399.284393 cm
412.004 103.199 m 412.004 136.574 l 478.754 136.574 l S Q
436.109 272.663 m 434.625 268.585 l 422.125 268.585 l 422.125 269.163 l
 425.801 272.519 428.391 275.257 429.891 277.382 c 431.391 279.507 432.141
 281.448 432.141 283.21 c 432.141 284.554 431.727 285.659 430.906 286.523
 c 430.082 287.386 429.098 287.82 427.953 287.82 c 426.91 287.82 425.973
 287.511 425.141 286.898 c 424.316 286.292 423.707 285.402 423.312 284.226
 c 422.734 284.226 l 422.992 286.152 423.66 287.632 424.734 288.663 c 425.816
 289.695 427.164 290.21 428.781 290.21 c 430.5 290.21 431.93 289.659 433.078
 288.554 c 434.234 287.448 434.812 286.148 434.812 284.648 c 434.812 283.573
 434.562 282.503 434.062 281.429 c 433.289 279.741 432.039 277.956 430.312
 276.07 c 427.719 273.238 426.098 271.527 425.453 270.945 c 430.984 270.945
 l 432.109 270.945 432.895 270.988 433.344 271.07 c 433.801 271.152 434.211
 271.32 434.578 271.57 c 434.941 271.831 435.258 272.195 435.531 272.663
 c 436.109 272.663 l f
403.457 285.855 m 402.613 290.48 l 402.375 291.761 402.254 292.628 402.254
 293.073 c 402.254 293.741 402.391 294.226 402.66 294.527 c 402.93 294.831
 403.301 294.98 403.77 294.98 c 404.238 294.98 404.625 294.823 404.926 294.511
 c 405.238 294.21 405.395 293.808 405.395 293.308 c 405.395 292.925 405.258
 291.976 404.988 290.464 c 404.145 285.855 l 403.457 285.855 l f
386.297 285.855 m 385.453 290.48 l 385.215 291.761 385.094 292.628 385.094
 293.073 c 385.094 293.741 385.23 294.226 385.5 294.527 c 385.77 294.831
 386.141 294.98 386.609 294.98 c 387.078 294.98 387.465 294.823 387.766 
294.511 c 388.078 294.21 388.234 293.808 388.234 293.308 c 388.234 292.925
 388.098 291.976 387.828 290.464 c 386.984 285.855 l 386.297 285.855 l f
371.859 250.011 m 371.859 252.429 372.223 254.507 372.953 256.245 c 373.684
 257.995 374.652 259.296 375.859 260.152 c 376.797 260.827 377.766 261.167
 378.766 261.167 c 380.391 261.167 381.848 260.339 383.141 258.683 c 384.754
 256.632 385.562 253.851 385.562 250.339 c 385.562 247.882 385.207 245.792
 384.5 244.073 c 383.793 242.355 382.887 241.105 381.781 240.323 c 380.688
 239.554 379.629 239.167 378.609 239.167 c 376.59 239.167 374.906 240.359
 373.562 242.745 c 372.426 244.757 371.859 247.179 371.859 250.011 c 374.922
 249.62 m 374.922 246.702 375.281 244.323 376 242.48 c 376.594 240.929 377.48
 240.152 378.656 240.152 c 379.219 240.152 379.801 240.402 380.406 240.902
 c 381.012 241.413 381.469 242.261 381.781 243.448 c 382.262 245.241 382.5
 247.765 382.5 251.027 c 382.5 253.445 382.25 255.46 381.75 257.073 c 381.375
 258.273 380.891 259.12 380.297 259.62 c 379.871 259.964 379.355 260.136
 378.75 260.136 c 378.043 260.136 377.41 259.82 376.859 259.183 c 376.109
 258.32 375.598 256.96 375.328 255.105 c 375.059 253.249 374.922 251.421
 374.922 249.62 c f
388.391 239.105 m 388.391 239.683 l 389.746 239.702 391.004 240.015 392.172
 240.62 c 393.34 241.234 394.465 242.304 395.547 243.823 c 396.641 245.343
 397.402 247.015 397.828 248.839 c 396.191 247.788 394.715 247.261 393.391
 247.261 c 391.902 247.261 390.625 247.835 389.562 248.98 c 388.5 250.136
 387.969 251.667 387.969 253.573 c 387.969 255.429 388.5 257.077 389.562
 258.527 c 390.844 260.288 392.516 261.167 394.578 261.167 c 396.316 261.167
 397.809 260.448 399.047 259.011 c 400.566 257.23 401.328 255.03 401.328
 252.417 c 401.328 250.062 400.75 247.866 399.594 245.823 c 398.438 243.792
 396.828 242.105 394.766 240.761 c 393.09 239.655 391.262 239.105 389.281
 239.105 c 388.391 239.105 l 398.078 249.995 m 398.266 251.351 398.359 252.433
 398.359 253.245 c 398.359 254.257 398.188 255.343 397.844 256.511 c 397.5
 257.687 397.012 258.589 396.375 259.214 c 395.75 259.839 395.035 260.152
 394.234 260.152 c 393.309 260.152 392.496 259.734 391.797 258.902 c 391.098
 258.07 390.75 256.827 390.75 255.183 c 390.75 252.984 391.215 251.265 392.141
 250.027 c 392.816 249.132 393.652 248.683 394.641 248.683 c 395.121 248.683
 395.688 248.796 396.344 249.027 c 397 249.257 397.578 249.577 398.078 249.995
 c f
424.824 253.671 m 429.98 256.187 l 430.496 256.187 l 430.496 238.296 l 
430.496 237.109 430.543 236.366 430.637 236.077 c 430.742 235.784 430.949
 235.562 431.262 235.405 c 431.574 235.249 432.211 235.159 433.168 235.14
 c 433.168 234.562 l 425.199 234.562 l 425.199 235.14 l 426.199 235.159 
426.848 235.241 427.137 235.39 c 427.43 235.546 427.633 235.749 427.746 
235.999 c 427.863 236.257 427.918 237.023 427.918 238.296 c 427.918 249.734
 l 427.918 251.273 427.867 252.265 427.762 252.702 c 427.691 253.034 427.555
 253.28 427.355 253.437 c 427.168 253.593 426.941 253.671 426.668 253.671
 c 426.285 253.671 425.746 253.507 425.059 253.187 c 424.824 253.671 l f
451.965 242.374 m 451.965 240.155 l 449.121 240.155 l 449.121 234.562 l
 446.543 234.562 l 446.543 240.155 l 437.574 240.155 l 437.574 242.155 l
 447.402 256.187 l 449.121 256.187 l 449.121 242.374 l 451.965 242.374 l
 446.543 242.374 m 446.543 252.89 l 439.105 242.374 l 446.543 242.374 l f
390.758 229.312 m 395.914 231.827 l 396.43 231.827 l 396.43 213.937 l 396.43
 212.749 396.477 212.011 396.57 211.718 c 396.672 211.429 396.883 211.202
 397.195 211.046 c 397.508 210.89 398.141 210.804 399.102 210.78 c 399.102
 210.202 l 391.133 210.202 l 391.133 210.78 l 392.133 210.804 392.777 210.886
 393.07 211.03 c 393.359 211.187 393.562 211.39 393.68 211.64 c 393.793 
211.902 393.852 212.667 393.852 213.937 c 393.852 225.374 l 393.852 226.917
 393.797 227.905 393.695 228.343 c 393.621 228.679 393.484 228.921 393.289
 229.077 c 393.102 229.234 392.871 229.312 392.602 229.312 c 392.215 229.312
 391.68 229.152 390.992 228.827 c 390.758 229.312 l f
q 1 0 0 -1 0 399.284393 cm
462.379 136.414 m 462.379 169.789 l 529.129 169.789 l S Q
486.48 239.448 m 484.996 235.37 l 472.496 235.37 l 472.496 235.948 l 476.176
 239.304 478.762 242.042 480.262 244.167 c 481.762 246.292 482.512 248.238
 482.512 249.995 c 482.512 251.339 482.102 252.445 481.277 253.308 c 480.457
 254.175 479.473 254.605 478.324 254.605 c 477.285 254.605 476.348 254.3
 475.512 253.683 c 474.691 253.081 474.082 252.191 473.684 251.011 c 473.105
 251.011 l 473.367 252.941 474.035 254.417 475.105 255.448 c 476.191 256.48
 477.539 256.995 479.152 256.995 c 480.871 256.995 482.305 256.445 483.449
 255.339 c 484.605 254.238 485.184 252.933 485.184 251.433 c 485.184 250.363
 484.934 249.288 484.434 248.214 c 483.664 246.527 482.414 244.741 480.684
 242.855 c 478.09 240.023 476.473 238.316 475.824 237.73 c 481.355 237.73
 l 482.48 237.73 483.27 237.773 483.715 237.855 c 484.176 237.941 484.586
 238.105 484.949 238.355 c 485.316 238.616 485.633 238.98 485.902 239.448
 c 486.48 239.448 l f
474.918 222.534 m 486.277 222.534 l 486.277 221.941 l 479.215 200.909 l
 477.465 200.909 l 483.793 219.988 l 477.965 219.988 l 476.789 219.988 475.949
 219.847 475.449 219.566 c 474.574 219.085 473.871 218.347 473.34 217.347
 c 472.887 217.519 l 474.918 222.534 l f
440.195 216.245 m 440.195 218.659 440.562 220.738 441.289 222.48 c 442.02
 224.23 442.988 225.53 444.195 226.386 c 445.133 227.062 446.102 227.402
 447.102 227.402 c 448.727 227.402 450.188 226.573 451.477 224.917 c 453.094
 222.863 453.898 220.081 453.898 216.573 c 453.898 214.113 453.547 212.027
 452.836 210.308 c 452.129 208.589 451.223 207.339 450.117 206.558 c 449.023
 205.784 447.969 205.402 446.945 205.402 c 444.926 205.402 443.242 206.593
 441.898 208.98 c 440.766 210.988 440.195 213.409 440.195 216.245 c 443.258
 215.855 m 443.258 212.937 443.617 210.558 444.336 208.714 c 444.93 207.159
 445.816 206.386 446.992 206.386 c 447.555 206.386 448.141 206.636 448.742
 207.136 c 449.348 207.644 449.805 208.495 450.117 209.683 c 450.598 211.472
 450.836 213.999 450.836 217.261 c 450.836 219.675 450.586 221.691 450.086
 223.308 c 449.711 224.503 449.227 225.355 448.633 225.855 c 448.207 226.198
 447.691 226.37 447.086 226.37 c 446.379 226.37 445.75 226.05 445.195 225.417
 c 444.445 224.55 443.938 223.191 443.664 221.339 c 443.395 219.484 443.258
 217.655 443.258 215.855 c f
q 1 0 0 -1 0 399.284393 cm
499.465 171.285 m 499.465 204.66 l 566.215 204.66 l S Q
523.57 204.577 m 522.086 200.499 l 509.586 200.499 l 509.586 201.077 l 
513.262 204.429 515.852 207.171 517.352 209.296 c 518.852 211.421 519.602
 213.363 519.602 215.124 c 519.602 216.468 519.188 217.57 518.367 218.437
 c 517.543 219.3 516.559 219.734 515.414 219.734 c 514.371 219.734 513.434
 219.425 512.602 218.812 c 511.777 218.206 511.168 217.316 510.773 216.14
 c 510.195 216.14 l 510.453 218.066 511.121 219.546 512.195 220.577 c 513.277
 221.609 514.625 222.124 516.242 222.124 c 517.961 222.124 519.391 221.57
 520.539 220.468 c 521.695 219.363 522.273 218.062 522.273 216.562 c 522.273
 215.488 522.023 214.413 521.523 213.343 c 520.75 211.655 519.5 209.866 
517.773 207.984 c 515.18 205.148 513.559 203.441 512.914 202.859 c 518.445
 202.859 l 519.57 202.859 520.355 202.898 520.805 202.984 c 521.262 203.066
 521.672 203.234 522.039 203.484 c 522.402 203.741 522.719 204.109 522.992
 204.577 c 523.57 204.577 l f
510.965 183.077 m 511.57 184.503 512.332 185.601 513.246 186.374 c 514.176
 187.155 515.324 187.546 516.699 187.546 c 518.398 187.546 519.699 186.991
 520.605 185.89 c 521.293 185.066 521.637 184.187 521.637 183.249 c 521.637
 181.706 520.668 180.113 518.73 178.468 c 520.035 177.956 521.02 177.226
 521.684 176.28 c 522.352 175.331 522.684 174.218 522.684 172.937 c 522.684
 171.101 522.102 169.515 520.934 168.171 c 519.414 166.421 517.211 165.546
 514.324 165.546 c 512.898 165.546 511.926 165.722 511.402 166.077 c 510.895
 166.429 510.637 166.812 510.637 167.218 c 510.637 167.519 510.758 167.784
 510.996 168.015 c 511.246 168.241 511.543 168.359 511.887 168.359 c 512.148
 168.359 512.414 168.316 512.684 168.234 c 512.863 168.179 513.262 167.988
 513.887 167.655 c 514.512 167.331 514.945 167.14 515.184 167.077 c 515.57
 166.96 515.98 166.905 516.418 166.905 c 517.48 166.905 518.402 167.316 
519.184 168.14 c 519.977 168.96 520.371 169.937 520.371 171.062 c 520.371
 171.882 520.191 172.687 519.824 173.468 c 519.555 174.05 519.258 174.491
 518.934 174.796 c 518.488 175.21 517.871 175.585 517.09 175.921 c 516.309
 176.265 515.512 176.437 514.699 176.437 c 514.199 176.437 l 514.199 176.905
 l 515.023 177.007 515.848 177.304 516.668 177.796 c 517.504 178.284 518.105
 178.874 518.48 179.562 c 518.855 180.249 519.043 181.003 519.043 181.827
 c 519.043 182.898 518.707 183.765 518.027 184.421 c 517.363 185.085 516.527
 185.421 515.527 185.421 c 513.914 185.421 512.566 184.554 511.48 182.827
 c 510.965 183.077 l f
475.449 189.456 m 480.605 191.972 l 481.121 191.972 l 481.121 174.081 l
 481.121 172.894 481.168 172.155 481.262 171.863 c 481.367 171.573 481.574
 171.347 481.887 171.191 c 482.199 171.034 482.836 170.948 483.793 170.925
 c 483.793 170.347 l 475.824 170.347 l 475.824 170.925 l 476.824 170.948
 477.469 171.03 477.762 171.175 c 478.055 171.331 478.258 171.534 478.371
 171.784 c 478.484 172.046 478.543 172.812 478.543 174.081 c 478.543 185.519
 l 478.543 187.062 478.492 188.05 478.387 188.488 c 478.312 188.823 478.18
 189.066 477.98 189.222 c 477.793 189.378 477.562 189.456 477.293 189.456
 c 476.906 189.456 476.371 189.296 475.684 188.972 c 475.449 189.456 l f
q 1 0 0 -1 0 399.284393 cm
537.66 205.605 m 537.66 238.98 l 604.41 238.98 l S Q
561.766 170.257 m 560.281 166.179 l 547.781 166.179 l 547.781 166.757 l
 551.457 170.109 554.047 172.851 555.547 174.976 c 557.047 177.101 557.797
 179.042 557.797 180.804 c 557.797 182.148 557.383 183.249 556.562 184.116
 c 555.738 184.98 554.754 185.413 553.609 185.413 c 552.566 185.413 551.629
 185.105 550.797 184.491 c 549.973 183.886 549.363 182.995 548.969 181.82
 c 548.391 181.82 l 548.648 183.745 549.316 185.226 550.391 186.257 c 551.473
 187.288 552.82 187.804 554.438 187.804 c 556.156 187.804 557.586 187.249
 558.734 186.148 c 559.891 185.042 560.469 183.741 560.469 182.241 c 560.469
 181.167 560.219 180.093 559.719 179.023 c 558.945 177.335 557.695 175.546
 555.969 173.663 c 553.375 170.827 551.754 169.12 551.109 168.538 c 556.641
 168.538 l 557.766 168.538 558.551 168.577 559 168.663 c 559.457 168.745
 559.867 168.913 560.234 169.163 c 560.598 169.421 560.914 169.788 561.188
 170.257 c 561.766 170.257 l f
550.73 150.71 m 555.887 153.226 l 556.402 153.226 l 556.402 135.335 l 556.402
 134.148 556.449 133.405 556.543 133.116 c 556.648 132.823 556.855 132.601
 557.168 132.445 c 557.48 132.288 558.117 132.198 559.074 132.179 c 559.074
 131.601 l 551.105 131.601 l 551.105 132.179 l 552.105 132.198 552.754 132.28
 553.043 132.429 c 553.336 132.585 553.539 132.788 553.652 133.038 c 553.77
 133.296 553.824 134.062 553.824 135.335 c 553.824 146.773 l 553.824 148.312
 553.773 149.304 553.668 149.741 c 553.598 150.073 553.461 150.32 553.262
 150.476 c 553.074 150.632 552.848 150.71 552.574 150.71 c 552.191 150.71
 551.652 150.546 550.965 150.226 c 550.73 150.71 l f
512.539 156.245 m 517.695 158.761 l 518.211 158.761 l 518.211 140.87 l 
518.211 139.683 518.258 138.941 518.352 138.652 c 518.453 138.359 518.664
 138.136 518.977 137.98 c 519.289 137.823 519.922 137.734 520.883 137.714
 c 520.883 137.136 l 512.914 137.136 l 512.914 137.714 l 513.914 137.734
 514.559 137.816 514.852 137.964 c 515.141 138.12 515.344 138.323 515.461
 138.573 c 515.574 138.831 515.633 139.597 515.633 140.87 c 515.633 152.308
 l 515.633 153.847 515.578 154.839 515.477 155.277 c 515.402 155.609 515.266
 155.855 515.07 156.011 c 514.883 156.167 514.652 156.245 514.383 156.245
 c 513.996 156.245 513.461 156.081 512.773 155.761 c 512.539 156.245 l f
47.938 257.257 m 39.75 275.085 l 39.75 260.929 l 39.75 259.624 39.891 258.812
 40.172 258.491 c 40.559 258.054 41.168 257.835 42 257.835 c 42.75 257.835
 l 42.75 257.257 l 35.375 257.257 l 35.375 257.835 l 36.125 257.835 l 37.02
 257.835 37.656 258.105 38.031 258.648 c 38.262 258.98 38.375 259.741 38.375
 260.929 c 38.375 274.773 l 38.375 275.71 38.27 276.386 38.062 276.804 c
 37.918 277.105 37.645 277.355 37.25 277.554 c 36.863 277.761 36.238 277.866
 35.375 277.866 c 35.375 278.445 l 41.375 278.445 l 49.062 261.866 l 56.625
 278.445 l 62.625 278.445 l 62.625 277.866 l 61.891 277.866 l 60.984 277.866
 60.344 277.593 59.969 277.054 c 59.738 276.718 59.625 275.96 59.625 274.773
 c 59.625 260.929 l 59.625 259.624 59.77 258.812 60.062 258.491 c 60.449
 258.054 61.059 257.835 61.891 257.835 c 62.625 257.835 l 62.625 257.257
 l 53.625 257.257 l 53.625 257.835 l 54.375 257.835 l 55.281 257.835 55.918
 258.105 56.281 258.648 c 56.512 258.98 56.625 259.741 56.625 260.929 c 
56.625 275.085 l 48.453 257.257 l 47.938 257.257 l f
66.688 266.179 m 66.676 264.054 67.191 262.386 68.234 261.179 c 69.277 
259.968 70.5 259.366 71.906 259.366 c 72.844 259.366 73.656 259.62 74.344
 260.132 c 75.043 260.652 75.625 261.538 76.094 262.788 c 76.578 262.476
 l 76.359 261.046 75.723 259.745 74.672 258.57 c 73.621 257.402 72.301 256.82
 70.719 256.82 c 69 256.82 67.527 257.484 66.297 258.82 c 65.078 260.163
 64.469 261.964 64.469 264.226 c 64.469 266.671 65.094 268.577 66.344 269.945
 c 67.605 271.32 69.184 272.007 71.078 272.007 c 72.684 272.007 74 271.476
 75.031 270.413 c 76.062 269.359 76.578 267.948 76.578 266.179 c 66.688 
266.179 l 66.688 267.085 m 73.312 267.085 l 73.262 267.999 73.152 268.648
 72.984 269.023 c 72.723 269.605 72.332 270.062 71.812 270.398 c 71.301 
270.73 70.766 270.898 70.203 270.898 c 69.34 270.898 68.562 270.558 67.875
 269.882 c 67.199 269.214 66.801 268.28 66.688 267.085 c f
82.641 268.96 m 84.316 270.98 85.918 271.991 87.438 271.991 c 88.219 271.991
 88.891 271.792 89.453 271.398 c 90.016 271.011 90.465 270.37 90.797 269.476
 c 91.027 268.851 91.141 267.89 91.141 266.601 c 91.141 260.491 l 91.141
 259.585 91.215 258.968 91.359 258.648 c 91.473 258.386 91.656 258.183 91.906
 258.038 c 92.168 257.89 92.641 257.82 93.328 257.82 c 93.328 257.257 l 
86.25 257.257 l 86.25 257.82 l 86.547 257.82 l 87.215 257.82 87.676 257.917
 87.938 258.116 c 88.207 258.323 88.395 258.624 88.5 259.023 c 88.543 259.179
 88.562 259.667 88.562 260.491 c 88.562 266.351 l 88.562 267.652 88.391 
268.593 88.047 269.179 c 87.715 269.773 87.145 270.07 86.344 270.07 c 85.105
 270.07 83.871 269.39 82.641 268.038 c 82.641 260.491 l 82.641 259.523 82.699
 258.921 82.812 258.695 c 82.957 258.39 83.156 258.167 83.406 258.023 c 
83.668 257.886 84.188 257.82 84.969 257.82 c 84.969 257.257 l 77.891 257.257
 l 77.891 257.82 l 78.203 257.82 l 78.934 257.82 79.422 257.999 79.672 258.366
 c 79.934 258.741 80.062 259.448 80.062 260.491 c 80.062 265.804 l 80.062
 267.523 80.02 268.57 79.938 268.945 c 79.863 269.32 79.746 269.573 79.578
 269.71 c 79.422 269.843 79.207 269.913 78.938 269.913 c 78.645 269.913 
78.297 269.835 77.891 269.679 c 77.656 270.241 l 81.969 271.991 l 82.641
 271.991 l 82.641 268.96 l f
101.469 271.991 m 103.637 271.991 105.375 271.167 106.688 269.523 c 107.801
 268.116 108.359 266.499 108.359 264.679 c 108.359 263.398 108.051 262.101
 107.438 260.788 c 106.824 259.476 105.973 258.484 104.891 257.82 c 103.816
 257.152 102.621 256.82 101.297 256.82 c 99.141 256.82 97.426 257.679 96.156
 259.398 c 95.082 260.843 94.547 262.468 94.547 264.273 c 94.547 265.585
 94.871 266.886 95.516 268.179 c 96.172 269.48 97.031 270.437 98.094 271.054
 c 99.156 271.679 100.281 271.991 101.469 271.991 c 100.984 270.976 m 100.434
 270.976 99.875 270.808 99.312 270.476 c 98.762 270.152 98.312 269.577 97.969
 268.757 c 97.625 267.933 97.453 266.874 97.453 265.585 c 97.453 263.499
 97.863 261.702 98.688 260.195 c 99.52 258.683 100.613 257.929 101.969 257.929
 c 102.98 257.929 103.812 258.343 104.469 259.179 c 105.125 260.011 105.453
 261.445 105.453 263.476 c 105.453 266.015 104.906 268.015 103.812 269.476
 c 103.074 270.476 102.129 270.976 100.984 270.976 c f
119.719 271.991 m 119.719 267.116 l 119.203 267.116 l 118.809 268.648 118.297
 269.687 117.672 270.241 c 117.059 270.792 116.27 271.07 115.312 271.07 
c 114.582 271.07 113.996 270.874 113.547 270.491 c 113.098 270.105 112.875
 269.679 112.875 269.21 c 112.875 268.624 113.043 268.124 113.375 267.71
 c 113.699 267.28 114.355 266.827 115.344 266.351 c 117.625 265.241 l 119.738
 264.21 120.797 262.851 120.797 261.163 c 120.797 259.859 120.301 258.808
 119.312 258.007 c 118.332 257.214 117.234 256.82 116.016 256.82 c 115.141
 256.82 114.141 256.976 113.016 257.288 c 112.672 257.39 112.391 257.445
 112.172 257.445 c 111.934 257.445 111.746 257.308 111.609 257.038 c 111.094
 257.038 l 111.094 262.148 l 111.609 262.148 l 111.902 260.687 112.457 259.589
 113.281 258.851 c 114.105 258.109 115.027 257.741 116.047 257.741 c 116.766
 257.741 117.348 257.948 117.797 258.366 c 118.254 258.792 118.484 259.304
 118.484 259.898 c 118.484 260.616 118.23 261.218 117.719 261.71 c 117.219
 262.198 116.215 262.82 114.703 263.57 c 113.191 264.32 112.203 264.995 
111.734 265.601 c 111.266 266.195 111.031 266.945 111.031 267.851 c 111.031
 269.027 111.434 270.011 112.234 270.804 c 113.047 271.593 114.094 271.991
 115.375 271.991 c 115.938 271.991 116.621 271.87 117.422 271.632 c 117.953
 271.476 118.309 271.398 118.484 271.398 c 118.652 271.398 118.781 271.433
 118.875 271.507 c 118.969 271.577 119.078 271.741 119.203 271.991 c 119.719
 271.991 l f
8.688 231.991 m 8.688 227.116 l 8.172 227.116 l 7.777 228.648 7.266 229.687
 6.641 230.241 c 6.027 230.792 5.238 231.07 4.281 231.07 c 3.551 231.07 
2.965 230.874 2.516 230.491 c 2.066 230.105 1.844 229.679 1.844 229.21 c
 1.844 228.624 2.012 228.124 2.344 227.71 c 2.668 227.28 3.324 226.827 4.312
 226.351 c 6.594 225.241 l 8.707 224.21 9.766 222.851 9.766 221.163 c 9.766
 219.859 9.27 218.808 8.281 218.007 c 7.301 217.214 6.203 216.82 4.984 216.82
 c 4.109 216.82 3.109 216.976 1.984 217.288 c 1.641 217.39 1.359 217.445
 1.141 217.445 c 0.902 217.445 0.715 217.308 0.578 217.038 c 0.062 217.038
 l 0.062 222.148 l 0.578 222.148 l 0.871 220.687 1.426 219.589 2.25 218.851
 c 3.074 218.109 3.996 217.741 5.016 217.741 c 5.734 217.741 6.316 217.948
 6.766 218.366 c 7.223 218.792 7.453 219.304 7.453 219.898 c 7.453 220.616
 7.199 221.218 6.688 221.71 c 6.188 222.198 5.184 222.82 3.672 223.57 c 
2.16 224.32 1.172 224.995 0.703 225.601 c 0.234 226.195 0 226.945 0 227.851
 c 0 229.027 0.402 230.011 1.203 230.804 c 2.016 231.593 3.062 231.991 4.344
 231.991 c 4.906 231.991 5.59 231.87 6.391 231.632 c 6.922 231.476 7.277
 231.398 7.453 231.398 c 7.621 231.398 7.75 231.433 7.844 231.507 c 7.938
 231.577 8.047 231.741 8.172 231.991 c 8.688 231.991 l f
15.516 239.476 m 15.953 239.476 16.324 239.32 16.625 239.007 c 16.938 238.702
 17.094 238.335 17.094 237.898 c 17.094 237.46 16.938 237.085 16.625 236.773
 c 16.324 236.46 15.953 236.304 15.516 236.304 c 15.078 236.304 14.703 236.46
 14.391 236.773 c 14.078 237.085 13.922 237.46 13.922 237.898 c 13.922 238.335
 14.074 238.702 14.375 239.007 c 14.688 239.32 15.066 239.476 15.516 239.476
 c 16.812 231.991 m 16.812 220.491 l 16.812 219.593 16.875 218.995 17 218.695
 c 17.137 218.402 17.328 218.183 17.578 218.038 c 17.84 217.89 18.309 217.82
 18.984 217.82 c 18.984 217.257 l 12.031 217.257 l 12.031 217.82 l 12.73
 217.82 13.199 217.886 13.438 218.023 c 13.676 218.155 13.863 218.382 14
 218.695 c 14.145 219.007 14.219 219.605 14.219 220.491 c 14.219 226.007
 l 14.219 227.558 14.172 228.562 14.078 229.023 c 14.004 229.355 13.891 
229.585 13.734 229.71 c 13.578 229.843 13.363 229.913 13.094 229.913 c 12.801
 229.913 12.449 229.835 12.031 229.679 c 11.812 230.241 l 16.125 231.991
 l 16.812 231.991 l f
24.578 222.476 m 23.703 222.902 23.031 223.495 22.562 224.257 c 22.094 
225.027 21.859 225.874 21.859 226.804 c 21.859 228.218 22.391 229.437 23.453
 230.46 c 24.527 231.48 25.895 231.991 27.562 231.991 c 28.926 231.991 30.109
 231.655 31.109 230.991 c 34.141 230.991 l 34.59 230.991 34.848 230.976 
34.922 230.945 c 34.996 230.921 35.047 230.882 35.078 230.82 c 35.141 230.726
 35.172 230.558 35.172 230.32 c 35.172 230.046 35.145 229.859 35.094 229.757
 c 35.062 229.702 35.004 229.663 34.922 229.632 c 34.848 229.601 34.59 229.585
 34.141 229.585 c 32.281 229.585 l 32.863 228.835 33.156 227.874 33.156 
226.71 c 33.156 225.374 32.645 224.234 31.625 223.288 c 30.605 222.339 29.234
 221.866 27.516 221.866 c 26.809 221.866 26.082 221.968 25.344 222.179 c
 24.887 221.78 24.574 221.433 24.406 221.132 c 24.25 220.839 24.172 220.589
 24.172 220.382 c 24.172 220.202 24.254 220.03 24.422 219.866 c 24.598 219.698
 24.938 219.577 25.438 219.507 c 25.73 219.464 26.457 219.429 27.625 219.398
 c 29.77 219.343 31.16 219.273 31.797 219.179 c 32.766 219.042 33.535 218.683
 34.109 218.101 c 34.691 217.515 34.984 216.796 34.984 215.945 c 34.984 
214.765 34.434 213.663 33.328 212.632 c 31.703 211.109 29.582 210.351 26.969
 210.351 c 24.957 210.351 23.262 210.804 21.875 211.71 c 21.094 212.23 20.703
 212.773 20.703 213.335 c 20.703 213.585 20.762 213.835 20.875 214.085 c
 21.051 214.468 21.418 215.007 21.969 215.695 c 22.043 215.788 22.574 216.351
 23.562 217.382 c 23.02 217.702 22.637 217.991 22.406 218.241 c 22.188 218.499
 22.078 218.792 22.078 219.116 c 22.078 219.48 22.223 219.905 22.516 220.398
 c 22.816 220.886 23.504 221.577 24.578 222.476 c 27.297 231.241 m 26.527
 231.241 25.879 230.933 25.359 230.32 c 24.84 229.702 24.578 228.761 24.578
 227.491 c 24.578 225.843 24.934 224.57 25.641 223.663 c 26.184 222.976 
26.871 222.632 27.703 222.632 c 28.496 222.632 29.145 222.929 29.656 223.523
 c 30.168 224.116 30.422 225.046 30.422 226.32 c 30.422 227.976 30.062 229.273
 29.344 230.21 c 28.812 230.898 28.129 231.241 27.297 231.241 c 24.422 217.257
 m 23.934 216.726 23.562 216.23 23.312 215.773 c 23.062 215.312 22.938 214.89
 22.938 214.507 c 22.938 214.007 23.238 213.57 23.844 213.195 c 24.887 212.546
 26.391 212.226 28.359 212.226 c 30.234 212.226 31.613 212.558 32.5 213.226
 c 33.395 213.882 33.844 214.585 33.844 215.335 c 33.844 215.874 33.578 
216.261 33.047 216.491 c 32.504 216.718 31.434 216.855 29.828 216.898 c 
27.484 216.96 25.684 217.077 24.422 217.257 c f
40.922 228.96 m 42.598 230.98 44.199 231.991 45.719 231.991 c 46.5 231.991
 47.172 231.792 47.734 231.398 c 48.297 231.011 48.746 230.37 49.078 229.476
 c 49.309 228.851 49.422 227.89 49.422 226.601 c 49.422 220.491 l 49.422
 219.585 49.496 218.968 49.641 218.648 c 49.754 218.386 49.938 218.183 50.188
 218.038 c 50.449 217.89 50.922 217.82 51.609 217.82 c 51.609 217.257 l 
44.531 217.257 l 44.531 217.82 l 44.828 217.82 l 45.496 217.82 45.957 217.917
 46.219 218.116 c 46.488 218.323 46.676 218.624 46.781 219.023 c 46.824 
219.179 46.844 219.667 46.844 220.491 c 46.844 226.351 l 46.844 227.652 
46.672 228.593 46.328 229.179 c 45.996 229.773 45.426 230.07 44.625 230.07
 c 43.387 230.07 42.152 229.39 40.922 228.038 c 40.922 220.491 l 40.922 
219.523 40.98 218.921 41.094 218.695 c 41.238 218.39 41.438 218.167 41.688
 218.023 c 41.949 217.886 42.469 217.82 43.25 217.82 c 43.25 217.257 l 36.172
 217.257 l 36.172 217.82 l 36.484 217.82 l 37.215 217.82 37.703 217.999 
37.953 218.366 c 38.215 218.741 38.344 219.448 38.344 220.491 c 38.344 225.804
 l 38.344 227.523 38.301 228.57 38.219 228.945 c 38.145 229.32 38.027 229.573
 37.859 229.71 c 37.703 229.843 37.488 229.913 37.219 229.913 c 36.926 229.913
 36.578 229.835 36.172 229.679 c 35.938 230.241 l 40.25 231.991 l 40.922
 231.991 l 40.922 228.96 l f
56.391 239.476 m 56.828 239.476 57.199 239.32 57.5 239.007 c 57.812 238.702
 57.969 238.335 57.969 237.898 c 57.969 237.46 57.812 237.085 57.5 236.773
 c 57.199 236.46 56.828 236.304 56.391 236.304 c 55.953 236.304 55.578 236.46
 55.266 236.773 c 54.953 237.085 54.797 237.46 54.797 237.898 c 54.797 238.335
 54.949 238.702 55.25 239.007 c 55.562 239.32 55.941 239.476 56.391 239.476
 c 57.688 231.991 m 57.688 220.491 l 57.688 219.593 57.75 218.995 57.875
 218.695 c 58.012 218.402 58.203 218.183 58.453 218.038 c 58.715 217.89 
59.184 217.82 59.859 217.82 c 59.859 217.257 l 52.906 217.257 l 52.906 217.82
 l 53.605 217.82 54.074 217.886 54.312 218.023 c 54.551 218.155 54.738 218.382
 54.875 218.695 c 55.02 219.007 55.094 219.605 55.094 220.491 c 55.094 226.007
 l 55.094 227.558 55.047 228.562 54.953 229.023 c 54.879 229.355 54.766 
229.585 54.609 229.71 c 54.453 229.843 54.238 229.913 53.969 229.913 c 53.676
 229.913 53.324 229.835 52.906 229.679 c 52.688 230.241 l 57 231.991 l 57.688
 231.991 l f
67.219 230.445 m 67.219 221.038 l 67.219 219.702 67.363 218.859 67.656 
218.507 c 68.043 218.046 68.559 217.82 69.203 217.82 c 70.5 217.82 l 70.5
 217.257 l 61.953 217.257 l 61.953 217.82 l 62.594 217.82 l 63.012 217.82
 63.391 217.921 63.734 218.132 c 64.078 218.339 64.312 218.62 64.438 218.976
 c 64.574 219.327 64.641 220.015 64.641 221.038 c 64.641 230.445 l 61.859
 230.445 l 61.859 231.57 l 64.641 231.57 l 64.641 232.507 l 64.641 233.933
 64.871 235.14 65.328 236.132 c 65.785 237.12 66.484 237.917 67.422 238.523
 c 68.371 239.136 69.434 239.445 70.609 239.445 c 71.703 239.445 72.707 
239.089 73.625 238.382 c 74.23 237.913 74.531 237.386 74.531 236.804 c 74.531
 236.491 74.395 236.195 74.125 235.913 c 73.855 235.64 73.562 235.507 73.25
 235.507 c 73.012 235.507 72.754 235.589 72.484 235.757 c 72.223 235.933
 71.902 236.304 71.516 236.866 c 71.129 237.437 70.777 237.823 70.453 238.023
 c 70.129 238.218 69.77 238.32 69.375 238.32 c 68.895 238.32 68.488 238.187
 68.156 237.929 c 67.824 237.679 67.582 237.28 67.438 236.741 c 67.293 236.21
 67.219 234.827 67.219 232.601 c 67.219 231.57 l 70.906 231.57 l 70.906 
230.445 l 67.219 230.445 l f
75.953 239.476 m 76.391 239.476 76.762 239.32 77.062 239.007 c 77.375 238.702
 77.531 238.335 77.531 237.898 c 77.531 237.46 77.375 237.085 77.062 236.773
 c 76.762 236.46 76.391 236.304 75.953 236.304 c 75.516 236.304 75.141 236.46
 74.828 236.773 c 74.516 237.085 74.359 237.46 74.359 237.898 c 74.359 238.335
 74.512 238.702 74.812 239.007 c 75.125 239.32 75.504 239.476 75.953 239.476
 c 77.25 231.991 m 77.25 220.491 l 77.25 219.593 77.312 218.995 77.438 218.695
 c 77.574 218.402 77.766 218.183 78.016 218.038 c 78.277 217.89 78.746 217.82
 79.422 217.82 c 79.422 217.257 l 72.469 217.257 l 72.469 217.82 l 73.168
 217.82 73.637 217.886 73.875 218.023 c 74.113 218.155 74.301 218.382 74.438
 218.695 c 74.582 219.007 74.656 219.605 74.656 220.491 c 74.656 226.007
 l 74.656 227.558 74.609 228.562 74.516 229.023 c 74.441 229.355 74.328 
229.585 74.172 229.71 c 74.016 229.843 73.801 229.913 73.531 229.913 c 73.238
 229.913 72.887 229.835 72.469 229.679 c 72.25 230.241 l 76.562 231.991 
l 77.25 231.991 l f
93.344 222.695 m 92.957 220.808 92.203 219.355 91.078 218.335 c 89.953 
217.323 88.707 216.82 87.344 216.82 c 85.719 216.82 84.301 217.499 83.094
 218.866 c 81.887 220.23 81.281 222.073 81.281 224.398 c 81.281 226.648 
81.949 228.476 83.281 229.882 c 84.625 231.288 86.234 231.991 88.109 231.991
 c 89.516 231.991 90.672 231.616 91.578 230.866 c 92.484 230.124 92.938 
229.355 92.938 228.554 c 92.938 228.155 92.809 227.835 92.547 227.585 c 
92.297 227.343 91.941 227.226 91.484 227.226 c 90.871 227.226 90.406 227.421
 90.094 227.82 c 89.918 228.038 89.797 228.452 89.734 229.07 c 89.684 229.683
 89.473 230.152 89.109 230.476 c 88.746 230.788 88.238 230.945 87.594 230.945
 c 86.551 230.945 85.715 230.558 85.078 229.788 c 84.234 228.765 83.812 
227.417 83.812 225.741 c 83.812 224.03 84.23 222.523 85.062 221.21 c 85.906
 219.905 87.043 219.257 88.469 219.257 c 89.488 219.257 90.406 219.605 91.219
 220.304 c 91.793 220.78 92.348 221.652 92.891 222.913 c 93.344 222.695 
l f
103.484 219.32 m 102.016 218.183 101.094 217.527 100.719 217.351 c 100.156
 217.089 99.559 216.96 98.922 216.96 c 97.934 216.96 97.113 217.296 96.469
 217.976 c 95.832 218.652 95.516 219.542 95.516 220.648 c 95.516 221.343
 95.672 221.948 95.984 222.46 c 96.41 223.167 97.152 223.835 98.203 224.46
 c 99.266 225.085 101.027 225.843 103.484 226.741 c 103.484 227.304 l 103.484
 228.73 103.254 229.71 102.797 230.241 c 102.348 230.773 101.691 231.038
 100.828 231.038 c 100.172 231.038 99.652 230.859 99.266 230.507 c 98.871
 230.152 98.672 229.745 98.672 229.288 c 98.703 228.382 l 98.703 227.902
 98.578 227.53 98.328 227.273 c 98.09 227.011 97.77 226.882 97.375 226.882
 c 96.988 226.882 96.672 227.015 96.422 227.288 c 96.184 227.558 96.062 
227.929 96.062 228.398 c 96.062 229.292 96.52 230.116 97.438 230.866 c 98.355
 231.616 99.641 231.991 101.297 231.991 c 102.566 231.991 103.609 231.777
 104.422 231.351 c 105.035 231.027 105.488 230.523 105.781 229.835 c 105.969
 229.386 106.062 228.468 106.062 227.085 c 106.062 222.226 l 106.062 220.859
 106.09 220.023 106.141 219.71 c 106.191 219.405 106.277 219.202 106.391
 219.101 c 106.516 218.995 106.656 218.945 106.812 218.945 c 106.98 218.945
 107.125 218.98 107.25 219.054 c 107.469 219.187 107.891 219.57 108.516 
220.195 c 108.516 219.32 l 107.348 217.757 106.234 216.976 105.172 216.976
 c 104.66 216.976 104.254 217.152 103.953 217.507 c 103.652 217.859 103.496
 218.464 103.484 219.32 c 103.484 220.335 m 103.484 225.788 l 101.91 225.163
 100.895 224.718 100.438 224.46 c 99.613 223.999 99.027 223.523 98.672 223.023
 c 98.316 222.523 98.141 221.976 98.141 221.382 c 98.141 220.632 98.363 
220.007 98.812 219.507 c 99.262 219.015 99.777 218.773 100.359 218.773 c
 101.152 218.773 102.191 219.292 103.484 220.335 c f
113.719 236.273 m 113.719 231.57 l 117.062 231.57 l 117.062 230.476 l 113.719
 230.476 l 113.719 221.195 l 113.719 220.265 113.848 219.64 114.109 219.32
 c 114.379 218.995 114.723 218.835 115.141 218.835 c 115.484 218.835 115.816
 218.937 116.141 219.148 c 116.465 219.366 116.715 219.683 116.891 220.101
 c 117.5 220.101 l 117.137 219.077 116.621 218.308 115.953 217.788 c 115.285
 217.277 114.598 217.023 113.891 217.023 c 113.41 217.023 112.941 217.152
 112.484 217.413 c 112.027 217.683 111.688 218.062 111.469 218.554 c 111.25
 219.054 111.141 219.82 111.141 220.851 c 111.141 230.476 l 108.875 230.476
 l 108.875 230.991 l 109.449 231.218 110.031 231.605 110.625 232.148 c 111.23
 232.698 111.766 233.351 112.234 234.101 c 112.473 234.495 112.809 235.218
 113.234 236.273 c 113.719 236.273 l f
122.078 239.476 m 122.516 239.476 122.887 239.32 123.188 239.007 c 123.5
 238.702 123.656 238.335 123.656 237.898 c 123.656 237.46 123.5 237.085 
123.188 236.773 c 122.887 236.46 122.516 236.304 122.078 236.304 c 121.641
 236.304 121.266 236.46 120.953 236.773 c 120.641 237.085 120.484 237.46
 120.484 237.898 c 120.484 238.335 120.637 238.702 120.938 239.007 c 121.25
 239.32 121.629 239.476 122.078 239.476 c 123.375 231.991 m 123.375 220.491
 l 123.375 219.593 123.438 218.995 123.562 218.695 c 123.699 218.402 123.891
 218.183 124.141 218.038 c 124.402 217.89 124.871 217.82 125.547 217.82 
c 125.547 217.257 l 118.594 217.257 l 118.594 217.82 l 119.293 217.82 119.762
 217.886 120 218.023 c 120.238 218.155 120.426 218.382 120.562 218.695 c
 120.707 219.007 120.781 219.605 120.781 220.491 c 120.781 226.007 l 120.781
 227.558 120.734 228.562 120.641 229.023 c 120.566 229.355 120.453 229.585
 120.297 229.71 c 120.141 229.843 119.926 229.913 119.656 229.913 c 119.363
 229.913 119.012 229.835 118.594 229.679 c 118.375 230.241 l 122.688 231.991
 l 123.375 231.991 l f
126.578 231.57 m 133.312 231.57 l 133.312 230.991 l 132.875 230.991 l 132.469
 230.991 132.156 230.89 131.938 230.695 c 131.73 230.495 131.625 230.23 
131.625 229.898 c 131.625 229.53 131.734 229.101 131.953 228.601 c 135.281
 220.695 l 138.625 228.898 l 138.863 229.48 138.984 229.921 138.984 230.226
 c 138.984 230.37 138.941 230.491 138.859 230.585 c 138.746 230.741 138.598
 230.843 138.422 230.898 c 138.246 230.96 137.887 230.991 137.344 230.991
 c 137.344 231.57 l 142.016 231.57 l 142.016 230.991 l 141.473 230.948 141.098
 230.839 140.891 230.663 c 140.527 230.351 140.199 229.827 139.906 229.101
 c 134.828 216.82 l 134.188 216.82 l 129.078 228.898 l 128.848 229.46 128.629
 229.859 128.422 230.101 c 128.215 230.351 127.949 230.558 127.625 230.726
 c 127.449 230.82 127.098 230.905 126.578 230.991 c 126.578 231.57 l f
150.312 231.991 m 152.48 231.991 154.219 231.167 155.531 229.523 c 156.645
 228.116 157.203 226.499 157.203 224.679 c 157.203 223.398 156.895 222.101
 156.281 220.788 c 155.668 219.476 154.816 218.484 153.734 217.82 c 152.66
 217.152 151.465 216.82 150.141 216.82 c 147.984 216.82 146.27 217.679 145
 219.398 c 143.926 220.843 143.391 222.468 143.391 224.273 c 143.391 225.585
 143.715 226.886 144.359 228.179 c 145.016 229.48 145.875 230.437 146.938
 231.054 c 148 231.679 149.125 231.991 150.312 231.991 c 149.828 230.976
 m 149.277 230.976 148.719 230.808 148.156 230.476 c 147.605 230.152 147.156
 229.577 146.812 228.757 c 146.469 227.933 146.297 226.874 146.297 225.585
 c 146.297 223.499 146.707 221.702 147.531 220.195 c 148.363 218.683 149.457
 217.929 150.812 217.929 c 151.824 217.929 152.656 218.343 153.312 219.179
 c 153.969 220.011 154.297 221.445 154.297 223.476 c 154.297 226.015 153.75
 228.015 152.656 229.476 c 151.918 230.476 150.973 230.976 149.828 230.976
 c f
552.168 46.905 m 543.98 64.734 l 543.98 50.577 l 543.98 49.277 544.121 
48.464 544.402 48.14 c 544.789 47.702 545.398 47.484 546.23 47.484 c 546.98
 47.484 l 546.98 46.905 l 539.605 46.905 l 539.605 47.484 l 540.355 47.484
 l 541.254 47.484 541.887 47.757 542.262 48.296 c 542.492 48.632 542.605
 49.39 542.605 50.577 c 542.605 64.421 l 542.605 65.359 542.504 66.038 542.293
 66.452 c 542.148 66.757 541.879 67.007 541.48 67.202 c 541.098 67.413 540.473
 67.515 539.605 67.515 c 539.605 68.093 l 545.605 68.093 l 553.293 51.515
 l 560.855 68.093 l 566.855 68.093 l 566.855 67.515 l 566.121 67.515 l 565.215
 67.515 564.574 67.245 564.199 66.702 c 563.973 66.37 563.855 65.609 563.855
 64.421 c 563.855 50.577 l 563.855 49.277 564.004 48.464 564.293 48.14 c
 564.68 47.702 565.289 47.484 566.121 47.484 c 566.855 47.484 l 566.855 
46.905 l 557.855 46.905 l 557.855 47.484 l 558.605 47.484 l 559.512 47.484
 560.148 47.757 560.512 48.296 c 560.742 48.632 560.855 49.39 560.855 50.577
 c 560.855 64.734 l 552.684 46.905 l 552.168 46.905 l f
576.621 48.968 m 575.152 47.835 574.23 47.179 573.855 46.999 c 573.293 
46.741 572.695 46.609 572.059 46.609 c 571.07 46.609 570.254 46.948 569.605
 47.624 c 568.973 48.304 568.652 49.195 568.652 50.296 c 568.652 50.995 
568.809 51.601 569.121 52.109 c 569.551 52.82 570.289 53.484 571.34 54.109
 c 572.402 54.734 574.164 55.495 576.621 56.39 c 576.621 56.952 l 576.621
 58.382 576.395 59.359 575.934 59.89 c 575.488 60.421 574.832 60.687 573.965
 60.687 c 573.309 60.687 572.789 60.511 572.402 60.155 c 572.008 59.804 
571.809 59.398 571.809 58.937 c 571.84 58.03 l 571.84 57.554 571.715 57.183
 571.465 56.921 c 571.227 56.663 570.91 56.53 570.512 56.53 c 570.129 56.53
 569.809 56.667 569.559 56.937 c 569.32 57.21 569.199 57.577 569.199 58.046
 c 569.199 58.945 569.66 59.765 570.574 60.515 c 571.492 61.265 572.777 
61.64 574.434 61.64 c 575.707 61.64 576.746 61.429 577.559 60.999 c 578.176
 60.679 578.629 60.171 578.918 59.484 c 579.105 59.038 579.199 58.12 579.199
 56.734 c 579.199 51.874 l 579.199 50.511 579.227 49.671 579.277 49.359 
c 579.332 49.058 579.414 48.855 579.527 48.749 c 579.652 48.648 579.793 
48.593 579.949 48.593 c 580.117 48.593 580.262 48.632 580.387 48.702 c 580.605
 48.839 581.027 49.218 581.652 49.843 c 581.652 48.968 l 580.488 47.405 
579.371 46.624 578.309 46.624 c 577.801 46.624 577.395 46.804 577.09 47.155
 c 576.789 47.511 576.633 48.116 576.621 48.968 c 576.621 49.984 m 576.621
 55.437 l 575.051 54.812 574.035 54.37 573.574 54.109 c 572.754 53.652 572.164
 53.171 571.809 52.671 c 571.457 52.171 571.277 51.624 571.277 51.03 c 571.277
 50.28 571.504 49.655 571.949 49.155 c 572.398 48.667 572.914 48.421 573.496
 48.421 c 574.289 48.421 575.332 48.945 576.621 49.984 c 578.168 68.624 
m 573.559 63.234 l 573.027 63.234 l 574.668 68.624 l 578.168 68.624 l f
591.949 61.64 m 591.949 56.765 l 591.434 56.765 l 591.039 58.296 590.527
 59.339 589.902 59.89 c 589.289 60.445 588.504 60.718 587.543 60.718 c 586.816
 60.718 586.227 60.527 585.777 60.14 c 585.332 59.757 585.105 59.327 585.105
 58.859 c 585.105 58.277 585.273 57.777 585.605 57.359 c 585.93 56.933 586.586
 56.48 587.574 55.999 c 589.855 54.89 l 591.973 53.859 593.027 52.499 593.027
 50.812 c 593.027 49.511 592.535 48.46 591.543 47.655 c 590.566 46.866 589.465
 46.468 588.246 46.468 c 587.371 46.468 586.371 46.624 585.246 46.937 c 
584.902 47.042 584.621 47.093 584.402 47.093 c 584.164 47.093 583.977 46.96
 583.84 46.687 c 583.324 46.687 l 583.324 51.796 l 583.84 51.796 l 584.133
 50.339 584.691 49.241 585.512 48.499 c 586.336 47.761 587.258 47.39 588.277
 47.39 c 588.996 47.39 589.582 47.601 590.027 48.015 c 590.488 48.445 590.715
 48.952 590.715 49.546 c 590.715 50.265 590.461 50.87 589.949 51.359 c 589.449
 51.851 588.445 52.468 586.934 53.218 c 585.426 53.968 584.434 54.648 583.965
 55.249 c 583.496 55.843 583.262 56.593 583.262 57.499 c 583.262 58.679 
583.664 59.663 584.465 60.452 c 585.277 61.245 586.324 61.64 587.605 61.64
 c 588.168 61.64 588.852 61.523 589.652 61.28 c 590.184 61.124 590.539 61.046
 590.715 61.046 c 590.883 61.046 591.012 61.085 591.105 61.155 c 591.199
 61.23 591.309 61.39 591.434 61.64 c 591.949 61.64 l f
496.918 21.64 m 496.918 16.765 l 496.402 16.765 l 496.008 18.296 495.496
 19.339 494.871 19.89 c 494.258 20.445 493.473 20.718 492.512 20.718 c 491.785
 20.718 491.195 20.527 490.746 20.14 c 490.301 19.757 490.074 19.327 490.074
 18.859 c 490.074 18.277 490.242 17.777 490.574 17.359 c 490.898 16.933 
491.555 16.48 492.543 15.999 c 494.824 14.89 l 496.941 13.859 497.996 12.499
 497.996 10.812 c 497.996 9.511 497.504 8.46 496.512 7.655 c 495.535 6.866
 494.434 6.468 493.215 6.468 c 492.34 6.468 491.34 6.624 490.215 6.937 c
 489.871 7.042 489.59 7.093 489.371 7.093 c 489.133 7.093 488.945 6.96 488.809
 6.687 c 488.293 6.687 l 488.293 11.796 l 488.809 11.796 l 489.102 10.339
 489.66 9.241 490.48 8.499 c 491.305 7.761 492.227 7.39 493.246 7.39 c 493.965
 7.39 494.551 7.601 494.996 8.015 c 495.457 8.445 495.684 8.952 495.684 
9.546 c 495.684 10.265 495.43 10.87 494.918 11.359 c 494.418 11.851 493.414
 12.468 491.902 13.218 c 490.395 13.968 489.402 14.648 488.934 15.249 c 
488.465 15.843 488.23 16.593 488.23 17.499 c 488.23 18.679 488.633 19.663
 489.434 20.452 c 490.246 21.245 491.293 21.64 492.574 21.64 c 493.137 21.64
 493.82 21.523 494.621 21.28 c 495.152 21.124 495.508 21.046 495.684 21.046
 c 495.852 21.046 495.98 21.085 496.074 21.155 c 496.168 21.23 496.277 21.39
 496.402 21.64 c 496.918 21.64 l f
503.746 29.124 m 504.184 29.124 504.555 28.968 504.855 28.655 c 505.168
 28.355 505.324 27.984 505.324 27.546 c 505.324 27.109 505.168 26.734 504.855
 26.421 c 504.555 26.109 504.184 25.952 503.746 25.952 c 503.309 25.952 
502.934 26.109 502.621 26.421 c 502.309 26.734 502.152 27.109 502.152 27.546
 c 502.152 27.984 502.305 28.355 502.605 28.655 c 502.918 28.968 503.301
 29.124 503.746 29.124 c 505.043 21.64 m 505.043 10.14 l 505.043 9.245 505.105
 8.648 505.23 8.343 c 505.367 8.054 505.559 7.835 505.809 7.687 c 506.07
 7.542 506.539 7.468 507.215 7.468 c 507.215 6.905 l 500.262 6.905 l 500.262
 7.468 l 500.961 7.468 501.43 7.538 501.668 7.671 c 501.91 7.808 502.098
 8.03 502.23 8.343 c 502.379 8.655 502.449 9.257 502.449 10.14 c 502.449
 15.655 l 502.449 17.21 502.402 18.214 502.309 18.671 c 502.238 19.007 502.121
 19.234 501.965 19.359 c 501.809 19.495 501.598 19.562 501.324 19.562 c 
501.035 19.562 500.68 19.484 500.262 19.327 c 500.043 19.89 l 504.355 21.64
 l 505.043 21.64 l f
512.809 12.124 m 511.934 12.554 511.262 13.148 510.793 13.905 c 510.324
 14.679 510.09 15.527 510.09 16.452 c 510.09 17.87 510.621 19.089 511.684
 20.109 c 512.758 21.132 514.129 21.64 515.793 21.64 c 517.16 21.64 518.34
 21.308 519.34 20.64 c 522.371 20.64 l 522.82 20.64 523.082 20.624 523.152
 20.593 c 523.227 20.573 523.277 20.53 523.309 20.468 c 523.371 20.374 523.402
 20.21 523.402 19.968 c 523.402 19.698 523.379 19.511 523.324 19.405 c 523.293
 19.355 523.238 19.312 523.152 19.28 c 523.082 19.249 522.82 19.234 522.371
 19.234 c 520.512 19.234 l 521.098 18.484 521.387 17.527 521.387 16.359 
c 521.387 15.027 520.879 13.886 519.855 12.937 c 518.836 11.991 517.465 
11.515 515.746 11.515 c 515.039 11.515 514.316 11.62 513.574 11.827 c 513.117
 11.433 512.805 11.085 512.637 10.78 c 512.48 10.491 512.402 10.241 512.402
 10.03 c 512.402 9.855 512.488 9.683 512.652 9.515 c 512.832 9.351 513.168
 9.23 513.668 9.155 c 513.961 9.116 514.691 9.077 515.855 9.046 c 518.004
 8.995 519.395 8.921 520.027 8.827 c 520.996 8.695 521.77 8.335 522.34 7.749
 c 522.926 7.167 523.215 6.448 523.215 5.593 c 523.215 4.417 522.664 3.312
 521.559 2.28 c 519.934 0.761 517.816 -0.001 515.199 -0.001 c 513.191 -0.001
 511.492 0.452 510.105 1.359 c 509.324 1.882 508.934 2.421 508.934 2.984
 c 508.934 3.234 508.992 3.484 509.105 3.734 c 509.285 4.12 509.648 4.655
 510.199 5.343 c 510.273 5.437 510.805 5.999 511.793 7.03 c 511.254 7.355
 510.867 7.64 510.637 7.89 c 510.418 8.152 510.309 8.445 510.309 8.765 c
 510.309 9.132 510.457 9.558 510.746 10.046 c 511.051 10.538 511.738 11.23
 512.809 12.124 c 515.527 20.89 m 514.758 20.89 514.113 20.585 513.59 19.968
 c 513.07 19.355 512.809 18.413 512.809 17.14 c 512.809 15.495 513.164 14.218
 513.871 13.312 c 514.414 12.624 515.102 12.28 515.934 12.28 c 516.727 12.28
 517.379 12.577 517.887 13.171 c 518.398 13.765 518.652 14.698 518.652 15.968
 c 518.652 17.624 518.293 18.921 517.574 19.859 c 517.043 20.546 516.363
 20.89 515.527 20.89 c 512.652 6.905 m 512.164 6.374 511.793 5.882 511.543
 5.421 c 511.293 4.964 511.168 4.542 511.168 4.155 c 511.168 3.655 511.473
 3.218 512.074 2.843 c 513.117 2.198 514.621 1.874 516.59 1.874 c 518.465
 1.874 519.848 2.21 520.73 2.874 c 521.629 3.53 522.074 4.234 522.074 4.984
 c 522.074 5.527 521.809 5.913 521.277 6.14 c 520.738 6.37 519.664 6.507
 518.059 6.546 c 515.715 6.609 513.914 6.73 512.652 6.905 c f
529.152 18.609 m 530.832 20.632 532.43 21.64 533.949 21.64 c 534.73 21.64
 535.402 21.445 535.965 21.046 c 536.527 20.663 536.977 20.023 537.309 19.124
 c 537.539 18.499 537.652 17.542 537.652 16.249 c 537.652 10.14 l 537.652
 9.234 537.727 8.62 537.871 8.296 c 537.988 8.038 538.168 7.835 538.418 
7.687 c 538.68 7.542 539.152 7.468 539.84 7.468 c 539.84 6.905 l 532.762
 6.905 l 532.762 7.468 l 533.059 7.468 l 533.727 7.468 534.191 7.57 534.449
 7.765 c 534.723 7.976 534.91 8.277 535.012 8.671 c 535.055 8.827 535.074
 9.32 535.074 10.14 c 535.074 15.999 l 535.074 17.304 534.902 18.245 534.559
 18.827 c 534.227 19.421 533.66 19.718 532.855 19.718 c 531.617 19.718 530.383
 19.042 529.152 17.687 c 529.152 10.14 l 529.152 9.171 529.211 8.573 529.324
 8.343 c 529.473 8.042 529.668 7.82 529.918 7.671 c 530.18 7.538 530.699
 7.468 531.48 7.468 c 531.48 6.905 l 524.402 6.905 l 524.402 7.468 l 524.715
 7.468 l 525.445 7.468 525.934 7.652 526.184 8.015 c 526.445 8.39 526.574
 9.101 526.574 10.14 c 526.574 15.452 l 526.574 17.171 526.535 18.218 526.449
 18.593 c 526.379 18.968 526.258 19.226 526.09 19.359 c 525.934 19.495 525.723
 19.562 525.449 19.562 c 525.16 19.562 524.809 19.484 524.402 19.327 c 524.168
 19.89 l 528.48 21.64 l 529.152 21.64 l 529.152 18.609 l f
544.621 29.124 m 545.059 29.124 545.43 28.968 545.73 28.655 c 546.043 28.355
 546.199 27.984 546.199 27.546 c 546.199 27.109 546.043 26.734 545.73 26.421
 c 545.43 26.109 545.059 25.952 544.621 25.952 c 544.184 25.952 543.809 
26.109 543.496 26.421 c 543.184 26.734 543.027 27.109 543.027 27.546 c 543.027
 27.984 543.18 28.355 543.48 28.655 c 543.793 28.968 544.176 29.124 544.621
 29.124 c 545.918 21.64 m 545.918 10.14 l 545.918 9.245 545.98 8.648 546.105
 8.343 c 546.242 8.054 546.434 7.835 546.684 7.687 c 546.945 7.542 547.414
 7.468 548.09 7.468 c 548.09 6.905 l 541.137 6.905 l 541.137 7.468 l 541.836
 7.468 542.305 7.538 542.543 7.671 c 542.785 7.808 542.973 8.03 543.105 
8.343 c 543.254 8.655 543.324 9.257 543.324 10.14 c 543.324 15.655 l 543.324
 17.21 543.277 18.214 543.184 18.671 c 543.113 19.007 542.996 19.234 542.84
 19.359 c 542.684 19.495 542.473 19.562 542.199 19.562 c 541.91 19.562 541.555
 19.484 541.137 19.327 c 540.918 19.89 l 545.23 21.64 l 545.918 21.64 l f
555.449 20.093 m 555.449 10.687 l 555.449 9.355 555.598 8.511 555.887 8.155
 c 556.273 7.698 556.789 7.468 557.434 7.468 c 558.73 7.468 l 558.73 6.905
 l 550.184 6.905 l 550.184 7.468 l 550.824 7.468 l 551.242 7.468 551.621
 7.573 551.965 7.78 c 552.309 7.991 552.543 8.273 552.668 8.624 c 552.805
 8.98 552.871 9.667 552.871 10.687 c 552.871 20.093 l 550.09 20.093 l 550.09
 21.218 l 552.871 21.218 l 552.871 22.155 l 552.871 23.585 553.102 24.792
 553.559 25.78 c 554.02 26.773 554.715 27.57 555.652 28.171 c 556.602 28.788
 557.664 29.093 558.84 29.093 c 559.934 29.093 560.941 28.741 561.855 28.03
 c 562.461 27.562 562.762 27.038 562.762 26.452 c 562.762 26.14 562.629 
25.843 562.355 25.562 c 562.086 25.292 561.793 25.155 561.48 25.155 c 561.242
 25.155 560.988 25.241 560.715 25.405 c 560.457 25.585 560.133 25.952 559.746
 26.515 c 559.363 27.089 559.008 27.476 558.684 27.671 c 558.363 27.87 558.004
 27.968 557.605 27.968 c 557.129 27.968 556.723 27.839 556.387 27.577 c 
556.055 27.327 555.816 26.933 555.668 26.39 c 555.523 25.859 555.449 24.48
 555.449 22.249 c 555.449 21.218 l 559.137 21.218 l 559.137 20.093 l 555.449
 20.093 l f
564.184 29.124 m 564.621 29.124 564.992 28.968 565.293 28.655 c 565.605
 28.355 565.762 27.984 565.762 27.546 c 565.762 27.109 565.605 26.734 565.293
 26.421 c 564.992 26.109 564.621 25.952 564.184 25.952 c 563.746 25.952 
563.371 26.109 563.059 26.421 c 562.746 26.734 562.59 27.109 562.59 27.546
 c 562.59 27.984 562.742 28.355 563.043 28.655 c 563.355 28.968 563.738 
29.124 564.184 29.124 c 565.48 21.64 m 565.48 10.14 l 565.48 9.245 565.543
 8.648 565.668 8.343 c 565.805 8.054 565.996 7.835 566.246 7.687 c 566.508
 7.542 566.977 7.468 567.652 7.468 c 567.652 6.905 l 560.699 6.905 l 560.699
 7.468 l 561.398 7.468 561.867 7.538 562.105 7.671 c 562.348 7.808 562.535
 8.03 562.668 8.343 c 562.816 8.655 562.887 9.257 562.887 10.14 c 562.887
 15.655 l 562.887 17.21 562.84 18.214 562.746 18.671 c 562.676 19.007 562.559
 19.234 562.402 19.359 c 562.246 19.495 562.035 19.562 561.762 19.562 c 
561.473 19.562 561.117 19.484 560.699 19.327 c 560.48 19.89 l 564.793 21.64
 l 565.48 21.64 l f
581.574 12.343 m 581.191 10.46 580.434 9.007 579.309 7.984 c 578.184 6.976
 576.941 6.468 575.574 6.468 c 573.949 6.468 572.535 7.152 571.324 8.515
 c 570.117 9.882 569.512 11.726 569.512 14.046 c 569.512 16.296 570.18 18.124
 571.512 19.53 c 572.855 20.937 574.465 21.64 576.34 21.64 c 577.746 21.64
 578.902 21.265 579.809 20.515 c 580.715 19.777 581.168 19.007 581.168 18.202
 c 581.168 17.808 581.039 17.484 580.777 17.234 c 580.527 16.995 580.176
 16.874 579.715 16.874 c 579.102 16.874 578.637 17.073 578.324 17.468 c 
578.148 17.687 578.027 18.105 577.965 18.718 c 577.914 19.335 577.707 19.804
 577.34 20.124 c 576.977 20.437 576.473 20.593 575.824 20.593 c 574.785 
20.593 573.945 20.21 573.309 19.437 c 572.465 18.417 572.043 17.07 572.043
 15.39 c 572.043 13.683 572.461 12.171 573.293 10.859 c 574.137 9.558 575.273
 8.905 576.699 8.905 c 577.723 8.905 578.637 9.257 579.449 9.952 c 580.023
 10.433 580.582 11.304 581.121 12.562 c 581.574 12.343 l f
591.715 8.968 m 590.246 7.835 589.324 7.179 588.949 6.999 c 588.387 6.741
 587.789 6.609 587.152 6.609 c 586.164 6.609 585.348 6.948 584.699 7.624
 c 584.066 8.304 583.746 9.195 583.746 10.296 c 583.746 10.995 583.902 11.601
 584.215 12.109 c 584.645 12.82 585.383 13.484 586.434 14.109 c 587.496 
14.734 589.258 15.495 591.715 16.39 c 591.715 16.952 l 591.715 18.382 591.488
 19.359 591.027 19.89 c 590.582 20.421 589.926 20.687 589.059 20.687 c 588.402
 20.687 587.883 20.511 587.496 20.155 c 587.102 19.804 586.902 19.398 586.902
 18.937 c 586.934 18.03 l 586.934 17.554 586.809 17.183 586.559 16.921 c
 586.32 16.663 586.004 16.53 585.605 16.53 c 585.223 16.53 584.902 16.667
 584.652 16.937 c 584.414 17.21 584.293 17.577 584.293 18.046 c 584.293 
18.945 584.754 19.765 585.668 20.515 c 586.586 21.265 587.871 21.64 589.527
 21.64 c 590.801 21.64 591.84 21.429 592.652 20.999 c 593.27 20.679 593.723
 20.171 594.012 19.484 c 594.199 19.038 594.293 18.12 594.293 16.734 c 594.293
 11.874 l 594.293 10.511 594.32 9.671 594.371 9.359 c 594.426 9.058 594.508
 8.855 594.621 8.749 c 594.746 8.648 594.887 8.593 595.043 8.593 c 595.211
 8.593 595.355 8.632 595.48 8.702 c 595.699 8.839 596.121 9.218 596.746 
9.843 c 596.746 8.968 l 595.582 7.405 594.465 6.624 593.402 6.624 c 592.895
 6.624 592.488 6.804 592.184 7.155 c 591.883 7.511 591.727 8.116 591.715
 8.968 c 591.715 9.984 m 591.715 15.437 l 590.145 14.812 589.129 14.37 588.668
 14.109 c 587.848 13.652 587.258 13.171 586.902 12.671 c 586.551 12.171 
586.371 11.624 586.371 11.03 c 586.371 10.28 586.598 9.655 587.043 9.155
 c 587.492 8.667 588.008 8.421 588.59 8.421 c 589.383 8.421 590.426 8.945
 591.715 9.984 c f
601.949 25.921 m 601.949 21.218 l 605.293 21.218 l 605.293 20.124 l 601.949
 20.124 l 601.949 10.843 l 601.949 9.917 602.082 9.292 602.34 8.968 c 602.613
 8.648 602.957 8.484 603.371 8.484 c 603.715 8.484 604.051 8.589 604.371
 8.796 c 604.695 9.015 604.945 9.335 605.121 9.749 c 605.73 9.749 l 605.367
 8.73 604.852 7.96 604.184 7.437 c 603.52 6.929 602.832 6.671 602.121 6.671
 c 601.645 6.671 601.176 6.804 600.715 7.062 c 600.258 7.335 599.918 7.714
 599.699 8.202 c 599.48 8.702 599.371 9.468 599.371 10.499 c 599.371 20.124
 l 597.105 20.124 l 597.105 20.64 l 597.68 20.87 598.262 21.257 598.855 
21.796 c 599.461 22.351 599.996 22.999 600.465 23.749 c 600.707 24.148 601.039
 24.87 601.465 25.921 c 601.949 25.921 l f
610.309 29.124 m 610.746 29.124 611.117 28.968 611.418 28.655 c 611.73 
28.355 611.887 27.984 611.887 27.546 c 611.887 27.109 611.73 26.734 611.418
 26.421 c 611.117 26.109 610.746 25.952 610.309 25.952 c 609.871 25.952 
609.496 26.109 609.184 26.421 c 608.871 26.734 608.715 27.109 608.715 27.546
 c 608.715 27.984 608.867 28.355 609.168 28.655 c 609.48 28.968 609.863 
29.124 610.309 29.124 c 611.605 21.64 m 611.605 10.14 l 611.605 9.245 611.668
 8.648 611.793 8.343 c 611.93 8.054 612.121 7.835 612.371 7.687 c 612.633
 7.542 613.102 7.468 613.777 7.468 c 613.777 6.905 l 606.824 6.905 l 606.824
 7.468 l 607.523 7.468 607.992 7.538 608.23 7.671 c 608.473 7.808 608.66
 8.03 608.793 8.343 c 608.941 8.655 609.012 9.257 609.012 10.14 c 609.012
 15.655 l 609.012 17.21 608.965 18.214 608.871 18.671 c 608.801 19.007 608.684
 19.234 608.527 19.359 c 608.371 19.495 608.16 19.562 607.887 19.562 c 607.598
 19.562 607.242 19.484 606.824 19.327 c 606.605 19.89 l 610.918 21.64 l 
611.605 21.64 l f
614.809 21.218 m 621.543 21.218 l 621.543 20.64 l 621.105 20.64 l 620.699
 20.64 620.387 20.542 620.168 20.343 c 619.961 20.148 619.855 19.882 619.855
 19.546 c 619.855 19.183 619.965 18.749 620.184 18.249 c 623.512 10.343 
l 626.855 18.546 l 627.098 19.132 627.215 19.573 627.215 19.874 c 627.215
 20.023 627.176 20.14 627.09 20.234 c 626.977 20.39 626.832 20.495 626.652
 20.546 c 626.477 20.609 626.117 20.64 625.574 20.64 c 625.574 21.218 l 
630.246 21.218 l 630.246 20.64 l 629.707 20.601 629.332 20.491 629.121 20.312
 c 628.758 19.999 628.43 19.48 628.137 18.749 c 623.059 6.468 l 622.418 
6.468 l 617.309 18.546 l 617.082 19.109 616.863 19.511 616.652 19.749 c 
616.445 19.999 616.18 20.21 615.855 20.374 c 615.68 20.468 615.332 20.558
 614.809 20.64 c 614.809 21.218 l f
638.543 21.64 m 640.711 21.64 642.449 20.82 643.762 19.171 c 644.879 17.765
 645.434 16.152 645.434 14.327 c 645.434 13.046 645.129 11.749 644.512 10.437
 c 643.898 9.124 643.051 8.136 641.965 7.468 c 640.895 6.804 639.695 6.468
 638.371 6.468 c 636.215 6.468 634.504 7.327 633.23 9.046 c 632.16 10.495
 631.621 12.12 631.621 13.921 c 631.621 15.234 631.945 16.538 632.59 17.827
 c 633.246 19.132 634.105 20.089 635.168 20.702 c 636.23 21.327 637.355 
21.64 638.543 21.64 c 638.059 20.624 m 637.508 20.624 636.949 20.46 636.387
 20.124 c 635.836 19.804 635.387 19.23 635.043 18.405 c 634.699 17.585 634.527
 16.527 634.527 15.234 c 634.527 13.152 634.941 11.355 635.762 9.843 c 636.598
 8.335 637.691 7.577 639.043 7.577 c 640.055 7.577 640.887 7.995 641.543
 8.827 c 642.199 9.663 642.527 11.093 642.527 13.124 c 642.527 15.667 641.98
 17.667 640.887 19.124 c 640.148 20.124 639.207 20.624 638.059 20.624 c f
1.417323 w
[ 1.417323 1.417323] 0 d
q 1 0 0 -1 0 399.284393 cm
581 263.809 m 580.016 256.598 576.195 248.691 569.93 244.988 c 558.805 
238.414 543.621 247.375 531.18 243.883 c 525.449 242.273 520.898 237.887
 515.68 235.023 c 508.734 231.215 500.613 229.164 494.645 223.953 c 487.469
 217.691 485.062 207.137 478.039 200.707 c 472.668 195.793 463.578 195.465
 459.219 189.633 c 454.664 183.543 459.75 172.078 453.684 167.492 c 444.258
 160.367 430.039 169.438 418.254 168.598 c 403.309 167.535 388.129 165.758
 373.973 160.848 c 368.824 159.066 363.059 157.293 359.578 153.102 c 354.141
 146.543 358.629 133.875 351.828 128.742 c 342.105 121.402 324.598 135.504
 315.293 127.637 c 312.422 125.207 313.848 120.25 313.082 116.566 c 311.305
 108.062 314.504 96.301 307.547 91.102 c 299.539 85.125 287.641 93.656 277.652
 93.316 c 262.004 92.785 246.398 83.102 231.156 86.672 c 224.18 88.309 214.715
 91.801 213.441 98.852 c 211.035 112.148 226.414 123.289 236.691 132.066
 c 261.043 152.855 294.57 159.492 323.043 174.137 c 389.859 208.492 448.207
 263.789 521.215 281.523 c 539.148 285.879 562.051 291.805 576.57 280.418
 c 581.078 276.883 581.773 269.488 581 263.809 c h
S Q
3.11811 w
[] 0.0 d
q 1 0 0 -1 0 399.284393 cm
483.574 303.664 m 235.582 159.742 l S Q
246.371 233.28 m 254.895 235.546 l 232.887 241.109 l 248.633 224.757 l 
h
f*
1.348422 w
q 1 -0.580357 -0.580357 -1 0 399.284393 cm
256.365 17.221 m 261.758 11.825 l 242.88 17.219 l 261.757 22.615 l h
S Q
1.984252 w
q 1 0 0 -1 0 399.284393 cm
221.191 103.281 m 132.621 143.137 l S Q
139.859 259.405 m 141.852 264.652 l 130.812 255.335 l 145.109 257.413 l
 h
f*
0.904741 w
q 1 0.45 0.45 -1 0 399.284393 cm
63.962 168.662 m 67.582 165.045 l 54.915 168.661 l 67.582 172.283 l h
S Q
1.984252 w
q 1 0 0 -1 0 399.284393 cm
555.535 277.094 m 559.965 324.699 l S Q
559.23 82.488 m 554.91 86.07 l 560.148 72.609 l 562.812 86.804 l h
f*
0.987861 w
q -0.0930233 1 1 0.0930233 0 399.284393 cm
-365.654 525.216 m -361.704 521.263 l -375.533 525.215 l -361.705 529.165
 l h
S Q
Q Q
showpage
%%Trailer
end restore
%%EOF
