%!PS-Adobe-3.0 EPSF-3.0
%%Creator: cairo 1.12.2 (http://cairographics.org)
%%CreationDate: Fri Feb 14 23:55:18 2014
%%Pages: 1
%%DocumentData: Clean7Bit
%%LanguageLevel: 2
%%BoundingBox: 0 -1 298 89
%%EndComments
%%BeginProlog
save
50 dict begin
/q { gsave } bind def
/Q { grestore } bind def
/cm { 6 array astore concat } bind def
/w { setlinewidth } bind def
/J { setlinecap } bind def
/j { setlinejoin } bind def
/M { setmiterlimit } bind def
/d { setdash } bind def
/m { moveto } bind def
/l { lineto } bind def
/c { curveto } bind def
/h { closepath } bind def
/re { exch dup neg 3 1 roll 5 3 roll moveto 0 rlineto
      0 exch rlineto 0 rlineto closepath } bind def
/S { stroke } bind def
/f { fill } bind def
/f* { eofill } bind def
/n { newpath } bind def
/W { clip } bind def
/W* { eoclip } bind def
/BT { } bind def
/ET { } bind def
/pdfmark where { pop globaldict /?pdfmark /exec load put }
    { globaldict begin /?pdfmark /pop load def /pdfmark
    /cleartomark load def end } ifelse
/BDC { mark 3 1 roll /BDC pdfmark } bind def
/EMC { mark /EMC pdfmark } bind def
/cairo_store_point { /cairo_point_y exch def /cairo_point_x exch def } def
/Tj { show currentpoint cairo_store_point } bind def
/TJ {
  {
    dup
    type /stringtype eq
    { show } { -0.001 mul 0 cairo_font_matrix dtransform rmoveto } ifelse
  } forall
  currentpoint cairo_store_point
} bind def
/cairo_selectfont { cairo_font_matrix aload pop pop pop 0 0 6 array astore
    cairo_font exch selectfont cairo_point_x cairo_point_y moveto } bind def
/Tf { pop /cairo_font exch def /cairo_font_matrix where
      { pop cairo_selectfont } if } bind def
/Td { matrix translate cairo_font_matrix matrix concatmatrix dup
      /cairo_font_matrix exch def dup 4 get exch 5 get cairo_store_point
      /cairo_font where { pop cairo_selectfont } if } bind def
/Tm { 2 copy 8 2 roll 6 array astore /cairo_font_matrix exch def
      cairo_store_point /cairo_font where { pop cairo_selectfont } if } bind def
/g { setgray } bind def
/rg { setrgbcolor } bind def
/d1 { setcachedevice } bind def
%%EndProlog
%%Page: 1 1
%%BeginPageSetup
%%PageBoundingBox: 0 -1 298 89
%%EndPageSetup
q 0 -1 298 90 rectclip q
0 g
0.797 77.593 m 0.797 80.011 1.164 82.089 1.891 83.828 c 2.621 85.578 3.59
 86.878 4.797 87.734 c 5.734 88.41 6.703 88.75 7.703 88.75 c 9.328 88.75
 10.789 87.921 12.078 86.265 c 13.695 84.214 14.5 81.433 14.5 77.921 c 14.5
 75.464 14.148 73.375 13.438 71.656 c 12.73 69.937 11.824 68.687 10.719 
67.906 c 9.625 67.136 8.57 66.75 7.547 66.75 c 5.527 66.75 3.844 67.941 
2.5 70.328 c 1.367 72.339 0.797 74.761 0.797 77.593 c 3.859 77.203 m 3.859
 74.285 4.219 71.906 4.938 70.062 c 5.531 68.511 6.418 67.734 7.594 67.734
 c 8.156 67.734 8.742 67.984 9.344 68.484 c 9.949 68.996 10.406 69.843 10.719
 71.031 c 11.199 72.824 11.438 75.347 11.438 78.609 c 11.438 81.027 11.188
 83.043 10.688 84.656 c 10.312 85.855 9.828 86.703 9.234 87.203 c 8.809 
87.546 8.293 87.718 7.688 87.718 c 6.98 87.718 6.352 87.402 5.797 86.765
 c 5.047 85.902 4.539 84.543 4.266 82.687 c 3.996 80.832 3.859 79.003 3.859
 77.203 c f
19.391 86.234 m 24.547 88.75 l 25.062 88.75 l 25.062 70.859 l 25.062 69.671
 25.109 68.933 25.203 68.64 c 25.309 68.347 25.516 68.125 25.828 67.968 
c 26.141 67.812 26.777 67.722 27.734 67.703 c 27.734 67.125 l 19.766 67.125
 l 19.766 67.703 l 20.766 67.722 21.414 67.808 21.703 67.953 c 21.996 68.109
 22.199 68.312 22.312 68.562 c 22.43 68.824 22.484 69.589 22.484 70.859 
c 22.484 82.296 l 22.484 83.839 22.434 84.828 22.328 85.265 c 22.258 85.597
 22.121 85.843 21.922 86 c 21.734 86.156 21.508 86.234 21.234 86.234 c 20.852
 86.234 20.312 86.074 19.625 85.75 c 19.391 86.234 l f
34.203 86.234 m 39.359 88.75 l 39.875 88.75 l 39.875 70.859 l 39.875 69.671
 39.922 68.933 40.016 68.64 c 40.121 68.347 40.328 68.125 40.641 67.968 
c 40.953 67.812 41.59 67.722 42.547 67.703 c 42.547 67.125 l 34.578 67.125
 l 34.578 67.703 l 35.578 67.722 36.227 67.808 36.516 67.953 c 36.809 68.109
 37.012 68.312 37.125 68.562 c 37.242 68.824 37.297 69.589 37.297 70.859
 c 37.297 82.296 l 37.297 83.839 37.246 84.828 37.141 85.265 c 37.07 85.597
 36.934 85.843 36.734 86 c 36.547 86.156 36.32 86.234 36.047 86.234 c 35.664
 86.234 35.125 86.074 34.438 85.75 c 34.203 86.234 l f
74.203 86.234 m 79.359 88.75 l 79.875 88.75 l 79.875 70.859 l 79.875 69.671
 79.922 68.933 80.016 68.64 c 80.121 68.347 80.328 68.125 80.641 67.968 
c 80.953 67.812 81.59 67.722 82.547 67.703 c 82.547 67.125 l 74.578 67.125
 l 74.578 67.703 l 75.578 67.722 76.227 67.808 76.516 67.953 c 76.809 68.109
 77.012 68.312 77.125 68.562 c 77.242 68.824 77.297 69.589 77.297 70.859
 c 77.297 82.296 l 77.297 83.839 77.246 84.828 77.141 85.265 c 77.07 85.597
 76.934 85.843 76.734 86 c 76.547 86.156 76.32 86.234 76.047 86.234 c 75.664
 86.234 75.125 86.074 74.438 85.75 c 74.203 86.234 l f
87.609 77.593 m 87.609 80.011 87.977 82.089 88.703 83.828 c 89.434 85.578
 90.402 86.878 91.609 87.734 c 92.547 88.41 93.516 88.75 94.516 88.75 c 
96.141 88.75 97.602 87.921 98.891 86.265 c 100.508 84.214 101.312 81.433
 101.312 77.921 c 101.312 75.464 100.961 73.375 100.25 71.656 c 99.543 69.937
 98.637 68.687 97.531 67.906 c 96.438 67.136 95.383 66.75 94.359 66.75 c
 92.34 66.75 90.656 67.941 89.312 70.328 c 88.18 72.339 87.609 74.761 87.609
 77.593 c 90.672 77.203 m 90.672 74.285 91.031 71.906 91.75 70.062 c 92.344
 68.511 93.23 67.734 94.406 67.734 c 94.969 67.734 95.555 67.984 96.156 
68.484 c 96.762 68.996 97.219 69.843 97.531 71.031 c 98.012 72.824 98.25
 75.347 98.25 78.609 c 98.25 81.027 98 83.043 97.5 84.656 c 97.125 85.855
 96.641 86.703 96.047 87.203 c 95.621 87.546 95.105 87.718 94.5 87.718 c
 93.793 87.718 93.164 87.402 92.609 86.765 c 91.859 85.902 91.352 84.543
 91.078 82.687 c 90.809 80.832 90.672 79.003 90.672 77.203 c f
106.203 86.234 m 111.359 88.75 l 111.875 88.75 l 111.875 70.859 l 111.875
 69.671 111.922 68.933 112.016 68.64 c 112.121 68.347 112.328 68.125 112.641
 67.968 c 112.953 67.812 113.59 67.722 114.547 67.703 c 114.547 67.125 l
 106.578 67.125 l 106.578 67.703 l 107.578 67.722 108.227 67.808 108.516
 67.953 c 108.809 68.109 109.012 68.312 109.125 68.562 c 109.242 68.824 
109.297 69.589 109.297 70.859 c 109.297 82.296 l 109.297 83.839 109.246 
84.828 109.141 85.265 c 109.07 85.597 108.934 85.843 108.734 86 c 108.547
 86.156 108.32 86.234 108.047 86.234 c 107.664 86.234 107.125 86.074 106.438
 85.75 c 106.203 86.234 l f
146.203 86.234 m 151.359 88.75 l 151.875 88.75 l 151.875 70.859 l 151.875
 69.671 151.922 68.933 152.016 68.64 c 152.121 68.347 152.328 68.125 152.641
 67.968 c 152.953 67.812 153.59 67.722 154.547 67.703 c 154.547 67.125 l
 146.578 67.125 l 146.578 67.703 l 147.578 67.722 148.227 67.808 148.516
 67.953 c 148.809 68.109 149.012 68.312 149.125 68.562 c 149.242 68.824 
149.297 69.589 149.297 70.859 c 149.297 82.296 l 149.297 83.839 149.246 
84.828 149.141 85.265 c 149.07 85.597 148.934 85.843 148.734 86 c 148.547
 86.156 148.32 86.234 148.047 86.234 c 147.664 86.234 147.125 86.074 146.438
 85.75 c 146.203 86.234 l f
159.609 77.593 m 159.609 80.011 159.977 82.089 160.703 83.828 c 161.434
 85.578 162.402 86.878 163.609 87.734 c 164.547 88.41 165.516 88.75 166.516
 88.75 c 168.141 88.75 169.602 87.921 170.891 86.265 c 172.508 84.214 173.312
 81.433 173.312 77.921 c 173.312 75.464 172.961 73.375 172.25 71.656 c 171.543
 69.937 170.637 68.687 169.531 67.906 c 168.438 67.136 167.383 66.75 166.359
 66.75 c 164.34 66.75 162.656 67.941 161.312 70.328 c 160.18 72.339 159.609
 74.761 159.609 77.593 c 162.672 77.203 m 162.672 74.285 163.031 71.906 
163.75 70.062 c 164.344 68.511 165.23 67.734 166.406 67.734 c 166.969 67.734
 167.555 67.984 168.156 68.484 c 168.762 68.996 169.219 69.843 169.531 71.031
 c 170.012 72.824 170.25 75.347 170.25 78.609 c 170.25 81.027 170 83.043
 169.5 84.656 c 169.125 85.855 168.641 86.703 168.047 87.203 c 167.621 87.546
 167.105 87.718 166.5 87.718 c 165.793 87.718 165.164 87.402 164.609 86.765
 c 163.859 85.902 163.352 84.543 163.078 82.687 c 162.809 80.832 162.672
 79.003 162.672 77.203 c f
175.609 77.593 m 175.609 80.011 175.977 82.089 176.703 83.828 c 177.434
 85.578 178.402 86.878 179.609 87.734 c 180.547 88.41 181.516 88.75 182.516
 88.75 c 184.141 88.75 185.602 87.921 186.891 86.265 c 188.508 84.214 189.312
 81.433 189.312 77.921 c 189.312 75.464 188.961 73.375 188.25 71.656 c 187.543
 69.937 186.637 68.687 185.531 67.906 c 184.438 67.136 183.383 66.75 182.359
 66.75 c 180.34 66.75 178.656 67.941 177.312 70.328 c 176.18 72.339 175.609
 74.761 175.609 77.593 c 178.672 77.203 m 178.672 74.285 179.031 71.906 
179.75 70.062 c 180.344 68.511 181.23 67.734 182.406 67.734 c 182.969 67.734
 183.555 67.984 184.156 68.484 c 184.762 68.996 185.219 69.843 185.531 71.031
 c 186.012 72.824 186.25 75.347 186.25 78.609 c 186.25 81.027 186 83.043
 185.5 84.656 c 185.125 85.855 184.641 86.703 184.047 87.203 c 183.621 87.546
 183.105 87.718 182.5 87.718 c 181.793 87.718 181.164 87.402 180.609 86.765
 c 179.859 85.902 179.352 84.543 179.078 82.687 c 178.809 80.832 178.672
 79.003 178.672 77.203 c f
200.062 67.753 m 201.016 67.55 201.73 67.226 202.207 66.777 c 202.863 66.156
 203.191 65.394 203.191 64.492 c 203.191 63.808 202.973 63.152 202.539 62.523
 c 202.105 61.898 201.512 61.441 200.754 61.152 c 200 60.867 198.852 60.726
 197.301 60.726 c 190.801 60.726 l 190.801 61.101 l 191.316 61.101 l 191.895
 61.101 192.305 61.285 192.559 61.648 c 192.711 61.886 192.789 62.39 192.789
 63.164 c 192.789 72.058 l 192.789 72.914 192.691 73.449 192.496 73.675 
c 192.23 73.972 191.84 74.121 191.316 74.121 c 190.801 74.121 l 190.801 
74.496 l 196.75 74.496 l 197.863 74.496 198.754 74.414 199.422 74.253 c 
200.438 74.007 201.215 73.578 201.75 72.953 c 202.285 72.336 202.551 71.625
 202.551 70.82 c 202.551 70.128 202.34 69.511 201.922 68.961 c 201.5 68.421
 200.883 68.015 200.062 67.753 c 194.742 68.3 m 194.992 68.253 195.277 68.218
 195.594 68.191 c 195.918 68.168 196.273 68.16 196.66 68.16 c 197.648 68.16
 198.391 68.265 198.883 68.472 c 199.387 68.691 199.77 69.019 200.031 69.461
 c 200.297 69.898 200.43 70.378 200.43 70.902 c 200.43 71.707 200.102 72.394
 199.441 72.964 c 198.785 73.531 197.828 73.816 196.57 73.816 c 195.891 
73.816 195.281 73.742 194.742 73.593 c 194.742 68.3 l 194.742 61.718 m 195.527
 61.539 196.301 61.445 197.066 61.445 c 198.293 61.445 199.227 61.718 199.871
 62.269 c 200.512 62.824 200.836 63.507 200.836 64.32 c 200.836 64.855 200.688
 65.371 200.398 65.863 c 200.105 66.359 199.633 66.746 198.977 67.031 c 
198.32 67.316 197.508 67.457 196.539 67.457 c 196.117 67.457 195.758 67.453
 195.461 67.437 c 195.164 67.425 194.922 67.402 194.742 67.367 c 194.742
 61.718 l f
41.961 55.527 m 42.766 55.527 l 42.414 52.972 41.371 50.894 39.645 49.289
 c 37.93 47.699 36.027 46.902 33.93 46.902 c 32.832 46.902 31.555 47.078
 30.102 47.429 c 28.633 47.781 27.492 47.957 26.684 47.957 c 25.582 47.957
 24.555 47.492 23.609 46.558 c 22.645 45.64 22.055 44.363 21.84 42.726 c
 20.898 42.726 l 20.688 44.363 20.105 45.64 19.156 46.558 c 18.207 47.492
 17.176 47.957 16.059 47.957 c 15.25 47.957 14.117 47.781 12.664 47.429 
c 11.211 47.078 9.926 46.902 8.809 46.902 c 6.73 46.902 4.824 47.699 3.098
 49.289 c 1.367 50.894 0.336 52.972 0 55.527 c 0.805 55.527 l 1.23 53.738
 1.934 52.425 2.914 51.582 c 3.879 50.757 4.941 50.343 6.102 50.343 c 7.004
 50.343 8.199 50.511 9.68 50.847 c 11.148 51.199 12.402 51.375 13.445 51.375
 c 14.988 51.375 16.488 50.808 17.941 49.679 c 19.395 48.546 20.52 46.855
 21.312 44.609 c 22.125 46.812 23.27 48.484 24.754 49.632 c 26.238 50.796
 27.754 51.375 29.297 51.375 c 30.336 51.375 31.59 51.199 33.059 50.847 
c 34.543 50.511 35.734 50.343 36.637 50.343 c 37.801 50.343 38.863 50.757
 39.828 51.582 c 40.805 52.425 41.52 53.738 41.961 55.527 c f
116.441 55.527 m 117.242 55.527 l 116.891 52.972 115.852 50.894 114.121
 49.289 c 112.41 47.699 110.504 46.902 108.41 46.902 c 107.309 46.902 106.031
 47.078 104.578 47.429 c 103.109 47.781 101.973 47.957 101.16 47.957 c 100.059
 47.957 99.035 47.492 98.086 46.558 c 97.121 45.64 96.535 44.363 96.32 42.726
 c 95.379 42.726 l 95.164 44.363 94.582 45.64 93.637 46.558 c 92.688 47.492
 91.656 47.957 90.539 47.957 c 89.727 47.957 88.594 47.781 87.141 47.429
 c 85.691 47.078 84.406 46.902 83.289 46.902 c 81.207 46.902 79.305 47.699
 77.574 49.289 c 75.848 50.894 74.816 52.972 74.477 55.527 c 75.281 55.527
 l 75.711 53.738 76.414 52.425 77.391 51.582 c 78.355 50.757 79.418 50.343
 80.582 50.343 c 81.484 50.343 82.676 50.511 84.16 50.847 c 85.629 51.199
 86.883 51.375 87.922 51.375 c 89.469 51.375 90.965 50.808 92.418 49.679
 c 93.871 48.546 94.996 46.855 95.793 44.609 c 96.602 46.812 97.75 48.484
 99.234 49.632 c 100.715 50.796 102.23 51.375 103.777 51.375 c 104.816 51.375
 106.07 51.199 107.539 50.847 c 109.023 50.511 110.215 50.343 111.117 50.343
 c 112.281 50.343 113.344 50.757 114.305 51.582 c 115.285 52.425 115.996
 53.738 116.441 55.527 c f
188.613 55.527 m 189.418 55.527 l 189.066 52.972 188.023 50.894 186.297
 49.289 c 184.582 47.699 182.68 46.902 180.582 46.902 c 179.484 46.902 178.207
 47.078 176.754 47.429 c 175.285 47.781 174.145 47.957 173.336 47.957 c 
172.234 47.957 171.207 47.492 170.262 46.558 c 169.297 45.64 168.707 44.363
 168.492 42.726 c 167.551 42.726 l 167.34 44.363 166.758 45.64 165.809 46.558
 c 164.859 47.492 163.828 47.957 162.711 47.957 c 161.902 47.957 160.77 
47.781 159.316 47.429 c 157.863 47.078 156.578 46.902 155.461 46.902 c 153.383
 46.902 151.477 47.699 149.75 49.289 c 148.02 50.894 146.988 52.972 146.652
 55.527 c 147.457 55.527 l 147.883 53.738 148.586 52.425 149.566 51.582 
c 150.531 50.757 151.594 50.343 152.754 50.343 c 153.656 50.343 154.852 
50.511 156.332 50.847 c 157.801 51.199 159.055 51.375 160.098 51.375 c 161.641
 51.375 163.141 50.808 164.594 49.679 c 166.047 48.546 167.172 46.855 167.965
 44.609 c 168.777 46.812 169.922 48.484 171.406 49.632 c 172.891 50.796 
174.406 51.375 175.949 51.375 c 176.988 51.375 178.242 51.199 179.711 50.847
 c 181.195 50.511 182.387 50.343 183.289 50.343 c 184.453 50.343 185.516
 50.757 186.48 51.582 c 187.457 52.425 188.172 53.738 188.613 55.527 c f
14.469 24.222 m 15.074 25.648 15.836 26.746 16.75 27.519 c 17.68 28.3 18.828
 28.691 20.203 28.691 c 21.902 28.691 23.203 28.136 24.109 27.035 c 24.797
 26.211 25.141 25.332 25.141 24.394 c 25.141 22.851 24.172 21.257 22.234
 19.613 c 23.539 19.101 24.523 18.371 25.188 17.425 c 25.855 16.476 26.188
 15.363 26.188 14.082 c 26.188 12.246 25.605 10.66 24.438 9.316 c 22.918
 7.566 20.715 6.691 17.828 6.691 c 16.402 6.691 15.43 6.867 14.906 7.222
 c 14.398 7.574 14.141 7.957 14.141 8.363 c 14.141 8.664 14.262 8.929 14.5
 9.16 c 14.75 9.386 15.047 9.503 15.391 9.503 c 15.652 9.503 15.918 9.461
 16.188 9.378 c 16.367 9.324 16.766 9.132 17.391 8.8 c 18.016 8.476 18.449
 8.285 18.688 8.222 c 19.074 8.105 19.484 8.05 19.922 8.05 c 20.984 8.05
 21.906 8.461 22.688 9.285 c 23.48 10.105 23.875 11.082 23.875 12.207 c 
23.875 13.027 23.695 13.832 23.328 14.613 c 23.059 15.195 22.762 15.636 
22.438 15.941 c 21.992 16.355 21.375 16.73 20.594 17.066 c 19.812 17.41 
19.016 17.582 18.203 17.582 c 17.703 17.582 l 17.703 18.05 l 18.527 18.152
 19.352 18.449 20.172 18.941 c 21.008 19.429 21.609 20.019 21.984 20.707
 c 22.359 21.394 22.547 22.148 22.547 22.972 c 22.547 24.043 22.211 24.91
 21.531 25.566 c 20.867 26.23 20.031 26.566 19.031 26.566 c 17.418 26.566
 16.07 25.699 14.984 23.972 c 14.469 24.222 l f
100.246 28.472 m 99.027 25.816 l 92.652 25.816 l 91.262 22.972 l 94.023
 22.566 96.211 21.539 97.824 19.894 c 99.211 18.476 99.902 16.808 99.902
 14.894 c 99.902 13.777 99.672 12.746 99.215 11.8 c 98.766 10.851 98.199
 10.043 97.512 9.378 c 96.824 8.711 96.059 8.175 95.215 7.769 c 94.016 7.195
 92.789 6.91 91.527 6.91 c 90.258 6.91 89.332 7.121 88.746 7.55 c 88.172
 7.988 87.887 8.464 87.887 8.988 c 87.887 9.277 88.008 9.535 88.246 9.753
 c 88.484 9.98 88.789 10.097 89.152 10.097 c 89.422 10.097 89.656 10.054
 89.855 9.972 c 90.062 9.886 90.414 9.675 90.902 9.332 c 91.684 8.789 92.477
 8.519 93.277 8.519 c 94.496 8.519 95.562 8.976 96.48 9.894 c 97.406 10.82
 97.871 11.945 97.871 13.269 c 97.871 14.55 97.461 15.742 96.637 16.847 
c 95.812 17.961 94.68 18.82 93.23 19.425 c 92.094 19.894 90.547 20.164 88.59
 20.238 c 92.652 28.472 l 100.246 28.472 l f
175.367 14.527 m 175.367 12.308 l 172.523 12.308 l 172.523 6.714 l 169.945
 6.714 l 169.945 12.308 l 160.977 12.308 l 160.977 14.308 l 170.805 28.339
 l 172.523 28.339 l 172.523 14.527 l 175.367 14.527 l 169.945 14.527 m 169.945
 25.043 l 162.508 14.527 l 169.945 14.527 l f
184.082 14.402 m 185.871 14.402 187.418 13.722 188.723 12.359 c 190.035
 11.007 190.695 9.312 190.695 7.281 c 190.695 5.191 190.035 3.453 188.715
 2.074 c 187.395 0.691 185.797 -0 183.918 -0 c 182.023 -0 180.43 0.675 179.137
 2.023 c 177.848 3.367 177.207 5.113 177.207 7.253 c 177.207 9.437 177.949
 11.222 179.441 12.605 c 180.734 13.804 182.281 14.402 184.082 14.402 c 
183.891 13.66 m 182.656 13.66 181.668 13.203 180.922 12.289 c 179.996 11.152
 179.531 9.488 179.531 7.293 c 179.531 5.043 180.012 3.316 180.973 2.101
 c 181.711 1.183 182.688 0.722 183.898 0.722 c 185.191 0.722 186.258 1.226
 187.098 2.234 c 187.945 3.242 188.367 4.836 188.367 7.007 c 188.367 9.363
 187.902 11.121 186.977 12.281 c 186.23 13.199 185.203 13.66 183.891 13.66
 c f
1.700787 w
0 J
0 j
[] 0.0 d
4 M q 1 0 0 -1 0 88.74958 cm
260.098 6.449 m 260.098 70.668 l S Q
260.098 24.882 m 256.699 28.285 l 260.098 16.378 l 263.5 28.285 l h
f*
0.850394 w
q -0.000000000000000061 1 1 0.000000000000000061 0 88.74958 cm
-63.867 260.098 m -60.465 256.699 l -72.371 260.098 l -60.465 263.5 l h
S Q
1.700787 w
q 1 0 0 -1 0 88.74958 cm
292.781 71.945 m 292.781 7.727 l S Q
292.781 74.218 m 296.184 70.82 l 292.781 82.722 l 289.379 70.82 l h
f*
0.850394 w
q -0.000000000000000061 -1 -1 0.000000000000000061 0 88.74958 cm
14.531 -292.781 m 17.93 -296.184 l 6.027 -292.781 l 17.93 -289.379 l h
S Q
Q Q
showpage
%%Trailer
end restore
%%EOF
