%!PS-Adobe-3.0 EPSF-3.0
%%Creator: cairo 1.12.2 (http://cairographics.org)
%%CreationDate: Fri Feb 14 23:14:53 2014
%%Pages: 1
%%DocumentData: Clean7Bit
%%LanguageLevel: 2
%%BoundingBox: 0 -1 365 232
%%EndComments
%%BeginProlog
save
50 dict begin
/q { gsave } bind def
/Q { grestore } bind def
/cm { 6 array astore concat } bind def
/w { setlinewidth } bind def
/J { setlinecap } bind def
/j { setlinejoin } bind def
/M { setmiterlimit } bind def
/d { setdash } bind def
/m { moveto } bind def
/l { lineto } bind def
/c { curveto } bind def
/h { closepath } bind def
/re { exch dup neg 3 1 roll 5 3 roll moveto 0 rlineto
      0 exch rlineto 0 rlineto closepath } bind def
/S { stroke } bind def
/f { fill } bind def
/f* { eofill } bind def
/n { newpath } bind def
/W { clip } bind def
/W* { eoclip } bind def
/BT { } bind def
/ET { } bind def
/pdfmark where { pop globaldict /?pdfmark /exec load put }
    { globaldict begin /?pdfmark /pop load def /pdfmark
    /cleartomark load def end } ifelse
/BDC { mark 3 1 roll /BDC pdfmark } bind def
/EMC { mark /EMC pdfmark } bind def
/cairo_store_point { /cairo_point_y exch def /cairo_point_x exch def } def
/Tj { show currentpoint cairo_store_point } bind def
/TJ {
  {
    dup
    type /stringtype eq
    { show } { -0.001 mul 0 cairo_font_matrix dtransform rmoveto } ifelse
  } forall
  currentpoint cairo_store_point
} bind def
/cairo_selectfont { cairo_font_matrix aload pop pop pop 0 0 6 array astore
    cairo_font exch selectfont cairo_point_x cairo_point_y moveto } bind def
/Tf { pop /cairo_font exch def /cairo_font_matrix where
      { pop cairo_selectfont } if } bind def
/Td { matrix translate cairo_font_matrix matrix concatmatrix dup
      /cairo_font_matrix exch def dup 4 get exch 5 get cairo_store_point
      /cairo_font where { pop cairo_selectfont } if } bind def
/Tm { 2 copy 8 2 roll 6 array astore /cairo_font_matrix exch def
      cairo_store_point /cairo_font where { pop cairo_selectfont } if } bind def
/g { setgray } bind def
/rg { setrgbcolor } bind def
/d1 { setcachedevice } bind def
%%EndProlog
%%Page: 1 1
%%BeginPageSetup
%%PageBoundingBox: 0 -1 365 232
%%EndPageSetup
q 0 -1 365 233 rectclip q
0 g
137.098 208.342 m 135.613 204.264 l 123.113 204.264 l 123.113 204.842 l
 126.789 208.197 129.379 210.936 130.879 213.061 c 132.379 215.186 133.129
 217.127 133.129 218.889 c 133.129 220.232 132.715 221.338 131.895 222.201
 c 131.07 223.064 130.086 223.498 128.941 223.498 c 127.898 223.498 126.961
 223.189 126.129 222.576 c 125.305 221.971 124.695 221.08 124.301 219.904
 c 123.723 219.904 l 123.98 221.83 124.648 223.311 125.723 224.342 c 126.805
 225.373 128.152 225.889 129.77 225.889 c 131.488 225.889 132.918 225.338
 134.066 224.232 c 135.223 223.127 135.801 221.826 135.801 220.326 c 135.801
 219.252 135.551 218.182 135.051 217.107 c 134.277 215.42 133.027 213.635
 131.301 211.748 c 128.707 208.916 127.086 207.205 126.441 206.623 c 131.973
 206.623 l 133.098 206.623 133.883 206.666 134.332 206.748 c 134.789 206.83
 135.199 206.998 135.566 207.248 c 135.93 207.51 136.246 207.873 136.52 
208.342 c 137.098 208.342 l f
140.051 221.42 m 140.652 222.846 141.414 223.947 142.332 224.717 c 143.258
 225.498 144.41 225.889 145.785 225.889 c 147.48 225.889 148.785 225.338
 149.691 224.232 c 150.379 223.408 150.723 222.529 150.723 221.592 c 150.723
 220.049 149.754 218.455 147.816 216.811 c 149.117 216.299 150.102 215.572
 150.77 214.623 c 151.434 213.674 151.77 212.561 151.77 211.279 c 151.77
 209.447 151.184 207.857 150.02 206.514 c 148.496 204.764 146.293 203.889
 143.41 203.889 c 141.98 203.889 141.008 204.064 140.488 204.42 c 139.977
 204.775 139.723 205.154 139.723 205.561 c 139.723 205.861 139.84 206.127
 140.082 206.357 c 140.332 206.588 140.629 206.701 140.973 206.701 c 141.23
 206.701 141.496 206.658 141.77 206.576 c 141.945 206.525 142.348 206.33
 142.973 205.998 c 143.598 205.674 144.027 205.482 144.27 205.42 c 144.652
 205.307 145.066 205.248 145.504 205.248 c 146.566 205.248 147.488 205.658
 148.27 206.482 c 149.059 207.307 149.457 208.279 149.457 209.404 c 149.457
 210.229 149.273 211.029 148.91 211.811 c 148.637 212.393 148.34 212.838
 148.02 213.139 c 147.57 213.557 146.957 213.932 146.176 214.264 c 145.395
 214.607 144.598 214.779 143.785 214.779 c 143.285 214.779 l 143.285 215.248
 l 144.105 215.354 144.93 215.65 145.754 216.139 c 146.586 216.627 147.191
 217.217 147.566 217.904 c 147.941 218.592 148.129 219.346 148.129 220.17
 c 148.129 221.244 147.789 222.107 147.113 222.764 c 146.445 223.432 145.613
 223.764 144.613 223.764 c 142.996 223.764 141.648 222.9 140.566 221.17 
c 140.051 221.42 l f
168.77 225.889 m 168.77 225.311 l 167.395 225.174 166.27 224.9 165.395 
224.482 c 164.527 224.076 163.668 223.451 162.816 222.607 c 161.973 221.764
 161.27 220.822 160.707 219.779 c 160.152 218.748 159.691 217.518 159.316
 216.092 c 160.816 217.123 162.32 217.639 163.832 217.639 c 165.277 217.639
 166.535 217.057 167.598 215.889 c 168.66 214.721 169.191 213.221 169.191
 211.389 c 169.191 209.619 168.652 208.002 167.582 206.545 c 166.289 204.775
 164.582 203.889 162.457 203.889 c 161.008 203.889 159.777 204.369 158.77
 205.326 c 156.789 207.189 155.801 209.607 155.801 212.576 c 155.801 214.471
 156.18 216.275 156.941 217.982 c 157.699 219.689 158.785 221.205 160.191
 222.529 c 161.605 223.854 162.961 224.744 164.254 225.201 c 165.543 225.658
 166.746 225.889 167.863 225.889 c 168.77 225.889 l 159.051 214.951 m 158.863
 213.545 158.77 212.408 158.77 211.545 c 158.77 210.545 158.949 209.455 
159.316 208.279 c 159.691 207.111 160.242 206.186 160.973 205.498 c 161.504
 205.01 162.148 204.764 162.91 204.764 c 163.816 204.764 164.621 205.189
 165.332 206.045 c 166.051 206.9 166.41 208.119 166.41 209.701 c 166.41 
211.482 166.055 213.025 165.348 214.326 c 164.637 215.627 163.633 216.279
 162.332 216.279 c 161.934 216.279 161.508 216.197 161.051 216.029 c 160.602
 215.861 159.934 215.502 159.051 214.951 c f
2.267717 w
0 J
0 j
[] 0.0 d
4 M q 1 0 0 -1 0 231.576187 cm
187.738 0 m 187.738 33.375 l 254.488 33.375 l S Q
202.414 224.479 m 207.57 226.994 l 208.086 226.994 l 208.086 209.104 l 
208.086 207.916 208.133 207.178 208.227 206.885 c 208.328 206.596 208.539
 206.369 208.852 206.213 c 209.164 206.057 209.797 205.971 210.758 205.947
 c 210.758 205.369 l 202.789 205.369 l 202.789 205.947 l 203.789 205.971
 204.434 206.053 204.727 206.197 c 205.016 206.354 205.219 206.557 205.336
 206.807 c 205.449 207.068 205.508 207.834 205.508 209.104 c 205.508 220.541
 l 205.508 222.084 205.453 223.072 205.352 223.51 c 205.277 223.846 205.141
 224.088 204.945 224.244 c 204.758 224.4 204.527 224.479 204.258 224.479
 c 203.871 224.479 203.336 224.318 202.648 223.994 c 202.414 224.479 l f
229.008 226.994 m 229.008 226.416 l 227.633 226.283 226.508 226.006 225.633
 225.588 c 224.766 225.182 223.906 224.557 223.055 223.713 c 222.211 222.869
 221.508 221.928 220.945 220.885 c 220.391 219.854 219.93 218.627 219.555
 217.197 c 221.055 218.229 222.559 218.744 224.07 218.744 c 225.516 218.744
 226.773 218.162 227.836 216.994 c 228.898 215.83 229.43 214.33 229.43 212.494
 c 229.43 210.725 228.891 209.111 227.82 207.65 c 226.527 205.881 224.82
 204.994 222.695 204.994 c 221.246 204.994 220.016 205.475 219.008 206.432
 c 217.027 208.299 216.039 210.713 216.039 213.682 c 216.039 215.58 216.418
 217.381 217.18 219.088 c 217.938 220.799 219.023 222.314 220.43 223.635
 c 221.844 224.959 223.199 225.85 224.492 226.307 c 225.781 226.768 226.984
 226.994 228.102 226.994 c 229.008 226.994 l 219.289 216.057 m 219.102 214.65
 219.008 213.518 219.008 212.65 c 219.008 211.65 219.188 210.564 219.555
 209.385 c 219.93 208.221 220.48 207.291 221.211 206.604 c 221.742 206.115
 222.387 205.869 223.148 205.869 c 224.055 205.869 224.859 206.299 225.57
 207.15 c 226.289 208.006 226.648 209.225 226.648 210.807 c 226.648 212.588
 226.293 214.131 225.586 215.432 c 224.875 216.736 223.871 217.385 222.57
 217.385 c 222.172 217.385 221.746 217.303 221.289 217.135 c 220.84 216.971
 220.172 216.611 219.289 216.057 c f
154.203 221.67 m 153.359 226.295 l 153.117 227.576 153 228.439 153 228.889
 c 153 229.557 153.133 230.041 153.406 230.342 c 153.676 230.643 154.047
 230.795 154.516 230.795 c 154.984 230.795 155.367 230.639 155.672 230.326
 c 155.984 230.025 156.141 229.623 156.141 229.123 c 156.141 228.736 156.004
 227.791 155.734 226.279 c 154.891 221.67 l 154.203 221.67 l f
172.469 221.67 m 171.625 226.295 l 171.387 227.576 171.266 228.439 171.266
 228.889 c 171.266 229.557 171.402 230.041 171.672 230.342 c 171.941 230.643
 172.312 230.795 172.781 230.795 c 173.25 230.795 173.637 230.639 173.938
 230.326 c 174.25 230.025 174.406 229.623 174.406 229.123 c 174.406 228.736
 174.27 227.791 174 226.279 c 173.156 221.67 l 172.469 221.67 l f
17.703 28.033 m 18.219 27.924 l 16.406 22.174 l 0 22.174 l 0 22.752 l 0.797
 22.752 l 1.691 22.752 2.332 23.045 2.719 23.627 c 2.938 23.963 3.047 24.732
 3.047 25.939 c 3.047 39.611 l 3.047 40.936 2.902 41.764 2.609 42.096 c 
2.203 42.557 1.598 42.783 0.797 42.783 c 0 42.783 l 0 43.361 l 9.594 43.361
 l 9.594 42.783 l 8.469 42.795 7.676 42.689 7.219 42.471 c 6.77 42.252 6.465
 41.979 6.297 41.643 c 6.129 41.311 6.047 40.514 6.047 39.252 c 6.047 25.939
 l 6.047 25.076 6.129 24.482 6.297 24.158 c 6.422 23.939 6.613 23.779 6.875
 23.674 c 7.137 23.572 7.949 23.518 9.312 23.518 c 10.859 23.518 l 12.484
 23.518 13.625 23.639 14.281 23.877 c 14.938 24.119 15.535 24.541 16.078
 25.143 c 16.621 25.76 17.16 26.721 17.703 28.033 c f
33.594 43.846 m 33.594 36.518 l 33.016 36.518 l 32.828 37.924 32.488 39.045
 32 39.877 c 31.52 40.713 30.832 41.373 29.938 41.861 c 29.043 42.354 28.113
 42.596 27.156 42.596 c 26.074 42.596 25.176 42.264 24.469 41.596 c 23.762
 40.939 23.406 40.189 23.406 39.346 c 23.406 38.701 23.629 38.111 24.078
 37.58 c 24.723 36.799 26.262 35.76 28.688 34.455 c 30.668 33.393 32.016
 32.576 32.734 32.002 c 33.465 31.439 34.02 30.775 34.406 30.002 c 34.801
 29.232 35 28.424 35 27.58 c 35 25.979 34.375 24.592 33.125 23.424 c 31.887
 22.268 30.285 21.689 28.328 21.689 c 27.715 21.689 27.137 21.736 26.594
 21.83 c 26.27 21.885 25.598 22.072 24.578 22.393 c 23.566 22.729 22.926
 22.893 22.656 22.893 c 22.395 22.893 22.188 22.814 22.031 22.658 c 21.887
 22.502 21.777 22.182 21.703 21.689 c 21.125 21.689 l 21.125 28.955 l 21.703
 28.955 l 21.973 27.436 22.34 26.295 22.797 25.533 c 23.254 24.783 23.953
 24.158 24.891 23.658 c 25.84 23.158 26.875 22.908 28 22.908 c 29.301 22.908
 30.328 23.252 31.078 23.939 c 31.84 24.627 32.219 25.439 32.219 26.377 
c 32.219 26.9 32.074 27.424 31.781 27.955 c 31.5 28.486 31.059 28.982 30.453
 29.439 c 30.047 29.752 28.938 30.416 27.125 31.424 c 25.312 32.447 24.02
 33.26 23.25 33.861 c 22.488 34.467 21.91 35.135 21.516 35.861 c 21.121 
36.592 20.922 37.393 20.922 38.268 c 20.922 39.791 21.504 41.096 22.672 
42.189 c 23.84 43.295 25.324 43.846 27.125 43.846 c 28.25 43.846 29.441 
43.572 30.703 43.018 c 31.285 42.76 31.699 42.627 31.938 42.627 c 32.207
 42.627 32.426 42.705 32.594 42.861 c 32.77 43.029 32.91 43.357 33.016 43.846
 c 33.594 43.846 l f
51.516 32.986 m 52.984 32.674 54.082 32.174 54.812 31.486 c 55.824 30.529
 56.328 29.357 56.328 27.971 c 56.328 26.92 55.996 25.908 55.328 24.939 
c 54.66 23.982 53.746 23.279 52.578 22.83 c 51.422 22.393 49.652 22.174 
47.266 22.174 c 37.266 22.174 l 37.266 22.752 l 38.062 22.752 l 38.949 22.752
 39.582 23.033 39.969 23.596 c 40.207 23.963 40.328 24.736 40.328 25.924
 c 40.328 39.611 l 40.328 40.924 40.176 41.752 39.875 42.096 c 39.469 42.557
 38.863 42.783 38.062 42.783 c 37.266 42.783 l 37.266 43.361 l 46.422 43.361
 l 48.129 43.361 49.5 43.236 50.531 42.986 c 52.094 42.611 53.285 41.947
 54.109 40.986 c 54.934 40.041 55.344 38.947 55.344 37.705 c 55.344 36.643
 55.02 35.689 54.375 34.846 c 53.73 34.014 52.777 33.393 51.516 32.986 c
 43.328 33.83 m 43.715 33.76 44.152 33.701 44.641 33.658 c 45.141 33.627
 45.688 33.611 46.281 33.611 c 47.801 33.611 48.941 33.775 49.703 34.096
 c 50.473 34.432 51.062 34.936 51.469 35.611 c 51.875 36.291 52.078 37.029
 52.078 37.83 c 52.078 39.072 51.574 40.127 50.562 41.002 c 49.551 41.877
 48.078 42.314 46.141 42.314 c 45.098 42.314 44.16 42.201 43.328 41.971 
c 43.328 33.83 l 43.328 23.705 m 44.535 23.424 45.73 23.283 46.906 23.283
 c 48.793 23.283 50.23 23.705 51.219 24.549 c 52.207 25.404 52.703 26.455
 52.703 27.705 c 52.703 28.529 52.48 29.322 52.031 30.08 c 51.582 30.842
 50.855 31.439 49.844 31.877 c 48.832 32.314 47.582 32.533 46.094 32.533
 c 45.449 32.533 44.895 32.525 44.438 32.502 c 43.98 32.482 43.609 32.447
 43.328 32.393 c 43.328 23.705 l f
311.535 120.205 m 303.348 138.033 l 303.348 123.877 l 303.348 122.572 303.488
 121.76 303.77 121.439 c 304.156 121.002 304.766 120.783 305.598 120.783
 c 306.348 120.783 l 306.348 120.205 l 298.973 120.205 l 298.973 120.783
 l 299.723 120.783 l 300.621 120.783 301.254 121.053 301.629 121.596 c 301.859
 121.928 301.973 122.689 301.973 123.877 c 301.973 137.721 l 301.973 138.658
 301.871 139.334 301.66 139.752 c 301.516 140.053 301.246 140.303 300.848
 140.502 c 300.465 140.709 299.84 140.814 298.973 140.814 c 298.973 141.393
 l 304.973 141.393 l 312.66 124.814 l 320.223 141.393 l 326.223 141.393 
l 326.223 140.814 l 325.488 140.814 l 324.582 140.814 323.941 140.541 323.566
 140.002 c 323.34 139.666 323.223 138.908 323.223 137.721 c 323.223 123.877
 l 323.223 122.572 323.371 121.76 323.66 121.439 c 324.047 121.002 324.656
 120.783 325.488 120.783 c 326.223 120.783 l 326.223 120.205 l 317.223 120.205
 l 317.223 120.783 l 317.973 120.783 l 318.879 120.783 319.516 121.053 319.879
 121.596 c 320.109 121.928 320.223 122.689 320.223 123.877 c 320.223 138.033
 l 312.051 120.205 l 311.535 120.205 l f
341.551 141.877 m 341.551 134.549 l 340.973 134.549 l 340.785 135.955 340.449
 137.072 339.957 137.908 c 339.48 138.74 338.793 139.4 337.895 139.893 c
 337 140.381 336.074 140.627 335.113 140.627 c 334.031 140.627 333.137 140.291
 332.426 139.627 c 331.719 138.971 331.363 138.221 331.363 137.377 c 331.363
 136.729 331.59 136.143 332.035 135.611 c 332.684 134.83 334.219 133.787
 336.645 132.486 c 338.625 131.424 339.973 130.604 340.691 130.033 c 341.422
 129.471 341.98 128.803 342.363 128.033 c 342.762 127.26 342.957 126.455
 342.957 125.611 c 342.957 124.006 342.332 122.619 341.082 121.455 c 339.844
 120.299 338.246 119.721 336.285 119.721 c 335.672 119.721 335.094 119.768
 334.551 119.861 c 334.23 119.912 333.559 120.1 332.535 120.424 c 331.527
 120.756 330.887 120.924 330.613 120.924 c 330.355 120.924 330.145 120.846
 329.988 120.689 c 329.844 120.533 329.734 120.209 329.66 119.721 c 329.082
 119.721 l 329.082 126.986 l 329.66 126.986 l 329.934 125.463 330.297 124.322
 330.754 123.564 c 331.215 122.814 331.91 122.189 332.848 121.689 c 333.797
 121.189 334.832 120.939 335.957 120.939 c 337.262 120.939 338.285 121.283
 339.035 121.971 c 339.797 122.658 340.176 123.471 340.176 124.408 c 340.176
 124.928 340.031 125.455 339.738 125.986 c 339.457 126.518 339.016 127.01
 338.41 127.471 c 338.004 127.783 336.895 128.443 335.082 129.455 c 333.27
 130.475 331.98 131.287 331.207 131.893 c 330.449 132.494 329.871 133.162
 329.473 133.893 c 329.078 134.619 328.879 135.424 328.879 136.299 c 328.879
 137.818 329.465 139.127 330.629 140.221 c 331.797 141.322 333.281 141.877
 335.082 141.877 c 336.207 141.877 337.402 141.6 338.66 141.049 c 339.246
 140.787 339.656 140.658 339.895 140.658 c 340.168 140.658 340.387 140.736
 340.551 140.893 c 340.73 141.057 340.871 141.385 340.973 141.877 c 341.551
 141.877 l f
359.473 131.018 m 360.941 130.705 362.043 130.205 362.77 129.518 c 363.781
 128.557 364.285 127.385 364.285 126.002 c 364.285 124.947 363.953 123.939
 363.285 122.971 c 362.621 122.01 361.703 121.307 360.535 120.861 c 359.379
 120.424 357.609 120.205 355.223 120.205 c 345.223 120.205 l 345.223 120.783
 l 346.02 120.783 l 346.906 120.783 347.543 121.064 347.926 121.627 c 348.168
 121.99 348.285 122.768 348.285 123.955 c 348.285 137.643 l 348.285 138.955
 348.137 139.783 347.832 140.127 c 347.426 140.584 346.824 140.814 346.02
 140.814 c 345.223 140.814 l 345.223 141.393 l 354.379 141.393 l 356.09 
141.393 357.457 141.268 358.488 141.018 c 360.051 140.643 361.246 139.975
 362.066 139.018 c 362.891 138.068 363.301 136.975 363.301 135.736 c 363.301
 134.674 362.98 133.721 362.332 132.877 c 361.688 132.041 360.734 131.424
 359.473 131.018 c 351.285 131.861 m 351.672 131.787 352.109 131.729 352.598
 131.689 c 353.098 131.658 353.645 131.643 354.238 131.643 c 355.762 131.643
 356.902 131.803 357.66 132.127 c 358.434 132.459 359.02 132.963 359.426
 133.643 c 359.832 134.318 360.035 135.057 360.035 135.861 c 360.035 137.1
 359.531 138.158 358.52 139.033 c 357.512 139.908 356.035 140.346 354.098
 140.346 c 353.059 140.346 352.121 140.229 351.285 140.002 c 351.285 131.861
 l 351.285 121.736 m 352.496 121.455 353.688 121.314 354.863 121.314 c 356.75
 121.314 358.188 121.736 359.176 122.58 c 360.168 123.432 360.66 124.486
 360.66 125.736 c 360.66 126.557 360.438 127.35 359.988 128.111 c 359.543
 128.869 358.812 129.471 357.801 129.908 c 356.793 130.346 355.543 130.564
 354.051 130.564 c 353.406 130.564 352.855 130.553 352.395 130.533 c 351.938
 130.51 351.566 130.475 351.285 130.424 c 351.285 121.736 l f
203.535 187.107 m 208.691 189.623 l 209.207 189.623 l 209.207 171.732 l
 209.207 170.545 209.254 169.803 209.348 169.514 c 209.449 169.221 209.66
 168.998 209.973 168.842 c 210.285 168.686 210.918 168.596 211.879 168.576
 c 211.879 167.998 l 203.91 167.998 l 203.91 168.576 l 204.91 168.596 205.555
 168.678 205.848 168.826 c 206.137 168.982 206.34 169.186 206.457 169.436
 c 206.57 169.693 206.629 170.459 206.629 171.732 c 206.629 183.17 l 206.629
 184.709 206.574 185.701 206.473 186.139 c 206.398 186.471 206.262 186.717
 206.066 186.873 c 205.879 187.029 205.648 187.107 205.379 187.107 c 204.992
 187.107 204.457 186.943 203.77 186.623 c 203.535 187.107 l f
230.676 175.811 m 230.676 173.592 l 227.832 173.592 l 227.832 167.998 l
 225.254 167.998 l 225.254 173.592 l 216.285 173.592 l 216.285 175.592 l
 226.113 189.623 l 227.832 189.623 l 227.832 175.811 l 230.676 175.811 l
 225.254 175.811 m 225.254 186.326 l 217.816 175.811 l 225.254 175.811 l
 f
111.289 185.135 8.078 -2.359 re f
124.43 195.885 m 129.586 198.4 l 130.102 198.4 l 130.102 180.51 l 130.102
 179.322 130.148 178.584 130.242 178.291 c 130.348 177.998 130.555 177.775
 130.867 177.619 c 131.18 177.463 131.816 177.373 132.773 177.354 c 132.773
 176.775 l 124.805 176.775 l 124.805 177.354 l 125.805 177.373 126.453 177.459
 126.742 177.604 c 127.035 177.76 127.238 177.963 127.352 178.213 c 127.469
 178.475 127.523 179.24 127.523 180.51 c 127.523 191.947 l 127.523 193.49
 127.473 194.479 127.367 194.916 c 127.297 195.248 127.16 195.494 126.961
 195.65 c 126.773 195.807 126.547 195.885 126.273 195.885 c 125.891 195.885
 125.352 195.725 124.664 195.4 c 124.43 195.885 l f
151.023 198.4 m 151.023 197.822 l 149.648 197.686 148.523 197.412 147.648
 196.994 c 146.785 196.588 145.926 195.963 145.07 195.119 c 144.227 194.275
 143.523 193.334 142.961 192.291 c 142.41 191.26 141.945 190.029 141.57 
188.604 c 143.07 189.635 144.578 190.15 146.086 190.15 c 147.535 190.15 
148.789 189.568 149.852 188.4 c 150.914 187.232 151.445 185.732 151.445 
183.9 c 151.445 182.131 150.91 180.514 149.836 179.057 c 148.547 177.287
 146.836 176.4 144.711 176.4 c 143.266 176.4 142.035 176.881 141.023 177.838
 c 139.047 179.701 138.055 182.119 138.055 185.088 c 138.055 186.982 138.438
 188.787 139.195 190.494 c 139.957 192.201 141.039 193.717 142.445 195.041
 c 143.863 196.365 145.219 197.256 146.508 197.713 c 147.801 198.17 149.004
 198.4 150.117 198.4 c 151.023 198.4 l 141.305 187.463 m 141.117 186.057
 141.023 184.92 141.023 184.057 c 141.023 183.057 141.207 181.967 141.57
 180.791 c 141.945 179.623 142.5 178.697 143.227 178.01 c 143.758 177.521
 144.406 177.275 145.164 177.275 c 146.07 177.275 146.879 177.701 147.586
 178.557 c 148.305 179.412 148.664 180.631 148.664 182.213 c 148.664 183.994
 148.312 185.537 147.602 186.838 c 146.895 188.139 145.891 188.791 144.586
 188.791 c 144.191 188.791 143.766 188.709 143.305 188.541 c 142.859 188.373
 142.191 188.014 141.305 187.463 c f
q 1 0 0 -1 0 231.576187 cm
109.598 61.07 m 156.84 61.07 l S Q
140.711 162.01 m 152.07 162.01 l 152.07 161.416 l 145.008 140.385 l 143.258
 140.385 l 149.586 159.463 l 143.758 159.463 l 142.582 159.463 141.742 159.322
 141.242 159.041 c 140.367 158.564 139.664 157.822 139.133 156.822 c 138.68
 156.994 l 140.711 162.01 l f
167.836 162.447 m 167.836 161.869 l 166.461 161.736 165.336 161.459 164.461
 161.041 c 163.598 160.635 162.738 160.01 161.883 159.166 c 161.039 158.322
 160.336 157.381 159.773 156.338 c 159.223 155.307 158.758 154.08 158.383
 152.65 c 159.883 153.682 161.391 154.197 162.898 154.197 c 164.348 154.197
 165.602 153.615 166.664 152.447 c 167.727 151.283 168.258 149.783 168.258
 147.947 c 168.258 146.178 167.723 144.564 166.648 143.104 c 165.359 141.334
 163.648 140.447 161.523 140.447 c 160.078 140.447 158.848 140.928 157.836
 141.885 c 155.859 143.752 154.867 146.166 154.867 149.135 c 154.867 151.033
 155.25 152.834 156.008 154.541 c 156.77 156.252 157.852 157.768 159.258
 159.088 c 160.676 160.412 162.031 161.303 163.32 161.76 c 164.613 162.221
 165.816 162.447 166.93 162.447 c 167.836 162.447 l 158.117 151.51 m 157.93
 150.104 157.836 148.971 157.836 148.104 c 157.836 147.104 158.02 146.018
 158.383 144.838 c 158.758 143.674 159.312 142.744 160.039 142.057 c 160.57
 141.568 161.219 141.322 161.977 141.322 c 162.883 141.322 163.691 141.752
 164.398 142.604 c 165.117 143.459 165.477 144.678 165.477 146.26 c 165.477
 148.041 165.125 149.584 164.414 150.885 c 163.707 152.189 162.703 152.838
 161.398 152.838 c 161.004 152.838 160.578 152.756 160.117 152.588 c 159.672
 152.424 159.004 152.064 158.117 151.51 c f
128.012 121.174 8.078 -2.359 re f
151.746 134.439 m 151.746 133.861 l 150.371 133.725 149.246 133.451 148.371
 133.033 c 147.508 132.627 146.648 132.002 145.793 131.158 c 144.949 130.314
 144.246 129.373 143.684 128.33 c 143.133 127.299 142.668 126.068 142.293
 124.643 c 143.793 125.674 145.297 126.189 146.809 126.189 c 148.258 126.189
 149.512 125.607 150.574 124.439 c 151.637 123.271 152.168 121.771 152.168
 119.939 c 152.168 118.17 151.633 116.553 150.559 115.096 c 149.266 113.326
 147.559 112.439 145.434 112.439 c 143.984 112.439 142.758 112.92 141.746
 113.877 c 139.766 115.74 138.777 118.158 138.777 121.127 c 138.777 123.021
 139.156 124.826 139.918 126.533 c 140.68 128.24 141.762 129.756 143.168
 131.08 c 144.586 132.404 145.938 133.295 147.23 133.752 c 148.523 134.209
 149.727 134.439 150.84 134.439 c 151.746 134.439 l 142.027 123.502 m 141.84
 122.096 141.746 120.959 141.746 120.096 c 141.746 119.096 141.93 118.006
 142.293 116.83 c 142.668 115.662 143.219 114.736 143.949 114.049 c 144.48
 113.561 145.125 113.314 145.887 113.314 c 146.793 113.314 147.602 113.74
 148.309 114.596 c 149.027 115.451 149.387 116.67 149.387 118.252 c 149.387
 120.033 149.031 121.576 148.324 122.877 c 147.617 124.178 146.609 124.83
 145.309 124.83 c 144.914 124.83 144.484 124.748 144.027 124.58 c 143.578
 124.412 142.914 124.053 142.027 123.502 c f
168.293 120.627 m 168.293 118.408 l 165.449 118.408 l 165.449 112.814 l
 162.871 112.814 l 162.871 118.408 l 153.902 118.408 l 153.902 120.408 l
 163.73 134.439 l 165.449 134.439 l 165.449 120.627 l 168.293 120.627 l 
162.871 120.627 m 162.871 131.143 l 155.434 120.627 l 162.871 120.627 l f
q 1 0 0 -1 0 231.576187 cm
124.855 125.871 m 172.098 125.871 l S Q
141.242 93.881 m 146.398 96.396 l 146.914 96.396 l 146.914 78.506 l 146.914
 77.318 146.961 76.58 147.055 76.287 c 147.16 75.994 147.367 75.771 147.68
 75.615 c 147.992 75.459 148.629 75.369 149.586 75.35 c 149.586 74.771 l
 141.617 74.771 l 141.617 75.35 l 142.617 75.369 143.266 75.455 143.555 
75.6 c 143.848 75.756 144.051 75.959 144.164 76.209 c 144.281 76.471 144.336
 77.236 144.336 78.506 c 144.336 89.943 l 144.336 91.486 144.285 92.475 
144.18 92.912 c 144.109 93.244 143.973 93.49 143.773 93.646 c 143.586 93.803
 143.359 93.881 143.086 93.881 c 142.703 93.881 142.164 93.721 141.477 93.396
 c 141.242 93.881 l f
168.164 78.85 m 166.68 74.771 l 154.18 74.771 l 154.18 75.35 l 157.859 
78.705 160.445 81.443 161.945 83.568 c 163.445 85.693 164.195 87.635 164.195
 89.396 c 164.195 90.74 163.785 91.846 162.961 92.709 c 162.141 93.572 161.156
 94.006 160.008 94.006 c 158.969 94.006 158.031 93.697 157.195 93.084 c 
156.375 92.479 155.766 91.588 155.367 90.412 c 154.789 90.412 l 155.051 
92.338 155.719 93.818 156.789 94.85 c 157.875 95.881 159.223 96.396 160.836
 96.396 c 162.555 96.396 163.988 95.846 165.133 94.74 c 166.289 93.635 166.867
 92.334 166.867 90.834 c 166.867 89.76 166.617 88.689 166.117 87.615 c 165.348
 85.928 164.098 84.143 162.367 82.256 c 159.773 79.424 158.156 77.713 157.508
 77.131 c 163.039 77.131 l 164.164 77.131 164.953 77.174 165.398 77.256 
c 165.859 77.338 166.27 77.506 166.633 77.756 c 167 78.018 167.316 78.381
 167.586 78.85 c 168.164 78.85 l f
231.312 162.455 m 231.859 162.455 l 231.617 160.713 230.91 159.299 229.734
 158.205 c 228.566 157.119 227.27 156.58 225.844 156.58 c 225.094 156.58
 224.223 156.697 223.234 156.939 c 222.234 157.178 221.457 157.299 220.906
 157.299 c 220.156 157.299 219.457 156.979 218.812 156.346 c 218.156 155.721
 217.754 154.85 217.609 153.736 c 216.969 153.736 l 216.82 154.85 216.426
 155.721 215.781 156.346 c 215.133 156.979 214.43 157.299 213.672 157.299
 c 213.117 157.299 212.348 157.178 211.359 156.939 c 210.367 156.697 209.492
 156.58 208.734 156.58 c 207.316 156.58 206.02 157.119 204.844 158.205 c
 203.664 159.299 202.961 160.713 202.734 162.455 c 203.281 162.455 l 203.57
 161.236 204.051 160.338 204.719 159.768 c 205.375 159.205 206.098 158.924
 206.891 158.924 c 207.504 158.924 208.316 159.037 209.328 159.268 c 210.328
 159.506 211.18 159.627 211.891 159.627 c 212.941 159.627 213.961 159.24
 214.953 158.471 c 215.941 157.697 216.707 156.549 217.25 155.018 c 217.801
 156.518 218.582 157.658 219.594 158.439 c 220.602 159.229 221.633 159.627
 222.688 159.627 c 223.395 159.627 224.25 159.506 225.25 159.268 c 226.258
 159.037 227.07 158.924 227.688 158.924 c 228.477 158.924 229.203 159.205
 229.859 159.768 c 230.523 160.338 231.008 161.236 231.312 162.455 c f
168.762 68.678 m 169.309 68.678 l 169.07 66.939 168.363 65.521 167.184 
64.428 c 166.02 63.346 164.723 62.803 163.293 62.803 c 162.543 62.803 161.676
 62.924 160.684 63.162 c 159.684 63.404 158.91 63.521 158.355 63.521 c 157.605
 63.521 156.91 63.205 156.262 62.568 c 155.605 61.943 155.207 61.076 155.059
 59.959 c 154.418 59.959 l 154.273 61.076 153.879 61.943 153.23 62.568 c
 152.586 63.205 151.883 63.521 151.121 63.521 c 150.57 63.521 149.801 63.404
 148.809 63.162 c 147.82 62.924 146.945 62.803 146.184 62.803 c 144.77 62.803
 143.473 63.346 142.293 64.428 c 141.117 65.521 140.414 66.939 140.184 68.678
 c 140.73 68.678 l 141.023 67.459 141.504 66.564 142.168 65.99 c 142.824
 65.428 143.551 65.146 144.34 65.146 c 144.957 65.146 145.77 65.264 146.777
 65.49 c 147.777 65.732 148.633 65.85 149.34 65.85 c 150.395 65.85 151.414
 65.467 152.402 64.693 c 153.395 63.924 154.16 62.771 154.699 61.24 c 155.254
 62.74 156.035 63.881 157.043 64.662 c 158.055 65.455 159.086 65.85 160.137
 65.85 c 160.848 65.85 161.699 65.732 162.699 65.49 c 163.711 65.264 164.523
 65.146 165.137 65.146 c 165.93 65.146 166.652 65.428 167.309 65.99 c 167.977
 66.564 168.461 67.459 168.762 68.678 c f
215.234 139.678 m 212.812 131.303 l 214.797 131.303 l 216.215 131.303 217.242
 131.518 217.875 131.943 c 218.512 132.381 219.059 133.182 219.516 134.35
 c 220.094 134.35 l 217.922 126.662 l 217.297 126.662 l 217.484 127.307 
217.578 127.861 217.578 128.318 c 217.578 128.768 217.484 129.127 217.297
 129.396 c 217.121 129.666 216.871 129.865 216.547 129.99 c 216.234 130.127
 215.57 130.193 214.547 130.193 c 212.531 130.193 l 210.484 123.178 l 210.289
 122.502 210.188 121.986 210.188 121.631 c 210.188 121.361 210.32 121.119
 210.578 120.912 c 210.758 120.768 211.199 120.693 211.906 120.693 c 213.781
 120.693 l 215.812 120.693 217.438 121.053 218.656 121.771 c 219.887 122.49
 220.984 123.74 221.953 125.521 c 222.531 125.521 l 220.531 119.631 l 204.156
 119.631 l 204.359 120.209 l 205.172 120.229 205.719 120.303 206 120.428
 c 206.418 120.615 206.719 120.854 206.906 121.146 c 207.188 121.572 207.523
 122.471 207.906 123.834 c 211.625 136.615 l 211.918 137.646 212.062 138.432
 212.062 138.975 c 212.062 139.369 211.922 139.678 211.641 139.896 c 211.371
 140.127 210.836 140.24 210.031 140.24 c 209.703 140.24 l 209.891 140.818
 l 225.109 140.818 l 223.797 135.709 l 223.219 135.709 l 223.293 136.189
 223.328 136.588 223.328 136.912 c 223.328 137.463 223.195 137.928 222.922
 138.303 c 222.57 138.783 222.055 139.146 221.375 139.396 c 220.875 139.584
 219.727 139.678 217.922 139.678 c 215.234 139.678 l f
162.637 45.525 m 161.059 38.666 l 160.496 38.666 l 160.434 40.385 l 160.379
 41.01 160.262 41.568 160.074 42.057 c 159.887 42.549 159.605 42.971 159.23
 43.322 c 158.855 43.689 158.379 43.971 157.809 44.166 c 157.234 44.377 
156.598 44.479 155.902 44.479 c 154.035 44.479 152.406 43.971 151.012 42.947
 c 149.23 41.646 147.832 39.807 146.824 37.432 c 145.988 35.475 145.574 
33.49 145.574 31.479 c 145.574 29.428 146.172 27.787 147.371 26.557 c 148.566
 25.338 150.125 24.729 152.043 24.729 c 153.488 24.729 154.777 25.053 155.902
 25.697 c 157.035 26.346 158.09 27.338 159.059 28.682 c 159.793 28.682 l
 158.645 26.861 157.375 25.518 155.98 24.65 c 154.582 23.799 152.91 23.369
 150.965 23.369 c 149.234 23.369 147.703 23.729 146.371 24.447 c 145.035
 25.178 144.02 26.197 143.324 27.51 c 142.625 28.822 142.277 30.236 142.277
 31.744 c 142.277 34.057 142.895 36.307 144.137 38.494 c 145.375 40.682 
147.074 42.4 149.23 43.65 c 151.395 44.9 153.578 45.525 155.777 45.525 c
 156.809 45.525 157.965 45.283 159.246 44.791 c 159.809 44.584 160.215 44.479
 160.465 44.479 c 160.715 44.479 160.934 44.533 161.121 44.635 c 161.309
 44.74 161.621 45.037 162.059 45.525 c 162.637 45.525 l f
1.417323 w
[ 1.417323 1.417323] 0 d
q 1 0 0 -1 0 231.576187 cm
236.398 84.598 m 232.273 79.699 223.723 82.129 217.324 82.352 c 210.289
 82.598 201.477 81.227 196.57 86.277 c 184.965 98.23 192.883 119.508 188.719
 135.641 c 185.289 148.926 184.992 165.273 174.695 174.344 c 168.945 179.41
 159.711 177.602 152.258 179.395 c 144.188 181.332 133.293 179.059 128.137
 185.562 c 122.445 192.742 124.703 204.348 127.578 213.047 c 129.879 220.008
 133.898 228.785 141.039 230.438 c 153.422 233.305 165.211 221.398 175.258
 213.609 c 190.242 201.988 202.367 186.586 212.277 170.418 c 222.531 153.691
 230.387 135.145 234.715 116.008 c 237.027 105.781 243.152 92.617 236.398
 84.598 c h
S Q
3.11811 w
[] 0.0 d
q 1 0 0 -1 0 231.576187 cm
266.125 119.934 m 199.938 226.512 l S Q
206.516 15.662 m 204.508 24.248 l 198.293 2.416 l 215.105 17.67 l h
f*
1.32442 w
q 0.621053 1 1 -0.621053 0 231.576187 cm
-63.258 245.802 m -57.962 240.505 l -76.502 245.805 l -57.959 251.101 l
 h
S Q
1.700787 w
q 1 0 0 -1 0 231.576187 cm
137.113 198.465 m 66.438 199.586 l S Q
73.238 32.1 m 76.586 35.553 l 64.738 31.963 l 76.695 28.752 l h
f*
0.850287 w
q 1 0.015873 0.015873 -1 0 231.576187 cm
70.054 200.589 m 73.456 197.189 l 61.554 200.59 l 73.457 203.99 l h
S Q
1.700787 w
q 1 0 0 -1 0 231.576187 cm
229.105 103.105 m 291.93 99.742 l S Q
285.137 131.471 m 281.922 127.893 l 293.629 131.928 l 281.555 134.686 l
 h
f*
0.849176 w
q -1 -0.0535714 -0.0535714 1 0 231.576187 cm
-278.973 -115.05 m -275.577 -118.447 l -287.466 -115.048 l -275.573 -111.653
 l h
S Q
Q Q
showpage
%%Trailer
end restore
%%EOF
