%!PS-Adobe-3.0 EPSF-3.0
%%Creator: cairo 1.12.2 (http://cairographics.org)
%%CreationDate: Fri Feb 14 23:54:27 2014
%%Pages: 1
%%DocumentData: Clean7Bit
%%LanguageLevel: 2
%%BoundingBox: 0 -1 280 117
%%EndComments
%%BeginProlog
save
50 dict begin
/q { gsave } bind def
/Q { grestore } bind def
/cm { 6 array astore concat } bind def
/w { setlinewidth } bind def
/J { setlinecap } bind def
/j { setlinejoin } bind def
/M { setmiterlimit } bind def
/d { setdash } bind def
/m { moveto } bind def
/l { lineto } bind def
/c { curveto } bind def
/h { closepath } bind def
/re { exch dup neg 3 1 roll 5 3 roll moveto 0 rlineto
      0 exch rlineto 0 rlineto closepath } bind def
/S { stroke } bind def
/f { fill } bind def
/f* { eofill } bind def
/n { newpath } bind def
/W { clip } bind def
/W* { eoclip } bind def
/BT { } bind def
/ET { } bind def
/pdfmark where { pop globaldict /?pdfmark /exec load put }
    { globaldict begin /?pdfmark /pop load def /pdfmark
    /cleartomark load def end } ifelse
/BDC { mark 3 1 roll /BDC pdfmark } bind def
/EMC { mark /EMC pdfmark } bind def
/cairo_store_point { /cairo_point_y exch def /cairo_point_x exch def } def
/Tj { show currentpoint cairo_store_point } bind def
/TJ {
  {
    dup
    type /stringtype eq
    { show } { -0.001 mul 0 cairo_font_matrix dtransform rmoveto } ifelse
  } forall
  currentpoint cairo_store_point
} bind def
/cairo_selectfont { cairo_font_matrix aload pop pop pop 0 0 6 array astore
    cairo_font exch selectfont cairo_point_x cairo_point_y moveto } bind def
/Tf { pop /cairo_font exch def /cairo_font_matrix where
      { pop cairo_selectfont } if } bind def
/Td { matrix translate cairo_font_matrix matrix concatmatrix dup
      /cairo_font_matrix exch def dup 4 get exch 5 get cairo_store_point
      /cairo_font where { pop cairo_selectfont } if } bind def
/Tm { 2 copy 8 2 roll 6 array astore /cairo_font_matrix exch def
      cairo_store_point /cairo_font where { pop cairo_selectfont } if } bind def
/g { setgray } bind def
/rg { setrgbcolor } bind def
/d1 { setcachedevice } bind def
%%EndProlog
%%Page: 1 1
%%BeginPageSetup
%%PageBoundingBox: 0 -1 280 117
%%EndPageSetup
q 0 -1 280 118 rectclip q
0 g
57.016 86.83 m 58.109 86.83 l 57.629 84.275 56.219 82.193 53.867 80.588
 c 51.539 78.998 48.953 78.201 46.105 78.201 c 44.609 78.201 42.875 78.377
 40.898 78.729 c 38.906 79.08 37.355 79.256 36.254 79.256 c 34.758 79.256
 33.367 78.791 32.078 77.857 c 30.77 76.939 29.969 75.662 29.676 74.025 
c 28.398 74.025 l 28.109 75.662 27.32 76.939 26.031 77.857 c 24.742 78.791
 23.34 79.256 21.82 79.256 c 20.719 79.256 19.184 79.08 17.207 78.729 c 
15.234 78.377 13.488 78.201 11.973 78.201 c 9.145 78.201 6.559 78.998 4.207
 80.588 c 1.859 82.193 0.457 84.275 0 86.83 c 1.09 86.83 l 1.672 85.037 
2.629 83.725 3.961 82.881 c 5.27 82.057 6.711 81.643 8.293 81.643 c 9.52
 81.643 11.141 81.811 13.156 82.147 c 15.152 82.502 16.855 82.678 18.27 
82.678 c 20.367 82.678 22.402 82.111 24.379 80.979 c 26.352 79.846 27.879
 78.158 28.961 75.908 c 30.062 78.111 31.621 79.787 33.637 80.932 c 35.652
 82.096 37.711 82.678 39.809 82.678 c 41.223 82.678 42.926 82.502 44.922
 82.147 c 46.938 81.811 48.559 81.643 49.785 81.643 c 51.363 81.643 52.809
 82.057 54.117 82.881 c 55.449 83.725 56.414 85.037 57.016 86.83 c f
1.700787 w
0 J
0 j
[] 0.0 d
4 M q 1 0 0 -1 0 116.111351 cm
242.48 20.113 m 242.48 84.332 l S Q
242.48 38.584 m 239.082 41.986 l 242.48 30.08 l 245.883 41.986 l h
f*
0.850394 w
q -0.000000000000000061 1 1 0.000000000000000061 0 116.111351 cm
-77.527 242.48 m -74.125 239.082 l -86.031 242.48 l -74.125 245.883 l h
S Q
1.700787 w
q 1 0 0 -1 0 116.111351 cm
275.164 85.605 m 275.164 21.387 l S Q
275.164 87.92 m 278.562 84.518 l 275.164 96.424 l 271.762 84.518 l h
f*
0.850394 w
q -0.000000000000000061 -1 -1 0.000000000000000061 0 116.111351 cm
28.191 -275.164 m 31.594 -278.562 l 19.687 -275.164 l 31.594 -271.762 l
 h
S Q
0.258 113.596 m 5.414 116.111 l 5.93 116.111 l 5.93 98.221 l 5.93 97.033
 5.977 96.295 6.07 96.002 c 6.176 95.709 6.383 95.486 6.695 95.33 c 7.008
 95.174 7.645 95.084 8.602 95.064 c 8.602 94.486 l 0.633 94.486 l 0.633 
95.064 l 1.633 95.084 2.281 95.17 2.57 95.314 c 2.863 95.471 3.066 95.674
 3.18 95.924 c 3.297 96.186 3.352 96.951 3.352 98.221 c 3.352 109.658 l 
3.352 111.201 3.301 112.189 3.195 112.627 c 3.125 112.959 2.988 113.205 
2.789 113.361 c 2.602 113.518 2.375 113.596 2.102 113.596 c 1.719 113.596
 1.18 113.436 0.492 113.111 c 0.258 113.596 l f
15.07 113.596 m 20.227 116.111 l 20.742 116.111 l 20.742 98.221 l 20.742
 97.033 20.789 96.295 20.883 96.002 c 20.988 95.709 21.195 95.486 21.508
 95.33 c 21.82 95.174 22.457 95.084 23.414 95.064 c 23.414 94.486 l 15.445
 94.486 l 15.445 95.064 l 16.445 95.084 17.094 95.17 17.383 95.314 c 17.676
 95.471 17.879 95.674 17.992 95.924 c 18.109 96.186 18.164 96.951 18.164
 98.221 c 18.164 109.658 l 18.164 111.201 18.113 112.189 18.008 112.627 
c 17.938 112.959 17.801 113.205 17.602 113.361 c 17.414 113.518 17.188 113.596
 16.914 113.596 c 16.531 113.596 15.992 113.436 15.305 113.111 c 15.07 113.596
 l f
29.883 113.596 m 35.039 116.111 l 35.555 116.111 l 35.555 98.221 l 35.555
 97.033 35.602 96.295 35.695 96.002 c 35.801 95.709 36.008 95.486 36.32 
95.33 c 36.633 95.174 37.27 95.084 38.227 95.064 c 38.227 94.486 l 30.258
 94.486 l 30.258 95.064 l 31.258 95.084 31.906 95.17 32.195 95.314 c 32.488
 95.471 32.691 95.674 32.805 95.924 c 32.922 96.186 32.977 96.951 32.977
 98.221 c 32.977 109.658 l 32.977 111.201 32.926 112.189 32.82 112.627 c
 32.75 112.959 32.613 113.205 32.414 113.361 c 32.227 113.518 32 113.596
 31.727 113.596 c 31.344 113.596 30.805 113.436 30.117 113.111 c 29.883 
113.596 l f
43.289 104.955 m 43.289 107.373 43.656 109.451 44.383 111.189 c 45.113 
112.939 46.082 114.24 47.289 115.096 c 48.227 115.772 49.195 116.111 50.195
 116.111 c 51.82 116.111 53.281 115.283 54.57 113.627 c 56.188 111.576 56.992
 108.795 56.992 105.283 c 56.992 102.826 56.641 100.736 55.93 99.018 c 55.223
 97.299 54.316 96.049 53.211 95.268 c 52.117 94.498 51.062 94.111 50.039
 94.111 c 48.02 94.111 46.336 95.303 44.992 97.689 c 43.859 99.701 43.289
 102.123 43.289 104.955 c 46.352 104.564 m 46.352 101.647 46.711 99.268 
47.43 97.424 c 48.023 95.873 48.91 95.096 50.086 95.096 c 50.648 95.096 
51.234 95.346 51.836 95.846 c 52.441 96.357 52.898 97.205 53.211 98.393 
c 53.691 100.186 53.93 102.709 53.93 105.971 c 53.93 108.389 53.68 110.404
 53.18 112.018 c 52.805 113.217 52.32 114.064 51.727 114.564 c 51.301 114.908
 50.785 115.08 50.18 115.08 c 49.473 115.08 48.844 114.764 48.289 114.127
 c 47.539 113.264 47.031 111.904 46.758 110.049 c 46.488 108.193 46.352 
106.365 46.352 104.564 c f
85.883 113.596 m 91.039 116.111 l 91.555 116.111 l 91.555 98.221 l 91.555
 97.033 91.602 96.295 91.695 96.002 c 91.801 95.709 92.008 95.486 92.32 
95.33 c 92.633 95.174 93.27 95.084 94.227 95.064 c 94.227 94.486 l 86.258
 94.486 l 86.258 95.064 l 87.258 95.084 87.906 95.17 88.195 95.314 c 88.488
 95.471 88.691 95.674 88.805 95.924 c 88.922 96.186 88.977 96.951 88.977
 98.221 c 88.977 109.658 l 88.977 111.201 88.926 112.189 88.82 112.627 c
 88.75 112.959 88.613 113.205 88.414 113.361 c 88.227 113.518 88 113.596
 87.727 113.596 c 87.344 113.596 86.805 113.436 86.117 113.111 c 85.883 
113.596 l f
100.695 113.596 m 105.852 116.111 l 106.367 116.111 l 106.367 98.221 l 
106.367 97.033 106.414 96.295 106.508 96.002 c 106.613 95.709 106.82 95.486
 107.133 95.33 c 107.445 95.174 108.082 95.084 109.039 95.064 c 109.039 
94.486 l 101.07 94.486 l 101.07 95.064 l 102.07 95.084 102.719 95.17 103.008
 95.314 c 103.301 95.471 103.504 95.674 103.617 95.924 c 103.734 96.186 
103.789 96.951 103.789 98.221 c 103.789 109.658 l 103.789 111.201 103.738
 112.189 103.633 112.627 c 103.562 112.959 103.426 113.205 103.227 113.361
 c 103.039 113.518 102.812 113.596 102.539 113.596 c 102.156 113.596 101.617
 113.436 100.93 113.111 c 100.695 113.596 l f
114.102 104.955 m 114.102 107.373 114.469 109.451 115.195 111.189 c 115.926
 112.939 116.895 114.24 118.102 115.096 c 119.039 115.772 120.008 116.111
 121.008 116.111 c 122.633 116.111 124.094 115.283 125.383 113.627 c 127
 111.576 127.805 108.795 127.805 105.283 c 127.805 102.826 127.453 100.736
 126.742 99.018 c 126.035 97.299 125.129 96.049 124.023 95.268 c 122.93 
94.498 121.875 94.111 120.852 94.111 c 118.832 94.111 117.148 95.303 115.805
 97.689 c 114.672 99.701 114.102 102.123 114.102 104.955 c 117.164 104.564
 m 117.164 101.647 117.523 99.268 118.242 97.424 c 118.836 95.873 119.723
 95.096 120.898 95.096 c 121.461 95.096 122.047 95.346 122.648 95.846 c 
123.254 96.357 123.711 97.205 124.023 98.393 c 124.504 100.186 124.742 102.709
 124.742 105.971 c 124.742 108.389 124.492 110.404 123.992 112.018 c 123.617
 113.217 123.133 114.064 122.539 114.564 c 122.113 114.908 121.598 115.08
 120.992 115.08 c 120.285 115.08 119.656 114.764 119.102 114.127 c 118.352
 113.264 117.844 111.904 117.57 110.049 c 117.301 108.193 117.164 106.365
 117.164 104.564 c f
130.102 104.955 m 130.102 107.373 130.469 109.451 131.195 111.189 c 131.926
 112.939 132.895 114.24 134.102 115.096 c 135.039 115.772 136.008 116.111
 137.008 116.111 c 138.633 116.111 140.094 115.283 141.383 113.627 c 143
 111.576 143.805 108.795 143.805 105.283 c 143.805 102.826 143.453 100.736
 142.742 99.018 c 142.035 97.299 141.129 96.049 140.023 95.268 c 138.93 
94.498 137.875 94.111 136.852 94.111 c 134.832 94.111 133.148 95.303 131.805
 97.689 c 130.672 99.701 130.102 102.123 130.102 104.955 c 133.164 104.564
 m 133.164 101.647 133.523 99.268 134.242 97.424 c 134.836 95.873 135.723
 95.096 136.898 95.096 c 137.461 95.096 138.047 95.346 138.648 95.846 c 
139.254 96.357 139.711 97.205 140.023 98.393 c 140.504 100.186 140.742 102.709
 140.742 105.971 c 140.742 108.389 140.492 110.404 139.992 112.018 c 139.617
 113.217 139.133 114.064 138.539 114.564 c 138.113 114.908 137.598 115.08
 136.992 115.08 c 136.285 115.08 135.656 114.764 135.102 114.127 c 134.352
 113.264 133.844 111.904 133.57 110.049 c 133.301 108.193 133.164 106.365
 133.164 104.564 c f
154.555 95.115 m 155.508 94.912 156.223 94.588 156.699 94.139 c 157.355
 93.518 157.684 92.756 157.684 91.854 c 157.684 91.17 157.465 90.514 157.031
 89.885 c 156.598 89.26 156.004 88.803 155.246 88.514 c 154.492 88.229 153.344
 88.088 151.793 88.088 c 145.293 88.088 l 145.293 88.463 l 145.809 88.463
 l 146.387 88.463 146.797 88.647 147.051 89.01 c 147.203 89.248 147.281 
89.752 147.281 90.525 c 147.281 99.42 l 147.281 100.275 147.184 100.811 
146.988 101.037 c 146.723 101.334 146.332 101.482 145.809 101.482 c 145.293
 101.482 l 145.293 101.857 l 151.242 101.857 l 152.355 101.857 153.246 101.775
 153.914 101.615 c 154.93 101.369 155.707 100.939 156.242 100.314 c 156.777
 99.697 157.043 98.986 157.043 98.182 c 157.043 97.49 156.832 96.873 156.414
 96.322 c 155.992 95.783 155.375 95.377 154.555 95.115 c 149.234 95.662 
m 149.484 95.615 149.77 95.58 150.086 95.553 c 150.41 95.529 150.766 95.522
 151.152 95.522 c 152.141 95.522 152.883 95.627 153.375 95.834 c 153.879
 96.053 154.262 96.381 154.523 96.822 c 154.789 97.26 154.922 97.74 154.922
 98.264 c 154.922 99.068 154.594 99.756 153.934 100.326 c 153.277 100.893
 152.32 101.178 151.062 101.178 c 150.383 101.178 149.773 101.104 149.234
 100.955 c 149.234 95.662 l 149.234 89.08 m 150.02 88.9 150.793 88.807 151.559
 88.807 c 152.785 88.807 153.719 89.08 154.363 89.631 c 155.004 90.186 155.328
 90.869 155.328 91.682 c 155.328 92.217 155.18 92.732 154.891 93.225 c 154.598
 93.721 154.125 94.107 153.469 94.393 c 152.812 94.678 152 94.818 151.031
 94.818 c 150.609 94.818 150.25 94.814 149.953 94.799 c 149.656 94.787 149.414
 94.764 149.234 94.729 c 149.234 89.08 l f
141.441 86.83 m 142.531 86.83 l 142.055 84.275 140.641 82.193 138.293 80.588
 c 135.965 78.998 133.379 78.201 130.531 78.201 c 129.035 78.201 127.297
 78.377 125.324 78.729 c 123.328 79.08 121.781 79.256 120.68 79.256 c 119.184
 79.256 117.789 78.791 116.5 77.857 c 115.191 76.939 114.391 75.662 114.102
 74.025 c 112.824 74.025 l 112.531 75.662 111.742 76.939 110.453 77.857 
c 109.164 78.791 107.762 79.256 106.246 79.256 c 105.145 79.256 103.605 
79.08 101.633 78.729 c 99.656 78.377 97.91 78.201 96.395 78.201 c 93.566
 78.201 90.98 78.998 88.633 80.588 c 86.285 82.193 84.883 84.275 84.422 
86.83 c 85.516 86.83 l 86.098 85.037 87.051 83.725 88.383 82.881 c 89.691
 82.057 91.137 81.643 92.715 81.643 c 93.941 81.643 95.562 81.811 97.578
 82.147 c 99.574 82.502 101.277 82.678 102.691 82.678 c 104.789 82.678 106.828
 82.111 108.801 80.979 c 110.777 79.846 112.305 78.158 113.383 75.908 c 
114.484 78.111 116.043 79.787 118.059 80.932 c 120.078 82.096 122.133 82.678
 124.234 82.678 c 125.645 82.678 127.352 82.502 129.344 82.147 c 131.359
 81.811 132.98 81.643 134.207 81.643 c 135.789 81.643 137.23 82.057 138.543
 82.881 c 139.871 83.725 140.84 85.037 141.441 86.83 c f
25.402 27.584 m 22.98 19.209 l 24.965 19.209 l 26.379 19.209 27.406 19.424
 28.043 19.85 c 28.676 20.287 29.223 21.088 29.684 22.256 c 30.262 22.256
 l 28.09 14.568 l 27.465 14.568 l 27.652 15.213 27.746 15.768 27.746 16.225
 c 27.746 16.674 27.652 17.033 27.465 17.303 c 27.285 17.572 27.035 17.772
 26.715 17.897 c 26.402 18.033 25.734 18.1 24.715 18.1 c 22.699 18.1 l 20.652
 11.084 l 20.453 10.408 20.355 9.893 20.355 9.537 c 20.355 9.268 20.484 
9.025 20.746 8.818 c 20.922 8.674 21.363 8.6 22.074 8.6 c 23.949 8.6 l 25.98
 8.6 27.605 8.959 28.824 9.678 c 30.051 10.397 31.152 11.647 32.121 13.428
 c 32.699 13.428 l 30.699 7.537 l 14.324 7.537 l 14.527 8.115 l 15.34 8.135
 15.887 8.209 16.168 8.334 c 16.582 8.522 16.887 8.76 17.074 9.053 c 17.355
 9.479 17.688 10.377 18.074 11.74 c 21.793 24.522 l 22.082 25.553 22.23 
26.338 22.23 26.881 c 22.23 27.275 22.09 27.584 21.809 27.803 c 21.535 28.033
 21 28.147 20.199 28.147 c 19.871 28.147 l 20.059 28.725 l 35.277 28.725
 l 33.965 23.615 l 33.387 23.615 l 33.457 24.096 33.496 24.494 33.496 24.818
 c 33.496 25.369 33.359 25.834 33.09 26.209 c 32.734 26.689 32.219 27.053
 31.543 27.303 c 31.043 27.49 29.891 27.584 28.09 27.584 c 25.402 27.584
 l f
122.223 28.072 m 120.645 21.213 l 120.082 21.213 l 120.02 22.932 l 119.969
 23.557 119.848 24.115 119.66 24.604 c 119.473 25.092 119.191 25.514 118.816
 25.869 c 118.441 26.232 117.969 26.514 117.395 26.713 c 116.824 26.92 116.188
 27.025 115.488 27.025 c 113.625 27.025 111.996 26.514 110.598 25.494 c 
108.816 24.193 107.422 22.354 106.41 19.979 c 105.578 18.022 105.16 16.037
 105.16 14.025 c 105.16 11.975 105.762 10.334 106.957 9.104 c 108.156 7.885
 109.715 7.275 111.629 7.275 c 113.078 7.275 114.363 7.6 115.488 8.244 c
 116.625 8.889 117.676 9.885 118.645 11.229 c 119.379 11.229 l 118.234 9.404
 116.965 8.061 115.566 7.197 c 114.172 6.342 112.5 5.916 110.551 5.916 c
 108.824 5.916 107.293 6.275 105.957 6.994 c 104.625 7.725 103.609 8.744
 102.91 10.057 c 102.215 11.369 101.863 12.779 101.863 14.291 c 101.863 
16.604 102.484 18.854 103.723 21.041 c 104.965 23.229 106.66 24.947 108.816
 26.197 c 110.984 27.447 113.168 28.072 115.363 28.072 c 116.395 28.072 
117.551 27.826 118.832 27.338 c 119.395 27.131 119.801 27.025 120.051 27.025
 c 120.301 27.025 120.52 27.076 120.707 27.182 c 120.895 27.287 121.207 
27.584 121.645 28.072 c 122.223 28.072 l f
125.359 7.385 m 131.758 7.385 l 131.758 11.326 l 131.758 12.029 131.715
 12.494 131.625 12.717 c 131.559 12.885 131.414 13.029 131.199 13.154 c 
130.906 13.314 130.598 13.397 130.273 13.397 c 129.785 13.397 l 129.785 
13.772 l 135.68 13.772 l 135.68 13.397 l 135.191 13.397 l 134.867 13.397
 134.559 13.318 134.266 13.162 c 134.051 13.053 133.902 12.889 133.82 12.666
 c 133.746 12.447 133.707 12.002 133.707 11.326 c 133.707 2.439 l 133.707
 1.74 133.75 1.279 133.84 1.057 c 133.906 0.889 134.047 0.74 134.258 0.619
 c 134.555 0.455 134.867 0.377 135.191 0.377 c 135.68 0.377 l 135.68 -0.002
 l 129.785 -0.002 l 129.785 0.377 l 130.273 0.377 l 130.836 0.377 131.246
 0.541 131.504 0.873 c 131.672 1.092 131.758 1.611 131.758 2.439 c 131.758
 6.631 l 125.359 6.631 l 125.359 2.439 l 125.359 1.74 125.402 1.279 125.492
 1.057 c 125.559 0.889 125.699 0.74 125.918 0.619 c 126.207 0.455 126.516
 0.377 126.84 0.377 c 127.34 0.377 l 127.34 -0.002 l 121.438 -0.002 l 121.438
 0.377 l 121.926 0.377 l 122.496 0.377 122.906 0.541 123.164 0.873 c 123.328
 1.092 123.41 1.611 123.41 2.439 c 123.41 11.326 l 123.41 12.029 123.363
 12.494 123.277 12.717 c 123.211 12.885 123.07 13.029 122.859 13.154 c 122.562
 13.314 122.25 13.397 121.926 13.397 c 121.438 13.397 l 121.438 13.772 l
 127.34 13.772 l 127.34 13.397 l 126.84 13.397 l 126.516 13.397 126.207 
13.318 125.918 13.162 c 125.707 13.053 125.562 12.889 125.48 12.666 c 125.398
 12.447 125.359 12.002 125.359 11.326 c 125.359 7.385 l f
14.848 65.439 m 20.004 67.955 l 20.52 67.955 l 20.52 50.064 l 20.52 48.877
 20.566 48.139 20.66 47.846 c 20.762 47.553 20.973 47.33 21.285 47.174 c
 21.598 47.018 22.23 46.928 23.191 46.908 c 23.191 46.33 l 15.223 46.33 
l 15.223 46.908 l 16.223 46.928 16.867 47.014 17.16 47.158 c 17.449 47.314
 17.652 47.518 17.77 47.768 c 17.883 48.029 17.941 48.795 17.941 50.064 
c 17.941 61.502 l 17.941 63.045 17.887 64.033 17.785 64.471 c 17.711 64.803
 17.574 65.049 17.379 65.205 c 17.191 65.361 16.961 65.439 16.691 65.439
 c 16.305 65.439 15.77 65.279 15.082 64.955 c 14.848 65.439 l f
41.988 54.143 m 41.988 51.924 l 39.145 51.924 l 39.145 46.33 l 36.566 46.33
 l 36.566 51.924 l 27.598 51.924 l 27.598 53.924 l 37.426 67.955 l 39.145
 67.955 l 39.145 54.143 l 41.988 54.143 l 36.566 54.143 m 36.566 64.658 
l 29.129 54.143 l 36.566 54.143 l f
100.09 65.439 m 105.246 67.955 l 105.762 67.955 l 105.762 50.064 l 105.762
 48.877 105.809 48.139 105.902 47.846 c 106.008 47.553 106.215 47.33 106.527
 47.174 c 106.84 47.018 107.477 46.928 108.434 46.908 c 108.434 46.33 l 
100.465 46.33 l 100.465 46.908 l 101.465 46.928 102.113 47.014 102.402 47.158
 c 102.695 47.314 102.898 47.518 103.012 47.768 c 103.129 48.029 103.184
 48.795 103.184 50.064 c 103.184 61.502 l 103.184 63.045 103.133 64.033 
103.027 64.471 c 102.957 64.803 102.82 65.049 102.621 65.205 c 102.434 65.361
 102.207 65.439 101.934 65.439 c 101.551 65.439 101.012 65.279 100.324 64.955
 c 100.09 65.439 l f
127.012 50.408 m 125.527 46.33 l 113.027 46.33 l 113.027 46.908 l 116.707
 50.264 119.293 53.002 120.793 55.127 c 122.293 57.252 123.043 59.193 123.043
 60.955 c 123.043 62.299 122.633 63.404 121.809 64.268 c 120.988 65.131 
120.004 65.564 118.855 65.564 c 117.816 65.564 116.879 65.256 116.043 64.643
 c 115.223 64.037 114.613 63.147 114.215 61.971 c 113.637 61.971 l 113.898
 63.897 114.566 65.377 115.637 66.408 c 116.723 67.439 118.07 67.955 119.684
 67.955 c 121.402 67.955 122.836 67.404 123.98 66.299 c 125.137 65.193 125.715
 63.893 125.715 62.393 c 125.715 61.318 125.465 60.248 124.965 59.174 c 
124.195 57.486 122.945 55.701 121.215 53.814 c 118.621 50.982 117.004 49.272
 116.355 48.689 c 121.887 48.689 l 123.012 48.689 123.801 48.732 124.246
 48.814 c 124.707 48.897 125.117 49.064 125.48 49.314 c 125.848 49.576 126.164
 49.939 126.434 50.408 c 127.012 50.408 l f
42.207 43.42 m 42.754 43.42 l 42.512 41.682 41.805 40.264 40.629 39.17 
c 39.461 38.088 38.164 37.545 36.738 37.545 c 35.988 37.545 35.117 37.666
 34.129 37.904 c 33.129 38.147 32.352 38.264 31.801 38.264 c 31.051 38.264
 30.352 37.947 29.707 37.311 c 29.051 36.686 28.648 35.818 28.504 34.701
 c 27.863 34.701 l 27.715 35.818 27.32 36.686 26.676 37.311 c 26.027 37.947
 25.324 38.264 24.566 38.264 c 24.012 38.264 23.242 38.147 22.254 37.904
 c 21.262 37.666 20.387 37.545 19.629 37.545 c 18.211 37.545 16.914 38.088
 15.738 39.17 c 14.559 40.264 13.855 41.682 13.629 43.42 c 14.176 43.42 
l 14.465 42.201 14.945 41.307 15.613 40.732 c 16.27 40.17 16.992 39.889 
17.785 39.889 c 18.398 39.889 19.211 40.006 20.223 40.232 c 21.223 40.475
 22.074 40.592 22.785 40.592 c 23.836 40.592 24.855 40.209 25.848 39.436
 c 26.836 38.666 27.602 37.514 28.145 35.982 c 28.695 37.482 29.477 38.623
 30.488 39.404 c 31.496 40.197 32.527 40.592 33.582 40.592 c 34.289 40.592
 35.145 40.475 36.145 40.232 c 37.152 40.006 37.965 39.889 38.582 39.889
 c 39.371 39.889 40.098 40.17 40.754 40.732 c 41.418 41.307 41.902 42.201
 42.207 43.42 c f
127.492 43.42 m 128.039 43.42 l 127.801 41.682 127.094 40.264 125.914 39.17
 c 124.75 38.088 123.453 37.545 122.023 37.545 c 121.273 37.545 120.406 
37.666 119.414 37.904 c 118.414 38.147 117.641 38.264 117.086 38.264 c 116.336
 38.264 115.641 37.947 114.992 37.311 c 114.336 36.686 113.938 35.818 113.789
 34.701 c 113.148 34.701 l 113.004 35.818 112.609 36.686 111.961 37.311 
c 111.316 37.947 110.613 38.264 109.852 38.264 c 109.301 38.264 108.531 
38.147 107.539 37.904 c 106.551 37.666 105.676 37.545 104.914 37.545 c 103.5
 37.545 102.203 38.088 101.023 39.17 c 99.848 40.264 99.145 41.682 98.914
 43.42 c 99.461 43.42 l 99.754 42.201 100.234 41.307 100.898 40.732 c 101.555
 40.17 102.281 39.889 103.07 39.889 c 103.688 39.889 104.5 40.006 105.508
 40.232 c 106.508 40.475 107.363 40.592 108.07 40.592 c 109.125 40.592 110.145
 40.209 111.133 39.436 c 112.125 38.666 112.891 37.514 113.43 35.982 c 113.984
 37.482 114.766 38.623 115.773 39.404 c 116.785 40.197 117.816 40.592 118.867
 40.592 c 119.578 40.592 120.43 40.475 121.43 40.232 c 122.441 40.006 123.254
 39.889 123.867 39.889 c 124.66 39.889 125.383 40.17 126.039 40.732 c 126.707
 41.307 127.191 42.201 127.492 43.42 c f
Q Q
showpage
%%Trailer
end restore
%%EOF
