%!PS-Adobe-3.0 EPSF-3.0
%%Creator: cairo 1.12.2 (http://cairographics.org)
%%CreationDate: Fri Feb 14 21:30:00 2014
%%Pages: 1
%%DocumentData: Clean7Bit
%%LanguageLevel: 2
%%BoundingBox: 0 -1 718 403
%%EndComments
%%BeginProlog
save
50 dict begin
/q { gsave } bind def
/Q { grestore } bind def
/cm { 6 array astore concat } bind def
/w { setlinewidth } bind def
/J { setlinecap } bind def
/j { setlinejoin } bind def
/M { setmiterlimit } bind def
/d { setdash } bind def
/m { moveto } bind def
/l { lineto } bind def
/c { curveto } bind def
/h { closepath } bind def
/re { exch dup neg 3 1 roll 5 3 roll moveto 0 rlineto
      0 exch rlineto 0 rlineto closepath } bind def
/S { stroke } bind def
/f { fill } bind def
/f* { eofill } bind def
/n { newpath } bind def
/W { clip } bind def
/W* { eoclip } bind def
/BT { } bind def
/ET { } bind def
/pdfmark where { pop globaldict /?pdfmark /exec load put }
    { globaldict begin /?pdfmark /pop load def /pdfmark
    /cleartomark load def end } ifelse
/BDC { mark 3 1 roll /BDC pdfmark } bind def
/EMC { mark /EMC pdfmark } bind def
/cairo_store_point { /cairo_point_y exch def /cairo_point_x exch def } def
/Tj { show currentpoint cairo_store_point } bind def
/TJ {
  {
    dup
    type /stringtype eq
    { show } { -0.001 mul 0 cairo_font_matrix dtransform rmoveto } ifelse
  } forall
  currentpoint cairo_store_point
} bind def
/cairo_selectfont { cairo_font_matrix aload pop pop pop 0 0 6 array astore
    cairo_font exch selectfont cairo_point_x cairo_point_y moveto } bind def
/Tf { pop /cairo_font exch def /cairo_font_matrix where
      { pop cairo_selectfont } if } bind def
/Td { matrix translate cairo_font_matrix matrix concatmatrix dup
      /cairo_font_matrix exch def dup 4 get exch 5 get cairo_store_point
      /cairo_font where { pop cairo_selectfont } if } bind def
/Tm { 2 copy 8 2 roll 6 array astore /cairo_font_matrix exch def
      cairo_store_point /cairo_font where { pop cairo_selectfont } if } bind def
/g { setgray } bind def
/rg { setrgbcolor } bind def
/d1 { setcachedevice } bind def
%%EndProlog
%%Page: 1 1
%%BeginPageSetup
%%PageBoundingBox: 0 -1 718 403
%%EndPageSetup
q 0 -1 718 404 rectclip q
0 g
18.109 401.624 m 18.594 394.421 l 18.109 394.421 l 17.465 396.577 16.543
 398.128 15.344 399.077 c 14.145 400.026 12.707 400.499 11.031 400.499 c
 9.625 400.499 8.355 400.14 7.219 399.421 c 6.082 398.714 5.188 397.577 
4.531 396.015 c 3.887 394.452 3.562 392.511 3.562 390.187 c 3.562 388.269
 3.871 386.608 4.484 385.202 c 5.098 383.796 6.02 382.718 7.25 381.968 c
 8.488 381.218 9.902 380.843 11.484 380.843 c 12.859 380.843 14.074 381.136
 15.125 381.718 c 16.176 382.312 17.332 383.483 18.594 385.233 c 19.078 
384.921 l 18.016 383.034 16.777 381.655 15.359 380.78 c 13.941 379.905 12.262
 379.468 10.312 379.468 c 6.801 379.468 4.082 380.769 2.156 383.374 c 0.719
 385.312 0 387.593 0 390.218 c 0 392.331 0.473 394.276 1.422 396.046 c 2.371
 397.815 3.672 399.187 5.328 400.155 c 6.996 401.136 8.812 401.624 10.781
 401.624 c 12.312 401.624 13.824 401.249 15.312 400.499 c 15.75 400.269 
16.062 400.155 16.25 400.155 c 16.531 400.155 16.777 400.253 16.984 400.452
 c 17.254 400.733 17.449 401.124 17.562 401.624 c 18.109 401.624 l f
28.219 394.687 m 30.387 394.687 32.125 393.862 33.438 392.218 c 34.551 
390.812 35.109 389.198 35.109 387.374 c 35.109 386.093 34.801 384.796 34.188
 383.483 c 33.574 382.171 32.723 381.183 31.641 380.515 c 30.566 379.847
 29.371 379.515 28.047 379.515 c 25.891 379.515 24.176 380.374 22.906 382.093
 c 21.832 383.542 21.297 385.167 21.297 386.968 c 21.297 388.28 21.621 389.581
 22.266 390.874 c 22.922 392.175 23.781 393.136 24.844 393.749 c 25.906 
394.374 27.031 394.687 28.219 394.687 c 27.734 393.671 m 27.184 393.671 
26.625 393.503 26.062 393.171 c 25.512 392.847 25.062 392.276 24.719 391.452
 c 24.375 390.628 24.203 389.573 24.203 388.28 c 24.203 386.198 24.613 384.401
 25.438 382.89 c 26.27 381.378 27.363 380.624 28.719 380.624 c 29.73 380.624
 30.562 381.042 31.219 381.874 c 31.875 382.706 32.203 384.14 32.203 386.171
 c 32.203 388.714 31.656 390.714 30.562 392.171 c 29.824 393.171 28.879 
393.671 27.734 393.671 c f
41.391 391.655 m 43.066 393.675 44.668 394.687 46.188 394.687 c 46.969 
394.687 47.641 394.487 48.203 394.093 c 48.766 393.706 49.215 393.065 49.547
 392.171 c 49.777 391.546 49.891 390.589 49.891 389.296 c 49.891 383.187
 l 49.891 382.28 49.965 381.667 50.109 381.343 c 50.223 381.081 50.406 380.878
 50.656 380.733 c 50.918 380.589 51.391 380.515 52.078 380.515 c 52.078 
379.952 l 45 379.952 l 45 380.515 l 45.297 380.515 l 45.965 380.515 46.426
 380.612 46.688 380.812 c 46.957 381.019 47.145 381.323 47.25 381.718 c 
47.293 381.874 47.312 382.362 47.312 383.187 c 47.312 389.046 l 47.312 390.347
 47.141 391.292 46.797 391.874 c 46.465 392.468 45.895 392.765 45.094 392.765
 c 43.855 392.765 42.621 392.089 41.391 390.733 c 41.391 383.187 l 41.391
 382.218 41.449 381.62 41.562 381.39 c 41.707 381.089 41.906 380.862 42.156
 380.718 c 42.418 380.581 42.938 380.515 43.719 380.515 c 43.719 379.952
 l 36.641 379.952 l 36.641 380.515 l 36.953 380.515 l 37.684 380.515 38.172
 380.698 38.422 381.062 c 38.684 381.437 38.812 382.144 38.812 383.187 c
 38.812 388.499 l 38.812 390.218 38.77 391.265 38.688 391.64 c 38.613 392.015
 38.496 392.269 38.328 392.405 c 38.172 392.542 37.957 392.608 37.688 392.608
 c 37.395 392.608 37.047 392.53 36.641 392.374 c 36.406 392.937 l 40.719
 394.687 l 41.391 394.687 l 41.391 391.655 l f
56.844 402.187 m 57.293 402.187 57.672 402.03 57.984 401.718 c 58.297 401.405
 58.453 401.026 58.453 400.577 c 58.453 400.14 58.297 399.765 57.984 399.452
 c 57.672 399.14 57.293 398.983 56.844 398.983 c 56.406 398.983 56.031 399.14
 55.719 399.452 c 55.406 399.765 55.25 400.14 55.25 400.577 c 55.25 401.026
 55.406 401.405 55.719 401.718 c 56.031 402.03 56.406 402.187 56.844 402.187
 c 58.188 394.687 m 58.188 380.28 l 58.188 377.831 57.668 376.015 56.625
 374.827 c 55.582 373.64 54.23 373.046 52.562 373.046 c 51.613 373.046 50.91
 373.218 50.453 373.562 c 49.996 373.905 49.766 374.261 49.766 374.624 c
 49.766 374.987 49.895 375.3 50.156 375.562 c 50.406 375.823 50.703 375.952
 51.047 375.952 c 51.316 375.952 51.594 375.886 51.875 375.749 c 52.051 
375.675 52.391 375.417 52.891 374.968 c 53.402 374.511 53.828 374.28 54.172
 374.28 c 54.422 374.28 54.668 374.378 54.906 374.577 c 55.145 374.765 55.324
 375.089 55.438 375.546 c 55.551 375.995 55.609 376.972 55.609 378.483 c
 55.609 388.671 l 55.609 390.245 55.562 391.253 55.469 391.702 c 55.395 
392.046 55.281 392.28 55.125 392.405 c 54.969 392.542 54.754 392.608 54.484
 392.608 c 54.191 392.608 53.84 392.53 53.422 392.374 c 53.203 392.937 l
 57.516 394.687 l 58.188 394.687 l f
74.641 394.265 m 74.641 385.593 l 74.641 383.937 74.676 382.921 74.75 382.546
 c 74.832 382.183 74.957 381.925 75.125 381.78 c 75.301 381.636 75.504 381.562
 75.734 381.562 c 76.059 381.562 76.422 381.651 76.828 381.827 c 77.047 
381.28 l 72.766 379.515 l 72.062 379.515 l 72.062 382.546 l 70.832 381.214
 69.895 380.374 69.25 380.03 c 68.605 379.687 67.922 379.515 67.203 379.515
 c 66.402 379.515 65.703 379.745 65.109 380.202 c 64.527 380.671 64.121 
381.269 63.891 381.999 c 63.66 382.73 63.547 383.761 63.547 385.093 c 63.547
 391.483 l 63.547 392.159 63.473 392.628 63.328 392.89 c 63.184 393.151 
62.965 393.347 62.672 393.483 c 62.391 393.628 61.875 393.698 61.125 393.687
 c 61.125 394.265 l 66.141 394.265 l 66.141 384.687 l 66.141 383.355 66.371
 382.48 66.828 382.062 c 67.297 381.644 67.859 381.437 68.516 381.437 c 
68.965 381.437 69.469 381.577 70.031 381.858 c 70.605 382.14 71.281 382.675
 72.062 383.468 c 72.062 391.577 l 72.062 392.39 71.91 392.937 71.609 393.218
 c 71.316 393.511 70.703 393.667 69.766 393.687 c 69.766 394.265 l 74.641
 394.265 l f
82.266 391.655 m 83.941 393.675 85.543 394.687 87.062 394.687 c 87.844 
394.687 88.516 394.487 89.078 394.093 c 89.641 393.706 90.09 393.065 90.422
 392.171 c 90.652 391.546 90.766 390.589 90.766 389.296 c 90.766 383.187
 l 90.766 382.28 90.84 381.667 90.984 381.343 c 91.098 381.081 91.281 380.878
 91.531 380.733 c 91.793 380.589 92.266 380.515 92.953 380.515 c 92.953 
379.952 l 85.875 379.952 l 85.875 380.515 l 86.172 380.515 l 86.84 380.515
 87.301 380.612 87.562 380.812 c 87.832 381.019 88.02 381.323 88.125 381.718
 c 88.168 381.874 88.188 382.362 88.188 383.187 c 88.188 389.046 l 88.188
 390.347 88.016 391.292 87.672 391.874 c 87.34 392.468 86.77 392.765 85.969
 392.765 c 84.73 392.765 83.496 392.089 82.266 390.733 c 82.266 383.187 
l 82.266 382.218 82.324 381.62 82.438 381.39 c 82.582 381.089 82.781 380.862
 83.031 380.718 c 83.293 380.581 83.812 380.515 84.594 380.515 c 84.594 
379.952 l 77.516 379.952 l 77.516 380.515 l 77.828 380.515 l 78.559 380.515
 79.047 380.698 79.297 381.062 c 79.559 381.437 79.688 382.144 79.688 383.187
 c 79.688 388.499 l 79.688 390.218 79.645 391.265 79.562 391.64 c 79.488
 392.015 79.371 392.269 79.203 392.405 c 79.047 392.542 78.832 392.608 78.562
 392.608 c 78.27 392.608 77.922 392.53 77.516 392.374 c 77.281 392.937 l
 81.594 394.687 l 82.266 394.687 l 82.266 391.655 l f
98.25 398.968 m 98.25 394.265 l 101.594 394.265 l 101.594 393.171 l 98.25
 393.171 l 98.25 383.89 l 98.25 382.964 98.379 382.339 98.641 382.015 c 
98.91 381.69 99.254 381.53 99.672 381.53 c 100.016 381.53 100.348 381.636
 100.672 381.843 c 100.996 382.062 101.246 382.378 101.422 382.796 c 102.031
 382.796 l 101.668 381.776 101.152 381.003 100.484 380.483 c 99.816 379.972
 99.129 379.718 98.422 379.718 c 97.941 379.718 97.473 379.847 97.016 380.108
 c 96.559 380.378 96.219 380.761 96 381.249 c 95.781 381.749 95.672 382.515
 95.672 383.546 c 95.672 393.171 l 93.406 393.171 l 93.406 393.687 l 93.98
 393.917 94.562 394.3 95.156 394.843 c 95.762 395.394 96.297 396.046 96.766
 396.796 c 97.004 397.19 97.34 397.917 97.766 398.968 c 98.25 398.968 l f
109.969 394.687 m 112.137 394.687 113.875 393.862 115.188 392.218 c 116.301
 390.812 116.859 389.198 116.859 387.374 c 116.859 386.093 116.551 384.796
 115.938 383.483 c 115.324 382.171 114.473 381.183 113.391 380.515 c 112.316
 379.847 111.121 379.515 109.797 379.515 c 107.641 379.515 105.926 380.374
 104.656 382.093 c 103.582 383.542 103.047 385.167 103.047 386.968 c 103.047
 388.28 103.371 389.581 104.016 390.874 c 104.672 392.175 105.531 393.136
 106.594 393.749 c 107.656 394.374 108.781 394.687 109.969 394.687 c 109.484
 393.671 m 108.934 393.671 108.375 393.503 107.812 393.171 c 107.262 392.847
 106.812 392.276 106.469 391.452 c 106.125 390.628 105.953 389.573 105.953
 388.28 c 105.953 386.198 106.363 384.401 107.188 382.89 c 108.02 381.378
 109.113 380.624 110.469 380.624 c 111.48 380.624 112.312 381.042 112.969
 381.874 c 113.625 382.706 113.953 384.14 113.953 386.171 c 113.953 388.714
 113.406 390.714 112.312 392.171 c 111.574 393.171 110.629 393.671 109.484
 393.671 c f
137.078 381.562 m 136.379 380.831 135.699 380.308 135.031 379.983 c 134.363
 379.671 133.645 379.515 132.875 379.515 c 131.312 379.515 129.949 380.167
 128.781 381.468 c 127.613 382.78 127.031 384.464 127.031 386.515 c 127.031
 388.565 127.676 390.44 128.969 392.14 c 130.262 393.847 131.922 394.702
 133.953 394.702 c 135.215 394.702 136.254 394.3 137.078 393.499 c 137.078
 396.14 l 137.078 397.776 137.035 398.78 136.953 399.155 c 136.879 399.53
 136.762 399.784 136.594 399.921 c 136.426 400.058 136.219 400.124 135.969
 400.124 c 135.699 400.124 135.34 400.042 134.891 399.874 c 134.688 400.421
 l 138.953 402.171 l 139.656 402.171 l 139.656 385.624 l 139.656 383.948
 139.691 382.921 139.766 382.546 c 139.848 382.183 139.973 381.925 140.141
 381.78 c 140.316 381.636 140.52 381.562 140.75 381.562 c 141.031 381.562
 141.406 381.651 141.875 381.827 c 142.047 381.28 l 137.797 379.515 l 137.078
 379.515 l 137.078 381.562 l 137.078 382.655 m 137.078 390.03 l 137.016 
390.737 136.828 391.386 136.516 391.968 c 136.203 392.55 135.785 392.987
 135.266 393.28 c 134.754 393.581 134.254 393.733 133.766 393.733 c 132.848
 393.733 132.031 393.323 131.312 392.499 c 130.363 391.417 129.891 389.831
 129.891 387.749 c 129.891 385.644 130.348 384.03 131.266 382.905 c 132.184
 381.792 133.203 381.233 134.328 381.233 c 135.277 381.233 136.191 381.706
 137.078 382.655 c f
145.375 388.874 m 145.363 386.749 145.879 385.081 146.922 383.874 c 147.965
 382.667 149.188 382.062 150.594 382.062 c 151.531 382.062 152.344 382.315
 153.031 382.827 c 153.73 383.347 154.312 384.233 154.781 385.483 c 155.266
 385.171 l 155.047 383.745 154.41 382.44 153.359 381.265 c 152.309 380.097
 150.988 379.515 149.406 379.515 c 147.688 379.515 146.215 380.183 144.984
 381.515 c 143.766 382.858 143.156 384.659 143.156 386.921 c 143.156 389.37
 143.781 391.276 145.031 392.64 c 146.293 394.015 147.871 394.702 149.766
 394.702 c 151.371 394.702 152.688 394.171 153.719 393.108 c 154.75 392.058
 155.266 390.644 155.266 388.874 c 145.375 388.874 l 145.375 389.78 m 152
 389.78 l 151.949 390.698 151.84 391.343 151.672 391.718 c 151.41 392.3 
151.02 392.761 150.5 393.093 c 149.988 393.425 149.453 393.593 148.891 393.593
 c 148.027 393.593 147.25 393.253 146.562 392.577 c 145.887 391.909 145.488
 390.98 145.375 389.78 c f
174.406 394.687 m 174.406 389.812 l 173.891 389.812 l 173.496 391.343 172.984
 392.386 172.359 392.937 c 171.746 393.487 170.957 393.765 170 393.765 c
 169.27 393.765 168.684 393.573 168.234 393.187 c 167.785 392.8 167.562 
392.374 167.562 391.905 c 167.562 391.323 167.73 390.823 168.062 390.405
 c 168.387 389.98 169.043 389.526 170.031 389.046 c 172.312 387.937 l 174.426
 386.905 175.484 385.546 175.484 383.858 c 175.484 382.558 174.988 381.503
 174 380.702 c 173.02 379.909 171.922 379.515 170.703 379.515 c 169.828 
379.515 168.828 379.671 167.703 379.983 c 167.359 380.089 167.078 380.14
 166.859 380.14 c 166.621 380.14 166.434 380.003 166.297 379.733 c 165.781
 379.733 l 165.781 384.843 l 166.297 384.843 l 166.59 383.386 167.145 382.284
 167.969 381.546 c 168.793 380.808 169.715 380.437 170.734 380.437 c 171.453
 380.437 172.035 380.644 172.484 381.062 c 172.941 381.487 173.172 381.999
 173.172 382.593 c 173.172 383.312 172.918 383.917 172.406 384.405 c 171.906
 384.894 170.902 385.515 169.391 386.265 c 167.879 387.015 166.891 387.69
 166.422 388.296 c 165.953 388.89 165.719 389.64 165.719 390.546 c 165.719
 391.722 166.121 392.706 166.922 393.499 c 167.734 394.292 168.781 394.687
 170.062 394.687 c 170.625 394.687 171.309 394.565 172.109 394.327 c 172.641
 394.171 172.996 394.093 173.172 394.093 c 173.34 394.093 173.469 394.128
 173.562 394.202 c 173.656 394.276 173.766 394.437 173.891 394.687 c 174.406
 394.687 l f
182.516 394.687 m 182.516 383.187 l 182.516 382.292 182.582 381.69 182.719
 381.39 c 182.855 381.097 183.047 380.878 183.297 380.733 c 183.559 380.589
 184.027 380.515 184.703 380.515 c 184.703 379.952 l 177.75 379.952 l 177.75
 380.515 l 178.449 380.515 178.918 380.581 179.156 380.718 c 179.395 380.855
 179.582 381.077 179.719 381.39 c 179.863 381.702 179.938 382.3 179.938 
383.187 c 179.938 388.702 l 179.938 390.253 179.891 391.261 179.797 391.718
 c 179.723 392.05 179.609 392.28 179.453 392.405 c 179.297 392.542 179.082
 392.608 178.812 392.608 c 178.52 392.608 178.168 392.53 177.75 392.374 
c 177.531 392.937 l 181.844 394.687 l 182.516 394.687 l 184.375 401.671 
m 179.766 396.28 l 179.234 396.28 l 180.875 401.671 l 184.375 401.671 l f
190.719 391.64 m 191.762 392.683 192.375 393.28 192.562 393.437 c 193.031
 393.831 193.535 394.14 194.078 394.358 c 194.621 394.577 195.156 394.687
 195.688 394.687 c 196.582 394.687 197.355 394.425 198 393.905 c 198.645
 393.386 199.078 392.628 199.297 391.64 c 200.371 392.89 201.277 393.706
 202.016 394.093 c 202.754 394.487 203.516 394.687 204.297 394.687 c 205.059
 394.687 205.73 394.487 206.312 394.093 c 206.906 393.706 207.375 393.073
 207.719 392.187 c 207.949 391.581 208.062 390.636 208.062 389.343 c 208.062
 383.187 l 208.062 382.292 208.129 381.675 208.266 381.343 c 208.371 381.112
 208.562 380.917 208.844 380.749 c 209.125 380.593 209.582 380.515 210.219
 380.515 c 210.219 379.952 l 203.156 379.952 l 203.156 380.515 l 203.453
 380.515 l 204.066 380.515 204.547 380.636 204.891 380.874 c 205.129 381.042
 205.301 381.308 205.406 381.671 c 205.449 381.847 205.469 382.355 205.469
 383.187 c 205.469 389.343 l 205.469 390.511 205.328 391.331 205.047 391.812
 c 204.641 392.48 203.988 392.812 203.094 392.812 c 202.543 392.812 201.984
 392.671 201.422 392.39 c 200.871 392.12 200.199 391.608 199.406 390.858
 c 199.375 390.687 l 199.406 390.015 l 199.406 383.187 l 199.406 382.206
 199.457 381.597 199.562 381.358 c 199.676 381.12 199.887 380.917 200.188
 380.749 c 200.488 380.593 201.004 380.515 201.734 380.515 c 201.734 379.952
 l 194.5 379.952 l 194.5 380.515 l 195.293 380.515 195.832 380.608 196.125
 380.796 c 196.426 380.983 196.637 381.265 196.75 381.64 c 196.801 381.815
 196.828 382.331 196.828 383.187 c 196.828 389.343 l 196.828 390.511 196.656
 391.347 196.312 391.858 c 195.855 392.526 195.215 392.858 194.391 392.858
 c 193.828 392.858 193.27 392.706 192.719 392.405 c 191.855 391.948 191.188
 391.433 190.719 390.858 c 190.719 383.187 l 190.719 382.249 190.781 381.64
 190.906 381.358 c 191.043 381.077 191.234 380.862 191.484 380.718 c 191.746
 380.581 192.266 380.515 193.047 380.515 c 193.047 379.952 l 185.969 379.952
 l 185.969 380.515 l 186.625 380.515 187.082 380.581 187.344 380.718 c 187.605
 380.862 187.801 381.089 187.938 381.39 c 188.074 381.702 188.141 382.3 
188.141 383.187 c 188.141 388.655 l 188.141 390.23 188.094 391.245 188 391.702
 c 187.926 392.046 187.812 392.28 187.656 392.405 c 187.5 392.542 187.285
 392.608 187.016 392.608 c 186.723 392.608 186.375 392.53 185.969 392.374
 c 185.734 392.937 l 190.047 394.687 l 190.719 394.687 l 190.719 391.64 
l f
215.266 391.796 m 216.652 393.722 218.145 394.687 219.75 394.687 c 221.219
 394.687 222.5 394.058 223.594 392.796 c 224.688 391.546 225.234 389.831
 225.234 387.655 c 225.234 385.112 224.391 383.065 222.703 381.515 c 221.254
 380.183 219.641 379.515 217.859 379.515 c 217.027 379.515 216.176 379.667
 215.312 379.968 c 214.457 380.269 213.582 380.722 212.688 381.327 c 212.688
 396.155 l 212.688 397.78 212.645 398.78 212.562 399.155 c 212.488 399.53
 212.371 399.784 212.203 399.921 c 212.035 400.058 211.828 400.124 211.578
 400.124 c 211.285 400.124 210.922 400.042 210.484 399.874 c 210.266 400.421
 l 214.562 402.171 l 215.266 402.171 l 215.266 391.796 l 215.266 390.796
 m 215.266 382.233 l 215.797 381.714 216.344 381.315 216.906 381.046 c 217.48
 380.784 218.062 380.655 218.656 380.655 c 219.605 380.655 220.484 381.175
 221.297 382.218 c 222.121 383.261 222.531 384.776 222.531 386.765 c 222.531
 388.597 222.121 390.003 221.297 390.983 c 220.484 391.972 219.559 392.468
 218.516 392.468 c 217.965 392.468 217.41 392.327 216.859 392.046 c 216.441
 391.839 215.91 391.421 215.266 390.796 c f
234.344 394.687 m 236.512 394.687 238.25 393.862 239.562 392.218 c 240.676
 390.812 241.234 389.198 241.234 387.374 c 241.234 386.093 240.926 384.796
 240.312 383.483 c 239.699 382.171 238.848 381.183 237.766 380.515 c 236.691
 379.847 235.496 379.515 234.172 379.515 c 232.016 379.515 230.301 380.374
 229.031 382.093 c 227.957 383.542 227.422 385.167 227.422 386.968 c 227.422
 388.28 227.746 389.581 228.391 390.874 c 229.047 392.175 229.906 393.136
 230.969 393.749 c 232.031 394.374 233.156 394.687 234.344 394.687 c 233.859
 393.671 m 233.309 393.671 232.75 393.503 232.188 393.171 c 231.637 392.847
 231.188 392.276 230.844 391.452 c 230.5 390.628 230.328 389.573 230.328
 388.28 c 230.328 386.198 230.738 384.401 231.562 382.89 c 232.395 381.378
 233.488 380.624 234.844 380.624 c 235.855 380.624 236.688 381.042 237.344
 381.874 c 238 382.706 238.328 384.14 238.328 386.171 c 238.328 388.714 
237.781 390.714 236.688 392.171 c 235.949 393.171 235.004 393.671 233.859
 393.671 c f
248.266 402.171 m 248.266 383.187 l 248.266 382.292 248.328 381.698 248.453
 381.405 c 248.59 381.112 248.793 380.89 249.062 380.733 c 249.332 380.589
 249.84 380.515 250.578 380.515 c 250.578 379.952 l 243.562 379.952 l 243.562
 380.515 l 244.219 380.515 244.668 380.581 244.906 380.718 c 245.145 380.855
 245.332 381.077 245.469 381.39 c 245.605 381.702 245.672 382.3 245.672 
383.187 c 245.672 396.187 l 245.672 397.8 245.637 398.792 245.562 399.155
 c 245.488 399.53 245.371 399.784 245.203 399.921 c 245.047 400.058 244.844
 400.124 244.594 400.124 c 244.324 400.124 243.98 400.042 243.562 399.874
 c 243.297 400.421 l 247.562 402.171 l 248.266 402.171 l f
259.219 394.687 m 261.387 394.687 263.125 393.862 264.438 392.218 c 265.551
 390.812 266.109 389.198 266.109 387.374 c 266.109 386.093 265.801 384.796
 265.188 383.483 c 264.574 382.171 263.723 381.183 262.641 380.515 c 261.566
 379.847 260.371 379.515 259.047 379.515 c 256.891 379.515 255.176 380.374
 253.906 382.093 c 252.832 383.542 252.297 385.167 252.297 386.968 c 252.297
 388.28 252.621 389.581 253.266 390.874 c 253.922 392.175 254.781 393.136
 255.844 393.749 c 256.906 394.374 258.031 394.687 259.219 394.687 c 258.734
 393.671 m 258.184 393.671 257.625 393.503 257.062 393.171 c 256.512 392.847
 256.062 392.276 255.719 391.452 c 255.375 390.628 255.203 389.573 255.203
 388.28 c 255.203 386.198 255.613 384.401 256.438 382.89 c 257.27 381.378
 258.363 380.624 259.719 380.624 c 260.73 380.624 261.562 381.042 262.219
 381.874 c 262.875 382.706 263.203 384.14 263.203 386.171 c 263.203 388.714
 262.656 390.714 261.562 392.171 c 260.824 393.171 259.879 393.671 258.734
 393.671 c f
277.469 394.687 m 277.469 389.812 l 276.953 389.812 l 276.559 391.343 276.047
 392.386 275.422 392.937 c 274.809 393.487 274.02 393.765 273.062 393.765
 c 272.332 393.765 271.746 393.573 271.297 393.187 c 270.848 392.8 270.625
 392.374 270.625 391.905 c 270.625 391.323 270.793 390.823 271.125 390.405
 c 271.449 389.98 272.105 389.526 273.094 389.046 c 275.375 387.937 l 277.488
 386.905 278.547 385.546 278.547 383.858 c 278.547 382.558 278.051 381.503
 277.062 380.702 c 276.082 379.909 274.984 379.515 273.766 379.515 c 272.891
 379.515 271.891 379.671 270.766 379.983 c 270.422 380.089 270.141 380.14
 269.922 380.14 c 269.684 380.14 269.496 380.003 269.359 379.733 c 268.844
 379.733 l 268.844 384.843 l 269.359 384.843 l 269.652 383.386 270.207 382.284
 271.031 381.546 c 271.855 380.808 272.777 380.437 273.797 380.437 c 274.516
 380.437 275.098 380.644 275.547 381.062 c 276.004 381.487 276.234 381.999
 276.234 382.593 c 276.234 383.312 275.98 383.917 275.469 384.405 c 274.969
 384.894 273.965 385.515 272.453 386.265 c 270.941 387.015 269.953 387.69
 269.484 388.296 c 269.016 388.89 268.781 389.64 268.781 390.546 c 268.781
 391.722 269.184 392.706 269.984 393.499 c 270.797 394.292 271.844 394.687
 273.125 394.687 c 273.688 394.687 274.371 394.565 275.172 394.327 c 275.703
 394.171 276.059 394.093 276.234 394.093 c 276.402 394.093 276.531 394.128
 276.625 394.202 c 276.719 394.276 276.828 394.437 276.953 394.687 c 277.469
 394.687 l f
20.809 327.831 m 16.188 327.831 l 18.211 332.585 24.199 336.46 34.148 339.448
 c 44.008 342.409 54.973 343.89 67.031 343.89 c 73.371 343.89 80.723 343.562
 89.09 342.905 c 97.539 342.253 104.102 341.925 108.766 341.925 c 115.105
 341.925 121.004 342.792 126.465 344.53 c 132.008 346.237 135.398 348.616
 136.633 351.663 c 142.047 351.663 l 143.281 348.616 146.625 346.237 152.082
 344.53 c 157.543 342.792 163.484 341.925 169.914 341.925 c 174.578 341.925
 181.094 342.253 189.457 342.905 c 197.824 343.562 205.219 343.89 211.645
 343.89 c 223.621 343.89 234.582 342.409 244.531 339.448 c 254.48 336.46
 260.422 332.585 262.359 327.831 c 257.738 327.831 l 255.273 331.163 251.223
 333.612 245.586 335.179 c 240.039 336.714 233.922 337.483 227.23 337.483
 c 222.035 337.483 215.168 337.171 206.629 336.542 c 198.176 335.89 190.957
 335.562 184.969 335.562 c 176.074 335.562 167.449 336.616 159.082 338.722
 c 150.719 340.827 144.246 343.976 139.668 348.159 c 135.004 344.062 128.398
 340.94 119.859 338.808 c 111.32 336.644 102.602 335.562 93.711 335.562 
c 87.723 335.562 80.504 335.89 72.051 336.542 c 63.512 337.171 56.645 337.483
 51.449 337.483 c 44.758 337.483 38.641 336.714 33.094 335.179 c 27.457 
333.612 23.363 331.163 20.809 327.831 c f
354.477 77.062 m 347.531 77.062 l 350.574 72.507 359.57 68.8 374.516 65.94
 c 389.328 63.105 405.793 61.687 423.914 61.687 c 433.438 61.687 444.48 
61.999 457.047 62.628 c 469.742 63.253 479.598 63.569 486.605 63.569 c 496.129
 63.569 504.992 62.737 513.191 61.073 c 521.523 59.437 526.617 57.163 528.469
 54.245 c 536.602 54.245 l 538.453 57.163 543.48 59.437 551.68 61.073 c 
559.879 62.737 568.809 63.569 578.465 63.569 c 585.473 63.569 595.262 63.253
 607.824 62.628 c 620.391 61.999 631.5 61.687 641.156 61.687 c 659.145 61.687
 675.609 63.105 690.555 65.94 c 705.5 68.8 714.43 72.507 717.34 77.062 c
 710.395 77.062 l 706.691 73.87 700.609 71.526 692.145 70.026 c 683.809 
68.554 674.617 67.819 664.566 67.819 c 656.762 67.819 646.445 68.12 633.617
 68.718 c 620.918 69.347 610.074 69.659 601.082 69.659 c 587.723 69.659 
574.762 68.651 562.195 66.636 c 549.629 64.616 539.91 61.605 533.031 57.597
 c 526.02 61.522 516.102 64.507 503.273 66.554 c 490.441 68.624 477.348 
69.659 463.988 69.659 c 454.996 69.659 444.152 69.347 431.453 68.718 c 418.625
 68.12 408.309 67.819 400.504 67.819 c 390.453 67.819 381.258 68.554 372.926
 70.026 c 364.461 71.526 358.312 73.87 354.477 77.062 c f
454.742 22.155 m 455.227 14.952 l 454.742 14.952 l 454.094 17.108 453.172
 18.663 451.977 19.608 c 450.777 20.558 449.34 21.03 447.664 21.03 c 446.258
 21.03 444.984 20.671 443.852 19.952 c 442.715 19.245 441.82 18.108 441.164
 16.546 c 440.516 14.983 440.195 13.042 440.195 10.718 c 440.195 8.804 440.5
 7.14 441.117 5.733 c 441.73 4.327 442.652 3.249 443.883 2.499 c 445.121
 1.749 446.531 1.374 448.117 1.374 c 449.492 1.374 450.703 1.667 451.758
 2.249 c 452.809 2.843 453.965 4.015 455.227 5.765 c 455.711 5.452 l 454.648
 3.569 453.406 2.187 451.992 1.312 c 450.574 0.437 448.891 -0.001 446.945
 -0.001 c 443.434 -0.001 440.715 1.304 438.789 3.905 c 437.352 5.843 436.633
 8.124 436.633 10.749 c 436.633 12.866 437.105 14.808 438.055 16.577 c 439
 18.351 440.305 19.718 441.961 20.687 c 443.625 21.667 445.445 22.155 447.414
 22.155 c 448.945 22.155 450.453 21.78 451.945 21.03 c 452.383 20.804 452.695
 20.687 452.883 20.687 c 453.164 20.687 453.406 20.788 453.617 20.983 c 
453.887 21.265 454.078 21.655 454.195 22.155 c 454.742 22.155 l f
461.492 22.702 m 461.93 22.702 462.297 22.546 462.602 22.233 c 462.914 
21.933 463.07 21.562 463.07 21.124 c 463.07 20.687 462.914 20.312 462.602
 19.999 c 462.297 19.687 461.93 19.53 461.492 19.53 c 461.055 19.53 460.68
 19.687 460.367 19.999 c 460.055 20.312 459.898 20.687 459.898 21.124 c 
459.898 21.562 460.047 21.933 460.352 22.233 c 460.664 22.546 461.043 22.702
 461.492 22.702 c 462.789 15.218 m 462.789 3.718 l 462.789 2.823 462.852
 2.226 462.977 1.921 c 463.109 1.632 463.305 1.413 463.555 1.265 c 463.812
 1.12 464.281 1.046 464.961 1.046 c 464.961 0.483 l 458.008 0.483 l 458.008
 1.046 l 458.703 1.046 459.172 1.116 459.414 1.249 c 459.652 1.386 459.84
 1.608 459.977 1.921 c 460.121 2.233 460.195 2.835 460.195 3.718 c 460.195
 9.233 l 460.195 10.788 460.148 11.792 460.055 12.249 c 459.98 12.585 459.867
 12.812 459.711 12.937 c 459.555 13.073 459.34 13.14 459.07 13.14 c 458.777
 13.14 458.422 13.062 458.008 12.905 c 457.789 13.468 l 462.102 15.218 l
 462.789 15.218 l f
472.32 13.671 m 472.32 4.265 l 472.32 2.933 472.465 2.089 472.758 1.733
 c 473.141 1.276 473.656 1.046 474.305 1.046 c 475.602 1.046 l 475.602 0.483
 l 467.055 0.483 l 467.055 1.046 l 467.695 1.046 l 468.109 1.046 468.492
 1.151 468.836 1.358 c 469.18 1.569 469.414 1.851 469.539 2.202 c 469.672
 2.558 469.742 3.245 469.742 4.265 c 469.742 13.671 l 466.961 13.671 l 466.961
 14.796 l 469.742 14.796 l 469.742 15.733 l 469.742 17.163 469.969 18.37
 470.43 19.358 c 470.887 20.351 471.586 21.147 472.523 21.749 c 473.469 
22.366 474.531 22.671 475.711 22.671 c 476.805 22.671 477.809 22.319 478.727
 21.608 c 479.328 21.14 479.633 20.616 479.633 20.03 c 479.633 19.718 479.496
 19.421 479.227 19.14 c 478.953 18.87 478.664 18.733 478.352 18.733 c 478.109
 18.733 477.855 18.819 477.586 18.983 c 477.324 19.163 477 19.53 476.617
 20.093 c 476.23 20.667 475.875 21.054 475.555 21.249 c 475.23 21.448 474.871
 21.546 474.477 21.546 c 473.996 21.546 473.59 21.417 473.258 21.155 c 472.922
 20.905 472.684 20.511 472.539 19.968 c 472.391 19.437 472.32 18.058 472.32
 15.827 c 472.32 14.796 l 476.008 14.796 l 476.008 13.671 l 472.32 13.671
 l f
481.602 15.218 m 481.602 11.999 l 482.797 14.147 484.027 15.218 485.289
 15.218 c 485.859 15.218 486.336 15.042 486.711 14.687 c 487.086 14.343 
487.273 13.944 487.273 13.483 c 487.273 13.077 487.137 12.733 486.867 12.452
 c 486.594 12.171 486.273 12.03 485.898 12.03 c 485.531 12.03 485.121 12.21
 484.664 12.562 c 484.215 12.929 483.883 13.108 483.664 13.108 c 483.477
 13.108 483.273 13.007 483.055 12.796 c 482.586 12.37 482.102 11.667 481.602
 10.687 c 481.602 3.827 l 481.602 3.038 481.699 2.437 481.898 2.03 c 482.031
 1.749 482.273 1.515 482.617 1.327 c 482.961 1.14 483.453 1.046 484.102 
1.046 c 484.102 0.483 l 476.773 0.483 l 476.773 1.046 l 477.5 1.046 478.043
 1.163 478.398 1.39 c 478.656 1.558 478.84 1.823 478.945 2.187 c 478.996
 2.366 479.023 2.87 479.023 3.702 c 479.023 9.249 l 479.023 10.917 478.984
 11.905 478.914 12.218 c 478.852 12.542 478.727 12.776 478.539 12.921 c 
478.359 13.069 478.137 13.14 477.867 13.14 c 477.543 13.14 477.18 13.062
 476.773 12.905 c 476.617 13.468 l 480.945 15.218 l 481.602 15.218 l f
496.211 2.546 m 494.742 1.413 493.82 0.757 493.445 0.577 c 492.883 0.319
 492.281 0.187 491.648 0.187 c 490.656 0.187 489.84 0.526 489.195 1.202 
c 488.559 1.882 488.242 2.772 488.242 3.874 c 488.242 4.573 488.398 5.179
 488.711 5.687 c 489.137 6.397 489.875 7.062 490.93 7.687 c 491.992 8.312
 493.75 9.073 496.211 9.968 c 496.211 10.53 l 496.211 11.96 495.98 12.937
 495.523 13.468 c 495.074 13.999 494.418 14.265 493.555 14.265 c 492.898
 14.265 492.375 14.089 491.992 13.733 c 491.594 13.382 491.398 12.976 491.398
 12.515 c 491.43 11.608 l 491.43 11.132 491.305 10.761 491.055 10.499 c 
490.812 10.241 490.496 10.108 490.102 10.108 c 489.715 10.108 489.398 10.245
 489.148 10.515 c 488.906 10.788 488.789 11.155 488.789 11.624 c 488.789
 12.522 489.246 13.343 490.164 14.093 c 491.078 14.843 492.367 15.218 494.023
 15.218 c 495.293 15.218 496.336 15.007 497.148 14.577 c 497.762 14.257 
498.215 13.749 498.508 13.062 c 498.695 12.616 498.789 11.698 498.789 10.312
 c 498.789 5.452 l 498.789 4.089 498.812 3.249 498.867 2.937 c 498.918 2.636
 499 2.433 499.117 2.327 c 499.242 2.226 499.383 2.171 499.539 2.171 c 499.703
 2.171 499.852 2.21 499.977 2.28 c 500.195 2.417 500.617 2.796 501.242 3.421
 c 501.242 2.546 l 500.074 0.983 498.961 0.202 497.898 0.202 c 497.387 0.202
 496.98 0.382 496.68 0.733 c 496.375 1.089 496.219 1.694 496.211 2.546 c
 496.211 3.562 m 496.211 9.015 l 494.637 8.39 493.621 7.948 493.164 7.687
 c 492.34 7.23 491.75 6.749 491.398 6.249 c 491.043 5.749 490.867 5.202 
490.867 4.608 c 490.867 3.858 491.09 3.233 491.539 2.733 c 491.984 2.245
 492.5 1.999 493.086 1.999 c 493.875 1.999 494.918 2.522 496.211 3.562 c
 f
514.461 12.187 m 516.137 14.21 517.734 15.218 519.258 15.218 c 520.039 
15.218 520.711 15.022 521.273 14.624 c 521.836 14.241 522.281 13.601 522.617
 12.702 c 522.844 12.077 522.961 11.12 522.961 9.827 c 522.961 3.718 l 522.961
 2.812 523.031 2.198 523.18 1.874 c 523.293 1.616 523.477 1.413 523.727 
1.265 c 523.984 1.12 524.461 1.046 525.148 1.046 c 525.148 0.483 l 518.07
 0.483 l 518.07 1.046 l 518.367 1.046 l 519.031 1.046 519.496 1.147 519.758
 1.343 c 520.027 1.554 520.215 1.855 520.32 2.249 c 520.359 2.405 520.383
 2.897 520.383 3.718 c 520.383 9.577 l 520.383 10.882 520.211 11.823 519.867
 12.405 c 519.531 12.999 518.965 13.296 518.164 13.296 c 516.922 13.296 
515.688 12.62 514.461 11.265 c 514.461 3.718 l 514.461 2.749 514.516 2.151
 514.633 1.921 c 514.777 1.62 514.977 1.397 515.227 1.249 c 515.484 1.116
 516.008 1.046 516.789 1.046 c 516.789 0.483 l 509.711 0.483 l 509.711 1.046
 l 510.023 1.046 l 510.75 1.046 511.242 1.23 511.492 1.593 c 511.75 1.968
 511.883 2.679 511.883 3.718 c 511.883 9.03 l 511.883 10.749 511.84 11.796
 511.758 12.171 c 511.684 12.546 511.562 12.804 511.398 12.937 c 511.242
 13.073 511.027 13.14 510.758 13.14 c 510.465 13.14 510.117 13.062 509.711
 12.905 c 509.477 13.468 l 513.789 15.218 l 514.461 15.218 l 514.461 12.187
 l f
538.836 14.796 m 538.836 6.124 l 538.836 4.468 538.871 3.452 538.945 3.077
 c 539.027 2.714 539.152 2.46 539.32 2.312 c 539.496 2.167 539.699 2.093
 539.93 2.093 c 540.25 2.093 540.617 2.183 541.023 2.358 c 541.242 1.812
 l 536.961 0.046 l 536.258 0.046 l 536.258 3.077 l 535.027 1.745 534.09 
0.905 533.445 0.562 c 532.797 0.218 532.117 0.046 531.398 0.046 c 530.594
 0.046 529.898 0.276 529.305 0.733 c 528.719 1.202 528.312 1.804 528.086
 2.53 c 527.855 3.261 527.742 4.292 527.742 5.624 c 527.742 12.015 l 527.742
 12.694 527.668 13.163 527.523 13.421 c 527.375 13.683 527.156 13.882 526.867
 14.015 c 526.586 14.163 526.07 14.23 525.32 14.218 c 525.32 14.796 l 530.336
 14.796 l 530.336 5.218 l 530.336 3.886 530.562 3.011 531.023 2.593 c 531.492
 2.179 532.055 1.968 532.711 1.968 c 533.156 1.968 533.664 2.108 534.227
 2.39 c 534.797 2.671 535.477 3.21 536.258 3.999 c 536.258 12.108 l 536.258
 12.921 536.105 13.468 535.805 13.749 c 535.512 14.042 534.898 14.198 533.961
 14.218 c 533.961 14.796 l 538.836 14.796 l f
546.539 12.171 m 547.578 13.214 548.195 13.812 548.383 13.968 c 548.852
 14.366 549.355 14.671 549.898 14.89 c 550.438 15.108 550.977 15.218 551.508
 15.218 c 552.402 15.218 553.172 14.96 553.82 14.437 c 554.465 13.917 554.898
 13.163 555.117 12.171 c 556.188 13.421 557.094 14.241 557.836 14.624 c 
558.574 15.022 559.336 15.218 560.117 15.218 c 560.875 15.218 561.547 15.022
 562.133 14.624 c 562.727 14.241 563.195 13.605 563.539 12.718 c 563.766
 12.116 563.883 11.167 563.883 9.874 c 563.883 3.718 l 563.883 2.823 563.949
 2.21 564.086 1.874 c 564.188 1.647 564.383 1.448 564.664 1.28 c 564.945
 1.124 565.402 1.046 566.039 1.046 c 566.039 0.483 l 558.977 0.483 l 558.977
 1.046 l 559.273 1.046 l 559.887 1.046 560.367 1.167 560.711 1.405 c 560.949
 1.573 561.121 1.839 561.227 2.202 c 561.266 2.382 561.289 2.886 561.289
 3.718 c 561.289 9.874 l 561.289 11.042 561.148 11.866 560.867 12.343 c 
560.461 13.011 559.809 13.343 558.914 13.343 c 558.359 13.343 557.805 13.202
 557.242 12.921 c 556.688 12.651 556.016 12.14 555.227 11.39 c 555.195 11.218
 l 555.227 10.546 l 555.227 3.718 l 555.227 2.741 555.277 2.132 555.383 
1.89 c 555.496 1.651 555.703 1.448 556.008 1.28 c 556.309 1.124 556.824 
1.046 557.555 1.046 c 557.555 0.483 l 550.32 0.483 l 550.32 1.046 l 551.109
 1.046 551.652 1.14 551.945 1.327 c 552.246 1.515 552.453 1.796 552.57 2.171
 c 552.621 2.351 552.648 2.866 552.648 3.718 c 552.648 9.874 l 552.648 11.042
 552.477 11.882 552.133 12.39 c 551.672 13.058 551.031 13.39 550.211 13.39
 c 549.648 13.39 549.09 13.241 548.539 12.937 c 547.672 12.48 547.008 11.964
 546.539 11.39 c 546.539 3.718 l 546.539 2.78 546.602 2.171 546.727 1.89
 c 546.859 1.608 547.055 1.397 547.305 1.249 c 547.562 1.116 548.086 1.046
 548.867 1.046 c 548.867 0.483 l 541.789 0.483 l 541.789 1.046 l 542.445
 1.046 542.902 1.116 543.164 1.249 c 543.422 1.397 543.621 1.62 543.758 
1.921 c 543.891 2.233 543.961 2.835 543.961 3.718 c 543.961 9.187 l 543.961
 10.761 543.914 11.776 543.82 12.233 c 543.746 12.577 543.633 12.812 543.477
 12.937 c 543.32 13.073 543.105 13.14 542.836 13.14 c 542.543 13.14 542.195
 13.062 541.789 12.905 c 541.555 13.468 l 545.867 15.218 l 546.539 15.218
 l 546.539 12.171 l f
569.57 9.405 m 569.559 7.28 570.074 5.616 571.117 4.405 c 572.156 3.198
 573.383 2.593 574.789 2.593 c 575.727 2.593 576.539 2.851 577.227 3.358
 c 577.922 3.882 578.508 4.765 578.977 6.015 c 579.461 5.702 l 579.242 4.276
 578.605 2.976 577.555 1.796 c 576.5 0.632 575.184 0.046 573.602 0.046 c
 571.883 0.046 570.406 0.714 569.18 2.046 c 567.961 3.39 567.352 5.194 567.352
 7.452 c 567.352 9.901 567.977 11.808 569.227 13.171 c 570.484 14.546 572.062
 15.233 573.961 15.233 c 575.562 15.233 576.883 14.702 577.914 13.64 c 578.945
 12.589 579.461 11.179 579.461 9.405 c 569.57 9.405 l 569.57 10.312 m 576.195
 10.312 l 576.141 11.23 576.031 11.874 575.867 12.249 c 575.605 12.835 575.215
 13.292 574.695 13.624 c 574.184 13.96 573.648 14.124 573.086 14.124 c 572.219
 14.124 571.445 13.788 570.758 13.108 c 570.078 12.444 569.684 11.511 569.57
 10.312 c 577.023 22.202 m 572.414 16.812 l 571.883 16.812 l 573.523 22.202
 l 577.023 22.202 l f
585.539 15.218 m 585.539 11.999 l 586.734 14.147 587.965 15.218 589.227
 15.218 c 589.797 15.218 590.273 15.042 590.648 14.687 c 591.023 14.343 
591.211 13.944 591.211 13.483 c 591.211 13.077 591.074 12.733 590.805 12.452
 c 590.531 12.171 590.211 12.03 589.836 12.03 c 589.469 12.03 589.059 12.21
 588.602 12.562 c 588.152 12.929 587.82 13.108 587.602 13.108 c 587.414 
13.108 587.211 13.007 586.992 12.796 c 586.523 12.37 586.039 11.667 585.539
 10.687 c 585.539 3.827 l 585.539 3.038 585.637 2.437 585.836 2.03 c 585.969
 1.749 586.211 1.515 586.555 1.327 c 586.898 1.14 587.391 1.046 588.039 
1.046 c 588.039 0.483 l 580.711 0.483 l 580.711 1.046 l 581.438 1.046 581.98
 1.163 582.336 1.39 c 582.594 1.558 582.777 1.823 582.883 2.187 c 582.934
 2.366 582.961 2.87 582.961 3.702 c 582.961 9.249 l 582.961 10.917 582.922
 11.905 582.852 12.218 c 582.789 12.542 582.664 12.776 582.477 12.921 c 
582.297 13.069 582.074 13.14 581.805 13.14 c 581.48 13.14 581.117 13.062
 580.711 12.905 c 580.555 13.468 l 584.883 15.218 l 585.539 15.218 l f
595.68 22.702 m 596.117 22.702 596.484 22.546 596.789 22.233 c 597.102 
21.933 597.258 21.562 597.258 21.124 c 597.258 20.687 597.102 20.312 596.789
 19.999 c 596.484 19.687 596.117 19.53 595.68 19.53 c 595.242 19.53 594.867
 19.687 594.555 19.999 c 594.242 20.312 594.086 20.687 594.086 21.124 c 
594.086 21.562 594.234 21.933 594.539 22.233 c 594.852 22.546 595.23 22.702
 595.68 22.702 c 596.977 15.218 m 596.977 3.718 l 596.977 2.823 597.039 
2.226 597.164 1.921 c 597.297 1.632 597.492 1.413 597.742 1.265 c 598 1.12
 598.469 1.046 599.148 1.046 c 599.148 0.483 l 592.195 0.483 l 592.195 1.046
 l 592.891 1.046 593.359 1.116 593.602 1.249 c 593.84 1.386 594.027 1.608
 594.164 1.921 c 594.309 2.233 594.383 2.835 594.383 3.718 c 594.383 9.233
 l 594.383 10.788 594.336 11.792 594.242 12.249 c 594.168 12.585 594.055
 12.812 593.898 12.937 c 593.742 13.073 593.527 13.14 593.258 13.14 c 592.965
 13.14 592.609 13.062 592.195 12.905 c 591.977 13.468 l 596.289 15.218 l
 596.977 15.218 l f
613.07 5.921 m 612.684 4.038 611.93 2.585 610.805 1.562 c 609.68 0.554 
608.434 0.046 607.07 0.046 c 605.445 0.046 604.027 0.73 602.82 2.093 c 601.609
 3.46 601.008 5.304 601.008 7.624 c 601.008 9.874 601.672 11.702 603.008
 13.108 c 604.352 14.515 605.961 15.218 607.836 15.218 c 609.242 15.218 
610.398 14.843 611.305 14.093 c 612.211 13.355 612.664 12.585 612.664 11.78
 c 612.664 11.386 612.531 11.062 612.273 10.812 c 612.023 10.573 611.668
 10.452 611.211 10.452 c 610.594 10.452 610.133 10.651 609.82 11.046 c 609.641
 11.265 609.523 11.683 609.461 12.296 c 609.406 12.913 609.199 13.382 608.836
 13.702 c 608.469 14.015 607.965 14.171 607.32 14.171 c 606.277 14.171 605.438
 13.788 604.805 13.015 c 603.961 11.995 603.539 10.647 603.539 8.968 c 603.539
 7.261 603.953 5.749 604.789 4.437 c 605.633 3.136 606.766 2.483 608.195
 2.483 c 609.215 2.483 610.133 2.835 610.945 3.53 c 611.516 4.011 612.074
 4.882 612.617 6.14 c 613.07 5.921 l f
623.211 2.546 m 621.742 1.413 620.82 0.757 620.445 0.577 c 619.883 0.319
 619.281 0.187 618.648 0.187 c 617.656 0.187 616.84 0.526 616.195 1.202 
c 615.559 1.882 615.242 2.772 615.242 3.874 c 615.242 4.573 615.398 5.179
 615.711 5.687 c 616.137 6.397 616.875 7.062 617.93 7.687 c 618.992 8.312
 620.75 9.073 623.211 9.968 c 623.211 10.53 l 623.211 11.96 622.98 12.937
 622.523 13.468 c 622.074 13.999 621.418 14.265 620.555 14.265 c 619.898
 14.265 619.375 14.089 618.992 13.733 c 618.594 13.382 618.398 12.976 618.398
 12.515 c 618.43 11.608 l 618.43 11.132 618.305 10.761 618.055 10.499 c 
617.812 10.241 617.496 10.108 617.102 10.108 c 616.715 10.108 616.398 10.245
 616.148 10.515 c 615.906 10.788 615.789 11.155 615.789 11.624 c 615.789
 12.522 616.246 13.343 617.164 14.093 c 618.078 14.843 619.367 15.218 621.023
 15.218 c 622.293 15.218 623.336 15.007 624.148 14.577 c 624.762 14.257 
625.215 13.749 625.508 13.062 c 625.695 12.616 625.789 11.698 625.789 10.312
 c 625.789 5.452 l 625.789 4.089 625.812 3.249 625.867 2.937 c 625.918 2.636
 626 2.433 626.117 2.327 c 626.242 2.226 626.383 2.171 626.539 2.171 c 626.703
 2.171 626.852 2.21 626.977 2.28 c 627.195 2.417 627.617 2.796 628.242 3.421
 c 628.242 2.546 l 627.074 0.983 625.961 0.202 624.898 0.202 c 624.387 0.202
 623.98 0.382 623.68 0.733 c 623.375 1.089 623.219 1.694 623.211 2.546 c
 623.211 3.562 m 623.211 9.015 l 621.637 8.39 620.621 7.948 620.164 7.687
 c 619.34 7.23 618.75 6.749 618.398 6.249 c 618.043 5.749 617.867 5.202 
617.867 4.608 c 617.867 3.858 618.09 3.233 618.539 2.733 c 618.984 2.245
 619.5 1.999 620.086 1.999 c 620.875 1.999 621.918 2.522 623.211 3.562 c
 f
638.273 234.858 m 644.445 234.858 l 645.777 234.858 646.605 235.007 646.93
 235.296 c 647.387 235.694 647.617 236.292 647.617 237.093 c 647.617 237.905
 l 648.195 237.905 l 648.195 228.827 l 647.617 228.827 l 647.617 229.624
 l 647.617 230.522 647.324 231.163 646.742 231.546 c 646.418 231.757 645.652
 231.858 644.445 231.858 c 630.758 231.858 l 629.422 231.858 628.594 231.718
 628.273 231.437 c 627.812 231.03 627.586 230.429 627.586 229.624 c 627.586
 228.827 l 627.008 228.827 l 627.008 236.593 l 627.008 238.491 627.203 239.983
 627.602 241.077 c 627.984 242.171 628.641 243.093 629.57 243.843 c 630.496
 244.593 631.594 244.968 632.867 244.968 c 634.594 244.968 636 244.397 637.086
 243.249 c 638.168 242.116 638.711 240.507 638.711 238.421 c 638.711 237.913
 638.672 237.358 638.602 236.765 c 638.527 236.171 638.418 235.538 638.273
 234.858 c 637.383 234.858 m 637.484 235.413 637.562 235.901 637.617 236.327
 c 637.668 236.757 637.695 237.12 637.695 237.421 c 637.695 238.507 637.277
 239.437 636.445 240.218 c 635.602 241.011 634.512 241.405 633.18 241.405
 c 632.262 241.405 631.414 241.218 630.633 240.843 c 629.84 240.468 629.25
 239.937 628.867 239.249 c 628.469 238.562 628.273 237.78 628.273 236.905
 c 628.273 236.374 628.371 235.694 628.57 234.858 c 637.383 234.858 l f
633.461 254.108 m 633.461 256.276 634.281 258.015 635.93 259.327 c 637.336
 260.444 638.949 260.999 640.773 260.999 c 642.055 260.999 643.352 260.694
 644.664 260.077 c 645.977 259.464 646.965 258.616 647.633 257.53 c 648.297
 256.46 648.633 255.261 648.633 253.937 c 648.633 251.78 647.773 250.069
 646.055 248.796 c 644.605 247.726 642.98 247.187 641.18 247.187 c 639.867
 247.187 638.562 247.511 637.273 248.155 c 635.969 248.812 635.012 249.671
 634.398 250.733 c 633.773 251.796 633.461 252.921 633.461 254.108 c 634.477
 253.624 m 634.477 253.073 634.641 252.515 634.977 251.952 c 635.297 251.401
 635.871 250.952 636.695 250.608 c 637.516 250.265 638.574 250.093 639.867
 250.093 c 641.949 250.093 643.746 250.507 645.258 251.327 c 646.766 252.163
 647.523 253.257 647.523 254.608 c 647.523 255.62 647.105 256.452 646.273
 257.108 c 645.438 257.765 644.008 258.093 641.977 258.093 c 639.434 258.093
 637.434 257.546 635.977 256.452 c 634.977 255.714 634.477 254.772 634.477
 253.624 c f
633.461 272.358 m 638.336 272.358 l 638.336 271.843 l 636.805 271.448 635.762
 270.937 635.211 270.312 c 634.656 269.698 634.383 268.913 634.383 267.952
 c 634.383 267.226 634.574 266.636 634.961 266.187 c 635.344 265.741 635.773
 265.515 636.242 265.515 c 636.824 265.515 637.324 265.683 637.742 266.015
 c 638.168 266.339 638.621 266.995 639.102 267.983 c 640.211 270.265 l 641.242
 272.382 642.602 273.437 644.289 273.437 c 645.59 273.437 646.641 272.944
 647.445 271.952 c 648.234 270.976 648.633 269.874 648.633 268.655 c 648.633
 267.78 648.477 266.78 648.164 265.655 c 648.059 265.312 648.008 265.03 
648.008 264.812 c 648.008 264.573 648.141 264.386 648.414 264.249 c 648.414
 263.733 l 643.305 263.733 l 643.305 264.249 l 644.762 264.542 645.859 265.101
 646.602 265.921 c 647.34 266.745 647.711 267.667 647.711 268.687 c 647.711
 269.405 647.5 269.991 647.086 270.437 c 646.656 270.897 646.148 271.124
 645.555 271.124 c 644.836 271.124 644.23 270.87 643.742 270.358 c 643.25
 269.858 642.633 268.855 641.883 267.343 c 641.133 265.835 640.453 264.843
 639.852 264.374 c 639.258 263.905 638.508 263.671 637.602 263.671 c 636.422
 263.671 635.438 264.073 634.648 264.874 c 633.855 265.687 633.461 266.733
 633.461 268.015 c 633.461 268.577 633.578 269.261 633.82 270.062 c 633.977
 270.593 634.055 270.948 634.055 271.124 c 634.055 271.292 634.016 271.421
 633.945 271.515 c 633.871 271.608 633.711 271.718 633.461 271.843 c 633.461
 272.358 l f
625.977 279.187 m 625.977 279.624 626.133 279.995 626.445 280.296 c 626.746
 280.608 627.117 280.765 627.555 280.765 c 627.992 280.765 628.367 280.608
 628.68 280.296 c 628.992 279.995 629.148 279.624 629.148 279.187 c 629.148
 278.749 628.992 278.374 628.68 278.062 c 628.367 277.749 627.992 277.593
 627.555 277.593 c 627.117 277.593 626.746 277.745 626.445 278.046 c 626.133
 278.358 625.977 278.741 625.977 279.187 c 633.461 280.483 m 644.961 280.483
 l 645.855 280.483 646.453 280.546 646.758 280.671 c 647.047 280.808 647.266
 280.999 647.414 281.249 c 647.559 281.511 647.633 281.98 647.633 282.655
 c 648.195 282.655 l 648.195 275.702 l 647.633 275.702 l 647.633 276.401
 647.562 276.87 647.43 277.108 c 647.293 277.351 647.07 277.538 646.758 
277.671 c 646.445 277.819 645.844 277.89 644.961 277.89 c 639.445 277.89
 l 637.891 277.89 636.887 277.843 636.43 277.749 c 636.094 277.679 635.867
 277.562 635.742 277.405 c 635.605 277.249 635.539 277.038 635.539 276.765
 c 635.539 276.476 635.617 276.12 635.773 275.702 c 635.211 275.483 l 633.461
 279.796 l 633.461 280.483 l f
642.758 296.577 m 644.641 296.194 646.094 295.437 647.117 294.312 c 648.125
 293.187 648.633 291.944 648.633 290.577 c 648.633 288.952 647.949 287.538
 646.586 286.327 c 645.219 285.12 643.375 284.515 641.055 284.515 c 638.805
 284.515 636.977 285.183 635.57 286.515 c 634.164 287.858 633.461 289.468
 633.461 291.343 c 633.461 292.749 633.836 293.905 634.586 294.812 c 635.324
 295.718 636.094 296.171 636.898 296.171 c 637.293 296.171 637.617 296.042
 637.867 295.78 c 638.105 295.53 638.227 295.179 638.227 294.718 c 638.227
 294.105 638.027 293.64 637.633 293.327 c 637.414 293.151 636.996 293.03
 636.383 292.968 c 635.766 292.917 635.297 292.71 634.977 292.343 c 634.664
 291.98 634.508 291.476 634.508 290.827 c 634.508 289.788 634.891 288.948
 635.664 288.312 c 636.684 287.468 638.031 287.046 639.711 287.046 c 641.418
 287.046 642.93 287.464 644.242 288.296 c 645.543 289.14 646.195 290.276
 646.195 291.702 c 646.195 292.726 645.844 293.64 645.148 294.452 c 644.668
 295.026 643.797 295.585 642.539 296.124 c 642.758 296.577 l f
625.977 302.249 m 625.977 302.687 626.133 303.058 626.445 303.358 c 626.746
 303.671 627.117 303.827 627.555 303.827 c 627.992 303.827 628.367 303.671
 628.68 303.358 c 628.992 303.058 629.148 302.687 629.148 302.249 c 629.148
 301.812 628.992 301.437 628.68 301.124 c 628.367 300.812 627.992 300.655
 627.555 300.655 c 627.117 300.655 626.746 300.808 626.445 301.108 c 626.133
 301.421 625.977 301.804 625.977 302.249 c 633.461 303.546 m 644.961 303.546
 l 645.855 303.546 646.453 303.608 646.758 303.733 c 647.047 303.87 647.266
 304.062 647.414 304.312 c 647.559 304.573 647.633 305.042 647.633 305.718
 c 648.195 305.718 l 648.195 298.765 l 647.633 298.765 l 647.633 299.464
 647.562 299.933 647.43 300.171 c 647.293 300.413 647.07 300.601 646.758
 300.733 c 646.445 300.882 645.844 300.952 644.961 300.952 c 639.445 300.952
 l 637.891 300.952 636.887 300.905 636.43 300.812 c 636.094 300.741 635.867
 300.624 635.742 300.468 c 635.605 300.312 635.539 300.101 635.539 299.827
 c 635.539 299.538 635.617 299.183 635.773 298.765 c 635.211 298.546 l 633.461
 302.858 l 633.461 303.546 l f
633.461 314.483 m 633.461 316.651 634.281 318.39 635.93 319.702 c 637.336
 320.819 638.949 321.374 640.773 321.374 c 642.055 321.374 643.352 321.069
 644.664 320.452 c 645.977 319.839 646.965 318.991 647.633 317.905 c 648.297
 316.835 648.633 315.636 648.633 314.312 c 648.633 312.155 647.773 310.444
 646.055 309.171 c 644.605 308.101 642.98 307.562 641.18 307.562 c 639.867
 307.562 638.562 307.886 637.273 308.53 c 635.969 309.187 635.012 310.046
 634.398 311.108 c 633.773 312.171 633.461 313.296 633.461 314.483 c 634.477
 313.999 m 634.477 313.448 634.641 312.89 634.977 312.327 c 635.297 311.776
 635.871 311.327 636.695 310.983 c 637.516 310.64 638.574 310.468 639.867
 310.468 c 641.949 310.468 643.746 310.882 645.258 311.702 c 646.766 312.538
 647.523 313.632 647.523 314.983 c 647.523 315.995 647.105 316.827 646.273
 317.483 c 645.438 318.14 644.008 318.468 641.977 318.468 c 639.434 318.468
 637.434 317.921 635.977 316.827 c 634.977 316.089 634.477 315.147 634.477
 313.999 c 626.477 317.78 m 631.867 313.171 l 631.867 312.64 l 626.477 314.28
 l 626.477 317.78 l f
636.492 327.655 m 634.469 329.335 633.461 330.933 633.461 332.452 c 633.461
 333.233 633.656 333.905 634.055 334.468 c 634.438 335.03 635.078 335.48
 635.977 335.812 c 636.602 336.042 637.559 336.155 638.852 336.155 c 644.961
 336.155 l 645.867 336.155 646.48 336.23 646.805 336.374 c 647.062 336.491
 647.266 336.671 647.414 336.921 c 647.559 337.183 647.633 337.655 647.633
 338.343 c 648.195 338.343 l 648.195 331.265 l 647.633 331.265 l 647.633
 331.562 l 647.633 332.23 647.531 332.694 647.336 332.952 c 647.125 333.226
 646.824 333.413 646.43 333.515 c 646.273 333.558 645.781 333.577 644.961
 333.577 c 639.102 333.577 l 637.797 333.577 636.855 333.405 636.273 333.062
 c 635.68 332.73 635.383 332.163 635.383 331.358 c 635.383 330.12 636.059
 328.886 637.414 327.655 c 644.961 327.655 l 645.93 327.655 646.527 327.714
 646.758 327.827 c 647.059 327.976 647.281 328.171 647.43 328.421 c 647.562
 328.683 647.633 329.202 647.633 329.983 c 648.195 329.983 l 648.195 322.905
 l 647.633 322.905 l 647.633 323.218 l 647.633 323.948 647.449 324.437 647.086
 324.687 c 646.711 324.948 646 325.077 644.961 325.077 c 639.648 325.077
 l 637.93 325.077 636.883 325.038 636.508 324.952 c 636.133 324.882 635.875
 324.761 635.742 324.593 c 635.605 324.437 635.539 324.226 635.539 323.952
 c 635.539 323.663 635.617 323.312 635.773 322.905 c 635.211 322.671 l 633.461
 326.983 l 633.461 327.655 l 636.492 327.655 l f
637.727 347.64 m 635.309 347.64 633.23 348.007 631.492 348.733 c 629.742
 349.464 628.438 350.433 627.586 351.64 c 626.906 352.577 626.57 353.546
 626.57 354.546 c 626.57 356.171 627.398 357.632 629.055 358.921 c 631.105
 360.538 633.887 361.343 637.398 361.343 c 639.855 361.343 641.945 360.991
 643.664 360.28 c 645.383 359.573 646.633 358.667 647.414 357.562 c 648.184
 356.468 648.57 355.413 648.57 354.39 c 648.57 352.37 647.375 350.687 644.992
 349.343 c 642.98 348.21 640.559 347.64 637.727 347.64 c 638.117 350.702
 m 641.031 350.702 643.414 351.062 645.258 351.78 c 646.809 352.374 647.586
 353.261 647.586 354.437 c 647.586 354.999 647.336 355.585 646.836 356.187
 c 646.324 356.792 645.477 357.249 644.289 357.562 c 642.496 358.042 639.969
 358.28 636.711 358.28 c 634.293 358.28 632.277 358.03 630.664 357.53 c 
629.465 357.155 628.617 356.671 628.117 356.077 c 627.773 355.651 627.602
 355.136 627.602 354.53 c 627.602 353.823 627.918 353.194 628.555 352.64
 c 629.418 351.89 630.777 351.382 632.633 351.108 c 634.484 350.839 636.312
 350.702 638.117 350.702 c f
517.258 234.858 m 523.43 234.858 l 524.766 234.858 525.594 235.007 525.914
 235.296 c 526.375 235.694 526.602 236.292 526.602 237.093 c 526.602 237.905
 l 527.18 237.905 l 527.18 228.827 l 526.602 228.827 l 526.602 229.624 l
 526.602 230.522 526.312 231.163 525.727 231.546 c 525.406 231.757 524.641
 231.858 523.43 231.858 c 509.742 231.858 l 508.41 231.858 507.582 231.718
 507.258 231.437 c 506.801 231.03 506.57 230.429 506.57 229.624 c 506.57
 228.827 l 505.992 228.827 l 505.992 236.593 l 505.992 238.491 506.191 239.983
 506.586 241.077 c 506.973 242.171 507.629 243.093 508.555 243.843 c 509.484
 244.593 510.582 244.968 511.852 244.968 c 513.582 244.968 514.988 244.397
 516.07 243.249 c 517.156 242.116 517.695 240.507 517.695 238.421 c 517.695
 237.913 517.66 237.358 517.586 236.765 c 517.516 236.171 517.406 235.538
 517.258 234.858 c 516.367 234.858 m 516.473 235.413 516.551 235.901 516.602
 236.327 c 516.656 236.757 516.68 237.12 516.68 237.421 c 516.68 238.507
 516.266 239.437 515.43 240.218 c 514.586 241.011 513.5 241.405 512.164 
241.405 c 511.25 241.405 510.398 241.218 509.617 240.843 c 508.828 240.468
 508.238 239.937 507.852 239.249 c 507.457 238.562 507.258 237.78 507.258
 236.905 c 507.258 236.374 507.359 235.694 507.555 234.858 c 516.367 234.858
 l f
512.445 254.108 m 512.445 256.276 513.27 258.015 514.914 259.327 c 516.32
 260.444 517.938 260.999 519.758 260.999 c 521.039 260.999 522.336 260.694
 523.648 260.077 c 524.961 259.464 525.953 258.616 526.617 257.53 c 527.285
 256.46 527.617 255.261 527.617 253.937 c 527.617 251.78 526.758 250.069
 525.039 248.796 c 523.594 247.726 521.969 247.187 520.164 247.187 c 518.852
 247.187 517.551 247.511 516.258 248.155 c 514.957 248.812 514 249.671 513.383
 250.733 c 512.758 251.796 512.445 252.921 512.445 254.108 c 513.461 253.624
 m 513.461 253.073 513.629 252.515 513.961 251.952 c 514.285 251.401 514.859
 250.952 515.68 250.608 c 516.504 250.265 517.562 250.093 518.852 250.093
 c 520.938 250.093 522.734 250.507 524.242 251.327 c 525.754 252.163 526.508
 253.257 526.508 254.608 c 526.508 255.62 526.094 256.452 525.258 257.108
 c 524.426 257.765 522.992 258.093 520.961 258.093 c 518.422 258.093 516.422
 257.546 514.961 256.452 c 513.961 255.714 513.461 254.772 513.461 253.624
 c f
512.445 272.358 m 517.32 272.358 l 517.32 271.843 l 515.789 271.448 514.75
 270.937 514.195 270.312 c 513.645 269.698 513.367 268.913 513.367 267.952
 c 513.367 267.226 513.562 266.636 513.945 266.187 c 514.332 265.741 514.758
 265.515 515.227 265.515 c 515.812 265.515 516.312 265.683 516.727 266.015
 c 517.156 266.339 517.609 266.995 518.086 267.983 c 519.195 270.265 l 520.227
 272.382 521.586 273.437 523.273 273.437 c 524.578 273.437 525.629 272.944
 526.43 271.952 c 527.223 270.976 527.617 269.874 527.617 268.655 c 527.617
 267.78 527.461 266.78 527.148 265.655 c 527.047 265.312 526.992 265.03 
526.992 264.812 c 526.992 264.573 527.129 264.386 527.398 264.249 c 527.398
 263.733 l 522.289 263.733 l 522.289 264.249 l 523.75 264.542 524.848 265.101
 525.586 265.921 c 526.328 266.745 526.695 267.667 526.695 268.687 c 526.695
 269.405 526.488 269.991 526.07 270.437 c 525.645 270.897 525.133 271.124
 524.539 271.124 c 523.82 271.124 523.219 270.87 522.727 270.358 c 522.238
 269.858 521.617 268.855 520.867 267.343 c 520.117 265.835 519.441 264.843
 518.836 264.374 c 518.242 263.905 517.492 263.671 516.586 263.671 c 515.41
 263.671 514.426 264.073 513.633 264.874 c 512.844 265.687 512.445 266.733
 512.445 268.015 c 512.445 268.577 512.566 269.261 512.805 270.062 c 512.961
 270.593 513.039 270.948 513.039 271.124 c 513.039 271.292 513.004 271.421
 512.93 271.515 c 512.859 271.608 512.695 271.718 512.445 271.843 c 512.445
 272.358 l f
504.961 279.187 m 504.961 279.624 505.117 279.995 505.43 280.296 c 505.734
 280.608 506.102 280.765 506.539 280.765 c 506.977 280.765 507.352 280.608
 507.664 280.296 c 507.977 279.995 508.133 279.624 508.133 279.187 c 508.133
 278.749 507.977 278.374 507.664 278.062 c 507.352 277.749 506.977 277.593
 506.539 277.593 c 506.102 277.593 505.734 277.745 505.43 278.046 c 505.117
 278.358 504.961 278.741 504.961 279.187 c 512.445 280.483 m 523.945 280.483
 l 524.844 280.483 525.441 280.546 525.742 280.671 c 526.035 280.808 526.254
 280.999 526.398 281.249 c 526.547 281.511 526.617 281.98 526.617 282.655
 c 527.18 282.655 l 527.18 275.702 l 526.617 275.702 l 526.617 276.401 526.551
 276.87 526.414 277.108 c 526.281 277.351 526.055 277.538 525.742 277.671
 c 525.43 277.819 524.832 277.89 523.945 277.89 c 518.43 277.89 l 516.879
 277.89 515.875 277.843 515.414 277.749 c 515.082 277.679 514.852 277.562
 514.727 277.405 c 514.594 277.249 514.523 277.038 514.523 276.765 c 514.523
 276.476 514.602 276.12 514.758 275.702 c 514.195 275.483 l 512.445 279.796
 l 512.445 280.483 l f
521.742 296.577 m 523.629 296.194 525.082 295.437 526.102 294.312 c 527.113
 293.187 527.617 291.944 527.617 290.577 c 527.617 288.952 526.938 287.538
 525.57 286.327 c 524.207 285.12 522.363 284.515 520.039 284.515 c 517.789
 284.515 515.961 285.183 514.555 286.515 c 513.148 287.858 512.445 289.468
 512.445 291.343 c 512.445 292.749 512.82 293.905 513.57 294.812 c 514.312
 295.718 515.082 296.171 515.883 296.171 c 516.281 296.171 516.602 296.042
 516.852 295.78 c 517.094 295.53 517.211 295.179 517.211 294.718 c 517.211
 294.105 517.016 293.64 516.617 293.327 c 516.398 293.151 515.984 293.03
 515.367 292.968 c 514.754 292.917 514.285 292.71 513.961 292.343 c 513.648
 291.98 513.492 291.476 513.492 290.827 c 513.492 289.788 513.879 288.948
 514.648 288.312 c 515.672 287.468 517.02 287.046 518.695 287.046 c 520.406
 287.046 521.914 287.464 523.227 288.296 c 524.531 289.14 525.18 290.276
 525.18 291.702 c 525.18 292.726 524.832 293.64 524.133 294.452 c 523.656
 295.026 522.785 295.585 521.523 296.124 c 521.742 296.577 l f
504.961 302.249 m 504.961 302.687 505.117 303.058 505.43 303.358 c 505.734
 303.671 506.102 303.827 506.539 303.827 c 506.977 303.827 507.352 303.671
 507.664 303.358 c 507.977 303.058 508.133 302.687 508.133 302.249 c 508.133
 301.812 507.977 301.437 507.664 301.124 c 507.352 300.812 506.977 300.655
 506.539 300.655 c 506.102 300.655 505.734 300.808 505.43 301.108 c 505.117
 301.421 504.961 301.804 504.961 302.249 c 512.445 303.546 m 523.945 303.546
 l 524.844 303.546 525.441 303.608 525.742 303.733 c 526.035 303.87 526.254
 304.062 526.398 304.312 c 526.547 304.573 526.617 305.042 526.617 305.718
 c 527.18 305.718 l 527.18 298.765 l 526.617 298.765 l 526.617 299.464 526.551
 299.933 526.414 300.171 c 526.281 300.413 526.055 300.601 525.742 300.733
 c 525.43 300.882 524.832 300.952 523.945 300.952 c 518.43 300.952 l 516.879
 300.952 515.875 300.905 515.414 300.812 c 515.082 300.741 514.852 300.624
 514.727 300.468 c 514.594 300.312 514.523 300.101 514.523 299.827 c 514.523
 299.538 514.602 299.183 514.758 298.765 c 514.195 298.546 l 512.445 302.858
 l 512.445 303.546 l f
512.445 314.483 m 512.445 316.651 513.27 318.39 514.914 319.702 c 516.32
 320.819 517.938 321.374 519.758 321.374 c 521.039 321.374 522.336 321.069
 523.648 320.452 c 524.961 319.839 525.953 318.991 526.617 317.905 c 527.285
 316.835 527.617 315.636 527.617 314.312 c 527.617 312.155 526.758 310.444
 525.039 309.171 c 523.594 308.101 521.969 307.562 520.164 307.562 c 518.852
 307.562 517.551 307.886 516.258 308.53 c 514.957 309.187 514 310.046 513.383
 311.108 c 512.758 312.171 512.445 313.296 512.445 314.483 c 513.461 313.999
 m 513.461 313.448 513.629 312.89 513.961 312.327 c 514.285 311.776 514.859
 311.327 515.68 310.983 c 516.504 310.64 517.562 310.468 518.852 310.468
 c 520.938 310.468 522.734 310.882 524.242 311.702 c 525.754 312.538 526.508
 313.632 526.508 314.983 c 526.508 315.995 526.094 316.827 525.258 317.483
 c 524.426 318.14 522.992 318.468 520.961 318.468 c 518.422 318.468 516.422
 317.921 514.961 316.827 c 513.961 316.089 513.461 315.147 513.461 313.999
 c 505.461 317.78 m 510.852 313.171 l 510.852 312.64 l 505.461 314.28 l 
505.461 317.78 l f
515.477 327.655 m 513.457 329.335 512.445 330.933 512.445 332.452 c 512.445
 333.233 512.645 333.905 513.039 334.468 c 513.426 335.03 514.066 335.48
 514.961 335.812 c 515.586 336.042 516.547 336.155 517.836 336.155 c 523.945
 336.155 l 524.852 336.155 525.469 336.23 525.789 336.374 c 526.051 336.491
 526.254 336.671 526.398 336.921 c 526.547 337.183 526.617 337.655 526.617
 338.343 c 527.18 338.343 l 527.18 331.265 l 526.617 331.265 l 526.617 331.562
 l 526.617 332.23 526.52 332.694 526.32 332.952 c 526.113 333.226 525.812
 333.413 525.414 333.515 c 525.258 333.558 524.77 333.577 523.945 333.577
 c 518.086 333.577 l 516.785 333.577 515.844 333.405 515.258 333.062 c 514.664
 332.73 514.367 332.163 514.367 331.358 c 514.367 330.12 515.047 328.886
 516.398 327.655 c 523.945 327.655 l 524.914 327.655 525.516 327.714 525.742
 327.827 c 526.047 327.976 526.27 328.171 526.414 328.421 c 526.551 328.683
 526.617 329.202 526.617 329.983 c 527.18 329.983 l 527.18 322.905 l 526.617
 322.905 l 526.617 323.218 l 526.617 323.948 526.438 324.437 526.07 324.687
 c 525.695 324.948 524.988 325.077 523.945 325.077 c 518.633 325.077 l 516.914
 325.077 515.867 325.038 515.492 324.952 c 515.117 324.882 514.863 324.761
 514.727 324.593 c 514.594 324.437 514.523 324.226 514.523 323.952 c 514.523
 323.663 514.602 323.312 514.758 322.905 c 514.195 322.671 l 512.445 326.983
 l 512.445 327.655 l 515.477 327.655 l f
508.07 350.233 m 505.555 355.39 l 505.555 355.905 l 523.445 355.905 l 524.633
 355.905 525.375 355.952 525.664 356.046 c 525.957 356.151 526.18 356.358
 526.336 356.671 c 526.492 356.983 526.582 357.62 526.602 358.577 c 527.18
 358.577 l 527.18 350.608 l 526.602 350.608 l 526.582 351.608 526.5 352.257
 526.352 352.546 c 526.195 352.839 525.992 353.042 525.742 353.155 c 525.484
 353.272 524.719 353.327 523.445 353.327 c 512.008 353.327 l 510.469 353.327
 509.477 353.276 509.039 353.171 c 508.707 353.101 508.461 352.964 508.305
 352.765 c 508.148 352.577 508.07 352.351 508.07 352.077 c 508.07 351.694
 508.234 351.155 508.555 350.468 c 508.07 350.233 l f
396.246 234.858 m 402.418 234.858 l 403.754 234.858 404.582 235.007 404.902
 235.296 c 405.363 235.694 405.59 236.292 405.59 237.093 c 405.59 237.905
 l 406.168 237.905 l 406.168 228.827 l 405.59 228.827 l 405.59 229.624 l
 405.59 230.522 405.301 231.163 404.715 231.546 c 404.395 231.757 403.629
 231.858 402.418 231.858 c 388.73 231.858 l 387.398 231.858 386.57 231.718
 386.246 231.437 c 385.789 231.03 385.559 230.429 385.559 229.624 c 385.559
 228.827 l 384.98 228.827 l 384.98 236.593 l 384.98 238.491 385.18 239.983
 385.574 241.077 c 385.961 242.171 386.617 243.093 387.543 243.843 c 388.473
 244.593 389.57 244.968 390.84 244.968 c 392.57 244.968 393.977 244.397 
395.059 243.249 c 396.145 242.116 396.684 240.507 396.684 238.421 c 396.684
 237.913 396.648 237.358 396.574 236.765 c 396.504 236.171 396.395 235.538
 396.246 234.858 c 395.355 234.858 m 395.461 235.413 395.539 235.901 395.59
 236.327 c 395.645 236.757 395.668 237.12 395.668 237.421 c 395.668 238.507
 395.254 239.437 394.418 240.218 c 393.574 241.011 392.488 241.405 391.152
 241.405 c 390.238 241.405 389.387 241.218 388.605 240.843 c 387.816 240.468
 387.227 239.937 386.84 239.249 c 386.445 238.562 386.246 237.78 386.246
 236.905 c 386.246 236.374 386.348 235.694 386.543 234.858 c 395.355 234.858
 l f
391.434 254.108 m 391.434 256.276 392.258 258.015 393.902 259.327 c 395.309
 260.444 396.926 260.999 398.746 260.999 c 400.027 260.999 401.324 260.694
 402.637 260.077 c 403.949 259.464 404.941 258.616 405.605 257.53 c 406.273
 256.46 406.605 255.261 406.605 253.937 c 406.605 251.78 405.746 250.069
 404.027 248.796 c 402.582 247.726 400.957 247.187 399.152 247.187 c 397.84
 247.187 396.539 247.511 395.246 248.155 c 393.945 248.812 392.988 249.671
 392.371 250.733 c 391.746 251.796 391.434 252.921 391.434 254.108 c 392.449
 253.624 m 392.449 253.073 392.617 252.515 392.949 251.952 c 393.273 251.401
 393.848 250.952 394.668 250.608 c 395.492 250.265 396.551 250.093 397.84
 250.093 c 399.926 250.093 401.723 250.507 403.23 251.327 c 404.742 252.163
 405.496 253.257 405.496 254.608 c 405.496 255.62 405.082 256.452 404.246
 257.108 c 403.414 257.765 401.98 258.093 399.949 258.093 c 397.41 258.093
 395.41 257.546 393.949 256.452 c 392.949 255.714 392.449 254.772 392.449
 253.624 c f
391.434 272.358 m 396.309 272.358 l 396.309 271.843 l 394.777 271.448 393.738
 270.937 393.184 270.312 c 392.633 269.698 392.355 268.913 392.355 267.952
 c 392.355 267.226 392.551 266.636 392.934 266.187 c 393.32 265.741 393.746
 265.515 394.215 265.515 c 394.801 265.515 395.301 265.683 395.715 266.015
 c 396.145 266.339 396.598 266.995 397.074 267.983 c 398.184 270.265 l 399.215
 272.382 400.574 273.437 402.262 273.437 c 403.566 273.437 404.617 272.944
 405.418 271.952 c 406.211 270.976 406.605 269.874 406.605 268.655 c 406.605
 267.78 406.449 266.78 406.137 265.655 c 406.035 265.312 405.98 265.03 405.98
 264.812 c 405.98 264.573 406.117 264.386 406.387 264.249 c 406.387 263.733
 l 401.277 263.733 l 401.277 264.249 l 402.738 264.542 403.836 265.101 404.574
 265.921 c 405.316 266.745 405.684 267.667 405.684 268.687 c 405.684 269.405
 405.477 269.991 405.059 270.437 c 404.633 270.897 404.121 271.124 403.527
 271.124 c 402.809 271.124 402.207 270.87 401.715 270.358 c 401.227 269.858
 400.605 268.855 399.855 267.343 c 399.105 265.835 398.43 264.843 397.824
 264.374 c 397.23 263.905 396.48 263.671 395.574 263.671 c 394.398 263.671
 393.414 264.073 392.621 264.874 c 391.832 265.687 391.434 266.733 391.434
 268.015 c 391.434 268.577 391.555 269.261 391.793 270.062 c 391.949 270.593
 392.027 270.948 392.027 271.124 c 392.027 271.292 391.992 271.421 391.918
 271.515 c 391.848 271.608 391.684 271.718 391.434 271.843 c 391.434 272.358
 l f
383.949 279.187 m 383.949 279.624 384.105 279.995 384.418 280.296 c 384.723
 280.608 385.09 280.765 385.527 280.765 c 385.965 280.765 386.34 280.608
 386.652 280.296 c 386.965 279.995 387.121 279.624 387.121 279.187 c 387.121
 278.749 386.965 278.374 386.652 278.062 c 386.34 277.749 385.965 277.593
 385.527 277.593 c 385.09 277.593 384.723 277.745 384.418 278.046 c 384.105
 278.358 383.949 278.741 383.949 279.187 c 391.434 280.483 m 402.934 280.483
 l 403.832 280.483 404.43 280.546 404.73 280.671 c 405.023 280.808 405.242
 280.999 405.387 281.249 c 405.535 281.511 405.605 281.98 405.605 282.655
 c 406.168 282.655 l 406.168 275.702 l 405.605 275.702 l 405.605 276.401
 405.539 276.87 405.402 277.108 c 405.27 277.351 405.043 277.538 404.73 
277.671 c 404.418 277.819 403.82 277.89 402.934 277.89 c 397.418 277.89 
l 395.867 277.89 394.863 277.843 394.402 277.749 c 394.07 277.679 393.84
 277.562 393.715 277.405 c 393.582 277.249 393.512 277.038 393.512 276.765
 c 393.512 276.476 393.59 276.12 393.746 275.702 c 393.184 275.483 l 391.434
 279.796 l 391.434 280.483 l f
400.73 296.577 m 402.617 296.194 404.07 295.437 405.09 294.312 c 406.102
 293.187 406.605 291.944 406.605 290.577 c 406.605 288.952 405.926 287.538
 404.559 286.327 c 403.195 285.12 401.352 284.515 399.027 284.515 c 396.777
 284.515 394.949 285.183 393.543 286.515 c 392.137 287.858 391.434 289.468
 391.434 291.343 c 391.434 292.749 391.809 293.905 392.559 294.812 c 393.301
 295.718 394.07 296.171 394.871 296.171 c 395.27 296.171 395.59 296.042 
395.84 295.78 c 396.082 295.53 396.199 295.179 396.199 294.718 c 396.199
 294.105 396.004 293.64 395.605 293.327 c 395.387 293.151 394.973 293.03
 394.355 292.968 c 393.742 292.917 393.273 292.71 392.949 292.343 c 392.637
 291.98 392.48 291.476 392.48 290.827 c 392.48 289.788 392.867 288.948 393.637
 288.312 c 394.66 287.468 396.008 287.046 397.684 287.046 c 399.395 287.046
 400.902 287.464 402.215 288.296 c 403.52 289.14 404.168 290.276 404.168
 291.702 c 404.168 292.726 403.82 293.64 403.121 294.452 c 402.645 295.026
 401.773 295.585 400.512 296.124 c 400.73 296.577 l f
383.949 302.249 m 383.949 302.687 384.105 303.058 384.418 303.358 c 384.723
 303.671 385.09 303.827 385.527 303.827 c 385.965 303.827 386.34 303.671
 386.652 303.358 c 386.965 303.058 387.121 302.687 387.121 302.249 c 387.121
 301.812 386.965 301.437 386.652 301.124 c 386.34 300.812 385.965 300.655
 385.527 300.655 c 385.09 300.655 384.723 300.808 384.418 301.108 c 384.105
 301.421 383.949 301.804 383.949 302.249 c 391.434 303.546 m 402.934 303.546
 l 403.832 303.546 404.43 303.608 404.73 303.733 c 405.023 303.87 405.242
 304.062 405.387 304.312 c 405.535 304.573 405.605 305.042 405.605 305.718
 c 406.168 305.718 l 406.168 298.765 l 405.605 298.765 l 405.605 299.464
 405.539 299.933 405.402 300.171 c 405.27 300.413 405.043 300.601 404.73
 300.733 c 404.418 300.882 403.82 300.952 402.934 300.952 c 397.418 300.952
 l 395.867 300.952 394.863 300.905 394.402 300.812 c 394.07 300.741 393.84
 300.624 393.715 300.468 c 393.582 300.312 393.512 300.101 393.512 299.827
 c 393.512 299.538 393.59 299.183 393.746 298.765 c 393.184 298.546 l 391.434
 302.858 l 391.434 303.546 l f
391.434 314.483 m 391.434 316.651 392.258 318.39 393.902 319.702 c 395.309
 320.819 396.926 321.374 398.746 321.374 c 400.027 321.374 401.324 321.069
 402.637 320.452 c 403.949 319.839 404.941 318.991 405.605 317.905 c 406.273
 316.835 406.605 315.636 406.605 314.312 c 406.605 312.155 405.746 310.444
 404.027 309.171 c 402.582 308.101 400.957 307.562 399.152 307.562 c 397.84
 307.562 396.539 307.886 395.246 308.53 c 393.945 309.187 392.988 310.046
 392.371 311.108 c 391.746 312.171 391.434 313.296 391.434 314.483 c 392.449
 313.999 m 392.449 313.448 392.617 312.89 392.949 312.327 c 393.273 311.776
 393.848 311.327 394.668 310.983 c 395.492 310.64 396.551 310.468 397.84
 310.468 c 399.926 310.468 401.723 310.882 403.23 311.702 c 404.742 312.538
 405.496 313.632 405.496 314.983 c 405.496 315.995 405.082 316.827 404.246
 317.483 c 403.414 318.14 401.98 318.468 399.949 318.468 c 397.41 318.468
 395.41 317.921 393.949 316.827 c 392.949 316.089 392.449 315.147 392.449
 313.999 c 384.449 317.78 m 389.84 313.171 l 389.84 312.64 l 384.449 314.28
 l 384.449 317.78 l f
394.465 327.655 m 392.445 329.335 391.434 330.933 391.434 332.452 c 391.434
 333.233 391.633 333.905 392.027 334.468 c 392.414 335.03 393.055 335.48
 393.949 335.812 c 394.574 336.042 395.535 336.155 396.824 336.155 c 402.934
 336.155 l 403.84 336.155 404.457 336.23 404.777 336.374 c 405.039 336.491
 405.242 336.671 405.387 336.921 c 405.535 337.183 405.605 337.655 405.605
 338.343 c 406.168 338.343 l 406.168 331.265 l 405.605 331.265 l 405.605
 331.562 l 405.605 332.23 405.508 332.694 405.309 332.952 c 405.102 333.226
 404.801 333.413 404.402 333.515 c 404.246 333.558 403.758 333.577 402.934
 333.577 c 397.074 333.577 l 395.773 333.577 394.832 333.405 394.246 333.062
 c 393.652 332.73 393.355 332.163 393.355 331.358 c 393.355 330.12 394.035
 328.886 395.387 327.655 c 402.934 327.655 l 403.902 327.655 404.504 327.714
 404.73 327.827 c 405.035 327.976 405.258 328.171 405.402 328.421 c 405.539
 328.683 405.605 329.202 405.605 329.983 c 406.168 329.983 l 406.168 322.905
 l 405.605 322.905 l 405.605 323.218 l 405.605 323.948 405.426 324.437 405.059
 324.687 c 404.684 324.948 403.977 325.077 402.934 325.077 c 397.621 325.077
 l 395.902 325.077 394.855 325.038 394.48 324.952 c 394.105 324.882 393.852
 324.761 393.715 324.593 c 393.582 324.437 393.512 324.226 393.512 323.952
 c 393.512 323.663 393.59 323.312 393.746 322.905 c 393.184 322.671 l 391.434
 326.983 l 391.434 327.655 l 394.465 327.655 l f
402.09 361.155 m 406.168 359.671 l 406.168 347.171 l 405.59 347.171 l 402.238
 350.851 399.496 353.437 397.371 354.937 c 395.246 356.437 393.305 357.187
 391.543 357.187 c 390.199 357.187 389.098 356.776 388.23 355.952 c 387.367
 355.132 386.934 354.147 386.934 352.999 c 386.934 351.96 387.242 351.022
 387.855 350.187 c 388.461 349.366 389.352 348.757 390.527 348.358 c 390.527
 347.78 l 388.602 348.042 387.121 348.71 386.09 349.78 c 385.059 350.866
 384.543 352.214 384.543 353.827 c 384.543 355.546 385.098 356.98 386.199
 358.124 c 387.305 359.28 388.605 359.858 390.105 359.858 c 391.18 359.858
 392.254 359.608 393.324 359.108 c 395.012 358.339 396.801 357.089 398.684
 355.358 c 401.52 352.765 403.227 351.147 403.809 350.499 c 403.809 356.03
 l 403.809 357.155 403.77 357.944 403.684 358.39 c 403.602 358.851 403.434
 359.261 403.184 359.624 c 402.926 359.991 402.559 360.308 402.09 360.577
 c 402.09 361.155 l f
21.273 302.616 m 21.273 305.034 21.641 307.112 22.367 308.851 c 23.098 
310.601 24.066 311.905 25.273 312.757 c 26.211 313.437 27.18 313.772 28.18
 313.772 c 29.805 313.772 31.266 312.944 32.555 311.288 c 34.172 309.237
 34.977 306.456 34.977 302.944 c 34.977 300.487 34.625 298.397 33.914 296.679
 c 33.207 294.96 32.301 293.71 31.195 292.929 c 30.102 292.159 29.047 291.772
 28.023 291.772 c 26.004 291.772 24.32 292.968 22.977 295.351 c 21.844 297.362
 21.273 299.784 21.273 302.616 c 24.336 302.226 m 24.336 299.312 24.695 
296.929 25.414 295.085 c 26.008 293.534 26.895 292.757 28.07 292.757 c 28.633
 292.757 29.219 293.007 29.82 293.507 c 30.426 294.019 30.883 294.866 31.195
 296.054 c 31.676 297.847 31.914 300.374 31.914 303.632 c 31.914 306.05 
31.664 308.065 31.164 309.679 c 30.789 310.878 30.305 311.726 29.711 312.226
 c 29.285 312.569 28.77 312.741 28.164 312.741 c 27.457 312.741 26.828 312.425
 26.273 311.788 c 25.523 310.925 25.016 309.565 24.742 307.71 c 24.473 305.858
 24.336 304.03 24.336 302.226 c f
37.836 286.819 m 37.836 287.507 l 38.91 287.862 39.738 288.413 40.32 289.163
 c 40.914 289.905 41.211 290.69 41.211 291.522 c 41.211 291.722 41.164 291.89
 41.07 292.022 c 41 292.116 40.926 292.163 40.852 292.163 c 40.738 292.163
 40.488 292.062 40.102 291.851 c 39.914 291.757 39.719 291.71 39.508 291.71
 c 39 291.71 38.594 291.862 38.289 292.163 c 37.988 292.468 37.836 292.882
 37.836 293.413 c 37.836 293.925 38.031 294.362 38.414 294.726 c 38.812 
295.093 39.289 295.272 39.852 295.272 c 40.539 295.272 41.148 294.972 41.68
 294.366 c 42.223 293.772 42.492 292.983 42.492 291.991 c 42.492 290.921
 42.117 289.925 41.367 289.007 c 40.629 288.081 39.453 287.351 37.836 286.819
 c f
55.867 311.257 m 61.023 313.772 l 61.539 313.772 l 61.539 295.882 l 61.539
 294.694 61.586 293.956 61.68 293.663 c 61.785 293.374 61.992 293.147 62.305
 292.991 c 62.617 292.835 63.254 292.749 64.211 292.726 c 64.211 292.147
 l 56.242 292.147 l 56.242 292.726 l 57.242 292.749 57.891 292.831 58.18
 292.976 c 58.473 293.132 58.676 293.335 58.789 293.585 c 58.906 293.847
 58.961 294.612 58.961 295.882 c 58.961 307.319 l 58.961 308.862 58.91 309.851
 58.805 310.288 c 58.734 310.624 58.598 310.866 58.398 311.022 c 58.211 
311.179 57.984 311.257 57.711 311.257 c 57.328 311.257 56.789 311.097 56.102
 310.772 c 55.867 311.257 l f
69.836 286.819 m 69.836 287.507 l 70.91 287.862 71.738 288.413 72.32 289.163
 c 72.914 289.905 73.211 290.69 73.211 291.522 c 73.211 291.722 73.164 291.89
 73.07 292.022 c 73 292.116 72.926 292.163 72.852 292.163 c 72.738 292.163
 72.488 292.062 72.102 291.851 c 71.914 291.757 71.719 291.71 71.508 291.71
 c 71 291.71 70.594 291.862 70.289 292.163 c 69.988 292.468 69.836 292.882
 69.836 293.413 c 69.836 293.925 70.031 294.362 70.414 294.726 c 70.812 
295.093 71.289 295.272 71.852 295.272 c 72.539 295.272 73.148 294.972 73.68
 294.366 c 74.223 293.772 74.492 292.983 74.492 291.991 c 74.492 290.921
 74.117 289.925 73.367 289.007 c 72.629 288.081 71.453 287.351 69.836 286.819
 c f
98.789 296.226 m 97.305 292.147 l 84.805 292.147 l 84.805 292.726 l 88.484
 296.081 91.07 298.819 92.57 300.944 c 94.07 303.069 94.82 305.015 94.82
 306.772 c 94.82 308.116 94.41 309.222 93.586 310.085 c 92.766 310.952 91.781
 311.382 90.633 311.382 c 89.594 311.382 88.656 311.077 87.82 310.46 c 87
 309.858 86.391 308.968 85.992 307.788 c 85.414 307.788 l 85.676 309.718
 86.344 311.194 87.414 312.226 c 88.5 313.257 89.848 313.772 91.461 313.772
 c 93.18 313.772 94.613 313.222 95.758 312.116 c 96.914 311.015 97.492 309.71
 97.492 308.21 c 97.492 307.14 97.242 306.065 96.742 304.991 c 95.973 303.304
 94.723 301.519 92.992 299.632 c 90.398 296.8 88.781 295.093 88.133 294.507
 c 93.664 294.507 l 94.789 294.507 95.578 294.55 96.023 294.632 c 96.484
 294.718 96.895 294.882 97.258 295.132 c 97.625 295.394 97.941 295.757 98.211
 296.226 c 98.789 296.226 l f
101.836 286.819 m 101.836 287.507 l 102.91 287.862 103.738 288.413 104.32
 289.163 c 104.914 289.905 105.211 290.69 105.211 291.522 c 105.211 291.722
 105.164 291.89 105.07 292.022 c 105 292.116 104.926 292.163 104.852 292.163
 c 104.738 292.163 104.488 292.062 104.102 291.851 c 103.914 291.757 103.719
 291.71 103.508 291.71 c 103 291.71 102.594 291.862 102.289 292.163 c 101.988
 292.468 101.836 292.882 101.836 293.413 c 101.836 293.925 102.031 294.362
 102.414 294.726 c 102.812 295.093 103.289 295.272 103.852 295.272 c 104.539
 295.272 105.148 294.972 105.68 294.366 c 106.223 293.772 106.492 292.983
 106.492 291.991 c 106.492 290.921 106.117 289.925 105.367 289.007 c 104.629
 288.081 103.453 287.351 101.836 286.819 c f
117.742 309.304 m 118.348 310.733 119.109 311.831 120.023 312.601 c 120.953
 313.382 122.102 313.772 123.477 313.772 c 125.176 313.772 126.477 313.222
 127.383 312.116 c 128.07 311.296 128.414 310.413 128.414 309.476 c 128.414
 307.937 127.445 306.343 125.508 304.694 c 126.812 304.187 127.797 303.456
 128.461 302.507 c 129.129 301.562 129.461 300.444 129.461 299.163 c 129.461
 297.331 128.879 295.741 127.711 294.397 c 126.191 292.647 123.988 291.772
 121.102 291.772 c 119.676 291.772 118.703 291.952 118.18 292.304 c 117.672
 292.659 117.414 293.038 117.414 293.444 c 117.414 293.749 117.535 294.015
 117.773 294.241 c 118.023 294.472 118.32 294.585 118.664 294.585 c 118.926
 294.585 119.191 294.546 119.461 294.46 c 119.641 294.409 120.039 294.218
 120.664 293.882 c 121.289 293.562 121.723 293.366 121.961 293.304 c 122.348
 293.19 122.758 293.132 123.195 293.132 c 124.258 293.132 125.18 293.546
 125.961 294.366 c 126.754 295.19 127.148 296.163 127.148 297.288 c 127.148
 298.112 126.969 298.913 126.602 299.694 c 126.332 300.28 126.035 300.722
 125.711 301.022 c 125.266 301.44 124.648 301.815 123.867 302.147 c 123.086
 302.491 122.289 302.663 121.477 302.663 c 120.977 302.663 l 120.977 303.132
 l 121.801 303.237 122.625 303.534 123.445 304.022 c 124.281 304.515 124.883
 305.101 125.258 305.788 c 125.633 306.476 125.82 307.233 125.82 308.054
 c 125.82 309.128 125.484 309.991 124.805 310.647 c 124.141 311.315 123.305
 311.647 122.305 311.647 c 120.691 311.647 119.344 310.784 118.258 309.054
 c 117.742 309.304 l f
133.836 286.819 m 133.836 287.507 l 134.91 287.862 135.738 288.413 136.32
 289.163 c 136.914 289.905 137.211 290.69 137.211 291.522 c 137.211 291.722
 137.164 291.89 137.07 292.022 c 137 292.116 136.926 292.163 136.852 292.163
 c 136.738 292.163 136.488 292.062 136.102 291.851 c 135.914 291.757 135.719
 291.71 135.508 291.71 c 135 291.71 134.594 291.862 134.289 292.163 c 133.988
 292.468 133.836 292.882 133.836 293.413 c 133.836 293.925 134.031 294.362
 134.414 294.726 c 134.812 295.093 135.289 295.272 135.852 295.272 c 136.539
 295.272 137.148 294.972 137.68 294.366 c 138.223 293.772 138.492 292.983
 138.492 291.991 c 138.492 290.921 138.117 289.925 137.367 289.007 c 136.629
 288.081 135.453 287.351 133.836 286.819 c f
163.008 299.96 m 163.008 297.741 l 160.164 297.741 l 160.164 292.147 l 
157.586 292.147 l 157.586 297.741 l 148.617 297.741 l 148.617 299.741 l 
158.445 313.772 l 160.164 313.772 l 160.164 299.96 l 163.008 299.96 l 157.586
 299.96 m 157.586 310.476 l 150.148 299.96 l 157.586 299.96 l f
165.836 286.819 m 165.836 287.507 l 166.91 287.862 167.738 288.413 168.32
 289.163 c 168.914 289.905 169.211 290.69 169.211 291.522 c 169.211 291.722
 169.164 291.89 169.07 292.022 c 169 292.116 168.926 292.163 168.852 292.163
 c 168.738 292.163 168.488 292.062 168.102 291.851 c 167.914 291.757 167.719
 291.71 167.508 291.71 c 167 291.71 166.594 291.862 166.289 292.163 c 165.988
 292.468 165.836 292.882 165.836 293.413 c 165.836 293.925 166.031 294.362
 166.414 294.726 c 166.812 295.093 167.289 295.272 167.852 295.272 c 168.539
 295.272 169.148 294.972 169.68 294.366 c 170.223 293.772 170.492 292.983
 170.492 291.991 c 170.492 290.921 170.117 289.925 169.367 289.007 c 168.629
 288.081 167.453 287.351 165.836 286.819 c f
194.008 313.335 m 192.789 310.679 l 186.414 310.679 l 185.023 307.835 l
 187.785 307.429 189.973 306.405 191.586 304.757 c 192.973 303.343 193.664
 301.675 193.664 299.757 c 193.664 298.644 193.438 297.612 192.977 296.663
 c 192.531 295.718 191.961 294.909 191.273 294.241 c 190.586 293.577 189.82
 293.038 188.977 292.632 c 187.781 292.062 186.551 291.772 185.289 291.772
 c 184.02 291.772 183.094 291.987 182.508 292.413 c 181.938 292.851 181.648
 293.331 181.648 293.851 c 181.648 294.144 181.77 294.397 182.008 294.616
 c 182.25 294.847 182.551 294.96 182.914 294.96 c 183.188 294.96 183.422
 294.921 183.617 294.835 c 183.828 294.753 184.176 294.538 184.664 294.194
 c 185.445 293.655 186.238 293.382 187.039 293.382 c 188.258 293.382 189.328
 293.843 190.242 294.757 c 191.172 295.687 191.633 296.812 191.633 298.132
 c 191.633 299.413 191.223 300.608 190.398 301.71 c 189.578 302.827 188.441
 303.687 186.992 304.288 c 185.859 304.757 184.312 305.03 182.352 305.101
 c 186.414 313.335 l 194.008 313.335 l f
197.836 286.819 m 197.836 287.507 l 198.91 287.862 199.738 288.413 200.32
 289.163 c 200.914 289.905 201.211 290.69 201.211 291.522 c 201.211 291.722
 201.164 291.89 201.07 292.022 c 201 292.116 200.926 292.163 200.852 292.163
 c 200.738 292.163 200.488 292.062 200.102 291.851 c 199.914 291.757 199.719
 291.71 199.508 291.71 c 199 291.71 198.594 291.862 198.289 292.163 c 197.988
 292.468 197.836 292.882 197.836 293.413 c 197.836 293.925 198.031 294.362
 198.414 294.726 c 198.812 295.093 199.289 295.272 199.852 295.272 c 200.539
 295.272 201.148 294.972 201.68 294.366 c 202.223 293.772 202.492 292.983
 202.492 291.991 c 202.492 290.921 202.117 289.925 201.367 289.007 c 200.629
 288.081 199.453 287.351 197.836 286.819 c f
226.461 313.772 m 226.461 313.194 l 225.086 313.062 223.961 312.784 223.086
 312.366 c 222.223 311.96 221.363 311.335 220.508 310.491 c 219.664 309.647
 218.961 308.706 218.398 307.663 c 217.848 306.632 217.383 305.405 217.008
 303.976 c 218.508 305.007 220.016 305.522 221.523 305.522 c 222.973 305.522
 224.227 304.94 225.289 303.772 c 226.352 302.608 226.883 301.108 226.883
 299.272 c 226.883 297.503 226.348 295.89 225.273 294.429 c 223.984 292.659
 222.273 291.772 220.148 291.772 c 218.703 291.772 217.473 292.253 216.461
 293.21 c 214.484 295.077 213.492 297.491 213.492 300.46 c 213.492 302.358
 213.875 304.159 214.633 305.866 c 215.395 307.577 216.477 309.093 217.883
 310.413 c 219.301 311.737 220.656 312.628 221.945 313.085 c 223.238 313.546
 224.441 313.772 225.555 313.772 c 226.461 313.772 l 216.742 302.835 m 216.555
 301.429 216.461 300.296 216.461 299.429 c 216.461 298.429 216.645 297.343
 217.008 296.163 c 217.383 294.999 217.938 294.069 218.664 293.382 c 219.195
 292.894 219.844 292.647 220.602 292.647 c 221.508 292.647 222.316 293.077
 223.023 293.929 c 223.742 294.784 224.102 296.003 224.102 297.585 c 224.102
 299.366 223.75 300.909 223.039 302.21 c 222.332 303.515 221.328 304.163
 220.023 304.163 c 219.629 304.163 219.203 304.081 218.742 303.913 c 218.297
 303.749 217.629 303.39 216.742 302.835 c f
229.836 286.819 m 229.836 287.507 l 230.91 287.862 231.738 288.413 232.32
 289.163 c 232.914 289.905 233.211 290.69 233.211 291.522 c 233.211 291.722
 233.164 291.89 233.07 292.022 c 233 292.116 232.926 292.163 232.852 292.163
 c 232.738 292.163 232.488 292.062 232.102 291.851 c 231.914 291.757 231.719
 291.71 231.508 291.71 c 231 291.71 230.594 291.862 230.289 292.163 c 229.988
 292.468 229.836 292.882 229.836 293.413 c 229.836 293.925 230.031 294.362
 230.414 294.726 c 230.812 295.093 231.289 295.272 231.852 295.272 c 232.539
 295.272 233.148 294.972 233.68 294.366 c 234.223 293.772 234.492 292.983
 234.492 291.991 c 234.492 290.921 234.117 289.925 233.367 289.007 c 232.629
 288.081 231.453 287.351 229.836 286.819 c f
247.336 313.335 m 258.695 313.335 l 258.695 312.741 l 251.633 291.71 l 
249.883 291.71 l 256.211 310.788 l 250.383 310.788 l 249.207 310.788 248.367
 310.647 247.867 310.366 c 246.992 309.89 246.289 309.147 245.758 308.147
 c 245.305 308.319 l 247.336 313.335 l f
356.012 183.956 m 360.273 190.46 365.641 195.472 372.105 198.987 c 378.648
 202.55 386.77 204.327 396.473 204.331 c 408.453 204.327 417.641 201.812
 424.035 196.776 c 428.887 193.026 431.312 189.015 431.312 184.737 c 431.312
 177.71 424.477 170.444 410.805 162.94 c 419.992 160.612 426.938 157.288
 431.641 152.968 c 436.348 148.644 438.699 143.565 438.699 137.722 c 438.699
 129.362 434.582 122.12 426.352 115.995 c 415.617 108.015 400.074 104.026
 379.715 104.026 c 369.645 104.026 362.773 104.835 359.098 106.448 c 355.496
 108.065 353.695 109.796 353.695 111.651 c 353.695 113.026 354.539 114.237
 356.23 115.284 c 357.996 116.327 360.09 116.851 362.516 116.851 c 364.352
 116.851 366.227 116.659 368.137 116.28 c 369.387 116.042 372.219 115.163
 376.629 113.644 c 381.035 112.171 384.086 111.292 385.777 111.007 c 388.496
 110.487 391.402 110.226 394.488 110.226 c 401.984 110.226 408.488 112.101
 414 115.855 c 419.586 119.605 422.383 124.046 422.383 129.175 c 422.383
 132.925 421.094 136.581 418.523 140.144 c 416.609 142.804 414.516 144.823
 412.238 146.198 c 409.078 148.101 404.742 149.808 399.227 151.327 c 393.715
 152.897 388.094 153.679 382.359 153.679 c 378.832 153.679 l 378.832 155.815
 l 384.637 156.292 390.445 157.644 396.25 159.878 c 402.133 162.108 406.395
 164.792 409.039 167.929 c 411.688 171.062 413.008 174.503 413.008 178.257
 c 413.008 183.147 410.621 187.089 405.844 190.081 c 401.141 193.12 395.258
 194.64 388.203 194.64 c 376.812 194.64 367.293 190.698 359.648 182.815 
c 356.012 183.956 l f
555.453 202.335 m 546.855 190.226 l 501.871 190.226 l 492.059 177.261 l
 511.535 175.405 526.973 170.73 538.363 163.226 c 548.141 156.765 553.027
 149.167 553.027 140.429 c 553.027 135.347 551.41 130.647 548.176 126.323
 c 545.016 122.003 541.012 118.323 536.16 115.284 c 531.309 112.245 525.906
 109.796 519.953 107.944 c 511.5 105.335 502.828 104.026 493.934 104.026
 c 484.965 104.026 478.426 104.999 474.309 106.948 c 470.266 108.944 468.246
 111.128 468.246 113.503 c 468.246 114.831 469.09 115.995 470.781 116.991
 c 472.473 118.038 474.602 118.562 477.176 118.562 c 479.086 118.562 480.738
 118.37 482.137 117.991 c 483.605 117.608 486.07 116.636 489.523 115.069
 c 495.035 112.601 500.621 111.366 506.281 111.366 c 514.883 111.366 522.414
 113.456 528.883 117.632 c 535.426 121.858 538.695 126.991 538.695 133.022
 c 538.695 138.862 535.793 144.3 529.984 149.335 c 524.18 154.417 516.168
 158.335 505.949 161.089 c 497.938 163.226 487.023 164.46 473.207 164.792
 c 501.871 202.335 l 555.453 202.335 l f
675.406 141.355 m 675.406 131.241 l 655.34 131.241 l 655.34 105.737 l 637.148
 105.737 l 637.148 131.241 l 573.863 131.241 l 573.863 140.358 l 643.211
 204.331 l 655.34 204.331 l 655.34 141.355 l 675.406 141.355 l 637.148 141.355
 m 637.148 189.3 l 584.668 141.355 l 637.148 141.355 l f
697.367 126.788 m 699.691 126.788 701.75 126.28 703.539 125.265 c 705.328
 124.265 706.73 122.776 707.746 120.8 c 708.762 118.835 709.27 116.796 709.27
 114.679 c 709.27 110.929 708.176 106.987 705.992 102.855 c 703.824 98.741
 700.984 95.601 697.473 93.433 c 693.961 91.265 690.328 90.183 686.578 90.183
 c 683.875 90.183 681.613 90.776 679.789 91.964 c 677.98 93.167 676.637 
94.749 675.762 96.714 c 674.898 98.675 674.469 100.577 674.469 102.417 c
 674.469 105.687 675.254 108.913 676.82 112.097 c 678.402 115.3 680.289 
117.968 682.473 120.101 c 684.66 122.253 686.992 123.905 689.469 125.058
 c 691.949 126.21 694.582 126.788 697.367 126.788 c 696.492 125.136 m 694.77
 125.136 693.082 124.706 691.43 123.843 c 689.797 123.003 688.168 121.608
 686.551 119.663 c 684.934 117.733 683.48 115.206 682.188 112.073 c 680.605
 108.218 679.812 104.577 679.812 101.151 c 679.812 98.71 680.441 96.542 
681.699 94.647 c 682.953 92.772 684.883 91.835 687.48 91.835 c 689.047 91.835
 690.578 92.222 692.078 92.995 c 693.59 93.769 695.164 95.093 696.801 96.972
 c 698.848 99.327 700.57 102.331 701.965 105.98 c 703.359 109.647 704.055
 113.062 704.055 116.23 c 704.055 118.569 703.426 120.636 702.172 122.425
 c 700.914 124.233 699.02 125.136 696.492 125.136 c f
Q Q
showpage
%%Trailer
end restore
%%EOF
