%!PS-Adobe-3.0 EPSF-3.0
%%Creator: cairo 1.12.2 (http://cairographics.org)
%%CreationDate: Fri Feb 14 20:39:10 2014
%%Pages: 1
%%DocumentData: Clean7Bit
%%LanguageLevel: 2
%%BoundingBox: 0 -1 718 403
%%EndComments
%%BeginProlog
save
50 dict begin
/q { gsave } bind def
/Q { grestore } bind def
/cm { 6 array astore concat } bind def
/w { setlinewidth } bind def
/J { setlinecap } bind def
/j { setlinejoin } bind def
/M { setmiterlimit } bind def
/d { setdash } bind def
/m { moveto } bind def
/l { lineto } bind def
/c { curveto } bind def
/h { closepath } bind def
/re { exch dup neg 3 1 roll 5 3 roll moveto 0 rlineto
      0 exch rlineto 0 rlineto closepath } bind def
/S { stroke } bind def
/f { fill } bind def
/f* { eofill } bind def
/n { newpath } bind def
/W { clip } bind def
/W* { eoclip } bind def
/BT { } bind def
/ET { } bind def
/pdfmark where { pop globaldict /?pdfmark /exec load put }
    { globaldict begin /?pdfmark /pop load def /pdfmark
    /cleartomark load def end } ifelse
/BDC { mark 3 1 roll /BDC pdfmark } bind def
/EMC { mark /EMC pdfmark } bind def
/cairo_store_point { /cairo_point_y exch def /cairo_point_x exch def } def
/Tj { show currentpoint cairo_store_point } bind def
/TJ {
  {
    dup
    type /stringtype eq
    { show } { -0.001 mul 0 cairo_font_matrix dtransform rmoveto } ifelse
  } forall
  currentpoint cairo_store_point
} bind def
/cairo_selectfont { cairo_font_matrix aload pop pop pop 0 0 6 array astore
    cairo_font exch selectfont cairo_point_x cairo_point_y moveto } bind def
/Tf { pop /cairo_font exch def /cairo_font_matrix where
      { pop cairo_selectfont } if } bind def
/Td { matrix translate cairo_font_matrix matrix concatmatrix dup
      /cairo_font_matrix exch def dup 4 get exch 5 get cairo_store_point
      /cairo_font where { pop cairo_selectfont } if } bind def
/Tm { 2 copy 8 2 roll 6 array astore /cairo_font_matrix exch def
      cairo_store_point /cairo_font where { pop cairo_selectfont } if } bind def
/g { setgray } bind def
/rg { setrgbcolor } bind def
/d1 { setcachedevice } bind def
%%EndProlog
%%Page: 1 1
%%BeginPageSetup
%%PageBoundingBox: 0 -1 718 403
%%EndPageSetup
q 0 -1 718 404 rectclip q
0 g
18.109 401.624 m 18.594 394.421 l 18.109 394.421 l 17.465 396.577 16.543
 398.128 15.344 399.077 c 14.145 400.026 12.707 400.499 11.031 400.499 c
 9.625 400.499 8.355 400.14 7.219 399.421 c 6.082 398.714 5.188 397.577 
4.531 396.015 c 3.887 394.452 3.562 392.511 3.562 390.187 c 3.562 388.269
 3.871 386.608 4.484 385.202 c 5.098 383.796 6.02 382.718 7.25 381.968 c
 8.488 381.218 9.902 380.843 11.484 380.843 c 12.859 380.843 14.074 381.136
 15.125 381.718 c 16.176 382.312 17.332 383.483 18.594 385.233 c 19.078 
384.921 l 18.016 383.034 16.777 381.655 15.359 380.78 c 13.941 379.905 12.262
 379.468 10.312 379.468 c 6.801 379.468 4.082 380.769 2.156 383.374 c 0.719
 385.312 0 387.593 0 390.218 c 0 392.331 0.473 394.276 1.422 396.046 c 2.371
 397.815 3.672 399.187 5.328 400.155 c 6.996 401.136 8.812 401.624 10.781
 401.624 c 12.312 401.624 13.824 401.249 15.312 400.499 c 15.75 400.269 
16.062 400.155 16.25 400.155 c 16.531 400.155 16.777 400.253 16.984 400.452
 c 17.254 400.733 17.449 401.124 17.562 401.624 c 18.109 401.624 l f
28.219 394.687 m 30.387 394.687 32.125 393.862 33.438 392.218 c 34.551 
390.812 35.109 389.198 35.109 387.374 c 35.109 386.093 34.801 384.796 34.188
 383.483 c 33.574 382.171 32.723 381.183 31.641 380.515 c 30.566 379.847
 29.371 379.515 28.047 379.515 c 25.891 379.515 24.176 380.374 22.906 382.093
 c 21.832 383.542 21.297 385.167 21.297 386.968 c 21.297 388.28 21.621 389.581
 22.266 390.874 c 22.922 392.175 23.781 393.136 24.844 393.749 c 25.906 
394.374 27.031 394.687 28.219 394.687 c 27.734 393.671 m 27.184 393.671 
26.625 393.503 26.062 393.171 c 25.512 392.847 25.062 392.276 24.719 391.452
 c 24.375 390.628 24.203 389.573 24.203 388.28 c 24.203 386.198 24.613 384.401
 25.438 382.89 c 26.27 381.378 27.363 380.624 28.719 380.624 c 29.73 380.624
 30.562 381.042 31.219 381.874 c 31.875 382.706 32.203 384.14 32.203 386.171
 c 32.203 388.714 31.656 390.714 30.562 392.171 c 29.824 393.171 28.879 
393.671 27.734 393.671 c f
41.391 391.655 m 43.066 393.675 44.668 394.687 46.188 394.687 c 46.969 
394.687 47.641 394.487 48.203 394.093 c 48.766 393.706 49.215 393.065 49.547
 392.171 c 49.777 391.546 49.891 390.589 49.891 389.296 c 49.891 383.187
 l 49.891 382.28 49.965 381.667 50.109 381.343 c 50.223 381.081 50.406 380.878
 50.656 380.733 c 50.918 380.589 51.391 380.515 52.078 380.515 c 52.078 
379.952 l 45 379.952 l 45 380.515 l 45.297 380.515 l 45.965 380.515 46.426
 380.612 46.688 380.812 c 46.957 381.019 47.145 381.323 47.25 381.718 c 
47.293 381.874 47.312 382.362 47.312 383.187 c 47.312 389.046 l 47.312 390.347
 47.141 391.292 46.797 391.874 c 46.465 392.468 45.895 392.765 45.094 392.765
 c 43.855 392.765 42.621 392.089 41.391 390.733 c 41.391 383.187 l 41.391
 382.218 41.449 381.62 41.562 381.39 c 41.707 381.089 41.906 380.862 42.156
 380.718 c 42.418 380.581 42.938 380.515 43.719 380.515 c 43.719 379.952
 l 36.641 379.952 l 36.641 380.515 l 36.953 380.515 l 37.684 380.515 38.172
 380.698 38.422 381.062 c 38.684 381.437 38.812 382.144 38.812 383.187 c
 38.812 388.499 l 38.812 390.218 38.77 391.265 38.688 391.64 c 38.613 392.015
 38.496 392.269 38.328 392.405 c 38.172 392.542 37.957 392.608 37.688 392.608
 c 37.395 392.608 37.047 392.53 36.641 392.374 c 36.406 392.937 l 40.719
 394.687 l 41.391 394.687 l 41.391 391.655 l f
56.844 402.187 m 57.293 402.187 57.672 402.03 57.984 401.718 c 58.297 401.405
 58.453 401.026 58.453 400.577 c 58.453 400.14 58.297 399.765 57.984 399.452
 c 57.672 399.14 57.293 398.983 56.844 398.983 c 56.406 398.983 56.031 399.14
 55.719 399.452 c 55.406 399.765 55.25 400.14 55.25 400.577 c 55.25 401.026
 55.406 401.405 55.719 401.718 c 56.031 402.03 56.406 402.187 56.844 402.187
 c 58.188 394.687 m 58.188 380.28 l 58.188 377.831 57.668 376.015 56.625
 374.827 c 55.582 373.64 54.23 373.046 52.562 373.046 c 51.613 373.046 50.91
 373.218 50.453 373.562 c 49.996 373.905 49.766 374.261 49.766 374.624 c
 49.766 374.987 49.895 375.3 50.156 375.562 c 50.406 375.823 50.703 375.952
 51.047 375.952 c 51.316 375.952 51.594 375.886 51.875 375.749 c 52.051 
375.675 52.391 375.417 52.891 374.968 c 53.402 374.511 53.828 374.28 54.172
 374.28 c 54.422 374.28 54.668 374.378 54.906 374.577 c 55.145 374.765 55.324
 375.089 55.438 375.546 c 55.551 375.995 55.609 376.972 55.609 378.483 c
 55.609 388.671 l 55.609 390.245 55.562 391.253 55.469 391.702 c 55.395 
392.046 55.281 392.28 55.125 392.405 c 54.969 392.542 54.754 392.608 54.484
 392.608 c 54.191 392.608 53.84 392.53 53.422 392.374 c 53.203 392.937 l
 57.516 394.687 l 58.188 394.687 l f
74.641 394.265 m 74.641 385.593 l 74.641 383.937 74.676 382.921 74.75 382.546
 c 74.832 382.183 74.957 381.925 75.125 381.78 c 75.301 381.636 75.504 381.562
 75.734 381.562 c 76.059 381.562 76.422 381.651 76.828 381.827 c 77.047 
381.28 l 72.766 379.515 l 72.062 379.515 l 72.062 382.546 l 70.832 381.214
 69.895 380.374 69.25 380.03 c 68.605 379.687 67.922 379.515 67.203 379.515
 c 66.402 379.515 65.703 379.745 65.109 380.202 c 64.527 380.671 64.121 
381.269 63.891 381.999 c 63.66 382.73 63.547 383.761 63.547 385.093 c 63.547
 391.483 l 63.547 392.159 63.473 392.628 63.328 392.89 c 63.184 393.151 
62.965 393.347 62.672 393.483 c 62.391 393.628 61.875 393.698 61.125 393.687
 c 61.125 394.265 l 66.141 394.265 l 66.141 384.687 l 66.141 383.355 66.371
 382.48 66.828 382.062 c 67.297 381.644 67.859 381.437 68.516 381.437 c 
68.965 381.437 69.469 381.577 70.031 381.858 c 70.605 382.14 71.281 382.675
 72.062 383.468 c 72.062 391.577 l 72.062 392.39 71.91 392.937 71.609 393.218
 c 71.316 393.511 70.703 393.667 69.766 393.687 c 69.766 394.265 l 74.641
 394.265 l f
82.266 391.655 m 83.941 393.675 85.543 394.687 87.062 394.687 c 87.844 
394.687 88.516 394.487 89.078 394.093 c 89.641 393.706 90.09 393.065 90.422
 392.171 c 90.652 391.546 90.766 390.589 90.766 389.296 c 90.766 383.187
 l 90.766 382.28 90.84 381.667 90.984 381.343 c 91.098 381.081 91.281 380.878
 91.531 380.733 c 91.793 380.589 92.266 380.515 92.953 380.515 c 92.953 
379.952 l 85.875 379.952 l 85.875 380.515 l 86.172 380.515 l 86.84 380.515
 87.301 380.612 87.562 380.812 c 87.832 381.019 88.02 381.323 88.125 381.718
 c 88.168 381.874 88.188 382.362 88.188 383.187 c 88.188 389.046 l 88.188
 390.347 88.016 391.292 87.672 391.874 c 87.34 392.468 86.77 392.765 85.969
 392.765 c 84.73 392.765 83.496 392.089 82.266 390.733 c 82.266 383.187 
l 82.266 382.218 82.324 381.62 82.438 381.39 c 82.582 381.089 82.781 380.862
 83.031 380.718 c 83.293 380.581 83.812 380.515 84.594 380.515 c 84.594 
379.952 l 77.516 379.952 l 77.516 380.515 l 77.828 380.515 l 78.559 380.515
 79.047 380.698 79.297 381.062 c 79.559 381.437 79.688 382.144 79.688 383.187
 c 79.688 388.499 l 79.688 390.218 79.645 391.265 79.562 391.64 c 79.488
 392.015 79.371 392.269 79.203 392.405 c 79.047 392.542 78.832 392.608 78.562
 392.608 c 78.27 392.608 77.922 392.53 77.516 392.374 c 77.281 392.937 l
 81.594 394.687 l 82.266 394.687 l 82.266 391.655 l f
98.25 398.968 m 98.25 394.265 l 101.594 394.265 l 101.594 393.171 l 98.25
 393.171 l 98.25 383.89 l 98.25 382.964 98.379 382.339 98.641 382.015 c 
98.91 381.69 99.254 381.53 99.672 381.53 c 100.016 381.53 100.348 381.636
 100.672 381.843 c 100.996 382.062 101.246 382.378 101.422 382.796 c 102.031
 382.796 l 101.668 381.776 101.152 381.003 100.484 380.483 c 99.816 379.972
 99.129 379.718 98.422 379.718 c 97.941 379.718 97.473 379.847 97.016 380.108
 c 96.559 380.378 96.219 380.761 96 381.249 c 95.781 381.749 95.672 382.515
 95.672 383.546 c 95.672 393.171 l 93.406 393.171 l 93.406 393.687 l 93.98
 393.917 94.562 394.3 95.156 394.843 c 95.762 395.394 96.297 396.046 96.766
 396.796 c 97.004 397.19 97.34 397.917 97.766 398.968 c 98.25 398.968 l f
109.969 394.687 m 112.137 394.687 113.875 393.862 115.188 392.218 c 116.301
 390.812 116.859 389.198 116.859 387.374 c 116.859 386.093 116.551 384.796
 115.938 383.483 c 115.324 382.171 114.473 381.183 113.391 380.515 c 112.316
 379.847 111.121 379.515 109.797 379.515 c 107.641 379.515 105.926 380.374
 104.656 382.093 c 103.582 383.542 103.047 385.167 103.047 386.968 c 103.047
 388.28 103.371 389.581 104.016 390.874 c 104.672 392.175 105.531 393.136
 106.594 393.749 c 107.656 394.374 108.781 394.687 109.969 394.687 c 109.484
 393.671 m 108.934 393.671 108.375 393.503 107.812 393.171 c 107.262 392.847
 106.812 392.276 106.469 391.452 c 106.125 390.628 105.953 389.573 105.953
 388.28 c 105.953 386.198 106.363 384.401 107.188 382.89 c 108.02 381.378
 109.113 380.624 110.469 380.624 c 111.48 380.624 112.312 381.042 112.969
 381.874 c 113.625 382.706 113.953 384.14 113.953 386.171 c 113.953 388.714
 113.406 390.714 112.312 392.171 c 111.574 393.171 110.629 393.671 109.484
 393.671 c f
137.078 381.562 m 136.379 380.831 135.699 380.308 135.031 379.983 c 134.363
 379.671 133.645 379.515 132.875 379.515 c 131.312 379.515 129.949 380.167
 128.781 381.468 c 127.613 382.78 127.031 384.464 127.031 386.515 c 127.031
 388.565 127.676 390.44 128.969 392.14 c 130.262 393.847 131.922 394.702
 133.953 394.702 c 135.215 394.702 136.254 394.3 137.078 393.499 c 137.078
 396.14 l 137.078 397.776 137.035 398.78 136.953 399.155 c 136.879 399.53
 136.762 399.784 136.594 399.921 c 136.426 400.058 136.219 400.124 135.969
 400.124 c 135.699 400.124 135.34 400.042 134.891 399.874 c 134.688 400.421
 l 138.953 402.171 l 139.656 402.171 l 139.656 385.624 l 139.656 383.948
 139.691 382.921 139.766 382.546 c 139.848 382.183 139.973 381.925 140.141
 381.78 c 140.316 381.636 140.52 381.562 140.75 381.562 c 141.031 381.562
 141.406 381.651 141.875 381.827 c 142.047 381.28 l 137.797 379.515 l 137.078
 379.515 l 137.078 381.562 l 137.078 382.655 m 137.078 390.03 l 137.016 
390.737 136.828 391.386 136.516 391.968 c 136.203 392.55 135.785 392.987
 135.266 393.28 c 134.754 393.581 134.254 393.733 133.766 393.733 c 132.848
 393.733 132.031 393.323 131.312 392.499 c 130.363 391.417 129.891 389.831
 129.891 387.749 c 129.891 385.644 130.348 384.03 131.266 382.905 c 132.184
 381.792 133.203 381.233 134.328 381.233 c 135.277 381.233 136.191 381.706
 137.078 382.655 c f
145.375 388.874 m 145.363 386.749 145.879 385.081 146.922 383.874 c 147.965
 382.667 149.188 382.062 150.594 382.062 c 151.531 382.062 152.344 382.315
 153.031 382.827 c 153.73 383.347 154.312 384.233 154.781 385.483 c 155.266
 385.171 l 155.047 383.745 154.41 382.44 153.359 381.265 c 152.309 380.097
 150.988 379.515 149.406 379.515 c 147.688 379.515 146.215 380.183 144.984
 381.515 c 143.766 382.858 143.156 384.659 143.156 386.921 c 143.156 389.37
 143.781 391.276 145.031 392.64 c 146.293 394.015 147.871 394.702 149.766
 394.702 c 151.371 394.702 152.688 394.171 153.719 393.108 c 154.75 392.058
 155.266 390.644 155.266 388.874 c 145.375 388.874 l 145.375 389.78 m 152
 389.78 l 151.949 390.698 151.84 391.343 151.672 391.718 c 151.41 392.3 
151.02 392.761 150.5 393.093 c 149.988 393.425 149.453 393.593 148.891 393.593
 c 148.027 393.593 147.25 393.253 146.562 392.577 c 145.887 391.909 145.488
 390.98 145.375 389.78 c f
174.406 394.687 m 174.406 389.812 l 173.891 389.812 l 173.496 391.343 172.984
 392.386 172.359 392.937 c 171.746 393.487 170.957 393.765 170 393.765 c
 169.27 393.765 168.684 393.573 168.234 393.187 c 167.785 392.8 167.562 
392.374 167.562 391.905 c 167.562 391.323 167.73 390.823 168.062 390.405
 c 168.387 389.98 169.043 389.526 170.031 389.046 c 172.312 387.937 l 174.426
 386.905 175.484 385.546 175.484 383.858 c 175.484 382.558 174.988 381.503
 174 380.702 c 173.02 379.909 171.922 379.515 170.703 379.515 c 169.828 
379.515 168.828 379.671 167.703 379.983 c 167.359 380.089 167.078 380.14
 166.859 380.14 c 166.621 380.14 166.434 380.003 166.297 379.733 c 165.781
 379.733 l 165.781 384.843 l 166.297 384.843 l 166.59 383.386 167.145 382.284
 167.969 381.546 c 168.793 380.808 169.715 380.437 170.734 380.437 c 171.453
 380.437 172.035 380.644 172.484 381.062 c 172.941 381.487 173.172 381.999
 173.172 382.593 c 173.172 383.312 172.918 383.917 172.406 384.405 c 171.906
 384.894 170.902 385.515 169.391 386.265 c 167.879 387.015 166.891 387.69
 166.422 388.296 c 165.953 388.89 165.719 389.64 165.719 390.546 c 165.719
 391.722 166.121 392.706 166.922 393.499 c 167.734 394.292 168.781 394.687
 170.062 394.687 c 170.625 394.687 171.309 394.565 172.109 394.327 c 172.641
 394.171 172.996 394.093 173.172 394.093 c 173.34 394.093 173.469 394.128
 173.562 394.202 c 173.656 394.276 173.766 394.437 173.891 394.687 c 174.406
 394.687 l f
182.516 394.687 m 182.516 383.187 l 182.516 382.292 182.582 381.69 182.719
 381.39 c 182.855 381.097 183.047 380.878 183.297 380.733 c 183.559 380.589
 184.027 380.515 184.703 380.515 c 184.703 379.952 l 177.75 379.952 l 177.75
 380.515 l 178.449 380.515 178.918 380.581 179.156 380.718 c 179.395 380.855
 179.582 381.077 179.719 381.39 c 179.863 381.702 179.938 382.3 179.938 
383.187 c 179.938 388.702 l 179.938 390.253 179.891 391.261 179.797 391.718
 c 179.723 392.05 179.609 392.28 179.453 392.405 c 179.297 392.542 179.082
 392.608 178.812 392.608 c 178.52 392.608 178.168 392.53 177.75 392.374 
c 177.531 392.937 l 181.844 394.687 l 182.516 394.687 l 184.375 401.671 
m 179.766 396.28 l 179.234 396.28 l 180.875 401.671 l 184.375 401.671 l f
190.719 391.64 m 191.762 392.683 192.375 393.28 192.562 393.437 c 193.031
 393.831 193.535 394.14 194.078 394.358 c 194.621 394.577 195.156 394.687
 195.688 394.687 c 196.582 394.687 197.355 394.425 198 393.905 c 198.645
 393.386 199.078 392.628 199.297 391.64 c 200.371 392.89 201.277 393.706
 202.016 394.093 c 202.754 394.487 203.516 394.687 204.297 394.687 c 205.059
 394.687 205.73 394.487 206.312 394.093 c 206.906 393.706 207.375 393.073
 207.719 392.187 c 207.949 391.581 208.062 390.636 208.062 389.343 c 208.062
 383.187 l 208.062 382.292 208.129 381.675 208.266 381.343 c 208.371 381.112
 208.562 380.917 208.844 380.749 c 209.125 380.593 209.582 380.515 210.219
 380.515 c 210.219 379.952 l 203.156 379.952 l 203.156 380.515 l 203.453
 380.515 l 204.066 380.515 204.547 380.636 204.891 380.874 c 205.129 381.042
 205.301 381.308 205.406 381.671 c 205.449 381.847 205.469 382.355 205.469
 383.187 c 205.469 389.343 l 205.469 390.511 205.328 391.331 205.047 391.812
 c 204.641 392.48 203.988 392.812 203.094 392.812 c 202.543 392.812 201.984
 392.671 201.422 392.39 c 200.871 392.12 200.199 391.608 199.406 390.858
 c 199.375 390.687 l 199.406 390.015 l 199.406 383.187 l 199.406 382.206
 199.457 381.597 199.562 381.358 c 199.676 381.12 199.887 380.917 200.188
 380.749 c 200.488 380.593 201.004 380.515 201.734 380.515 c 201.734 379.952
 l 194.5 379.952 l 194.5 380.515 l 195.293 380.515 195.832 380.608 196.125
 380.796 c 196.426 380.983 196.637 381.265 196.75 381.64 c 196.801 381.815
 196.828 382.331 196.828 383.187 c 196.828 389.343 l 196.828 390.511 196.656
 391.347 196.312 391.858 c 195.855 392.526 195.215 392.858 194.391 392.858
 c 193.828 392.858 193.27 392.706 192.719 392.405 c 191.855 391.948 191.188
 391.433 190.719 390.858 c 190.719 383.187 l 190.719 382.249 190.781 381.64
 190.906 381.358 c 191.043 381.077 191.234 380.862 191.484 380.718 c 191.746
 380.581 192.266 380.515 193.047 380.515 c 193.047 379.952 l 185.969 379.952
 l 185.969 380.515 l 186.625 380.515 187.082 380.581 187.344 380.718 c 187.605
 380.862 187.801 381.089 187.938 381.39 c 188.074 381.702 188.141 382.3 
188.141 383.187 c 188.141 388.655 l 188.141 390.23 188.094 391.245 188 391.702
 c 187.926 392.046 187.812 392.28 187.656 392.405 c 187.5 392.542 187.285
 392.608 187.016 392.608 c 186.723 392.608 186.375 392.53 185.969 392.374
 c 185.734 392.937 l 190.047 394.687 l 190.719 394.687 l 190.719 391.64 
l f
215.266 391.796 m 216.652 393.722 218.145 394.687 219.75 394.687 c 221.219
 394.687 222.5 394.058 223.594 392.796 c 224.688 391.546 225.234 389.831
 225.234 387.655 c 225.234 385.112 224.391 383.065 222.703 381.515 c 221.254
 380.183 219.641 379.515 217.859 379.515 c 217.027 379.515 216.176 379.667
 215.312 379.968 c 214.457 380.269 213.582 380.722 212.688 381.327 c 212.688
 396.155 l 212.688 397.78 212.645 398.78 212.562 399.155 c 212.488 399.53
 212.371 399.784 212.203 399.921 c 212.035 400.058 211.828 400.124 211.578
 400.124 c 211.285 400.124 210.922 400.042 210.484 399.874 c 210.266 400.421
 l 214.562 402.171 l 215.266 402.171 l 215.266 391.796 l 215.266 390.796
 m 215.266 382.233 l 215.797 381.714 216.344 381.315 216.906 381.046 c 217.48
 380.784 218.062 380.655 218.656 380.655 c 219.605 380.655 220.484 381.175
 221.297 382.218 c 222.121 383.261 222.531 384.776 222.531 386.765 c 222.531
 388.597 222.121 390.003 221.297 390.983 c 220.484 391.972 219.559 392.468
 218.516 392.468 c 217.965 392.468 217.41 392.327 216.859 392.046 c 216.441
 391.839 215.91 391.421 215.266 390.796 c f
234.344 394.687 m 236.512 394.687 238.25 393.862 239.562 392.218 c 240.676
 390.812 241.234 389.198 241.234 387.374 c 241.234 386.093 240.926 384.796
 240.312 383.483 c 239.699 382.171 238.848 381.183 237.766 380.515 c 236.691
 379.847 235.496 379.515 234.172 379.515 c 232.016 379.515 230.301 380.374
 229.031 382.093 c 227.957 383.542 227.422 385.167 227.422 386.968 c 227.422
 388.28 227.746 389.581 228.391 390.874 c 229.047 392.175 229.906 393.136
 230.969 393.749 c 232.031 394.374 233.156 394.687 234.344 394.687 c 233.859
 393.671 m 233.309 393.671 232.75 393.503 232.188 393.171 c 231.637 392.847
 231.188 392.276 230.844 391.452 c 230.5 390.628 230.328 389.573 230.328
 388.28 c 230.328 386.198 230.738 384.401 231.562 382.89 c 232.395 381.378
 233.488 380.624 234.844 380.624 c 235.855 380.624 236.688 381.042 237.344
 381.874 c 238 382.706 238.328 384.14 238.328 386.171 c 238.328 388.714 
237.781 390.714 236.688 392.171 c 235.949 393.171 235.004 393.671 233.859
 393.671 c f
248.266 402.171 m 248.266 383.187 l 248.266 382.292 248.328 381.698 248.453
 381.405 c 248.59 381.112 248.793 380.89 249.062 380.733 c 249.332 380.589
 249.84 380.515 250.578 380.515 c 250.578 379.952 l 243.562 379.952 l 243.562
 380.515 l 244.219 380.515 244.668 380.581 244.906 380.718 c 245.145 380.855
 245.332 381.077 245.469 381.39 c 245.605 381.702 245.672 382.3 245.672 
383.187 c 245.672 396.187 l 245.672 397.8 245.637 398.792 245.562 399.155
 c 245.488 399.53 245.371 399.784 245.203 399.921 c 245.047 400.058 244.844
 400.124 244.594 400.124 c 244.324 400.124 243.98 400.042 243.562 399.874
 c 243.297 400.421 l 247.562 402.171 l 248.266 402.171 l f
259.219 394.687 m 261.387 394.687 263.125 393.862 264.438 392.218 c 265.551
 390.812 266.109 389.198 266.109 387.374 c 266.109 386.093 265.801 384.796
 265.188 383.483 c 264.574 382.171 263.723 381.183 262.641 380.515 c 261.566
 379.847 260.371 379.515 259.047 379.515 c 256.891 379.515 255.176 380.374
 253.906 382.093 c 252.832 383.542 252.297 385.167 252.297 386.968 c 252.297
 388.28 252.621 389.581 253.266 390.874 c 253.922 392.175 254.781 393.136
 255.844 393.749 c 256.906 394.374 258.031 394.687 259.219 394.687 c 258.734
 393.671 m 258.184 393.671 257.625 393.503 257.062 393.171 c 256.512 392.847
 256.062 392.276 255.719 391.452 c 255.375 390.628 255.203 389.573 255.203
 388.28 c 255.203 386.198 255.613 384.401 256.438 382.89 c 257.27 381.378
 258.363 380.624 259.719 380.624 c 260.73 380.624 261.562 381.042 262.219
 381.874 c 262.875 382.706 263.203 384.14 263.203 386.171 c 263.203 388.714
 262.656 390.714 261.562 392.171 c 260.824 393.171 259.879 393.671 258.734
 393.671 c f
277.469 394.687 m 277.469 389.812 l 276.953 389.812 l 276.559 391.343 276.047
 392.386 275.422 392.937 c 274.809 393.487 274.02 393.765 273.062 393.765
 c 272.332 393.765 271.746 393.573 271.297 393.187 c 270.848 392.8 270.625
 392.374 270.625 391.905 c 270.625 391.323 270.793 390.823 271.125 390.405
 c 271.449 389.98 272.105 389.526 273.094 389.046 c 275.375 387.937 l 277.488
 386.905 278.547 385.546 278.547 383.858 c 278.547 382.558 278.051 381.503
 277.062 380.702 c 276.082 379.909 274.984 379.515 273.766 379.515 c 272.891
 379.515 271.891 379.671 270.766 379.983 c 270.422 380.089 270.141 380.14
 269.922 380.14 c 269.684 380.14 269.496 380.003 269.359 379.733 c 268.844
 379.733 l 268.844 384.843 l 269.359 384.843 l 269.652 383.386 270.207 382.284
 271.031 381.546 c 271.855 380.808 272.777 380.437 273.797 380.437 c 274.516
 380.437 275.098 380.644 275.547 381.062 c 276.004 381.487 276.234 381.999
 276.234 382.593 c 276.234 383.312 275.98 383.917 275.469 384.405 c 274.969
 384.894 273.965 385.515 272.453 386.265 c 270.941 387.015 269.953 387.69
 269.484 388.296 c 269.016 388.89 268.781 389.64 268.781 390.546 c 268.781
 391.722 269.184 392.706 269.984 393.499 c 270.797 394.292 271.844 394.687
 273.125 394.687 c 273.688 394.687 274.371 394.565 275.172 394.327 c 275.703
 394.171 276.059 394.093 276.234 394.093 c 276.402 394.093 276.531 394.128
 276.625 394.202 c 276.719 394.276 276.828 394.437 276.953 394.687 c 277.469
 394.687 l f
20.809 327.831 m 16.188 327.831 l 18.211 332.585 24.199 336.46 34.148 339.448
 c 44.008 342.409 54.973 343.89 67.031 343.89 c 73.371 343.89 80.723 343.562
 89.09 342.905 c 97.539 342.253 104.102 341.925 108.766 341.925 c 115.105
 341.925 121.004 342.792 126.465 344.53 c 132.008 346.237 135.398 348.616
 136.633 351.663 c 142.047 351.663 l 143.281 348.616 146.625 346.237 152.082
 344.53 c 157.543 342.792 163.484 341.925 169.914 341.925 c 174.578 341.925
 181.094 342.253 189.457 342.905 c 197.824 343.562 205.219 343.89 211.645
 343.89 c 223.621 343.89 234.582 342.409 244.531 339.448 c 254.48 336.46
 260.422 332.585 262.359 327.831 c 257.738 327.831 l 255.273 331.163 251.223
 333.612 245.586 335.179 c 240.039 336.714 233.922 337.483 227.23 337.483
 c 222.035 337.483 215.168 337.171 206.629 336.542 c 198.176 335.89 190.957
 335.562 184.969 335.562 c 176.074 335.562 167.449 336.616 159.082 338.722
 c 150.719 340.827 144.246 343.976 139.668 348.159 c 135.004 344.062 128.398
 340.94 119.859 338.808 c 111.32 336.644 102.602 335.562 93.711 335.562 
c 87.723 335.562 80.504 335.89 72.051 336.542 c 63.512 337.171 56.645 337.483
 51.449 337.483 c 44.758 337.483 38.641 336.714 33.094 335.179 c 27.457 
333.612 23.363 331.163 20.809 327.831 c f
354.477 77.062 m 347.531 77.062 l 350.574 72.507 359.57 68.8 374.516 65.94
 c 389.328 63.105 405.793 61.687 423.914 61.687 c 433.438 61.687 444.48 
61.999 457.047 62.628 c 469.742 63.253 479.598 63.569 486.605 63.569 c 496.129
 63.569 504.992 62.737 513.191 61.073 c 521.523 59.437 526.617 57.163 528.469
 54.245 c 536.602 54.245 l 538.453 57.163 543.48 59.437 551.68 61.073 c 
559.879 62.737 568.809 63.569 578.465 63.569 c 585.473 63.569 595.262 63.253
 607.824 62.628 c 620.391 61.999 631.5 61.687 641.156 61.687 c 659.145 61.687
 675.609 63.105 690.555 65.94 c 705.5 68.8 714.43 72.507 717.34 77.062 c
 710.395 77.062 l 706.691 73.87 700.609 71.526 692.145 70.026 c 683.809 
68.554 674.617 67.819 664.566 67.819 c 656.762 67.819 646.445 68.12 633.617
 68.718 c 620.918 69.347 610.074 69.659 601.082 69.659 c 587.723 69.659 
574.762 68.651 562.195 66.636 c 549.629 64.616 539.91 61.605 533.031 57.597
 c 526.02 61.522 516.102 64.507 503.273 66.554 c 490.441 68.624 477.348 
69.659 463.988 69.659 c 454.996 69.659 444.152 69.347 431.453 68.718 c 418.625
 68.12 408.309 67.819 400.504 67.819 c 390.453 67.819 381.258 68.554 372.926
 70.026 c 364.461 71.526 358.312 73.87 354.477 77.062 c f
454.742 22.155 m 455.227 14.952 l 454.742 14.952 l 454.094 17.108 453.172
 18.663 451.977 19.608 c 450.777 20.558 449.34 21.03 447.664 21.03 c 446.258
 21.03 444.984 20.671 443.852 19.952 c 442.715 19.245 441.82 18.108 441.164
 16.546 c 440.516 14.983 440.195 13.042 440.195 10.718 c 440.195 8.804 440.5
 7.14 441.117 5.733 c 441.73 4.327 442.652 3.249 443.883 2.499 c 445.121
 1.749 446.531 1.374 448.117 1.374 c 449.492 1.374 450.703 1.667 451.758
 2.249 c 452.809 2.843 453.965 4.015 455.227 5.765 c 455.711 5.452 l 454.648
 3.569 453.406 2.187 451.992 1.312 c 450.574 0.437 448.891 -0.001 446.945
 -0.001 c 443.434 -0.001 440.715 1.304 438.789 3.905 c 437.352 5.843 436.633
 8.124 436.633 10.749 c 436.633 12.866 437.105 14.808 438.055 16.577 c 439
 18.351 440.305 19.718 441.961 20.687 c 443.625 21.667 445.445 22.155 447.414
 22.155 c 448.945 22.155 450.453 21.78 451.945 21.03 c 452.383 20.804 452.695
 20.687 452.883 20.687 c 453.164 20.687 453.406 20.788 453.617 20.983 c 
453.887 21.265 454.078 21.655 454.195 22.155 c 454.742 22.155 l f
461.492 22.702 m 461.93 22.702 462.297 22.546 462.602 22.233 c 462.914 
21.933 463.07 21.562 463.07 21.124 c 463.07 20.687 462.914 20.312 462.602
 19.999 c 462.297 19.687 461.93 19.53 461.492 19.53 c 461.055 19.53 460.68
 19.687 460.367 19.999 c 460.055 20.312 459.898 20.687 459.898 21.124 c 
459.898 21.562 460.047 21.933 460.352 22.233 c 460.664 22.546 461.043 22.702
 461.492 22.702 c 462.789 15.218 m 462.789 3.718 l 462.789 2.823 462.852
 2.226 462.977 1.921 c 463.109 1.632 463.305 1.413 463.555 1.265 c 463.812
 1.12 464.281 1.046 464.961 1.046 c 464.961 0.483 l 458.008 0.483 l 458.008
 1.046 l 458.703 1.046 459.172 1.116 459.414 1.249 c 459.652 1.386 459.84
 1.608 459.977 1.921 c 460.121 2.233 460.195 2.835 460.195 3.718 c 460.195
 9.233 l 460.195 10.788 460.148 11.792 460.055 12.249 c 459.98 12.585 459.867
 12.812 459.711 12.937 c 459.555 13.073 459.34 13.14 459.07 13.14 c 458.777
 13.14 458.422 13.062 458.008 12.905 c 457.789 13.468 l 462.102 15.218 l
 462.789 15.218 l f
472.32 13.671 m 472.32 4.265 l 472.32 2.933 472.465 2.089 472.758 1.733
 c 473.141 1.276 473.656 1.046 474.305 1.046 c 475.602 1.046 l 475.602 0.483
 l 467.055 0.483 l 467.055 1.046 l 467.695 1.046 l 468.109 1.046 468.492
 1.151 468.836 1.358 c 469.18 1.569 469.414 1.851 469.539 2.202 c 469.672
 2.558 469.742 3.245 469.742 4.265 c 469.742 13.671 l 466.961 13.671 l 466.961
 14.796 l 469.742 14.796 l 469.742 15.733 l 469.742 17.163 469.969 18.37
 470.43 19.358 c 470.887 20.351 471.586 21.147 472.523 21.749 c 473.469 
22.366 474.531 22.671 475.711 22.671 c 476.805 22.671 477.809 22.319 478.727
 21.608 c 479.328 21.14 479.633 20.616 479.633 20.03 c 479.633 19.718 479.496
 19.421 479.227 19.14 c 478.953 18.87 478.664 18.733 478.352 18.733 c 478.109
 18.733 477.855 18.819 477.586 18.983 c 477.324 19.163 477 19.53 476.617
 20.093 c 476.23 20.667 475.875 21.054 475.555 21.249 c 475.23 21.448 474.871
 21.546 474.477 21.546 c 473.996 21.546 473.59 21.417 473.258 21.155 c 472.922
 20.905 472.684 20.511 472.539 19.968 c 472.391 19.437 472.32 18.058 472.32
 15.827 c 472.32 14.796 l 476.008 14.796 l 476.008 13.671 l 472.32 13.671
 l f
481.602 15.218 m 481.602 11.999 l 482.797 14.147 484.027 15.218 485.289
 15.218 c 485.859 15.218 486.336 15.042 486.711 14.687 c 487.086 14.343 
487.273 13.944 487.273 13.483 c 487.273 13.077 487.137 12.733 486.867 12.452
 c 486.594 12.171 486.273 12.03 485.898 12.03 c 485.531 12.03 485.121 12.21
 484.664 12.562 c 484.215 12.929 483.883 13.108 483.664 13.108 c 483.477
 13.108 483.273 13.007 483.055 12.796 c 482.586 12.37 482.102 11.667 481.602
 10.687 c 481.602 3.827 l 481.602 3.038 481.699 2.437 481.898 2.03 c 482.031
 1.749 482.273 1.515 482.617 1.327 c 482.961 1.14 483.453 1.046 484.102 
1.046 c 484.102 0.483 l 476.773 0.483 l 476.773 1.046 l 477.5 1.046 478.043
 1.163 478.398 1.39 c 478.656 1.558 478.84 1.823 478.945 2.187 c 478.996
 2.366 479.023 2.87 479.023 3.702 c 479.023 9.249 l 479.023 10.917 478.984
 11.905 478.914 12.218 c 478.852 12.542 478.727 12.776 478.539 12.921 c 
478.359 13.069 478.137 13.14 477.867 13.14 c 477.543 13.14 477.18 13.062
 476.773 12.905 c 476.617 13.468 l 480.945 15.218 l 481.602 15.218 l f
496.211 2.546 m 494.742 1.413 493.82 0.757 493.445 0.577 c 492.883 0.319
 492.281 0.187 491.648 0.187 c 490.656 0.187 489.84 0.526 489.195 1.202 
c 488.559 1.882 488.242 2.772 488.242 3.874 c 488.242 4.573 488.398 5.179
 488.711 5.687 c 489.137 6.397 489.875 7.062 490.93 7.687 c 491.992 8.312
 493.75 9.073 496.211 9.968 c 496.211 10.53 l 496.211 11.96 495.98 12.937
 495.523 13.468 c 495.074 13.999 494.418 14.265 493.555 14.265 c 492.898
 14.265 492.375 14.089 491.992 13.733 c 491.594 13.382 491.398 12.976 491.398
 12.515 c 491.43 11.608 l 491.43 11.132 491.305 10.761 491.055 10.499 c 
490.812 10.241 490.496 10.108 490.102 10.108 c 489.715 10.108 489.398 10.245
 489.148 10.515 c 488.906 10.788 488.789 11.155 488.789 11.624 c 488.789
 12.522 489.246 13.343 490.164 14.093 c 491.078 14.843 492.367 15.218 494.023
 15.218 c 495.293 15.218 496.336 15.007 497.148 14.577 c 497.762 14.257 
498.215 13.749 498.508 13.062 c 498.695 12.616 498.789 11.698 498.789 10.312
 c 498.789 5.452 l 498.789 4.089 498.812 3.249 498.867 2.937 c 498.918 2.636
 499 2.433 499.117 2.327 c 499.242 2.226 499.383 2.171 499.539 2.171 c 499.703
 2.171 499.852 2.21 499.977 2.28 c 500.195 2.417 500.617 2.796 501.242 3.421
 c 501.242 2.546 l 500.074 0.983 498.961 0.202 497.898 0.202 c 497.387 0.202
 496.98 0.382 496.68 0.733 c 496.375 1.089 496.219 1.694 496.211 2.546 c
 496.211 3.562 m 496.211 9.015 l 494.637 8.39 493.621 7.948 493.164 7.687
 c 492.34 7.23 491.75 6.749 491.398 6.249 c 491.043 5.749 490.867 5.202 
490.867 4.608 c 490.867 3.858 491.09 3.233 491.539 2.733 c 491.984 2.245
 492.5 1.999 493.086 1.999 c 493.875 1.999 494.918 2.522 496.211 3.562 c
 f
514.461 12.187 m 516.137 14.21 517.734 15.218 519.258 15.218 c 520.039 
15.218 520.711 15.022 521.273 14.624 c 521.836 14.241 522.281 13.601 522.617
 12.702 c 522.844 12.077 522.961 11.12 522.961 9.827 c 522.961 3.718 l 522.961
 2.812 523.031 2.198 523.18 1.874 c 523.293 1.616 523.477 1.413 523.727 
1.265 c 523.984 1.12 524.461 1.046 525.148 1.046 c 525.148 0.483 l 518.07
 0.483 l 518.07 1.046 l 518.367 1.046 l 519.031 1.046 519.496 1.147 519.758
 1.343 c 520.027 1.554 520.215 1.855 520.32 2.249 c 520.359 2.405 520.383
 2.897 520.383 3.718 c 520.383 9.577 l 520.383 10.882 520.211 11.823 519.867
 12.405 c 519.531 12.999 518.965 13.296 518.164 13.296 c 516.922 13.296 
515.688 12.62 514.461 11.265 c 514.461 3.718 l 514.461 2.749 514.516 2.151
 514.633 1.921 c 514.777 1.62 514.977 1.397 515.227 1.249 c 515.484 1.116
 516.008 1.046 516.789 1.046 c 516.789 0.483 l 509.711 0.483 l 509.711 1.046
 l 510.023 1.046 l 510.75 1.046 511.242 1.23 511.492 1.593 c 511.75 1.968
 511.883 2.679 511.883 3.718 c 511.883 9.03 l 511.883 10.749 511.84 11.796
 511.758 12.171 c 511.684 12.546 511.562 12.804 511.398 12.937 c 511.242
 13.073 511.027 13.14 510.758 13.14 c 510.465 13.14 510.117 13.062 509.711
 12.905 c 509.477 13.468 l 513.789 15.218 l 514.461 15.218 l 514.461 12.187
 l f
538.836 14.796 m 538.836 6.124 l 538.836 4.468 538.871 3.452 538.945 3.077
 c 539.027 2.714 539.152 2.46 539.32 2.312 c 539.496 2.167 539.699 2.093
 539.93 2.093 c 540.25 2.093 540.617 2.183 541.023 2.358 c 541.242 1.812
 l 536.961 0.046 l 536.258 0.046 l 536.258 3.077 l 535.027 1.745 534.09 
0.905 533.445 0.562 c 532.797 0.218 532.117 0.046 531.398 0.046 c 530.594
 0.046 529.898 0.276 529.305 0.733 c 528.719 1.202 528.312 1.804 528.086
 2.53 c 527.855 3.261 527.742 4.292 527.742 5.624 c 527.742 12.015 l 527.742
 12.694 527.668 13.163 527.523 13.421 c 527.375 13.683 527.156 13.882 526.867
 14.015 c 526.586 14.163 526.07 14.23 525.32 14.218 c 525.32 14.796 l 530.336
 14.796 l 530.336 5.218 l 530.336 3.886 530.562 3.011 531.023 2.593 c 531.492
 2.179 532.055 1.968 532.711 1.968 c 533.156 1.968 533.664 2.108 534.227
 2.39 c 534.797 2.671 535.477 3.21 536.258 3.999 c 536.258 12.108 l 536.258
 12.921 536.105 13.468 535.805 13.749 c 535.512 14.042 534.898 14.198 533.961
 14.218 c 533.961 14.796 l 538.836 14.796 l f
546.539 12.171 m 547.578 13.214 548.195 13.812 548.383 13.968 c 548.852
 14.366 549.355 14.671 549.898 14.89 c 550.438 15.108 550.977 15.218 551.508
 15.218 c 552.402 15.218 553.172 14.96 553.82 14.437 c 554.465 13.917 554.898
 13.163 555.117 12.171 c 556.188 13.421 557.094 14.241 557.836 14.624 c 
558.574 15.022 559.336 15.218 560.117 15.218 c 560.875 15.218 561.547 15.022
 562.133 14.624 c 562.727 14.241 563.195 13.605 563.539 12.718 c 563.766
 12.116 563.883 11.167 563.883 9.874 c 563.883 3.718 l 563.883 2.823 563.949
 2.21 564.086 1.874 c 564.188 1.647 564.383 1.448 564.664 1.28 c 564.945
 1.124 565.402 1.046 566.039 1.046 c 566.039 0.483 l 558.977 0.483 l 558.977
 1.046 l 559.273 1.046 l 559.887 1.046 560.367 1.167 560.711 1.405 c 560.949
 1.573 561.121 1.839 561.227 2.202 c 561.266 2.382 561.289 2.886 561.289
 3.718 c 561.289 9.874 l 561.289 11.042 561.148 11.866 560.867 12.343 c 
560.461 13.011 559.809 13.343 558.914 13.343 c 558.359 13.343 557.805 13.202
 557.242 12.921 c 556.688 12.651 556.016 12.14 555.227 11.39 c 555.195 11.218
 l 555.227 10.546 l 555.227 3.718 l 555.227 2.741 555.277 2.132 555.383 
1.89 c 555.496 1.651 555.703 1.448 556.008 1.28 c 556.309 1.124 556.824 
1.046 557.555 1.046 c 557.555 0.483 l 550.32 0.483 l 550.32 1.046 l 551.109
 1.046 551.652 1.14 551.945 1.327 c 552.246 1.515 552.453 1.796 552.57 2.171
 c 552.621 2.351 552.648 2.866 552.648 3.718 c 552.648 9.874 l 552.648 11.042
 552.477 11.882 552.133 12.39 c 551.672 13.058 551.031 13.39 550.211 13.39
 c 549.648 13.39 549.09 13.241 548.539 12.937 c 547.672 12.48 547.008 11.964
 546.539 11.39 c 546.539 3.718 l 546.539 2.78 546.602 2.171 546.727 1.89
 c 546.859 1.608 547.055 1.397 547.305 1.249 c 547.562 1.116 548.086 1.046
 548.867 1.046 c 548.867 0.483 l 541.789 0.483 l 541.789 1.046 l 542.445
 1.046 542.902 1.116 543.164 1.249 c 543.422 1.397 543.621 1.62 543.758 
1.921 c 543.891 2.233 543.961 2.835 543.961 3.718 c 543.961 9.187 l 543.961
 10.761 543.914 11.776 543.82 12.233 c 543.746 12.577 543.633 12.812 543.477
 12.937 c 543.32 13.073 543.105 13.14 542.836 13.14 c 542.543 13.14 542.195
 13.062 541.789 12.905 c 541.555 13.468 l 545.867 15.218 l 546.539 15.218
 l 546.539 12.171 l f
569.57 9.405 m 569.559 7.28 570.074 5.616 571.117 4.405 c 572.156 3.198
 573.383 2.593 574.789 2.593 c 575.727 2.593 576.539 2.851 577.227 3.358
 c 577.922 3.882 578.508 4.765 578.977 6.015 c 579.461 5.702 l 579.242 4.276
 578.605 2.976 577.555 1.796 c 576.5 0.632 575.184 0.046 573.602 0.046 c
 571.883 0.046 570.406 0.714 569.18 2.046 c 567.961 3.39 567.352 5.194 567.352
 7.452 c 567.352 9.901 567.977 11.808 569.227 13.171 c 570.484 14.546 572.062
 15.233 573.961 15.233 c 575.562 15.233 576.883 14.702 577.914 13.64 c 578.945
 12.589 579.461 11.179 579.461 9.405 c 569.57 9.405 l 569.57 10.312 m 576.195
 10.312 l 576.141 11.23 576.031 11.874 575.867 12.249 c 575.605 12.835 575.215
 13.292 574.695 13.624 c 574.184 13.96 573.648 14.124 573.086 14.124 c 572.219
 14.124 571.445 13.788 570.758 13.108 c 570.078 12.444 569.684 11.511 569.57
 10.312 c 577.023 22.202 m 572.414 16.812 l 571.883 16.812 l 573.523 22.202
 l 577.023 22.202 l f
585.539 15.218 m 585.539 11.999 l 586.734 14.147 587.965 15.218 589.227
 15.218 c 589.797 15.218 590.273 15.042 590.648 14.687 c 591.023 14.343 
591.211 13.944 591.211 13.483 c 591.211 13.077 591.074 12.733 590.805 12.452
 c 590.531 12.171 590.211 12.03 589.836 12.03 c 589.469 12.03 589.059 12.21
 588.602 12.562 c 588.152 12.929 587.82 13.108 587.602 13.108 c 587.414 
13.108 587.211 13.007 586.992 12.796 c 586.523 12.37 586.039 11.667 585.539
 10.687 c 585.539 3.827 l 585.539 3.038 585.637 2.437 585.836 2.03 c 585.969
 1.749 586.211 1.515 586.555 1.327 c 586.898 1.14 587.391 1.046 588.039 
1.046 c 588.039 0.483 l 580.711 0.483 l 580.711 1.046 l 581.438 1.046 581.98
 1.163 582.336 1.39 c 582.594 1.558 582.777 1.823 582.883 2.187 c 582.934
 2.366 582.961 2.87 582.961 3.702 c 582.961 9.249 l 582.961 10.917 582.922
 11.905 582.852 12.218 c 582.789 12.542 582.664 12.776 582.477 12.921 c 
582.297 13.069 582.074 13.14 581.805 13.14 c 581.48 13.14 581.117 13.062
 580.711 12.905 c 580.555 13.468 l 584.883 15.218 l 585.539 15.218 l f
595.68 22.702 m 596.117 22.702 596.484 22.546 596.789 22.233 c 597.102 
21.933 597.258 21.562 597.258 21.124 c 597.258 20.687 597.102 20.312 596.789
 19.999 c 596.484 19.687 596.117 19.53 595.68 19.53 c 595.242 19.53 594.867
 19.687 594.555 19.999 c 594.242 20.312 594.086 20.687 594.086 21.124 c 
594.086 21.562 594.234 21.933 594.539 22.233 c 594.852 22.546 595.23 22.702
 595.68 22.702 c 596.977 15.218 m 596.977 3.718 l 596.977 2.823 597.039 
2.226 597.164 1.921 c 597.297 1.632 597.492 1.413 597.742 1.265 c 598 1.12
 598.469 1.046 599.148 1.046 c 599.148 0.483 l 592.195 0.483 l 592.195 1.046
 l 592.891 1.046 593.359 1.116 593.602 1.249 c 593.84 1.386 594.027 1.608
 594.164 1.921 c 594.309 2.233 594.383 2.835 594.383 3.718 c 594.383 9.233
 l 594.383 10.788 594.336 11.792 594.242 12.249 c 594.168 12.585 594.055
 12.812 593.898 12.937 c 593.742 13.073 593.527 13.14 593.258 13.14 c 592.965
 13.14 592.609 13.062 592.195 12.905 c 591.977 13.468 l 596.289 15.218 l
 596.977 15.218 l f
613.07 5.921 m 612.684 4.038 611.93 2.585 610.805 1.562 c 609.68 0.554 
608.434 0.046 607.07 0.046 c 605.445 0.046 604.027 0.73 602.82 2.093 c 601.609
 3.46 601.008 5.304 601.008 7.624 c 601.008 9.874 601.672 11.702 603.008
 13.108 c 604.352 14.515 605.961 15.218 607.836 15.218 c 609.242 15.218 
610.398 14.843 611.305 14.093 c 612.211 13.355 612.664 12.585 612.664 11.78
 c 612.664 11.386 612.531 11.062 612.273 10.812 c 612.023 10.573 611.668
 10.452 611.211 10.452 c 610.594 10.452 610.133 10.651 609.82 11.046 c 609.641
 11.265 609.523 11.683 609.461 12.296 c 609.406 12.913 609.199 13.382 608.836
 13.702 c 608.469 14.015 607.965 14.171 607.32 14.171 c 606.277 14.171 605.438
 13.788 604.805 13.015 c 603.961 11.995 603.539 10.647 603.539 8.968 c 603.539
 7.261 603.953 5.749 604.789 4.437 c 605.633 3.136 606.766 2.483 608.195
 2.483 c 609.215 2.483 610.133 2.835 610.945 3.53 c 611.516 4.011 612.074
 4.882 612.617 6.14 c 613.07 5.921 l f
623.211 2.546 m 621.742 1.413 620.82 0.757 620.445 0.577 c 619.883 0.319
 619.281 0.187 618.648 0.187 c 617.656 0.187 616.84 0.526 616.195 1.202 
c 615.559 1.882 615.242 2.772 615.242 3.874 c 615.242 4.573 615.398 5.179
 615.711 5.687 c 616.137 6.397 616.875 7.062 617.93 7.687 c 618.992 8.312
 620.75 9.073 623.211 9.968 c 623.211 10.53 l 623.211 11.96 622.98 12.937
 622.523 13.468 c 622.074 13.999 621.418 14.265 620.555 14.265 c 619.898
 14.265 619.375 14.089 618.992 13.733 c 618.594 13.382 618.398 12.976 618.398
 12.515 c 618.43 11.608 l 618.43 11.132 618.305 10.761 618.055 10.499 c 
617.812 10.241 617.496 10.108 617.102 10.108 c 616.715 10.108 616.398 10.245
 616.148 10.515 c 615.906 10.788 615.789 11.155 615.789 11.624 c 615.789
 12.522 616.246 13.343 617.164 14.093 c 618.078 14.843 619.367 15.218 621.023
 15.218 c 622.293 15.218 623.336 15.007 624.148 14.577 c 624.762 14.257 
625.215 13.749 625.508 13.062 c 625.695 12.616 625.789 11.698 625.789 10.312
 c 625.789 5.452 l 625.789 4.089 625.812 3.249 625.867 2.937 c 625.918 2.636
 626 2.433 626.117 2.327 c 626.242 2.226 626.383 2.171 626.539 2.171 c 626.703
 2.171 626.852 2.21 626.977 2.28 c 627.195 2.417 627.617 2.796 628.242 3.421
 c 628.242 2.546 l 627.074 0.983 625.961 0.202 624.898 0.202 c 624.387 0.202
 623.98 0.382 623.68 0.733 c 623.375 1.089 623.219 1.694 623.211 2.546 c
 623.211 3.562 m 623.211 9.015 l 621.637 8.39 620.621 7.948 620.164 7.687
 c 619.34 7.23 618.75 6.749 618.398 6.249 c 618.043 5.749 617.867 5.202 
617.867 4.608 c 617.867 3.858 618.09 3.233 618.539 2.733 c 618.984 2.245
 619.5 1.999 620.086 1.999 c 620.875 1.999 621.918 2.522 623.211 3.562 c
 f
593.473 234.858 m 599.645 234.858 l 600.977 234.858 601.805 235.007 602.129
 235.296 c 602.586 235.694 602.816 236.292 602.816 237.093 c 602.816 237.905
 l 603.395 237.905 l 603.395 228.827 l 602.816 228.827 l 602.816 229.624
 l 602.816 230.522 602.523 231.163 601.941 231.546 c 601.617 231.757 600.852
 231.858 599.645 231.858 c 585.957 231.858 l 584.625 231.858 583.797 231.718
 583.473 231.437 c 583.016 231.03 582.785 230.429 582.785 229.624 c 582.785
 228.827 l 582.207 228.827 l 582.207 236.593 l 582.207 238.491 582.406 239.983
 582.801 241.077 c 583.188 242.171 583.844 243.093 584.77 243.843 c 585.695
 244.593 586.797 244.968 588.066 244.968 c 589.797 244.968 591.203 244.397
 592.285 243.249 c 593.367 242.116 593.91 240.507 593.91 238.421 c 593.91
 237.913 593.875 237.358 593.801 236.765 c 593.727 236.171 593.617 235.538
 593.473 234.858 c 592.582 234.858 m 592.688 235.413 592.766 235.901 592.816
 236.327 c 592.867 236.757 592.895 237.12 592.895 237.421 c 592.895 238.507
 592.477 239.437 591.645 240.218 c 590.801 241.011 589.711 241.405 588.379
 241.405 c 587.461 241.405 586.613 241.218 585.832 240.843 c 585.039 240.468
 584.453 239.937 584.066 239.249 c 583.672 238.562 583.473 237.78 583.473
 236.905 c 583.473 236.374 583.57 235.694 583.77 234.858 c 592.582 234.858
 l f
588.66 254.108 m 588.66 256.276 589.484 258.015 591.129 259.327 c 592.535
 260.444 594.148 260.999 595.973 260.999 c 597.254 260.999 598.551 260.694
 599.863 260.077 c 601.176 259.464 602.164 258.616 602.832 257.53 c 603.5
 256.46 603.832 255.261 603.832 253.937 c 603.832 251.78 602.973 250.069
 601.254 248.796 c 599.805 247.726 598.18 247.187 596.379 247.187 c 595.066
 247.187 593.766 247.511 592.473 248.155 c 591.172 248.812 590.211 249.671
 589.598 250.733 c 588.973 251.796 588.66 252.921 588.66 254.108 c 589.676
 253.624 m 589.676 253.073 589.844 252.515 590.176 251.952 c 590.5 251.401
 591.07 250.952 591.895 250.608 c 592.719 250.265 593.773 250.093 595.066
 250.093 c 597.148 250.093 598.945 250.507 600.457 251.327 c 601.969 252.163
 602.723 253.257 602.723 254.608 c 602.723 255.62 602.305 256.452 601.473
 257.108 c 600.641 257.765 599.207 258.093 597.176 258.093 c 594.633 258.093
 592.633 257.546 591.176 256.452 c 590.176 255.714 589.676 254.772 589.676
 253.624 c f
588.66 272.358 m 593.535 272.358 l 593.535 271.843 l 592.004 271.448 590.961
 270.937 590.41 270.312 c 589.859 269.698 589.582 268.913 589.582 267.952
 c 589.582 267.226 589.773 266.636 590.16 266.187 c 590.547 265.741 590.973
 265.515 591.441 265.515 c 592.023 265.515 592.523 265.683 592.941 266.015
 c 593.367 266.339 593.82 266.995 594.301 267.983 c 595.41 270.265 l 596.441
 272.382 597.801 273.437 599.488 273.437 c 600.789 273.437 601.844 272.944
 602.645 271.952 c 603.438 270.976 603.832 269.874 603.832 268.655 c 603.832
 267.78 603.676 266.78 603.363 265.655 c 603.258 265.312 603.207 265.03 
603.207 264.812 c 603.207 264.573 603.344 264.386 603.613 264.249 c 603.613
 263.733 l 598.504 263.733 l 598.504 264.249 l 599.961 264.542 601.062 265.101
 601.801 265.921 c 602.539 266.745 602.91 267.667 602.91 268.687 c 602.91
 269.405 602.703 269.991 602.285 270.437 c 601.859 270.897 601.348 271.124
 600.754 271.124 c 600.035 271.124 599.43 270.87 598.941 270.358 c 598.453
 269.858 597.832 268.855 597.082 267.343 c 596.332 265.835 595.656 264.843
 595.051 264.374 c 594.457 263.905 593.707 263.671 592.801 263.671 c 591.625
 263.671 590.641 264.073 589.848 264.874 c 589.055 265.687 588.66 266.733
 588.66 268.015 c 588.66 268.577 588.781 269.261 589.02 270.062 c 589.176
 270.593 589.254 270.948 589.254 271.124 c 589.254 271.292 589.219 271.421
 589.145 271.515 c 589.07 271.608 588.91 271.718 588.66 271.843 c 588.66
 272.358 l f
581.176 279.187 m 581.176 279.624 581.332 279.995 581.645 280.296 c 581.945
 280.608 582.316 280.765 582.754 280.765 c 583.191 280.765 583.566 280.608
 583.879 280.296 c 584.191 279.995 584.348 279.624 584.348 279.187 c 584.348
 278.749 584.191 278.374 583.879 278.062 c 583.566 277.749 583.191 277.593
 582.754 277.593 c 582.316 277.593 581.945 277.745 581.645 278.046 c 581.332
 278.358 581.176 278.741 581.176 279.187 c 588.66 280.483 m 600.16 280.483
 l 601.055 280.483 601.656 280.546 601.957 280.671 c 602.25 280.808 602.469
 280.999 602.613 281.249 c 602.758 281.511 602.832 281.98 602.832 282.655
 c 603.395 282.655 l 603.395 275.702 l 602.832 275.702 l 602.832 276.401
 602.766 276.87 602.629 277.108 c 602.492 277.351 602.27 277.538 601.957
 277.671 c 601.645 277.819 601.047 277.89 600.16 277.89 c 594.645 277.89
 l 593.094 277.89 592.086 277.843 591.629 277.749 c 591.297 277.679 591.066
 277.562 590.941 277.405 c 590.805 277.249 590.738 277.038 590.738 276.765
 c 590.738 276.476 590.816 276.12 590.973 275.702 c 590.41 275.483 l 588.66
 279.796 l 588.66 280.483 l f
597.957 296.577 m 599.844 296.194 601.297 295.437 602.316 294.312 c 603.328
 293.187 603.832 291.944 603.832 290.577 c 603.832 288.952 603.148 287.538
 601.785 286.327 c 600.422 285.12 598.578 284.515 596.254 284.515 c 594.004
 284.515 592.176 285.183 590.77 286.515 c 589.363 287.858 588.66 289.468
 588.66 291.343 c 588.66 292.749 589.035 293.905 589.785 294.812 c 590.523
 295.718 591.297 296.171 592.098 296.171 c 592.492 296.171 592.816 296.042
 593.066 295.78 c 593.305 295.53 593.426 295.179 593.426 294.718 c 593.426
 294.105 593.227 293.64 592.832 293.327 c 592.613 293.151 592.195 293.03
 591.582 292.968 c 590.969 292.917 590.5 292.71 590.176 292.343 c 589.863
 291.98 589.707 291.476 589.707 290.827 c 589.707 289.788 590.094 288.948
 590.863 288.312 c 591.883 287.468 593.234 287.046 594.91 287.046 c 596.617
 287.046 598.129 287.464 599.441 288.296 c 600.742 289.14 601.395 290.276
 601.395 291.702 c 601.395 292.726 601.047 293.64 600.348 294.452 c 599.867
 295.026 599 295.585 597.738 296.124 c 597.957 296.577 l f
581.176 302.249 m 581.176 302.687 581.332 303.058 581.645 303.358 c 581.945
 303.671 582.316 303.827 582.754 303.827 c 583.191 303.827 583.566 303.671
 583.879 303.358 c 584.191 303.058 584.348 302.687 584.348 302.249 c 584.348
 301.812 584.191 301.437 583.879 301.124 c 583.566 300.812 583.191 300.655
 582.754 300.655 c 582.316 300.655 581.945 300.808 581.645 301.108 c 581.332
 301.421 581.176 301.804 581.176 302.249 c 588.66 303.546 m 600.16 303.546
 l 601.055 303.546 601.656 303.608 601.957 303.733 c 602.25 303.87 602.469
 304.062 602.613 304.312 c 602.758 304.573 602.832 305.042 602.832 305.718
 c 603.395 305.718 l 603.395 298.765 l 602.832 298.765 l 602.832 299.464
 602.766 299.933 602.629 300.171 c 602.492 300.413 602.27 300.601 601.957
 300.733 c 601.645 300.882 601.047 300.952 600.16 300.952 c 594.645 300.952
 l 593.094 300.952 592.086 300.905 591.629 300.812 c 591.297 300.741 591.066
 300.624 590.941 300.468 c 590.805 300.312 590.738 300.101 590.738 299.827
 c 590.738 299.538 590.816 299.183 590.973 298.765 c 590.41 298.546 l 588.66
 302.858 l 588.66 303.546 l f
588.66 314.483 m 588.66 316.651 589.484 318.39 591.129 319.702 c 592.535
 320.819 594.148 321.374 595.973 321.374 c 597.254 321.374 598.551 321.069
 599.863 320.452 c 601.176 319.839 602.164 318.991 602.832 317.905 c 603.5
 316.835 603.832 315.636 603.832 314.312 c 603.832 312.155 602.973 310.444
 601.254 309.171 c 599.805 308.101 598.18 307.562 596.379 307.562 c 595.066
 307.562 593.766 307.886 592.473 308.53 c 591.172 309.187 590.211 310.046
 589.598 311.108 c 588.973 312.171 588.66 313.296 588.66 314.483 c 589.676
 313.999 m 589.676 313.448 589.844 312.89 590.176 312.327 c 590.5 311.776
 591.07 311.327 591.895 310.983 c 592.719 310.64 593.773 310.468 595.066
 310.468 c 597.148 310.468 598.945 310.882 600.457 311.702 c 601.969 312.538
 602.723 313.632 602.723 314.983 c 602.723 315.995 602.305 316.827 601.473
 317.483 c 600.641 318.14 599.207 318.468 597.176 318.468 c 594.633 318.468
 592.633 317.921 591.176 316.827 c 590.176 316.089 589.676 315.147 589.676
 313.999 c 581.676 317.78 m 587.066 313.171 l 587.066 312.64 l 581.676 314.28
 l 581.676 317.78 l f
591.691 327.655 m 589.672 329.335 588.66 330.933 588.66 332.452 c 588.66
 333.233 588.859 333.905 589.254 334.468 c 589.641 335.03 590.281 335.48
 591.176 335.812 c 591.801 336.042 592.758 336.155 594.051 336.155 c 600.16
 336.155 l 601.066 336.155 601.68 336.23 602.004 336.374 c 602.266 336.491
 602.469 336.671 602.613 336.921 c 602.758 337.183 602.832 337.655 602.832
 338.343 c 603.395 338.343 l 603.395 331.265 l 602.832 331.265 l 602.832
 331.562 l 602.832 332.23 602.734 332.694 602.535 332.952 c 602.328 333.226
 602.023 333.413 601.629 333.515 c 601.473 333.558 600.984 333.577 600.16
 333.577 c 594.301 333.577 l 593 333.577 592.055 333.405 591.473 333.062
 c 590.879 332.73 590.582 332.163 590.582 331.358 c 590.582 330.12 591.258
 328.886 592.613 327.655 c 600.16 327.655 l 601.129 327.655 601.727 327.714
 601.957 327.827 c 602.258 327.976 602.484 328.171 602.629 328.421 c 602.766
 328.683 602.832 329.202 602.832 329.983 c 603.395 329.983 l 603.395 322.905
 l 602.832 322.905 l 602.832 323.218 l 602.832 323.948 602.648 324.437 602.285
 324.687 c 601.91 324.948 601.203 325.077 600.16 325.077 c 594.848 325.077
 l 593.129 325.077 592.082 325.038 591.707 324.952 c 591.332 324.882 591.078
 324.761 590.941 324.593 c 590.805 324.437 590.738 324.226 590.738 323.952
 c 590.738 323.663 590.816 323.312 590.973 322.905 c 590.41 322.671 l 588.66
 326.983 l 588.66 327.655 l 591.691 327.655 l f
592.926 347.64 m 590.508 347.64 588.43 348.007 586.691 348.733 c 584.941
 349.464 583.641 350.433 582.785 351.64 c 582.109 352.577 581.77 353.546
 581.77 354.546 c 581.77 356.171 582.598 357.632 584.254 358.921 c 586.305
 360.538 589.086 361.343 592.598 361.343 c 595.055 361.343 597.145 360.991
 598.863 360.28 c 600.582 359.573 601.832 358.667 602.613 357.562 c 603.383
 356.468 603.77 355.413 603.77 354.39 c 603.77 352.37 602.578 350.687 600.191
 349.343 c 598.18 348.21 595.758 347.64 592.926 347.64 c 593.316 350.702
 m 596.234 350.702 598.613 351.062 600.457 351.78 c 602.008 352.374 602.785
 353.261 602.785 354.437 c 602.785 354.999 602.535 355.585 602.035 356.187
 c 601.523 356.792 600.676 357.249 599.488 357.562 c 597.695 358.042 595.172
 358.28 591.91 358.28 c 589.492 358.28 587.477 358.03 585.863 357.53 c 584.664
 357.155 583.816 356.671 583.316 356.077 c 582.973 355.651 582.801 355.136
 582.801 354.53 c 582.801 353.823 583.117 353.194 583.754 352.64 c 584.617
 351.89 585.977 351.382 587.832 351.108 c 589.688 350.839 591.516 350.702
 593.316 350.702 c f
508.984 234.858 m 515.156 234.858 l 516.488 234.858 517.316 235.007 517.641
 235.296 c 518.098 235.694 518.328 236.292 518.328 237.093 c 518.328 237.905
 l 518.906 237.905 l 518.906 228.827 l 518.328 228.827 l 518.328 229.624
 l 518.328 230.522 518.035 231.163 517.453 231.546 c 517.129 231.757 516.363
 231.858 515.156 231.858 c 501.469 231.858 l 500.133 231.858 499.305 231.718
 498.984 231.437 c 498.523 231.03 498.297 230.429 498.297 229.624 c 498.297
 228.827 l 497.719 228.827 l 497.719 236.593 l 497.719 238.491 497.914 239.983
 498.312 241.077 c 498.695 242.171 499.352 243.093 500.281 243.843 c 501.207
 244.593 502.305 244.968 503.578 244.968 c 505.305 244.968 506.711 244.397
 507.797 243.249 c 508.879 242.116 509.422 240.507 509.422 238.421 c 509.422
 237.913 509.383 237.358 509.312 236.765 c 509.238 236.171 509.129 235.538
 508.984 234.858 c 508.094 234.858 m 508.195 235.413 508.273 235.901 508.328
 236.327 c 508.379 236.757 508.406 237.12 508.406 237.421 c 508.406 238.507
 507.988 239.437 507.156 240.218 c 506.312 241.011 505.223 241.405 503.891
 241.405 c 502.973 241.405 502.125 241.218 501.344 240.843 c 500.551 240.468
 499.961 239.937 499.578 239.249 c 499.18 238.562 498.984 237.78 498.984
 236.905 c 498.984 236.374 499.082 235.694 499.281 234.858 c 508.094 234.858
 l f
504.172 254.108 m 504.172 256.276 504.992 258.015 506.641 259.327 c 508.047
 260.444 509.66 260.999 511.484 260.999 c 512.766 260.999 514.062 260.694
 515.375 260.077 c 516.688 259.464 517.676 258.616 518.344 257.53 c 519.008
 256.46 519.344 255.261 519.344 253.937 c 519.344 251.78 518.484 250.069
 516.766 248.796 c 515.316 247.726 513.691 247.187 511.891 247.187 c 510.578
 247.187 509.273 247.511 507.984 248.155 c 506.68 248.812 505.723 249.671
 505.109 250.733 c 504.484 251.796 504.172 252.921 504.172 254.108 c 505.188
 253.624 m 505.188 253.073 505.352 252.515 505.688 251.952 c 506.008 251.401
 506.582 250.952 507.406 250.608 c 508.227 250.265 509.285 250.093 510.578
 250.093 c 512.66 250.093 514.457 250.507 515.969 251.327 c 517.477 252.163
 518.234 253.257 518.234 254.608 c 518.234 255.62 517.816 256.452 516.984
 257.108 c 516.148 257.765 514.719 258.093 512.688 258.093 c 510.145 258.093
 508.145 257.546 506.688 256.452 c 505.688 255.714 505.188 254.772 505.188
 253.624 c f
504.172 272.358 m 509.047 272.358 l 509.047 271.843 l 507.516 271.448 506.473
 270.937 505.922 270.312 c 505.367 269.698 505.094 268.913 505.094 267.952
 c 505.094 267.226 505.285 266.636 505.672 266.187 c 506.055 265.741 506.484
 265.515 506.953 265.515 c 507.535 265.515 508.035 265.683 508.453 266.015
 c 508.879 266.339 509.332 266.995 509.812 267.983 c 510.922 270.265 l 511.953
 272.382 513.312 273.437 515 273.437 c 516.301 273.437 517.352 272.944 518.156
 271.952 c 518.945 270.976 519.344 269.874 519.344 268.655 c 519.344 267.78
 519.188 266.78 518.875 265.655 c 518.77 265.312 518.719 265.03 518.719 
264.812 c 518.719 264.573 518.852 264.386 519.125 264.249 c 519.125 263.733
 l 514.016 263.733 l 514.016 264.249 l 515.473 264.542 516.57 265.101 517.312
 265.921 c 518.051 266.745 518.422 267.667 518.422 268.687 c 518.422 269.405
 518.211 269.991 517.797 270.437 c 517.367 270.897 516.859 271.124 516.266
 271.124 c 515.547 271.124 514.941 270.87 514.453 270.358 c 513.961 269.858
 513.344 268.855 512.594 267.343 c 511.844 265.835 511.164 264.843 510.562
 264.374 c 509.969 263.905 509.219 263.671 508.312 263.671 c 507.133 263.671
 506.148 264.073 505.359 264.874 c 504.566 265.687 504.172 266.733 504.172
 268.015 c 504.172 268.577 504.289 269.261 504.531 270.062 c 504.688 270.593
 504.766 270.948 504.766 271.124 c 504.766 271.292 504.727 271.421 504.656
 271.515 c 504.582 271.608 504.422 271.718 504.172 271.843 c 504.172 272.358
 l f
496.688 279.187 m 496.688 279.624 496.844 279.995 497.156 280.296 c 497.457
 280.608 497.828 280.765 498.266 280.765 c 498.703 280.765 499.078 280.608
 499.391 280.296 c 499.703 279.995 499.859 279.624 499.859 279.187 c 499.859
 278.749 499.703 278.374 499.391 278.062 c 499.078 277.749 498.703 277.593
 498.266 277.593 c 497.828 277.593 497.457 277.745 497.156 278.046 c 496.844
 278.358 496.688 278.741 496.688 279.187 c 504.172 280.483 m 515.672 280.483
 l 516.566 280.483 517.164 280.546 517.469 280.671 c 517.758 280.808 517.977
 280.999 518.125 281.249 c 518.27 281.511 518.344 281.98 518.344 282.655
 c 518.906 282.655 l 518.906 275.702 l 518.344 275.702 l 518.344 276.401
 518.273 276.87 518.141 277.108 c 518.004 277.351 517.781 277.538 517.469
 277.671 c 517.156 277.819 516.555 277.89 515.672 277.89 c 510.156 277.89
 l 508.602 277.89 507.598 277.843 507.141 277.749 c 506.805 277.679 506.578
 277.562 506.453 277.405 c 506.316 277.249 506.25 277.038 506.25 276.765
 c 506.25 276.476 506.328 276.12 506.484 275.702 c 505.922 275.483 l 504.172
 279.796 l 504.172 280.483 l f
513.469 296.577 m 515.352 296.194 516.805 295.437 517.828 294.312 c 518.836
 293.187 519.344 291.944 519.344 290.577 c 519.344 288.952 518.66 287.538
 517.297 286.327 c 515.93 285.12 514.086 284.515 511.766 284.515 c 509.516
 284.515 507.688 285.183 506.281 286.515 c 504.875 287.858 504.172 289.468
 504.172 291.343 c 504.172 292.749 504.547 293.905 505.297 294.812 c 506.035
 295.718 506.805 296.171 507.609 296.171 c 508.004 296.171 508.328 296.042
 508.578 295.78 c 508.816 295.53 508.938 295.179 508.938 294.718 c 508.938
 294.105 508.738 293.64 508.344 293.327 c 508.125 293.151 507.707 293.03
 507.094 292.968 c 506.477 292.917 506.008 292.71 505.688 292.343 c 505.375
 291.98 505.219 291.476 505.219 290.827 c 505.219 289.788 505.602 288.948
 506.375 288.312 c 507.395 287.468 508.742 287.046 510.422 287.046 c 512.129
 287.046 513.641 287.464 514.953 288.296 c 516.254 289.14 516.906 290.276
 516.906 291.702 c 516.906 292.726 516.555 293.64 515.859 294.452 c 515.379
 295.026 514.508 295.585 513.25 296.124 c 513.469 296.577 l f
496.688 302.249 m 496.688 302.687 496.844 303.058 497.156 303.358 c 497.457
 303.671 497.828 303.827 498.266 303.827 c 498.703 303.827 499.078 303.671
 499.391 303.358 c 499.703 303.058 499.859 302.687 499.859 302.249 c 499.859
 301.812 499.703 301.437 499.391 301.124 c 499.078 300.812 498.703 300.655
 498.266 300.655 c 497.828 300.655 497.457 300.808 497.156 301.108 c 496.844
 301.421 496.688 301.804 496.688 302.249 c 504.172 303.546 m 515.672 303.546
 l 516.566 303.546 517.164 303.608 517.469 303.733 c 517.758 303.87 517.977
 304.062 518.125 304.312 c 518.27 304.573 518.344 305.042 518.344 305.718
 c 518.906 305.718 l 518.906 298.765 l 518.344 298.765 l 518.344 299.464
 518.273 299.933 518.141 300.171 c 518.004 300.413 517.781 300.601 517.469
 300.733 c 517.156 300.882 516.555 300.952 515.672 300.952 c 510.156 300.952
 l 508.602 300.952 507.598 300.905 507.141 300.812 c 506.805 300.741 506.578
 300.624 506.453 300.468 c 506.316 300.312 506.25 300.101 506.25 299.827
 c 506.25 299.538 506.328 299.183 506.484 298.765 c 505.922 298.546 l 504.172
 302.858 l 504.172 303.546 l f
504.172 314.483 m 504.172 316.651 504.992 318.39 506.641 319.702 c 508.047
 320.819 509.66 321.374 511.484 321.374 c 512.766 321.374 514.062 321.069
 515.375 320.452 c 516.688 319.839 517.676 318.991 518.344 317.905 c 519.008
 316.835 519.344 315.636 519.344 314.312 c 519.344 312.155 518.484 310.444
 516.766 309.171 c 515.316 308.101 513.691 307.562 511.891 307.562 c 510.578
 307.562 509.273 307.886 507.984 308.53 c 506.68 309.187 505.723 310.046
 505.109 311.108 c 504.484 312.171 504.172 313.296 504.172 314.483 c 505.188
 313.999 m 505.188 313.448 505.352 312.89 505.688 312.327 c 506.008 311.776
 506.582 311.327 507.406 310.983 c 508.227 310.64 509.285 310.468 510.578
 310.468 c 512.66 310.468 514.457 310.882 515.969 311.702 c 517.477 312.538
 518.234 313.632 518.234 314.983 c 518.234 315.995 517.816 316.827 516.984
 317.483 c 516.148 318.14 514.719 318.468 512.688 318.468 c 510.145 318.468
 508.145 317.921 506.688 316.827 c 505.688 316.089 505.188 315.147 505.188
 313.999 c 497.188 317.78 m 502.578 313.171 l 502.578 312.64 l 497.188 314.28
 l 497.188 317.78 l f
507.203 327.655 m 505.18 329.335 504.172 330.933 504.172 332.452 c 504.172
 333.233 504.367 333.905 504.766 334.468 c 505.148 335.03 505.789 335.48
 506.688 335.812 c 507.312 336.042 508.27 336.155 509.562 336.155 c 515.672
 336.155 l 516.578 336.155 517.191 336.23 517.516 336.374 c 517.773 336.491
 517.977 336.671 518.125 336.921 c 518.27 337.183 518.344 337.655 518.344
 338.343 c 518.906 338.343 l 518.906 331.265 l 518.344 331.265 l 518.344
 331.562 l 518.344 332.23 518.242 332.694 518.047 332.952 c 517.836 333.226
 517.535 333.413 517.141 333.515 c 516.984 333.558 516.492 333.577 515.672
 333.577 c 509.812 333.577 l 508.508 333.577 507.566 333.405 506.984 333.062
 c 506.391 332.73 506.094 332.163 506.094 331.358 c 506.094 330.12 506.77
 328.886 508.125 327.655 c 515.672 327.655 l 516.641 327.655 517.238 327.714
 517.469 327.827 c 517.77 327.976 517.992 328.171 518.141 328.421 c 518.273
 328.683 518.344 329.202 518.344 329.983 c 518.906 329.983 l 518.906 322.905
 l 518.344 322.905 l 518.344 323.218 l 518.344 323.948 518.16 324.437 517.797
 324.687 c 517.422 324.948 516.711 325.077 515.672 325.077 c 510.359 325.077
 l 508.641 325.077 507.594 325.038 507.219 324.952 c 506.844 324.882 506.586
 324.761 506.453 324.593 c 506.316 324.437 506.25 324.226 506.25 323.952
 c 506.25 323.663 506.328 323.312 506.484 322.905 c 505.922 322.671 l 504.172
 326.983 l 504.172 327.655 l 507.203 327.655 l f
499.797 350.233 m 497.281 355.39 l 497.281 355.905 l 515.172 355.905 l 
516.359 355.905 517.098 355.952 517.391 356.046 c 517.68 356.151 517.906
 356.358 518.062 356.671 c 518.219 356.983 518.305 357.62 518.328 358.577
 c 518.906 358.577 l 518.906 350.608 l 518.328 350.608 l 518.305 351.608
 518.223 352.257 518.078 352.546 c 517.922 352.839 517.719 353.042 517.469
 353.155 c 517.207 353.272 516.441 353.327 515.172 353.327 c 503.734 353.327
 l 502.191 353.327 501.203 353.276 500.766 353.171 c 500.43 353.101 500.188
 352.964 500.031 352.765 c 499.875 352.577 499.797 352.351 499.797 352.077
 c 499.797 351.694 499.957 351.155 500.281 350.468 c 499.797 350.233 l f
424.492 234.858 m 430.664 234.858 l 432 234.858 432.828 235.007 433.148
 235.296 c 433.609 235.694 433.836 236.292 433.836 237.093 c 433.836 237.905
 l 434.414 237.905 l 434.414 228.827 l 433.836 228.827 l 433.836 229.624
 l 433.836 230.522 433.547 231.163 432.961 231.546 c 432.641 231.757 431.875
 231.858 430.664 231.858 c 416.977 231.858 l 415.645 231.858 414.816 231.718
 414.492 231.437 c 414.035 231.03 413.805 230.429 413.805 229.624 c 413.805
 228.827 l 413.227 228.827 l 413.227 236.593 l 413.227 238.491 413.426 239.983
 413.82 241.077 c 414.207 242.171 414.863 243.093 415.789 243.843 c 416.719
 244.593 417.816 244.968 419.086 244.968 c 420.816 244.968 422.223 244.397
 423.305 243.249 c 424.391 242.116 424.93 240.507 424.93 238.421 c 424.93
 237.913 424.895 237.358 424.82 236.765 c 424.75 236.171 424.641 235.538
 424.492 234.858 c 423.602 234.858 m 423.707 235.413 423.785 235.901 423.836
 236.327 c 423.891 236.757 423.914 237.12 423.914 237.421 c 423.914 238.507
 423.5 239.437 422.664 240.218 c 421.82 241.011 420.734 241.405 419.398 
241.405 c 418.484 241.405 417.633 241.218 416.852 240.843 c 416.062 240.468
 415.473 239.937 415.086 239.249 c 414.691 238.562 414.492 237.78 414.492
 236.905 c 414.492 236.374 414.594 235.694 414.789 234.858 c 423.602 234.858
 l f
419.68 254.108 m 419.68 256.276 420.504 258.015 422.148 259.327 c 423.555
 260.444 425.172 260.999 426.992 260.999 c 428.273 260.999 429.57 260.694
 430.883 260.077 c 432.195 259.464 433.188 258.616 433.852 257.53 c 434.52
 256.46 434.852 255.261 434.852 253.937 c 434.852 251.78 433.992 250.069
 432.273 248.796 c 430.828 247.726 429.203 247.187 427.398 247.187 c 426.086
 247.187 424.785 247.511 423.492 248.155 c 422.191 248.812 421.234 249.671
 420.617 250.733 c 419.992 251.796 419.68 252.921 419.68 254.108 c 420.695
 253.624 m 420.695 253.073 420.863 252.515 421.195 251.952 c 421.52 251.401
 422.094 250.952 422.914 250.608 c 423.738 250.265 424.797 250.093 426.086
 250.093 c 428.172 250.093 429.969 250.507 431.477 251.327 c 432.988 252.163
 433.742 253.257 433.742 254.608 c 433.742 255.62 433.328 256.452 432.492
 257.108 c 431.66 257.765 430.227 258.093 428.195 258.093 c 425.656 258.093
 423.656 257.546 422.195 256.452 c 421.195 255.714 420.695 254.772 420.695
 253.624 c f
419.68 272.358 m 424.555 272.358 l 424.555 271.843 l 423.023 271.448 421.984
 270.937 421.43 270.312 c 420.879 269.698 420.602 268.913 420.602 267.952
 c 420.602 267.226 420.797 266.636 421.18 266.187 c 421.566 265.741 421.992
 265.515 422.461 265.515 c 423.047 265.515 423.547 265.683 423.961 266.015
 c 424.391 266.339 424.844 266.995 425.32 267.983 c 426.43 270.265 l 427.461
 272.382 428.82 273.437 430.508 273.437 c 431.812 273.437 432.863 272.944
 433.664 271.952 c 434.457 270.976 434.852 269.874 434.852 268.655 c 434.852
 267.78 434.695 266.78 434.383 265.655 c 434.281 265.312 434.227 265.03 
434.227 264.812 c 434.227 264.573 434.363 264.386 434.633 264.249 c 434.633
 263.733 l 429.523 263.733 l 429.523 264.249 l 430.984 264.542 432.082 265.101
 432.82 265.921 c 433.562 266.745 433.93 267.667 433.93 268.687 c 433.93
 269.405 433.723 269.991 433.305 270.437 c 432.879 270.897 432.367 271.124
 431.773 271.124 c 431.055 271.124 430.453 270.87 429.961 270.358 c 429.473
 269.858 428.852 268.855 428.102 267.343 c 427.352 265.835 426.676 264.843
 426.07 264.374 c 425.477 263.905 424.727 263.671 423.82 263.671 c 422.645
 263.671 421.66 264.073 420.867 264.874 c 420.078 265.687 419.68 266.733
 419.68 268.015 c 419.68 268.577 419.801 269.261 420.039 270.062 c 420.195
 270.593 420.273 270.948 420.273 271.124 c 420.273 271.292 420.238 271.421
 420.164 271.515 c 420.094 271.608 419.93 271.718 419.68 271.843 c 419.68
 272.358 l f
412.195 279.187 m 412.195 279.624 412.352 279.995 412.664 280.296 c 412.969
 280.608 413.336 280.765 413.773 280.765 c 414.211 280.765 414.586 280.608
 414.898 280.296 c 415.211 279.995 415.367 279.624 415.367 279.187 c 415.367
 278.749 415.211 278.374 414.898 278.062 c 414.586 277.749 414.211 277.593
 413.773 277.593 c 413.336 277.593 412.969 277.745 412.664 278.046 c 412.352
 278.358 412.195 278.741 412.195 279.187 c 419.68 280.483 m 431.18 280.483
 l 432.078 280.483 432.676 280.546 432.977 280.671 c 433.27 280.808 433.488
 280.999 433.633 281.249 c 433.781 281.511 433.852 281.98 433.852 282.655
 c 434.414 282.655 l 434.414 275.702 l 433.852 275.702 l 433.852 276.401
 433.785 276.87 433.648 277.108 c 433.516 277.351 433.289 277.538 432.977
 277.671 c 432.664 277.819 432.066 277.89 431.18 277.89 c 425.664 277.89
 l 424.113 277.89 423.109 277.843 422.648 277.749 c 422.316 277.679 422.086
 277.562 421.961 277.405 c 421.828 277.249 421.758 277.038 421.758 276.765
 c 421.758 276.476 421.836 276.12 421.992 275.702 c 421.43 275.483 l 419.68
 279.796 l 419.68 280.483 l f
428.977 296.577 m 430.863 296.194 432.316 295.437 433.336 294.312 c 434.348
 293.187 434.852 291.944 434.852 290.577 c 434.852 288.952 434.172 287.538
 432.805 286.327 c 431.441 285.12 429.598 284.515 427.273 284.515 c 425.023
 284.515 423.195 285.183 421.789 286.515 c 420.383 287.858 419.68 289.468
 419.68 291.343 c 419.68 292.749 420.055 293.905 420.805 294.812 c 421.547
 295.718 422.316 296.171 423.117 296.171 c 423.516 296.171 423.836 296.042
 424.086 295.78 c 424.328 295.53 424.445 295.179 424.445 294.718 c 424.445
 294.105 424.25 293.64 423.852 293.327 c 423.633 293.151 423.219 293.03 
422.602 292.968 c 421.988 292.917 421.52 292.71 421.195 292.343 c 420.883
 291.98 420.727 291.476 420.727 290.827 c 420.727 289.788 421.113 288.948
 421.883 288.312 c 422.906 287.468 424.254 287.046 425.93 287.046 c 427.641
 287.046 429.148 287.464 430.461 288.296 c 431.766 289.14 432.414 290.276
 432.414 291.702 c 432.414 292.726 432.066 293.64 431.367 294.452 c 430.891
 295.026 430.02 295.585 428.758 296.124 c 428.977 296.577 l f
412.195 302.249 m 412.195 302.687 412.352 303.058 412.664 303.358 c 412.969
 303.671 413.336 303.827 413.773 303.827 c 414.211 303.827 414.586 303.671
 414.898 303.358 c 415.211 303.058 415.367 302.687 415.367 302.249 c 415.367
 301.812 415.211 301.437 414.898 301.124 c 414.586 300.812 414.211 300.655
 413.773 300.655 c 413.336 300.655 412.969 300.808 412.664 301.108 c 412.352
 301.421 412.195 301.804 412.195 302.249 c 419.68 303.546 m 431.18 303.546
 l 432.078 303.546 432.676 303.608 432.977 303.733 c 433.27 303.87 433.488
 304.062 433.633 304.312 c 433.781 304.573 433.852 305.042 433.852 305.718
 c 434.414 305.718 l 434.414 298.765 l 433.852 298.765 l 433.852 299.464
 433.785 299.933 433.648 300.171 c 433.516 300.413 433.289 300.601 432.977
 300.733 c 432.664 300.882 432.066 300.952 431.18 300.952 c 425.664 300.952
 l 424.113 300.952 423.109 300.905 422.648 300.812 c 422.316 300.741 422.086
 300.624 421.961 300.468 c 421.828 300.312 421.758 300.101 421.758 299.827
 c 421.758 299.538 421.836 299.183 421.992 298.765 c 421.43 298.546 l 419.68
 302.858 l 419.68 303.546 l f
419.68 314.483 m 419.68 316.651 420.504 318.39 422.148 319.702 c 423.555
 320.819 425.172 321.374 426.992 321.374 c 428.273 321.374 429.57 321.069
 430.883 320.452 c 432.195 319.839 433.188 318.991 433.852 317.905 c 434.52
 316.835 434.852 315.636 434.852 314.312 c 434.852 312.155 433.992 310.444
 432.273 309.171 c 430.828 308.101 429.203 307.562 427.398 307.562 c 426.086
 307.562 424.785 307.886 423.492 308.53 c 422.191 309.187 421.234 310.046
 420.617 311.108 c 419.992 312.171 419.68 313.296 419.68 314.483 c 420.695
 313.999 m 420.695 313.448 420.863 312.89 421.195 312.327 c 421.52 311.776
 422.094 311.327 422.914 310.983 c 423.738 310.64 424.797 310.468 426.086
 310.468 c 428.172 310.468 429.969 310.882 431.477 311.702 c 432.988 312.538
 433.742 313.632 433.742 314.983 c 433.742 315.995 433.328 316.827 432.492
 317.483 c 431.66 318.14 430.227 318.468 428.195 318.468 c 425.656 318.468
 423.656 317.921 422.195 316.827 c 421.195 316.089 420.695 315.147 420.695
 313.999 c 412.695 317.78 m 418.086 313.171 l 418.086 312.64 l 412.695 314.28
 l 412.695 317.78 l f
422.711 327.655 m 420.691 329.335 419.68 330.933 419.68 332.452 c 419.68
 333.233 419.879 333.905 420.273 334.468 c 420.66 335.03 421.301 335.48 
422.195 335.812 c 422.82 336.042 423.781 336.155 425.07 336.155 c 431.18
 336.155 l 432.086 336.155 432.703 336.23 433.023 336.374 c 433.285 336.491
 433.488 336.671 433.633 336.921 c 433.781 337.183 433.852 337.655 433.852
 338.343 c 434.414 338.343 l 434.414 331.265 l 433.852 331.265 l 433.852
 331.562 l 433.852 332.23 433.754 332.694 433.555 332.952 c 433.348 333.226
 433.047 333.413 432.648 333.515 c 432.492 333.558 432.004 333.577 431.18
 333.577 c 425.32 333.577 l 424.02 333.577 423.078 333.405 422.492 333.062
 c 421.898 332.73 421.602 332.163 421.602 331.358 c 421.602 330.12 422.281
 328.886 423.633 327.655 c 431.18 327.655 l 432.148 327.655 432.75 327.714
 432.977 327.827 c 433.281 327.976 433.504 328.171 433.648 328.421 c 433.785
 328.683 433.852 329.202 433.852 329.983 c 434.414 329.983 l 434.414 322.905
 l 433.852 322.905 l 433.852 323.218 l 433.852 323.948 433.672 324.437 433.305
 324.687 c 432.93 324.948 432.223 325.077 431.18 325.077 c 425.867 325.077
 l 424.148 325.077 423.102 325.038 422.727 324.952 c 422.352 324.882 422.098
 324.761 421.961 324.593 c 421.828 324.437 421.758 324.226 421.758 323.952
 c 421.758 323.663 421.836 323.312 421.992 322.905 c 421.43 322.671 l 419.68
 326.983 l 419.68 327.655 l 422.711 327.655 l f
430.336 361.155 m 434.414 359.671 l 434.414 347.171 l 433.836 347.171 l
 430.484 350.851 427.742 353.437 425.617 354.937 c 423.492 356.437 421.551
 357.187 419.789 357.187 c 418.445 357.187 417.344 356.776 416.477 355.952
 c 415.613 355.132 415.18 354.147 415.18 352.999 c 415.18 351.96 415.488
 351.022 416.102 350.187 c 416.707 349.366 417.598 348.757 418.773 348.358
 c 418.773 347.78 l 416.848 348.042 415.367 348.71 414.336 349.78 c 413.305
 350.866 412.789 352.214 412.789 353.827 c 412.789 355.546 413.344 356.98
 414.445 358.124 c 415.551 359.28 416.852 359.858 418.352 359.858 c 419.426
 359.858 420.5 359.608 421.57 359.108 c 423.258 358.339 425.047 357.089 
426.93 355.358 c 429.766 352.765 431.473 351.147 432.055 350.499 c 432.055
 356.03 l 432.055 357.155 432.016 357.944 431.93 358.39 c 431.848 358.851
 431.68 359.261 431.43 359.624 c 431.172 359.991 430.805 360.308 430.336
 360.577 c 430.336 361.155 l f
17.203 300.323 m 17.203 302.741 17.496 304.819 18.082 306.558 c 18.668 
308.308 19.445 309.608 20.418 310.464 c 21.172 311.14 21.949 311.48 22.754
 311.48 c 24.062 311.48 25.234 310.651 26.273 308.995 c 27.57 306.944 28.219
 304.163 28.219 300.651 c 28.219 298.194 27.934 296.105 27.367 294.386 c
 26.797 292.667 26.066 291.417 25.18 290.636 c 24.301 289.866 23.449 289.48
 22.629 289.48 c 21.004 289.48 19.652 290.671 18.57 293.058 c 17.66 295.069
 17.203 297.491 17.203 300.323 c 19.664 299.933 m 19.664 297.015 19.953 
294.636 20.531 292.792 c 21.008 291.241 21.723 290.464 22.668 290.464 c 
23.121 290.464 23.59 290.714 24.074 291.214 c 24.559 291.726 24.93 292.573
 25.18 293.761 c 25.566 295.554 25.758 298.077 25.758 301.339 c 25.758 303.757
 25.559 305.772 25.156 307.386 c 24.852 308.585 24.465 309.433 23.988 309.933
 c 23.645 310.276 23.227 310.448 22.742 310.448 c 22.172 310.448 21.668 
310.132 21.223 309.495 c 20.621 308.632 20.207 307.272 19.992 305.417 c 
19.773 303.562 19.664 301.733 19.664 299.933 c f
30.52 284.526 m 30.52 285.214 l 31.383 285.569 32.047 286.12 32.516 286.87
 c 32.996 287.608 33.234 288.397 33.234 289.23 c 33.234 289.429 33.195 289.593
 33.121 289.73 c 33.062 289.823 33.004 289.87 32.945 289.87 c 32.852 289.87
 32.652 289.765 32.34 289.558 c 32.191 289.464 32.031 289.417 31.863 289.417
 c 31.453 289.417 31.125 289.569 30.883 289.87 c 30.641 290.171 30.52 290.589
 30.52 291.12 c 30.52 291.632 30.676 292.069 30.984 292.433 c 31.301 292.796
 31.688 292.98 32.141 292.98 c 32.691 292.98 33.184 292.679 33.609 292.073
 c 34.047 291.48 34.262 290.687 34.262 289.698 c 34.262 288.624 33.961 287.632
 33.359 286.714 c 32.766 285.788 31.816 285.058 30.52 284.526 c f
45.016 308.964 m 49.164 311.48 l 49.578 311.48 l 49.578 293.589 l 49.578
 292.401 49.617 291.663 49.691 291.37 c 49.773 291.077 49.941 290.855 50.195
 290.698 c 50.445 290.542 50.957 290.452 51.727 290.433 c 51.727 289.855
 l 45.32 289.855 l 45.32 290.433 l 46.125 290.452 46.641 290.538 46.875 
290.683 c 47.113 290.839 47.273 291.042 47.367 291.292 c 47.461 291.554 
47.504 292.319 47.504 293.589 c 47.504 305.026 l 47.504 306.569 47.465 307.558
 47.379 307.995 c 47.32 308.327 47.211 308.573 47.055 308.73 c 46.902 308.886
 46.719 308.964 46.5 308.964 c 46.191 308.964 45.758 308.804 45.207 308.48
 c 45.016 308.964 l f
56.25 284.526 m 56.25 285.214 l 57.113 285.569 57.777 286.12 58.246 286.87
 c 58.723 287.608 58.965 288.397 58.965 289.23 c 58.965 289.429 58.926 289.593
 58.852 289.73 c 58.793 289.823 58.734 289.87 58.676 289.87 c 58.582 289.87
 58.383 289.765 58.07 289.558 c 57.922 289.464 57.762 289.417 57.594 289.417
 c 57.184 289.417 56.855 289.569 56.613 289.87 c 56.371 290.171 56.25 290.589
 56.25 291.12 c 56.25 291.632 56.402 292.069 56.715 292.433 c 57.031 292.796
 57.418 292.98 57.871 292.98 c 58.422 292.98 58.914 292.679 59.34 292.073
 c 59.777 291.48 59.992 290.687 59.992 289.698 c 59.992 288.624 59.691 287.632
 59.09 286.714 c 58.492 285.788 57.547 285.058 56.25 284.526 c f
79.531 293.933 m 78.336 289.855 l 68.285 289.855 l 68.285 290.433 l 71.242
 293.788 73.324 296.526 74.527 298.651 c 75.734 300.776 76.34 302.718 76.34
 304.48 c 76.34 305.823 76.008 306.929 75.344 307.792 c 74.684 308.655 73.891
 309.089 72.973 309.089 c 72.133 309.089 71.379 308.78 70.711 308.167 c 
70.047 307.562 69.559 306.671 69.238 305.495 c 68.773 305.495 l 68.984 307.421
 69.52 308.901 70.383 309.933 c 71.254 310.964 72.34 311.48 73.637 311.48
 c 75.02 311.48 76.172 310.929 77.094 309.823 c 78.023 308.718 78.488 307.417
 78.488 305.917 c 78.488 304.843 78.285 303.772 77.883 302.698 c 77.266 
301.011 76.258 299.226 74.867 297.339 c 72.781 294.507 71.48 292.796 70.961
 292.214 c 75.41 292.214 l 76.312 292.214 76.945 292.257 77.305 292.339 
c 77.676 292.421 78.004 292.589 78.297 292.839 c 78.59 293.101 78.848 293.464
 79.066 293.933 c 79.531 293.933 l f
81.98 284.526 m 81.98 285.214 l 82.844 285.569 83.508 286.12 83.977 286.87
 c 84.453 287.608 84.691 288.397 84.691 289.23 c 84.691 289.429 84.656 289.593
 84.578 289.73 c 84.52 289.823 84.461 289.87 84.402 289.87 c 84.312 289.87
 84.109 289.765 83.801 289.558 c 83.648 289.464 83.492 289.417 83.324 289.417
 c 82.914 289.417 82.586 289.569 82.344 289.87 c 82.102 290.171 81.98 290.589
 81.98 291.12 c 81.98 291.632 82.133 292.069 82.445 292.433 c 82.762 292.796
 83.148 292.98 83.602 292.98 c 84.152 292.98 84.645 292.679 85.07 292.073
 c 85.504 291.48 85.723 290.687 85.723 289.698 c 85.723 288.624 85.422 287.632
 84.82 286.714 c 84.223 285.788 83.277 285.058 81.98 284.526 c f
94.77 307.011 m 95.254 308.437 95.867 309.538 96.602 310.308 c 97.348 311.089
 98.273 311.48 99.379 311.48 c 100.746 311.48 101.793 310.929 102.52 309.823
 c 103.074 308.999 103.348 308.12 103.348 307.183 c 103.348 305.64 102.57
 304.046 101.012 302.401 c 102.059 301.89 102.852 301.163 103.387 300.214
 c 103.922 299.265 104.191 298.151 104.191 296.87 c 104.191 295.038 103.723
 293.448 102.785 292.105 c 101.562 290.355 99.789 289.48 97.469 289.48 c
 96.324 289.48 95.539 289.655 95.121 290.011 c 94.711 290.366 94.504 290.745
 94.504 291.151 c 94.504 291.452 94.602 291.718 94.793 291.948 c 94.996 
292.179 95.234 292.292 95.512 292.292 c 95.719 292.292 95.934 292.249 96.152
 292.167 c 96.293 292.116 96.617 291.921 97.117 291.589 c 97.621 291.265
 97.969 291.073 98.16 291.011 c 98.473 290.897 98.801 290.839 99.152 290.839
 c 100.008 290.839 100.75 291.249 101.379 292.073 c 102.016 292.897 102.332
 293.87 102.332 294.995 c 102.332 295.819 102.184 296.62 101.891 297.401
 c 101.676 297.983 101.438 298.429 101.176 298.73 c 100.816 299.147 100.32
 299.522 99.695 299.855 c 99.066 300.198 98.426 300.37 97.77 300.37 c 97.371
 300.37 l 97.371 300.839 l 98.031 300.944 98.691 301.241 99.355 301.73 c
 100.023 302.218 100.512 302.808 100.812 303.495 c 101.113 304.183 101.266
 304.937 101.266 305.761 c 101.266 306.835 100.992 307.698 100.449 308.355
 c 99.91 309.022 99.242 309.355 98.438 309.355 c 97.141 309.355 96.055 308.491
 95.184 306.761 c 94.77 307.011 l f
107.711 284.526 m 107.711 285.214 l 108.57 285.569 109.238 286.12 109.707
 286.87 c 110.184 287.608 110.422 288.397 110.422 289.23 c 110.422 289.429
 110.387 289.593 110.309 289.73 c 110.25 289.823 110.191 289.87 110.133 
289.87 c 110.043 289.87 109.84 289.765 109.531 289.558 c 109.379 289.464
 109.223 289.417 109.055 289.417 c 108.645 289.417 108.316 289.569 108.074
 289.87 c 107.832 290.171 107.711 290.589 107.711 291.12 c 107.711 291.632
 107.863 292.069 108.176 292.433 c 108.492 292.796 108.879 292.98 109.328
 292.98 c 109.883 292.98 110.371 292.679 110.801 292.073 c 111.234 291.48
 111.453 290.687 111.453 289.698 c 111.453 288.624 111.152 287.632 110.547
 286.714 c 109.953 285.788 109.008 285.058 107.711 284.526 c f
131.164 297.667 m 131.164 295.448 l 128.879 295.448 l 128.879 289.855 l
 126.805 289.855 l 126.805 295.448 l 119.594 295.448 l 119.594 297.448 l
 127.496 311.48 l 128.879 311.48 l 128.879 297.667 l 131.164 297.667 l 126.805
 297.667 m 126.805 308.183 l 120.824 297.667 l 126.805 297.667 l f
133.438 284.526 m 133.438 285.214 l 134.301 285.569 134.969 286.12 135.438
 286.87 c 135.914 287.608 136.152 288.397 136.152 289.23 c 136.152 289.429
 136.113 289.593 136.039 289.73 c 135.98 289.823 135.922 289.87 135.863 
289.87 c 135.773 289.87 135.57 289.765 135.262 289.558 c 135.109 289.464
 134.949 289.417 134.785 289.417 c 134.371 289.417 134.047 289.569 133.805
 289.87 c 133.559 290.171 133.438 290.589 133.438 291.12 c 133.438 291.632
 133.594 292.069 133.902 292.433 c 134.223 292.796 134.609 292.98 135.059
 292.98 c 135.613 292.98 136.102 292.679 136.531 292.073 c 136.965 291.48
 137.184 290.687 137.184 289.698 c 137.184 288.624 136.883 287.632 136.277
 286.714 c 135.684 285.788 134.738 285.058 133.438 284.526 c f
156.09 311.042 m 155.109 308.386 l 149.984 308.386 l 148.867 305.542 l 
151.086 305.136 152.844 304.108 154.145 302.464 c 155.258 301.046 155.816
 299.382 155.816 297.464 c 155.816 296.351 155.629 295.319 155.262 294.37
 c 154.902 293.421 154.445 292.616 153.891 291.948 c 153.34 291.28 152.723
 290.745 152.047 290.339 c 151.082 289.765 150.094 289.48 149.082 289.48
 c 148.059 289.48 147.312 289.694 146.844 290.12 c 146.383 290.558 146.152
 291.038 146.152 291.558 c 146.152 291.851 146.25 292.105 146.441 292.323
 c 146.637 292.554 146.879 292.667 147.172 292.667 c 147.387 292.667 147.578
 292.624 147.734 292.542 c 147.902 292.46 148.184 292.245 148.578 291.901
 c 149.207 291.358 149.844 291.089 150.488 291.089 c 151.469 291.089 152.324
 291.546 153.062 292.464 c 153.809 293.39 154.18 294.515 154.18 295.839 
c 154.18 297.12 153.852 298.312 153.188 299.417 c 152.527 300.53 151.613
 301.39 150.449 301.995 c 149.535 302.464 148.293 302.733 146.719 302.808
 c 149.984 311.042 l 156.09 311.042 l f
159.168 284.526 m 159.168 285.214 l 160.031 285.569 160.699 286.12 161.168
 286.87 c 161.645 287.608 161.883 288.397 161.883 289.23 c 161.883 289.429
 161.844 289.593 161.77 289.73 c 161.711 289.823 161.652 289.87 161.594 
289.87 c 161.5 289.87 161.301 289.765 160.992 289.558 c 160.84 289.464 160.68
 289.417 160.512 289.417 c 160.102 289.417 159.777 289.569 159.535 289.87
 c 159.289 290.171 159.168 290.589 159.168 291.12 c 159.168 291.632 159.324
 292.069 159.633 292.433 c 159.953 292.796 160.336 292.98 160.789 292.98
 c 161.344 292.98 161.832 292.679 162.258 292.073 c 162.695 291.48 162.914
 290.687 162.914 289.698 c 162.914 288.624 162.613 287.632 162.008 286.714
 c 161.414 285.788 160.469 285.058 159.168 284.526 c f
182.184 311.48 m 182.184 310.901 l 181.078 310.765 180.176 310.491 179.473
 310.073 c 178.777 309.667 178.086 309.042 177.398 308.198 c 176.719 307.355
 176.156 306.413 175.703 305.37 c 175.258 304.339 174.887 303.108 174.586
 301.683 c 175.789 302.714 177 303.23 178.215 303.23 c 179.379 303.23 180.387
 302.647 181.242 301.48 c 182.098 300.312 182.523 298.812 182.523 296.98
 c 182.523 295.21 182.094 293.593 181.23 292.136 c 180.191 290.366 178.816
 289.48 177.109 289.48 c 175.945 289.48 174.957 289.96 174.145 290.917 c
 172.555 292.78 171.758 295.198 171.758 298.167 c 171.758 300.062 172.062
 301.866 172.676 303.573 c 173.285 305.28 174.156 306.796 175.289 308.12
 c 176.426 309.444 177.516 310.335 178.555 310.792 c 179.594 311.249 180.559
 311.48 181.457 311.48 c 182.184 311.48 l 174.371 300.542 m 174.219 299.136
 174.145 297.999 174.145 297.136 c 174.145 296.136 174.293 295.046 174.586
 293.87 c 174.887 292.702 175.328 291.776 175.918 291.089 c 176.344 290.601
 176.863 290.355 177.473 290.355 c 178.203 290.355 178.852 290.78 179.422
 291.636 c 180 292.491 180.289 293.71 180.289 295.292 c 180.289 297.073 
180.004 298.616 179.434 299.917 c 178.863 301.218 178.055 301.87 177.008
 301.87 c 176.691 301.87 176.348 301.788 175.98 301.62 c 175.617 301.452
 175.082 301.093 174.371 300.542 c f
184.898 284.526 m 184.898 285.214 l 185.762 285.569 186.426 286.12 186.895
 286.87 c 187.375 287.608 187.613 288.397 187.613 289.23 c 187.613 289.429
 187.574 289.593 187.5 289.73 c 187.441 289.823 187.383 289.87 187.324 289.87
 c 187.23 289.87 187.031 289.765 186.719 289.558 c 186.57 289.464 186.41
 289.417 186.242 289.417 c 185.832 289.417 185.508 289.569 185.262 289.87
 c 185.02 290.171 184.898 290.589 184.898 291.12 c 184.898 291.632 185.055
 292.069 185.363 292.433 c 185.684 292.796 186.066 292.98 186.52 292.98 
c 187.074 292.98 187.562 292.679 187.988 292.073 c 188.426 291.48 188.645
 290.687 188.645 289.698 c 188.645 288.624 188.34 287.632 187.738 286.714
 c 187.145 285.788 186.195 285.058 184.898 284.526 c f
198.969 311.042 m 208.105 311.042 l 208.105 310.448 l 202.426 289.417 l
 201.02 289.417 l 206.105 308.495 l 201.418 308.495 l 200.473 308.495 199.801
 308.355 199.398 308.073 c 198.695 307.593 198.129 306.855 197.699 305.855
 c 197.336 306.026 l 198.969 311.042 l f
210.629 284.526 m 210.629 285.214 l 211.492 285.569 212.156 286.12 212.625
 286.87 c 213.105 287.608 213.344 288.397 213.344 289.23 c 213.344 289.429
 213.305 289.593 213.23 289.73 c 213.172 289.823 213.113 289.87 213.055 
289.87 c 212.961 289.87 212.762 289.765 212.449 289.558 c 212.301 289.464
 212.141 289.417 211.973 289.417 c 211.562 289.417 211.234 289.569 210.992
 289.87 c 210.75 290.171 210.629 290.589 210.629 291.12 c 210.629 291.632
 210.785 292.069 211.094 292.433 c 211.41 292.796 211.797 292.98 212.25 
292.98 c 212.801 292.98 213.293 292.679 213.719 292.073 c 214.156 291.48
 214.371 290.687 214.371 289.698 c 214.371 288.624 214.07 287.632 213.469
 286.714 c 212.875 285.788 211.926 285.058 210.629 284.526 c f
227.051 300.526 m 225.699 301.901 224.828 303.007 224.438 303.839 c 224.051
 304.671 223.859 305.538 223.859 306.433 c 223.859 307.808 224.285 308.991
 225.141 309.98 c 225.992 310.98 227.129 311.48 228.543 311.48 c 229.918
 311.48 231.023 311.015 231.859 310.089 c 232.699 309.163 233.117 308.105
 233.117 306.917 c 233.117 306.124 232.891 305.319 232.438 304.495 c 231.988
 303.671 231.043 302.702 229.613 301.589 c 231.086 300.171 232.062 299.058
 232.539 298.245 c 233.176 297.183 233.496 296.062 233.496 294.886 c 233.496
 293.397 233.039 292.12 232.125 291.058 c 231.211 290.007 230.016 289.48
 228.531 289.48 c 226.914 289.48 225.656 290.108 224.75 291.37 c 224.031
 292.382 223.668 293.483 223.668 294.683 c 223.668 295.62 223.922 296.546
 224.422 297.464 c 224.934 298.39 225.809 299.413 227.051 300.526 c 229.023
 302.198 m 230.027 303.323 230.664 304.21 230.93 304.855 c 231.199 305.511
 231.332 306.249 231.332 307.073 c 231.332 308.167 231.086 309.022 230.594
 309.636 c 230.098 310.261 229.422 310.573 228.57 310.573 c 227.715 310.573
 227.02 310.265 226.484 309.651 c 225.949 309.038 225.68 308.319 225.68 
307.495 c 225.68 306.952 225.789 306.413 226.008 305.87 c 226.234 305.327
 226.551 304.812 226.961 304.323 c 229.023 302.198 l 227.641 299.933 m 226.945
 299.202 226.43 298.405 226.094 297.542 c 225.758 296.687 225.594 295.761
 225.594 294.761 c 225.594 293.417 225.887 292.339 226.473 291.526 c 227.066
 290.726 227.82 290.323 228.734 290.323 c 229.637 290.323 230.363 290.64
 230.906 291.276 c 231.449 291.913 231.723 292.683 231.723 293.589 c 231.723
 294.339 231.562 295.011 231.246 295.605 c 230.652 296.71 229.449 298.151
 227.641 299.933 c f
236.359 284.526 m 236.359 285.214 l 237.223 285.569 237.887 286.12 238.355
 286.87 c 238.832 287.608 239.074 288.397 239.074 289.23 c 239.074 289.429
 239.035 289.593 238.961 289.73 c 238.902 289.823 238.844 289.87 238.785
 289.87 c 238.691 289.87 238.492 289.765 238.18 289.558 c 238.031 289.464
 237.871 289.417 237.703 289.417 c 237.293 289.417 236.965 289.569 236.723
 289.87 c 236.48 290.171 236.359 290.589 236.359 291.12 c 236.359 291.632
 236.512 292.069 236.824 292.433 c 237.141 292.796 237.527 292.98 237.98
 292.98 c 238.531 292.98 239.023 292.679 239.449 292.073 c 239.887 291.48
 240.102 290.687 240.102 289.698 c 240.102 288.624 239.801 287.632 239.199
 286.714 c 238.602 285.788 237.656 285.058 236.359 284.526 c f
249.199 289.417 m 249.199 289.995 l 250.289 290.015 251.301 290.327 252.238
 290.933 c 253.176 291.546 254.082 292.616 254.953 294.136 c 255.832 295.655
 256.445 297.327 256.785 299.151 c 255.473 298.101 254.281 297.573 253.219
 297.573 c 252.02 297.573 250.996 298.147 250.141 299.292 c 249.285 300.448
 248.859 301.98 248.859 303.886 c 248.859 305.741 249.285 307.39 250.141
 308.839 c 251.172 310.601 252.516 311.48 254.172 311.48 c 255.574 311.48
 256.77 310.761 257.766 309.323 c 258.988 307.542 259.602 305.343 259.602
 302.73 c 259.602 300.374 259.137 298.179 258.207 296.136 c 257.277 294.105
 255.984 292.417 254.324 291.073 c 252.977 289.968 251.508 289.417 249.914
 289.417 c 249.199 289.417 l 256.988 300.308 m 257.137 301.663 257.215 302.745
 257.215 303.558 c 257.215 304.569 257.074 305.655 256.801 306.823 c 256.523
 307.999 256.129 308.901 255.617 309.526 c 255.117 310.151 254.543 310.464
 253.898 310.464 c 253.152 310.464 252.5 310.046 251.938 309.214 c 251.375
 308.382 251.094 307.14 251.094 305.495 c 251.094 303.296 251.469 301.577
 252.215 300.339 c 252.758 299.444 253.43 298.995 254.223 298.995 c 254.609
 298.995 255.066 299.108 255.594 299.339 c 256.121 299.569 256.586 299.89
 256.988 300.308 c f
458.82 119.933 m 450.953 101.593 l 384.68 101.593 l 384.68 104.19 l 404.176
 119.276 417.898 131.593 425.852 141.151 c 433.805 150.706 437.781 159.44
 437.781 167.358 c 437.781 173.401 435.598 178.366 431.234 182.253 c 426.875
 186.14 421.656 188.085 415.578 188.085 c 410.059 188.085 405.086 186.702
 400.668 183.94 c 396.305 181.222 393.074 177.218 390.977 171.925 c 387.91
 171.925 l 389.293 180.589 392.828 187.241 398.516 191.878 c 404.258 196.515
 411.41 198.835 419.969 198.835 c 429.082 198.835 436.676 196.351 442.75
 191.386 c 448.883 186.421 451.945 180.565 451.945 173.819 c 451.945 168.995
 450.621 164.171 447.969 159.347 c 443.883 151.761 437.258 143.726 428.09
 135.249 c 414.336 122.507 405.75 114.823 402.324 112.202 c 431.652 112.202
 l 437.613 112.202 441.785 112.39 444.16 112.765 c 446.59 113.14 448.77 
113.89 450.703 115.011 c 452.637 116.183 454.32 117.823 455.758 119.933 
c 458.82 119.933 l f
474.477 178.741 m 477.68 185.155 481.711 190.097 486.574 193.565 c 491.488
 197.077 497.59 198.835 504.879 198.835 c 513.883 198.835 520.785 196.351
 525.59 191.386 c 529.234 187.687 531.059 183.73 531.059 179.511 c 531.059
 172.581 525.922 165.413 515.648 158.011 c 522.551 155.718 527.77 152.437
 531.305 148.175 c 534.84 143.913 536.605 138.901 536.605 133.14 c 536.605
 124.897 533.516 117.753 527.328 111.71 c 519.266 103.843 507.586 99.905
 492.289 99.905 c 484.723 99.905 479.559 100.702 476.797 102.296 c 474.09
 103.886 472.738 105.597 472.738 107.425 c 472.738 108.784 473.375 109.976
 474.645 111.007 c 475.969 112.038 477.543 112.554 479.367 112.554 c 480.746
 112.554 482.156 112.366 483.59 111.991 c 484.527 111.757 486.656 110.89
 489.969 109.39 c 493.281 107.94 495.574 107.073 496.844 106.792 c 498.887
 106.276 501.07 106.019 503.391 106.019 c 509.023 106.019 513.91 107.87 
518.051 111.569 c 522.25 115.269 524.348 119.651 524.348 124.71 c 524.348
 128.409 523.379 132.015 521.449 135.53 c 520.012 138.151 518.438 140.144
 516.727 141.499 c 514.352 143.374 511.094 145.062 506.949 146.562 c 502.809
 148.105 498.586 148.878 494.277 148.878 c 491.625 148.878 l 491.625 150.987
 l 495.988 151.456 500.352 152.788 504.715 154.991 c 509.133 157.194 512.336
 159.839 514.324 162.933 c 516.312 166.022 517.305 169.417 517.305 173.12
 c 517.305 177.944 515.512 181.831 511.922 184.78 c 508.387 187.78 503.969
 189.28 498.668 189.28 c 490.105 189.28 482.957 185.39 477.211 177.616 c
 474.477 178.741 l f
626.734 198.835 m 626.734 196.233 l 619.445 195.624 613.48 194.386 608.844
 192.511 c 604.258 190.683 599.703 187.874 595.176 184.081 c 590.699 180.284
 586.973 176.046 583.992 171.362 c 581.062 166.726 578.605 161.198 576.617
 154.78 c 584.57 159.417 592.551 161.737 600.559 161.737 c 608.234 161.737
 614.891 159.112 620.523 153.866 c 626.156 148.62 628.973 141.874 628.973
 133.632 c 628.973 125.667 626.129 118.409 620.441 111.851 c 613.59 103.886
 604.535 99.905 593.27 99.905 c 585.594 99.905 579.074 102.062 573.719 106.37
 c 563.227 114.753 557.98 125.62 557.98 138.972 c 557.98 147.495 559.996
 155.601 564.027 163.28 c 568.059 170.964 573.801 177.78 581.258 183.73 
c 588.77 189.679 595.945 193.683 602.797 195.741 c 609.645 197.804 616.023
 198.835 621.93 198.835 c 626.734 198.835 l 575.211 149.651 m 574.215 143.327
 573.719 138.222 573.719 134.335 c 573.719 129.839 574.684 124.944 576.617
 119.651 c 578.605 114.405 581.535 110.233 585.398 107.144 c 588.215 104.94
 591.641 103.843 595.672 103.843 c 600.477 103.843 604.754 105.761 608.512
 109.601 c 612.32 113.444 614.227 118.925 614.227 126.042 c 614.227 134.054
 612.348 140.987 608.594 146.843 c 604.84 152.694 599.508 155.624 592.605
 155.624 c 590.508 155.624 588.242 155.249 585.812 154.499 c 583.438 153.749
 579.902 152.136 575.211 149.651 c f
645.906 128.683 m 646.242 129.71 l 658.27 129.71 l 663.363 129.71 667.133
 129.128 669.578 127.96 c 672.039 126.792 674.004 124.952 675.469 122.433
 c 676.93 119.933 677.66 117.245 677.66 114.374 c 677.66 111.913 677.234
 109.515 676.383 107.179 c 675.551 104.866 674.598 103.003 673.523 101.597
 c 672.465 100.206 670.836 98.671 668.633 96.983 c 666.43 95.3 664.039 94.05
 661.465 93.233 c 658.891 92.437 655.676 92.038 651.824 92.038 c 635.879
 92.038 l 636.238 93.065 l 637.703 93.105 638.684 93.233 639.184 93.456 
c 639.926 93.772 640.473 94.198 640.824 94.733 c 641.359 95.511 641.961 
97.077 642.629 99.429 c 649.297 122.21 l 649.816 124.007 650.074 125.413
 650.074 126.433 c 650.074 127.155 649.832 127.71 649.352 128.101 c 648.871
 128.487 647.926 128.683 646.52 128.683 c 645.906 128.683 l 655.77 127.628
 m 647.602 99.429 l 646.992 97.319 646.684 96.011 646.684 95.511 c 646.684
 95.214 646.777 94.929 646.965 94.651 c 647.168 94.374 647.434 94.187 647.77
 94.097 c 648.25 93.929 649.027 93.843 650.102 93.843 c 653.012 93.843 655.703
 94.14 658.188 94.733 c 660.688 95.347 662.734 96.245 664.328 97.429 c 666.586
 99.151 668.391 101.522 669.742 104.542 c 671.098 107.562 671.773 110.995
 671.773 114.847 c 671.773 119.198 670.734 122.433 668.66 124.542 c 666.586
 126.675 663.559 127.737 659.574 127.737 c 658.594 127.737 657.324 127.702
 655.77 127.628 c f
Q Q
showpage
%%Trailer
end restore
%%EOF
